79 395
11 70
7 56
12 25
47 60
84 64
94 44
59 39
36 26
8 49
55 33
10 58
49 60
5 51
92 60
40 58
82 59
36 61
98 30
39 38
23 69
99 38
90 54
47 46
62 33
93 61
35 67
24 63
3 56
3 27
35 57
91 43
58 40
54 50
11 56
51 41
83 36
93 51
15 68
80 71
7 61
92 27
48 64
11 29
53 33
23 57
64 45
70 63
5 31
61 62
10 52
44 62
91 30
12 72
64 53
8 67
75 30
17 29
65 38
48 70
81 44
53 60
67 70
38 43
38 54
19 67
9 25
91 56
68 39
18 31
45 63
82 25
70 55
79 44
15 57
26 42
76 34
92 45
81 47
9 26
