100 500
89 36
96 33
39 85
96 82
47 75
73 87
13 43
50 76
22 73
87 85
61 87
10 90
19 59
64 86
0 37
1 53
5 75
75 72
53 80
78 58
61 75
53 39
40 91
57 45
35 54
68 90
21 41
8 91
16 45
12 67
52 51
25 80
0 55
45 51
15 36
10 34
69 63
86 69
7 47
88 65
58 57
61 53
70 58
89 39
31 80
39 69
40 86
31 68
18 36
16 49
39 44
64 77
21 70
41 46
8 78
94 83
88 71
8 48
82 70
32 36
75 74
64 87
58 43
45 82
20 40
30 35
44 31
45 76
13 78
45 52
71 36
35 71
86 70
4 47
97 82
80 51
7 75
56 60
36 50
44 37
50 79
57 53
86 87
99 48
33 80
99 34
40 36
98 75
22 59
67 33
7 92
33 32
95 77
83 34
85 90
31 31
23 69
31 55
5 75
39 32
