61 305
51 56
24 55
66 25
62 44
83 53
39 20
24 38
67 35
94 30
22 31
50 47
17 55
40 35
75 53
90 39
30 37
2 23
1 30
26 53
48 27
69 51
1 35
40 42
31 21
52 49
79 24
14 49
87 38
74 41
15 54
77 53
14 21
87 46
76 55
3 30
72 45
96 53
69 40
67 29
96 35
35 23
79 56
34 46
79 19
95 31
67 53
28 53
19 28
47 51
92 29
84 27
61 45
56 24
12 24
36 41
9 52
51 20
77 54
47 38
37 51
20 33
