53 265
88 24
98 49
94 17
31 38
66 40
32 33
78 33
19 19
69 30
57 38
20 42
64 39
22 32
51 29
95 30
93 30
24 38
62 21
50 39
65 35
30 22
37 23
4 42
39 44
46 25
77 32
0 33
58 39
34 47
74 40
75 43
66 33
88 38
65 49
53 41
63 24
4 25
15 24
60 35
99 47
58 42
46 25
98 33
47 48
49 40
71 28
14 22
10 44
61 35
21 42
8 29
15 27
51 42
