52 260
75 33
47 23
29 43
48 30
51 21
15 32
97 42
56 44
59 33
73 21
64 33
30 40
89 39
86 31
38 39
71 43
44 21
41 23
18 34
58 42
39 44
46 22
96 32
52 31
89 30
71 24
82 34
31 37
83 43
77 45
42 28
56 37
7 36
37 45
40 46
90 44
47 43
11 22
64 35
71 41
23 35
40 18
63 39
28 31
83 44
59 33
77 29
8 41
75 47
10 19
88 25
49 31
