74 370
73 48
76 51
47 26
76 47
48 43
73 43
90 32
60 59
52 37
83 54
42 31
54 58
73 35
32 54
58 62
37 34
96 47
54 59
66 40
94 47
81 60
90 57
98 37
96 37
31 63
74 59
30 32
18 27
20 35
8 54
3 67
95 29
89 59
5 58
38 64
39 45
64 68
89 61
9 54
57 56
70 62
66 47
26 43
44 60
83 42
43 45
8 54
37 40
6 52
0 55
44 50
54 54
86 32
22 67
44 23
51 63
1 43
19 51
26 37
58 67
50 54
76 23
98 69
46 36
34 56
65 58
12 36
34 32
15 43
17 30
76 44
99 43
66 48
91 51
