96 480
97 64
22 46
20 55
38 89
49 53
84 61
17 30
41 75
78 37
48 52
9 89
12 78
2 46
32 56
59 60
52 35
95 45
35 45
48 79
92 79
70 39
62 78
42 61
95 84
85 39
96 68
44 48
90 44
46 47
5 73
39 57
64 32
81 86
76 32
94 66
51 79
33 33
33 60
82 59
76 66
42 84
95 79
90 33
55 36
27 48
99 43
1 49
77 81
27 57
93 56
35 71
39 54
42 85
20 71
80 62
59 43
79 52
91 38
51 55
10 36
47 52
22 85
36 37
37 39
93 43
69 33
68 66
6 66
84 34
76 89
10 59
15 67
18 32
22 47
73 38
22 38
55 45
94 66
58 31
94 82
1 66
57 48
71 50
24 35
23 48
52 58
93 80
94 37
13 40
98 69
64 82
32 33
16 37
70 55
30 52
7 31
