35 175
47 20
91 26
36 22
24 23
1 22
20 25
20 24
60 21
46 24
10 30
75 13
12 16
96 18
22 19
70 17
23 22
51 28
13 28
7 19
87 16
42 20
78 23
59 11
23 29
21 18
32 18
50 26
12 12
90 13
96 16
17 13
90 27
33 32
33 16
21 14
