62 310
10 164
8 106
25 153
81 270
44 118
35 222
34 266
75 272
43 166
2 286
35 211
13 283
19 128
56 136
30 105
36 207
76 129
76 265
35 259
28 197
65 133
27 276
83 176
47 239
79 98
77 224
10 110
97 139
92 192
57 222
39 195
17 165
88 247
40 221
8 206
37 270
87 137
86 187
50 213
5 234
1 261
56 253
6 233
78 248
59 189
30 228
69 163
25 226
56 166
51 119
71 288
16 129
42 212
23 246
9 171
91 156
64 100
5 240
77 100
64 110
89 199
84 252
