46 230
33 79
73 200
90 142
39 162
76 153
63 116
5 125
11 186
38 210
20 188
96 191
6 72
27 99
29 168
63 201
94 88
7 93
82 93
71 82
98 115
54 74
2 92
99 150
85 208
0 171
85 154
96 179
38 109
0 124
95 110
89 133
53 163
11 148
97 135
18 202
41 97
48 196
23 81
3 176
52 204
73 132
81 139
15 157
21 86
50 82
62 120
