37 185
15 68
72 120
72 146
52 104
80 162
69 71
13 115
73 111
40 107
58 68
38 79
94 160
56 154
2 109
76 141
56 134
83 63
31 58
91 71
87 69
59 99
60 167
97 79
70 164
33 129
85 161
31 169
57 74
16 169
45 148
89 165
83 81
61 90
19 136
1 143
89 159
33 141
