54 270
65 213
49 146
82 118
7 227
50 148
33 156
52 157
8 196
24 105
74 149
45 213
96 251
25 107
49 241
20 201
23 138
67 169
20 187
96 100
51 206
65 98
21 144
70 172
58 192
74 187
86 85
4 98
48 185
49 127
66 242
42 183
64 184
42 246
43 240
27 167
29 227
3 247
11 106
44 133
98 168
6 107
21 125
10 217
20 163
71 92
98 199
63 219
52 129
38 125
95 144
95 205
65 192
36 125
54 231
