80 400
81 312
90 290
78 306
39 310
30 231
5 320
11 180
96 203
41 341
42 130
4 355
46 171
29 289
6 204
9 300
71 244
30 330
76 310
27 304
1 368
32 335
82 359
71 259
87 242
28 235
24 228
9 268
82 138
9 231
60 288
60 369
11 370
84 189
53 142
35 311
80 134
63 140
26 211
66 364
51 323
36 271
93 218
50 303
95 301
58 173
8 172
0 339
88 288
44 251
56 269
86 327
50 216
87 294
40 136
72 235
83 226
13 295
17 126
42 184
35 374
31 147
55 340
24 186
98 336
23 231
7 153
98 352
63 177
45 373
92 165
22 292
50 358
30 227
96 133
84 347
31 166
20 334
82 171
21 357
11 272
