1500 7000
1473 602
3607 90
5234 614
2813 515
51 420
5317 847
4401 489
2848 611
296 412
3781 198
1585 691
6375 849
4636 657
6318 269
3165 152
1027 362
6455 391
2094 81
3131 721
5568 672
1329 809
473 0
5408 230
210 604
2590 188
2611 856
6218 242
4038 538
5426 563
1497 563
2174 683
1744 802
4794 585
3131 99
494 342
6393 679
1189 630
259 40
317 197
3704 168
668 230
2285 828
3223 104
1831 616
6786 869
1094 94
2066 332
6109 217
6094 821
4805 203
340 838
2577 761
3491 625
3688 56
5543 71
5442 597
1496 119
1598 752
1592 47
4608 506
1261 509
6731 409
6929 359
5182 678
4382 104
6533 550
5911 423
660 472
801 663
2982 467
2372 65
1447 815
4998 813
6593 539
934 232
247 140
5865 770
1326 238
188 358
2509 599
5860 577
1548 516
370 486
3246 198
68 553
6489 31
2102 867
844 713
5099 851
4533 465
1430 596
450 263
5943 732
103 649
5152 689
5339 236
4378 406
6701 466
6762 565
1055 19
5950 427
1964 664
6820 859
4634 504
1996 668
4499 163
6962 52
3701 16
3210 342
2929 450
6599 560
1857 30
2709 135
2267 535
4660 816
2395 477
1529 264
3347 416
4552 464
5718 453
1158 48
3646 381
2380 12
4249 421
4419 65
4285 578
47 147
5421 777
4617 461
5752 298
6407 791
4100 387
2531 474
1689 789
2383 386
4275 31
1606 746
6552 433
851 656
2825 440
688 396
2876 135
3036 545
6333 34
5017 706
5028 491
3552 744
3804 433
3056 808
5827 734
2502 627
3353 704
2916 730
1302 13
6050 801
5630 422
2565 462
3131 230
4028 213
5556 140
81 872
5449 67
4192 737
3087 711
2904 874
6356 270
1649 413
5270 729
1755 300
3912 218
356 819
127 305
4293 527
1856 395
5500 220
3399 405
393 625
604 107
526 475
3767 609
3162 206
5399 344
4607 768
6849 866
4276 776
5443 428
1898 568
6755 783
6013 468
6304 352
5815 197
2018 123
1689 480
4064 135
144 505
1121 602
2199 129
2376 297
3679 702
1673 598
4825 155
1498 846
6128 500
1156 765
4010 626
5995 547
6190 687
1516 854
4629 561
3431 605
6439 59
6844 846
436 99
251 600
2896 757
2830 291
2522 3
1847 291
304 195
5405 707
4055 25
3879 46
4938 621
2106 79
3359 788
4794 153
3726 333
5530 230
4509 28
4353 830
824 638
4439 303
4436 373
6980 531
2589 434
3974 472
5564 635
2639 506
73 528
6416 427
6104 62
1144 557
1115 185
4533 416
4984 741
2617 431
3895 30
1033 749
272 650
5733 10
2064 574
5691 334
2320 97
408 297
5876 384
4353 596
2955 694
3985 803
747 420
2812 733
1361 822
2072 121
6255 605
2495 217
6422 761
6203 647
2144 446
5867 217
2674 548
3631 745
3962 626
6773 424
4355 108
1599 230
5035 820
2267 694
1933 194
1682 678
1048 369
5001 710
1033 116
5186 187
1446 87
5642 13
6746 163
3337 862
2328 599
3924 215
2706 344
263 647
5141 299
1745 10
3577 720
1011 243
2818 810
2134 264
4777 555
3036 523
3810 870
2452 289
3304 541
3289 183
2739 170
3808 565
2343 551
5238 189
2619 15
1882 734
6356 78
4234 202
5895 138
5534 30
453 872
1513 164
960 787
2954 814
1091 355
3097 296
3751 477
3879 601
5200 529
5892 215
139 713
1653 181
6325 644
6638 67
737 804
3404 836
4053 768
5400 101
1463 608
5083 258
5573 201
4676 671
3957 510
2297 700
4042 834
6372 236
1027 840
3902 548
2718 849
3468 457
3584 706
2924 95
2102 412
127 636
3253 193
3287 620
4425 298
1775 673
826 130
2752 338
2621 626
1879 543
1469 546
4993 803
4596 752
4464 466
955 412
2007 467
5610 726
5323 609
4398 210
1579 644
5906 724
6783 192
2179 763
5237 53
4659 632
4562 464
2811 658
640 437
5089 503
4777 412
4587 483
4800 532
1285 248
532 571
2320 211
3890 399
3807 743
3275 92
6629 334
711 481
2477 468
2105 563
5225 73
5509 186
459 560
5315 454
2439 665
2986 510
4501 437
2215 386
1675 84
3050 39
4058 254
2599 758
5528 366
5064 401
6209 473
6777 73
6899 592
4342 602
6299 532
5314 715
4908 208
1261 377
931 20
6423 773
5345 80
383 457
2338 499
1183 178
1250 651
2966 236
3938 665
3485 466
2497 301
3085 74
5865 33
2917 130
528 727
6766 400
5136 282
6518 148
3365 819
6327 405
1911 195
6750 824
118 205
6835 285
3251 740
2742 86
3684 111
150 687
3055 570
1464 98
3687 676
6050 189
596 755
5856 119
5087 116
5250 267
3389 110
3483 755
4576 819
5432 60
3559 165
1943 164
1922 615
5569 183
6661 316
71 586
4399 108
790 543
946 551
6011 196
2566 176
1556 141
837 812
2407 131
6685 276
2464 255
5911 504
1506 189
5637 657
4051 731
6549 798
261 648
3507 712
6812 494
4462 360
2697 757
300 102
1335 505
1113 365
3705 178
1118 109
6750 0
5489 456
4953 728
5302 599
266 29
5431 824
2333 772
6953 317
6443 369
5742 620
4746 234
1337 394
2690 655
3151 668
637 56
4484 12
5276 832
3452 818
4993 706
915 231
6397 795
2648 288
5228 677
2178 256
2044 844
2849 168
1931 624
6286 282
1070 420
2689 324
5428 867
1370 150
6185 303
4902 229
492 710
1918 587
5850 318
3118 80
1986 214
2110 25
4778 143
3976 841
50 65
241 677
6192 281
3445 289
4031 441
106 165
3871 300
3493 350
1205 178
3476 110
323 624
1585 585
5512 630
5967 272
5148 763
5662 126
3279 639
6045 293
785 1
4696 232
1286 642
6644 374
2812 542
1248 718
3066 702
5429 191
5037 74
3070 48
3084 359
3541 122
2186 78
1270 584
6570 53
793 705
5094 405
1893 174
2989 373
5922 197
3677 864
5616 352
2259 208
4189 512
4399 381
3392 263
1924 487
2407 119
6971 207
2838 14
6271 72
5444 101
5275 255
2331 433
6568 344
5794 180
3934 239
6106 276
2413 557
4906 673
531 58
6629 597
5654 325
4346 666
6008 116
5857 111
571 26
2786 375
2704 191
5355 482
2384 435
5192 427
389 452
5258 332
4729 582
6970 16
2038 172
2209 168
5637 526
2976 283
1660 578
5196 818
422 108
1922 215
5294 415
6670 744
227 208
4766 660
5588 476
4620 257
6345 584
724 407
6754 592
3867 469
1267 765
4403 660
6302 653
1405 227
1308 148
1607 252
4933 453
5986 710
3727 649
3437 391
5266 644
3094 858
1518 288
5103 134
5516 749
3827 648
3537 841
5672 177
4881 825
3720 460
3690 722
2769 536
722 114
2036 169
2185 486
2153 277
949 559
952 846
1240 362
285 63
1536 850
5519 601
1642 409
319 845
3651 738
4991 305
3206 272
797 83
1191 28
1705 465
6018 485
3329 515
6246 451
538 788
4855 805
2243 535
1510 619
2153 870
310 438
5453 20
6779 716
2909 493
1884 151
4238 619
5511 73
5419 297
4261 606
6734 771
6662 507
6493 478
4764 228
3117 827
4290 815
1054 818
6066 72
1637 412
893 723
4542 340
1506 535
4406 666
1049 611
3439 162
3035 169
4687 516
127 386
6624 253
1546 488
2845 402
3459 441
2315 570
338 543
6164 308
5508 608
1622 348
695 717
2966 157
4422 331
1753 874
5912 156
3163 449
3902 365
6629 618
1817 138
5630 768
4972 671
6294 544
2107 607
5449 376
6396 835
2057 451
4478 569
3719 106
3019 692
5373 598
2608 416
2501 326
5245 190
4821 800
5978 76
158 416
6815 638
5459 679
6579 36
5331 736
6816 505
3653 8
2415 239
47 418
4408 273
4202 7
4049 553
4262 435
2809 318
2680 159
1481 189
6733 187
2648 319
366 710
428 859
121 825
499 210
5588 724
2032 671
5618 284
5090 317
5465 421
826 620
979 294
1433 468
5538 772
2126 579
2176 477
2865 82
2652 508
548 468
1578 827
4648 462
1234 760
812 352
5401 413
1398 365
4893 868
5487 369
5578 852
4019 381
337 871
6988 81
4397 108
1110 225
4950 721
6740 732
277 815
5785 386
2133 803
6145 415
3289 608
1382 29
1356 159
613 208
3746 110
6061 663
4963 473
2136 531
2607 621
3966 96
5158 627
6637 377
195 85
4395 302
3556 193
3167 721
6449 215
2162 42
1555 793
2848 406
6230 41
2294 854
3723 54
815 872
6905 123
663 725
6564 56
5612 578
302 632
5792 483
6791 37
4871 3
2923 418
2091 454
1593 185
4824 434
3478 444
5608 445
2461 64
5989 734
5317 743
4535 118
5245 592
6375 17
1619 405
3856 58
2128 685
2416 384
6247 355
5630 65
547 667
1187 294
5390 310
1110 363
1236 569
6928 682
6266 420
6475 288
1682 524
2529 731
2885 21
4020 75
3403 614
1547 363
6436 217
5397 4
5471 504
6056 461
6456 205
609 582
2006 730
3871 563
3116 459
3581 366
572 220
3002 176
66 69
3659 657
2291 637
6422 147
5421 197
1271 639
866 866
5912 126
3112 317
2342 194
3921 198
5318 741
1602 498
6845 251
1062 423
3644 273
2635 747
2163 327
1029 95
929 758
1522 350
2290 7
3441 511
2017 507
5238 484
6870 150
5876 782
4076 726
3534 612
3348 51
3049 802
6849 432
871 610
1424 715
2044 57
1302 558
2369 224
730 332
6373 498
745 861
1983 58
1783 262
680 100
3484 645
167 173
2636 579
3648 149
2030 872
3517 736
1033 342
3711 37
4747 625
3481 433
2089 739
5970 544
5391 623
6730 29
1158 455
1709 801
4568 397
4387 61
6656 636
5088 146
2820 624
3005 57
3059 504
2366 679
4114 274
955 246
394 434
1110 323
4773 715
4131 218
6392 745
3904 134
4516 714
3636 743
3458 233
3232 568
2980 47
3663 400
5533 368
983 114
4928 811
6159 317
6656 634
4384 276
3884 292
3091 670
1448 13
2520 539
6235 188
6833 544
5760 357
964 166
4033 163
4560 430
6476 108
6696 241
3858 479
592 668
4724 788
922 218
5975 179
6559 205
1944 73
6523 677
1743 707
5616 233
4990 36
3845 163
1549 409
117 262
2720 763
4439 346
377 17
250 593
5587 302
2118 798
6383 724
643 743
1221 650
6258 341
1945 873
6492 423
1753 745
1161 107
4211 537
884 206
4632 824
1131 826
1948 831
3961 475
2479 753
3011 786
3551 749
121 817
3455 315
1745 220
6278 712
6599 778
4127 406
5868 117
5439 272
966 792
4222 856
4046 182
726 511
5878 715
3388 499
603 834
4503 572
561 548
1604 61
1544 550
86 32
4477 268
4525 370
5516 561
4698 459
1655 836
6610 865
5707 698
6141 122
6833 835
2366 747
6140 103
5912 45
470 232
777 746
889 388
442 546
5957 417
4106 100
5702 87
605 497
3121 805
4820 316
5077 223
2648 721
6203 870
3835 823
5240 648
3916 593
5085 69
2658 270
1596 814
3748 722
928 317
6877 724
2303 414
2681 448
3912 328
5038 825
3454 377
4208 788
6445 826
6733 297
5827 366
5453 379
4600 553
145 236
5902 832
3824 788
3899 334
6953 344
2442 570
3810 402
1683 209
5031 314
2367 58
3889 870
3972 391
2903 811
4589 758
3300 662
1147 570
3853 815
5580 199
362 330
4244 607
454 306
2920 734
6569 755
607 237
6553 780
3102 521
6086 785
1432 537
3861 596
2369 788
1475 208
4590 803
6463 540
3181 821
977 640
6804 522
5268 536
5297 160
4375 547
6773 874
1536 315
6361 17
5305 87
2126 453
1418 771
2316 766
2062 750
933 290
5835 92
4990 548
6190 36
1699 155
4375 175
5467 855
6756 659
3005 247
3313 851
569 586
1290 866
4746 513
5370 702
6389 421
5234 75
3942 705
6164 441
3434 46
6214 287
4634 73
4244 838
4250 84
3045 815
3820 294
6365 789
2544 733
5286 705
4331 391
4244 154
4521 771
3914 405
6058 417
804 365
5909 354
4017 54
6955 747
6224 24
5995 676
1258 264
3946 843
6265 752
202 617
5589 803
659 709
218 829
3984 298
5061 39
211 852
4194 259
352 11
845 773
4948 812
2817 224
6144 586
2931 498
5327 642
6392 691
120 110
87 422
393 3
3475 218
3114 306
3229 257
6279 165
3891 85
2762 285
1178 182
6052 467
5455 683
1614 720
1465 499
1354 204
6806 244
5273 812
1274 283
548 127
2328 712
356 654
6157 604
2977 746
6646 3
6134 208
1630 606
6129 563
6291 673
1156 228
6165 771
6910 474
6265 863
1473 806
6427 173
5802 668
359 778
970 663
2409 345
951 72
5797 649
6800 858
6168 299
4796 354
294 813
6658 450
4105 753
6386 290
5309 874
6620 103
6587 235
4602 88
2307 448
3686 709
854 629
4663 73
5706 275
4937 619
3310 221
4089 134
1476 692
3210 747
4357 370
6624 96
2893 516
5435 471
5168 305
4134 510
524 333
6531 260
4794 596
748 574
3138 197
4437 124
4716 463
1639 222
5168 600
6813 813
66 298
2282 663
2767 429
5751 427
368 671
1979 780
6802 608
5032 237
2807 332
954 276
4113 161
4751 685
3838 683
2590 686
5698 849
5263 613
3627 194
2123 260
5852 445
1884 108
1051 146
6530 400
2135 730
4862 576
1673 537
1127 666
151 474
3653 6
1767 309
6547 34
4754 715
4626 705
6463 670
2696 228
3481 541
2867 76
323 501
2373 598
1821 597
5856 188
4480 778
3306 818
5945 316
5263 748
5058 155
2090 378
299 155
6690 425
4841 736
591 846
6164 591
6269 502
2816 427
1651 639
6588 679
5400 640
3388 494
3097 278
3702 12
2816 751
5724 439
3586 30
2296 78
6254 503
4152 26
4211 707
6928 224
2669 861
2604 706
6506 740
5536 236
349 689
6743 179
3558 463
1661 864
5569 668
430 240
791 852
6949 549
5455 345
1392 177
2497 764
1591 78
661 141
1830 368
1218 3
3105 52
478 37
4881 581
172 224
2539 347
4521 780
5928 125
3890 714
5145 378
4623 577
3194 184
4383 799
1139 337
1498 234
2526 544
1344 373
4419 61
6607 378
188 167
6243 697
4333 722
4053 129
1963 371
2917 740
195 3
3513 861
5725 176
4751 666
3158 453
5231 861
4854 503
391 108
6856 147
424 622
987 325
165 65
6269 252
2166 236
5901 531
3578 431
2834 451
6224 135
4329 769
1931 45
2082 401
1580 717
5947 463
5751 147
3477 594
1493 786
1054 808
1450 542
4222 685
4423 423
6253 104
2233 187
1948 95
1749 87
2046 802
2072 431
6620 100
3199 500
5266 429
4092 54
5633 370
4001 438
6840 254
796 675
2962 837
1385 101
6085 597
6335 475
2474 502
4284 787
2610 344
5136 88
6361 132
6003 361
2865 852
4657 522
765 146
2114 23
3828 222
675 363
2204 727
1664 198
5252 661
1404 409
3606 610
3448 621
1192 688
6910 134
3512 131
2308 379
1751 798
6231 149
617 388
3336 579
5404 655
1441 663
5110 92
450 384
4635 219
1484 802
2007 496
3914 385
6952 514
6813 50
208 380
1800 277
2022 759
5998 64
6157 137
5877 356
2662 95
3729 635
3092 21
243 795
3917 568
4591 326
3848 620
274 658
2170 536
58 460
3424 873
505 590
3946 46
4343 443
6338 539
4841 109
6878 361
1448 172
1459 476
5504 645
3779 404
6158 656
6979 164
4729 57
2140 582
3039 64
5828 378
5027 116
1570 602
4335 247
5005 602
5815 572
3 126
5682 748
2577 693
1351 476
1916 834
3590 549
3380 522
2816 507
3223 393
1165 668
3682 725
3839 577
898 449
4666 234
4017 589
6494 190
6983 516
954 458
4828 615
6297 454
6091 859
5121 101
3128 600
3706 618
6588 295
5629 268
2999 175
1097 808
3152 633
5352 862
2247 348
