2500 6000
4597 739
3320 286
807 579
593 685
2387 186
4096 188
5891 745
3557 500
4682 83
2785 418
3747 388
497 256
5998 352
3520 651
2601 179
5599 356
202 603
5451 568
1319 432
3766 572
3648 152
1861 734
1493 261
5723 408
1862 467
5035 262
2314 354
5510 585
2540 563
2356 379
3187 382
459 535
5250 659
4645 341
2908 632
155 223
2142 442
685 535
3360 300
4918 609
942 94
4627 599
2122 248
4522 47
4376 591
5030 505
480 517
274 34
3915 383
3197 413
3120 126
4909 147
2938 531
725 431
1130 61
1612 258
4251 720
2002 425
16 219
3036 544
3650 150
5809 444
4109 739
4569 539
3461 200
4090 619
2731 68
3759 329
3231 555
2661 725
5562 122
3723 310
3555 83
4267 217
5570 243
5002 560
3670 132
1022 471
5993 291
2889 289
1313 675
788 624
5023 266
4252 628
3974 601
5628 184
3053 530
2900 709
5880 392
3171 455
5470 147
597 55
246 427
4669 533
245 248
2300 648
3230 63
5555 734
1471 477
2480 314
5222 160
3022 320
3722 34
4332 680
3123 511
2440 170
293 218
3427 195
3916 569
790 190
683 142
794 63
5133 251
3466 554
4880 708
1818 299
5046 640
3133 441
736 71
1568 60
1855 698
3006 360
5591 168
3544 64
1165 590
1263 606
3975 325
2300 537
4383 327
259 735
3411 542
4552 394
5376 284
3879 520
3999 699
4310 41
3131 626
31 522
28 190
1032 427
149 594
3261 520
2739 16
5137 461
5367 532
2156 319
3969 681
3668 671
4 744
1762 578
2853 629
2641 584
1647 554
1634 379
1571 737
2035 315
5272 554
4236 38
4414 713
5029 492
3127 370
255 184
4930 75
972 151
3630 27
4992 426
3377 407
890 601
1984 31
2828 702
3876 309
1759 185
2245 64
3804 128
5916 103
1961 130
2527 435
5267 407
5723 25
510 575
4984 67
2952 664
5601 521
4956 352
2751 568
927 111
809 588
1852 725
3683 600
5309 617
296 87
886 91
4986 575
1407 2
4823 78
1718 153
2204 142
1290 612
3815 409
3840 647
2591 6
3783 213
1280 181
315 451
2102 221
1854 444
2309 96
3546 105
4864 175
2937 606
4510 406
3200 570
4192 270
95 599
5474 658
3339 93
4239 557
3298 486
4049 484
5342 535
3275 681
1356 738
5803 102
987 685
4828 486
950 645
3054 387
870 319
3840 177
2662 12
5460 181
909 271
5546 567
5126 344
712 572
5337 134
932 163
3736 599
473 13
2816 578
2853 280
5059 147
5891 709
870 315
5792 599
5433 374
1836 323
1092 718
2998 516
312 110
4579 687
1194 69
5184 140
3727 52
3959 9
3772 368
2577 54
897 354
3782 129
4268 110
1345 553
2209 282
319 267
2906 745
5056 702
477 158
4722 220
820 544
432 515
249 333
4793 336
2462 519
2939 81
4462 301
4809 143
4724 483
5240 455
5824 271
161 110
2596 518
522 355
4015 179
1364 612
3080 38
5770 64
4056 630
5045 237
4149 46
344 291
5368 622
4245 450
3205 102
865 579
2674 469
2067 662
1422 162
1757 354
113 350
5513 109
2254 415
5585 447
5537 237
5642 699
744 532
2612 708
1500 396
5370 57
1146 697
5308 399
4320 78
3307 406
1097 436
2254 399
3060 642
4721 712
1671 548
986 254
3353 687
2554 270
3143 726
4961 713
997 71
318 482
2752 58
882 266
3175 124
2716 380
3367 644
3214 663
3902 546
4411 536
3293 550
3874 350
596 136
3635 741
2303 638
5664 42
3629 376
1705 572
3887 220
2599 475
4597 334
3870 177
171 54
4234 25
2478 282
2960 618
2781 711
3892 35
5613 318
447 70
5377 83
4485 71
3631 308
5020 661
1042 370
3294 306
5003 261
575 596
295 496
2285 440
2779 315
5032 713
3801 237
59 391
322 112
2204 130
5780 656
3208 482
1972 186
290 440
2789 42
2792 499
2114 255
5214 741
3867 489
5265 612
2960 32
793 221
2547 355
4808 42
2701 43
4850 386
3282 323
4656 704
362 470
1283 218
4544 517
2629 160
3897 477
2753 701
2090 90
5191 300
4776 264
4496 392
1311 559
1053 699
2091 298
1193 258
549 381
1262 426
3516 677
1963 582
2988 633
4657 414
642 219
5443 250
5951 713
3754 204
5618 123
2820 606
1460 145
1192 306
4658 598
2531 388
4506 546
4393 674
218 159
2191 699
1273 212
1600 527
1556 67
1378 196
3702 190
5754 111
2362 202
3080 506
4871 416
3333 555
1484 588
2295 428
498 63
1567 216
1670 533
1324 333
3064 212
4976 671
2865 106
4715 654
4960 299
3922 174
2887 69
706 249
744 135
2416 54
4847 21
1258 85
3862 175
1004 722
2529 376
3164 492
1120 545
2708 386
2743 45
3293 172
3308 146
42 34
2590 352
5976 621
1643 34
2209 527
3614 139
2291 563
5462 748
5265 457
308 16
1405 614
1508 61
717 690
2592 367
3639 576
5527 305
4793 635
4449 446
3520 420
35 53
2515 395
2903 496
2941 392
3320 377
4305 130
2741 219
4340 169
1983 261
4014 42
4785 696
1025 482
3582 108
3667 739
15 511
540 579
5831 615
110 56
2261 676
5763 717
2035 603
639 200
1866 345
842 627
324 81
201 29
3766 166
5067 44
3992 474
5221 68
2137 412
13 534
2693 642
4314 595
3085 460
1000 508
71 355
1099 633
4931 404
5961 323
4542 258
3434 204
2691 130
3459 39
5606 355
3130 126
3832 135
5852 94
395 93
839 442
2028 648
2448 505
4413 23
753 549
615 695
1776 323
514 163
3696 683
5283 340
387 604
4668 423
1086 675
3700 374
4640 179
3095 677
796 53
5569 216
299 313
2882 296
2418 563
4501 486
2707 72
3880 149
788 135
4588 328
4050 356
2469 434
990 681
3073 343
495 488
907 428
2075 217
3231 457
1410 329
2363 633
955 403
5663 601
2713 598
5766 230
3835 232
2282 462
952 684
3424 257
1467 715
5829 698
3907 532
636 511
3797 25
2034 480
2080 102
3809 544
335 320
3221 283
5377 43
4295 46
5221 290
3856 502
1495 228
4115 472
1278 637
1243 736
670 412
3876 104
2900 14
5678 453
1787 78
356 559
4942 637
5082 375
5900 91
2584 336
1238 76
3360 611
5593 175
5108 677
4933 617
1458 221
1391 158
2077 667
4758 0
4238 9
681 603
4061 604
2956 536
4264 413
827 672
1490 353
350 346
814 519
4580 31
14 486
5748 101
1607 89
3799 469
382 278
1480 708
5230 361
106 53
966 645
4016 577
5791 578
489 260
4698 472
4528 447
2490 700
1954 304
2168 300
3219 48
2156 518
4244 192
5678 157
5660 40
5880 438
226 132
168 212
5000 370
4952 77
4495 514
625 448
3760 434
1373 670
3420 563
4547 42
4785 324
5568 77
3421 30
1282 146
1422 160
2509 528
1306 239
598 537
4445 700
5734 403
2287 594
223 401
1655 393
601 583
1345 607
3883 573
4997 99
4216 610
3368 86
2194 60
183 471
5557 256
4354 498
4493 493
1748 275
512 355
2513 104
4119 276
3587 684
4717 581
3869 561
879 358
3675 235
2581 73
2221 604
4404 99
5887 159
946 318
513 465
3172 441
2092 559
358 257
5395 595
533 427
262 724
2404 117
3999 267
4756 419
4868 563
4324 207
1248 141
4860 639
686 289
4359 261
356 415
5009 423
5408 583
4734 183
1164 211
2394 37
4960 640
4721 138
1409 711
4524 475
5249 394
614 512
1458 457
2690 591
5718 741
1485 415
3010 340
3075 591
2179 505
174 519
1565 579
5458 526
2986 192
2494 201
244 659
3972 563
359 65
1673 247
2686 210
4012 386
3734 564
3420 690
2771 281
392 183
4107 622
4553 30
4656 0
2290 74
839 142
3737 197
2198 452
4280 657
5847 293
3617 468
179 19
2922 288
787 700
4657 511
5399 664
426 226
957 502
4320 387
1649 282
11 721
946 269
2145 394
1399 736
376 352
884 574
3725 27
3641 281
2163 122
1601 77
3451 303
2159 380
632 370
5614 344
926 175
1682 195
2983 429
5617 344
4645 680
1191 84
3144 267
3929 674
3131 598
1884 32
3969 492
2671 97
4808 277
4687 417
2672 589
658 706
220 335
179 397
4397 516
2208 45
5181 683
1870 58
4133 235
1619 75
1049 214
3173 455
4243 584
3206 187
3376 522
3887 25
4374 219
3345 645
3957 663
5988 675
4542 218
5069 579
124 544
4653 358
1535 216
1305 120
1928 216
701 545
728 479
5263 8
3481 208
4709 325
2766 673
4982 23
5103 166
2870 437
889 687
769 309
148 290
1624 468
3451 293
2591 92
3353 303
1936 55
4702 85
1329 727
1460 105
106 349
5511 660
5178 150
3507 99
1750 581
3929 27
4754 175
63 555
1757 622
2168 52
4284 309
616 587
795 238
2339 699
3120 138
4589 573
4012 318
3767 88
3176 188
5826 367
2605 582
5909 110
3887 718
3121 619
789 284
4635 508
569 607
3659 345
1768 96
4170 212
3659 257
2296 294
713 362
3361 602
5590 131
431 186
3565 414
193 448
4091 290
4382 701
1560 30
2371 3
3231 68
5568 468
2115 560
1391 652
5067 725
2711 583
29 560
292 43
1656 168
2361 641
348 691
4108 747
3445 667
4699 275
5504 21
1186 83
5313 458
2399 202
5106 708
1159 216
2582 186
3779 20
828 691
3829 68
1775 212
1930 289
2810 638
2190 587
2535 500
3280 239
510 494
885 180
1955 234
5539 685
3646 529
5345 263
3905 440
3046 448
2913 316
4995 3
1825 589
2145 210
1637 484
1712 51
3167 82
5227 462
2293 339
1675 342
4327 330
4457 748
4177 703
572 445
4404 288
930 560
5872 89
5589 482
179 650
3429 676
1910 735
5842 50
545 567
3312 460
1548 255
509 354
1403 202
217 513
359 653
2447 139
3513 70
1492 252
3968 614
2637 633
2461 720
2437 89
3 276
726 539
3214 237
4153 315
1584 24
4610 188
3631 49
5093 571
2338 688
3497 398
885 128
4384 748
1660 666
3565 314
4640 484
3957 333
1389 64
1009 205
1100 295
2191 87
3187 421
1003 601
5872 76
3871 157
1365 556
4208 608
3066 321
4219 361
1674 536
3115 122
4997 285
3724 92
5527 692
4510 479
3540 671
5857 128
3223 379
2270 528
2300 78
3298 167
4513 38
1461 742
2683 52
4556 226
1826 481
634 227
5680 23
4471 726
574 331
2847 724
1337 29
1652 221
3871 610
1502 107
1503 260
4338 732
3621 638
4695 689
1068 689
68 248
3170 704
3093 654
4810 513
1059 725
758 40
910 395
2687 63
5924 596
2116 121
945 338
966 195
2801 571
4497 163
52 397
3030 2
2284 605
3991 364
3213 562
5051 308
3999 668
2276 69
5151 745
1123 454
1055 292
1629 556
38 153
4912 338
1513 43
5292 605
4675 116
2640 734
3172 369
4676 360
1632 387
2474 53
2966 344
4613 396
924 278
3953 586
2244 298
1759 101
3665 538
1489 257
585 601
204 541
2097 285
973 516
4163 386
4154 298
4701 70
1764 34
5461 98
4694 187
4875 553
5482 473
2723 409
4898 104
2293 723
1908 165
3141 557
3086 509
3287 39
2464 351
74 194
2599 189
5012 315
562 585
366 256
2140 288
2183 233
1114 493
4195 518
5131 602
1707 452
39 80
1315 748
4533 425
2664 48
1346 223
117 473
490 50
5817 142
3691 80
3891 299
4870 253
1719 102
5968 529
4474 558
3848 661
2357 724
5624 35
1686 545
2901 212
2614 207
3412 321
5199 301
3050 504
3128 127
1344 28
5410 292
5958 732
5345 572
3495 331
3583 419
3943 425
2507 519
735 295
312 371
2977 518
4810 410
3753 676
4791 276
3808 307
987 706
4556 667
2937 668
3210 423
2007 502
2787 683
3056 602
5248 98
4766 129
4681 577
1222 521
3008 431
3867 101
3513 334
175 436
2595 324
5124 153
282 747
5038 241
5403 110
3823 682
3966 666
3008 605
3817 633
487 604
5810 358
3041 484
436 35
4379 106
3027 143
5345 42
2574 653
2504 150
4494 244
5974 491
1405 193
3986 43
1139 740
3137 698
11 70
5322 243
2010 706
1525 128
1436 294
4023 211
991 310
2245 676
4181 281
5023 737
4735 435
2136 661
2824 329
1101 707
1808 381
3249 102
3567 43
1907 680
1845 656
2436 388
565 563
5448 600
977 213
1135 678
5081 72
3495 84
3034 24
5887 497
5137 607
4644 331
2267 645
4734 124
1681 126
659 552
740 27
4329 68
848 367
3303 22
4343 158
2247 218
4915 403
5626 117
3114 106
5944 465
4811 302
1787 549
4662 553
663 97
36 695
839 34
5336 82
2473 83
2078 632
343 314
2220 219
5401 168
4193 278
339 242
2516 136
4521 604
2539 53
2140 14
1173 589
401 145
2358 611
2657 253
3394 59
5519 58
2723 55
2205 66
907 273
4383 543
770 652
521 225
3787 718
246 411
1989 710
575 568
2933 492
2256 372
2646 296
517 533
4488 382
1704 33
1094 158
174 694
741 265
146 41
553 26
1597 69
2442 138
1343 188
4318 188
2550 71
3710 43
3734 664
4497 275
1535 490
5462 363
700 674
3184 399
3150 581
2347 432
1936 506
3732 334
3085 594
1063 284
4206 654
4506 62
5461 260
4887 398
1268 28
1688 720
1114 252
2251 714
3513 268
3480 502
165 678
715 731
5260 267
1376 307
4393 181
2300 67
1950 125
1871 181
3415 442
281 256
3950 278
485 492
1345 378
2646 77
5273 339
5507 385
1452 535
1914 609
5554 416
5060 487
1947 187
5205 476
1655 320
5615 704
4378 35
1101 660
5738 173
3695 282
5118 165
5208 73
1918 537
367 118
885 44
5219 702
2852 267
1575 657
4671 657
5983 338
3276 595
1847 286
2377 205
3157 246
3085 555
1581 253
5275 16
5556 684
4792 437
2189 409
2817 431
2615 700
879 682
5020 133
1627 90
4359 505
5112 372
3288 522
5700 728
3930 282
2186 732
2897 713
1468 331
3276 675
2601 491
2091 377
481 727
4531 491
5189 531
2263 470
1060 716
2708 148
4646 651
3199 529
4010 324
5308 205
1230 557
1165 109
3673 663
2757 426
551 315
447 392
5728 240
399 179
2096 449
2434 333
2255 80
124 607
4638 20
4911 148
4010 472
84 3
1289 555
4926 121
4899 439
5776 705
136 342
220 402
4262 431
5191 524
1849 314
3989 544
5334 362
4552 207
533 80
3948 624
1787 618
2404 112
1244 609
759 694
4238 253
3676 748
5186 215
2484 11
2834 695
4519 192
5596 615
4418 456
4129 244
4772 579
1202 175
4804 718
4919 589
3128 559
5937 336
4059 699
3694 353
3305 516
5554 424
5753 82
4367 339
186 680
4100 672
1863 356
3978 0
4744 517
437 264
4278 502
1229 698
5861 672
1442 549
64 632
1091 188
2508 57
4285 261
5900 78
3092 125
3652 249
4080 522
2430 681
5466 651
1978 701
4396 54
70 43
3762 693
2592 298
3601 185
1300 416
4362 236
811 50
4846 456
2367 57
2924 448
5988 676
3190 230
1728 514
5288 346
1555 608
1459 132
168 236
4389 58
2146 356
4278 320
5159 96
3399 518
1227 648
4876 94
5742 305
5447 183
4041 230
1891 159
232 459
1985 614
4038 136
255 482
5428 257
2709 89
4211 150
5004 643
4191 431
2878 171
4832 229
4101 560
1667 613
3532 478
2746 157
5901 727
3461 190
852 618
5423 185
5804 528
2508 702
5982 25
1583 565
2063 593
1731 483
4091 511
5453 413
4116 706
5407 178
5461 702
5228 165
322 61
5102 193
159 333
3520 661
212 423
2872 226
1112 82
2013 168
5423 178
3932 390
3090 322
4109 667
3045 663
5536 689
5126 183
5033 732
3151 748
1873 278
394 456
5483 281
5938 150
4712 438
3280 615
936 546
1755 396
1506 635
549 61
349 274
2650 701
5663 393
5313 108
140 524
1326 523
3369 182
2159 82
3425 655
793 393
5924 592
325 581
1759 458
776 192
3524 0
3787 745
5991 129
1869 464
5914 315
1877 604
5599 686
1335 553
2568 719
5842 44
4507 200
4029 665
5350 31
3811 601
2374 464
1241 266
1947 303
5170 409
5360 428
2580 54
5747 57
5639 592
1514 39
2199 297
5903 505
5769 109
5173 408
5433 587
2053 250
4379 435
406 529
3064 387
5287 489
3528 297
3213 375
127 347
2123 191
3183 114
2015 256
2501 682
2894 646
1736 326
4695 355
4079 171
1152 234
4570 70
1337 308
1979 67
681 34
4349 691
4121 637
5684 67
696 356
1625 363
2487 114
2275 457
5428 497
3120 643
1014 357
1139 727
9 637
794 738
1208 451
4981 175
215 23
102 498
1051 563
3126 564
2454 651
5563 629
871 240
4923 215
2857 588
3274 129
5434 44
5590 460
686 435
4047 46
1802 111
2867 695
970 275
2152 684
4965 565
1804 508
5752 147
4273 446
395 605
1819 517
5925 164
4399 373
3530 140
2627 259
5591 293
5205 721
4701 382
636 153
4724 332
2424 285
1058 608
2990 457
2016 62
4306 551
510 17
3377 154
989 510
581 162
1968 167
3697 578
2910 115
1588 39
2133 244
1910 176
2444 488
231 389
4959 270
1074 253
3589 574
2632 165
272 705
5139 123
1771 245
2370 657
618 252
1574 741
4573 268
2223 715
898 441
2050 447
3768 548
3266 287
438 333
3670 471
1439 457
1050 267
3592 745
4995 734
453 84
4275 329
5721 332
3658 265
5678 577
342 216
455 502
3250 153
5836 689
776 378
2448 678
1096 521
89 598
642 99
5991 73
2827 460
4160 574
5524 578
5563 600
2765 627
2916 488
1824 84
3542 96
4715 432
5751 709
2061 300
21 590
2622 699
3554 523
3973 112
3716 33
1870 720
898 482
2116 469
3674 428
3971 10
1358 523
4271 104
5906 23
3949 352
607 597
3891 530
1667 661
2890 589
3459 238
3970 77
1022 541
3819 246
5616 259
5117 34
5533 727
4051 648
4259 424
3771 642
2821 662
1920 231
784 332
1554 459
428 247
4315 15
3694 163
59 188
5310 364
1853 395
5479 130
2060 283
981 526
1603 294
2117 157
3891 191
4409 716
644 514
3583 630
4264 535
313 369
4590 140
5795 98
1083 373
807 413
5803 549
2992 675
3724 108
831 35
4020 618
1023 221
843 353
526 390
1908 688
4145 708
2016 145
3471 343
5465 215
2917 706
155 723
5163 298
1714 282
1209 596
2378 296
4517 496
1379 304
4827 234
895 582
5062 391
898 649
936 498
5831 242
4348 33
2360 368
2840 148
285 59
3217 677
1085 373
3945 689
5391 79
4224 354
3133 120
1374 149
2617 294
2258 709
2898 311
5378 629
3314 415
423 638
3417 630
4123 608
5456 39
3775 524
2600 737
3134 288
5729 541
2843 665
3344 274
4078 317
2164 558
4660 700
939 367
5928 208
440 636
3070 717
3930 24
375 532
5872 582
75 338
5211 542
3438 162
4802 271
2547 109
3495 680
5481 547
2402 265
3499 564
3171 339
3244 500
646 746
2399 689
4965 740
1059 37
1056 316
631 469
4670 548
4626 277
2125 306
1760 275
3331 495
2733 662
2074 602
3736 738
4714 732
3039 637
3882 276
2370 487
4435 461
835 474
1197 587
3899 702
828 193
5444 551
3130 656
5245 423
5142 29
3333 290
1201 463
3982 207
729 297
3578 221
4931 566
4635 664
2049 728
517 331
1358 499
849 22
1415 559
5428 536
16 700
234 459
4881 525
4557 713
4364 698
1407 331
112 481
4570 75
2554 194
3370 622
1354 371
28 296
898 567
3591 312
2349 60
3169 47
5951 165
5122 656
188 137
5130 425
1634 731
791 362
4648 209
1265 81
2698 163
3884 486
4242 598
1598 55
1786 422
5299 115
2897 558
5876 561
4260 107
4053 8
1316 632
42 449
2955 280
3406 604
2717 113
4413 67
2917 738
4691 96
2302 5
2355 583
3495 607
5577 384
1441 534
5149 471
4804 492
2752 134
1862 703
5243 70
156 640
4647 251
2211 722
3497 131
1418 502
5245 653
3769 315
1373 306
1201 105
4491 228
442 481
2500 204
3890 444
604 286
3619 741
3742 609
2821 721
4096 659
5542 412
1482 326
2139 251
1796 517
5779 410
2062 171
1899 301
1333 447
1480 47
1838 256
4157 262
4185 90
3111 462
946 103
3739 139
4242 275
2797 10
5841 176
5229 110
5459 37
386 557
2594 529
3224 23
1500 670
924 381
5931 210
2583 493
2105 432
2456 646
4354 430
1523 468
2245 369
2962 506
117 434
1629 581
3349 419
1105 668
1886 605
795 465
3657 568
3973 72
3102 491
1402 607
5186 669
4149 737
1393 145
4382 517
3616 245
3437 191
1232 689
2025 248
5566 407
2680 560
1634 36
1642 159
2804 348
1498 356
1811 318
442 645
4776 452
3101 615
3800 194
4618 291
2597 647
4685 430
5044 269
510 519
1273 317
3592 492
3747 672
4473 259
2241 470
2381 659
4930 602
191 577
5100 419
215 82
3436 200
5642 502
892 397
4899 679
3771 469
5419 206
4099 629
4993 263
4576 301
1157 542
3911 351
265 526
4409 470
4359 213
5294 624
5543 734
529 556
2489 298
2894 659
353 604
3324 182
2455 309
810 475
5348 243
2939 306
2896 573
1993 645
1966 640
4946 392
3626 341
1641 726
5303 2
2518 514
781 165
101 366
2340 23
4407 528
2192 507
3060 87
2821 446
1797 741
1796 325
282 513
3733 588
4268 12
4937 93
773 55
4806 157
3867 399
798 349
273 105
2655 473
2346 281
1359 529
5150 683
620 8
5325 343
554 621
497 377
1838 267
4972 468
4023 622
250 19
2142 737
5084 258
2053 550
3396 180
1 588
5223 92
3512 491
1147 60
1332 370
4648 601
2596 409
4796 461
3629 573
5386 467
1928 309
1250 163
3796 307
4738 728
5823 196
1763 501
1269 492
1300 253
5322 18
5848 354
4685 268
280 623
2889 490
5465 150
4079 218
3864 504
5569 368
1558 166
2701 335
1506 237
5082 331
1976 362
3190 94
4192 443
776 132
5347 2
5208 462
1179 10
92 304
2624 154
4929 252
4434 70
5211 185
5497 479
5337 289
1723 420
1466 290
4815 232
2383 474
2233 74
808 539
4850 495
4341 20
1975 448
3125 663
4516 456
1303 223
637 381
453 529
5274 666
3746 137
1861 719
3432 55
1161 444
4074 610
3003 712
2314 565
4405 660
2928 251
5469 321
5207 322
4310 618
5835 211
1803 743
155 449
2197 79
4388 447
4065 403
1956 197
508 207
164 300
234 745
774 465
5100 650
2018 552
19 550
4074 670
2600 340
124 615
5413 728
4015 645
1602 44
3939 65
1055 43
2249 659
1127 473
3154 348
1765 731
5401 486
1565 386
4653 657
3403 82
988 214
3433 237
5647 118
2702 515
378 499
5582 198
4874 83
5930 621
1013 456
3623 354
4021 55
4061 631
207 659
4456 166
4837 622
2539 709
1598 103
190 603
3387 417
5296 534
1879 184
4990 384
3850 186
437 687
597 612
3917 374
1879 625
1799 377
5401 64
4627 165
2055 678
5309 65
1021 388
5666 596
1024 626
5290 355
1226 607
79 501
276 552
5080 715
4969 541
5860 471
4484 313
3498 742
1876 356
3318 233
1260 680
1811 656
5400 576
1645 502
3162 190
5162 710
4184 624
1769 121
593 487
2775 147
4674 20
5097 131
1057 358
2970 274
2900 142
3445 557
251 530
4529 193
5121 749
5821 442
3366 28
2302 652
3921 546
3142 457
5341 490
2447 269
5666 56
2552 278
3363 205
5764 705
5728 297
4105 89
222 610
2949 207
114 543
2556 699
4125 207
5460 9
2202 578
4293 248
361 405
3337 454
844 359
5734 318
196 278
3532 588
430 285
107 187
4885 285
341 638
5791 467
2995 273
5483 394
1777 427
5275 645
4633 724
3287 544
5220 69
3374 196
4819 713
4066 244
2673 530
2157 49
2467 253
936 456
3183 64
4793 745
440 480
520 312
1791 539
3449 345
829 617
2930 731
4767 20
3189 578
2450 95
853 18
4217 588
4241 11
5157 364
1416 626
3138 533
5187 748
3630 537
1151 409
3286 192
2553 194
4205 652
4297 454
1553 149
3414 506
4306 141
2333 226
3762 649
3962 686
5023 650
1814 544
224 422
1092 711
4967 46
5284 238
5252 139
35 735
5906 703
4643 526
5881 363
4883 67
1858 607
1803 605
1120 294
1779 235
2820 90
4092 677
2846 216
3267 709
2063 596
1617 56
3352 142
563 632
1042 496
2671 729
4657 136
2510 175
4668 64
1388 727
2841 357
4493 714
2708 117
369 452
3120 491
4076 556
2279 605
3046 28
2419 377
428 565
4433 392
2004 66
776 692
801 564
3353 535
24 422
5402 165
4332 496
3703 458
2247 344
5474 615
5058 33
5248 366
2023 326
5523 309
5464 498
3689 517
3096 239
5812 633
151 634
312 6
541 396
4938 444
3801 472
2406 360
1635 674
5887 156
3466 197
5146 210
794 33
1569 523
5713 633
2174 158
3863 67
2922 191
3770 624
2746 155
2140 739
4546 231
5285 224
4999 733
3013 181
3016 331
3650 567
2936 600
2589 32
3245 76
3885 232
1546 54
1239 507
60 337
4790 114
5679 74
1213 153
4881 665
3062 121
350 497
1338 383
1507 66
1429 230
2966 143
4347 427
3549 310
1306 163
521 173
219 79
5930 143
5911 604
273 73
78 692
2379 506
953 269
2610 679
180 595
877 219
5493 453
5009 639
2707 77
5612 408
5247 458
4904 200
564 181
3891 641
2169 618
1127 478
3205 342
806 450
3974 193
675 257
697 269
108 669
436 668
4033 333
1991 571
1987 252
5730 258
905 377
4653 435
5711 442
3757 185
4984 369
3986 220
1551 526
3547 314
3245 315
2254 723
3966 676
5570 656
4914 742
5846 133
4281 651
726 569
5310 56
653 718
5039 112
1410 438
2533 234
4392 476
5536 485
3839 26
781 31
1935 518
1735 432
2827 148
2611 247
4816 260
1025 259
2689 634
745 90
1367 584
3197 238
2779 637
5216 210
4223 492
2052 443
4145 454
661 681
1185 442
1730 378
1186 453
5872 270
994 25
339 76
3386 609
484 373
2240 609
142 525
4966 349
