2500 3500
886 164
1378 9
2914 339
832 309
3237 258
3321 350
2099 308
728 110
1282 250
3133 243
630 146
2884 331
281 356
2760 109
3085 130
1294 210
2836 261
1147 84
2487 339
3477 83
1975 371
1450 54
1653 200
2927 292
3318 293
3192 51
227 144
1752 137
1254 351
3143 233
698 38
1433 85
3480 26
2628 29
1358 336
3420 307
3047 151
2793 293
2192 185
2878 51
2189 106
2592 350
2752 24
2233 42
1071 111
1112 45
3298 351
2061 69
679 112
484 185
3409 55
962 369
2408 92
2229 106
2635 84
1773 268
327 63
504 206
2158 260
1333 157
3430 172
3071 299
3202 290
787 357
1938 435
2350 382
1601 72
1707 227
1591 67
1059 42
3495 324
1737 403
2664 163
2963 422
253 413
1662 204
2522 71
1933 368
2295 113
504 360
2165 140
2438 266
2814 33
809 70
2353 250
250 41
1109 333
31 338
3272 128
559 303
2779 176
3311 157
1363 168
1617 172
2417 414
1317 60
2244 93
3341 389
2044 351
174 247
2101 108
2470 267
535 196
3416 264
543 113
48 36
3437 297
659 330
3232 314
30 423
3056 348
2162 412
2079 148
659 52
1658 264
1293 250
614 380
130 287
3448 109
973 262
3295 237
1001 64
1619 64
593 171
1055 176
2833 284
1415 278
1567 313
3058 189
656 202
693 177
601 315
3175 247
2038 309
1742 291
840 59
3101 392
1429 312
3252 408
241 359
525 189
659 201
790 378
897 31
2745 30
2972 347
3296 417
3474 251
397 246
781 159
4 315
2804 389
1485 315
1602 322
1880 278
3295 14
1407 235
1320 332
3076 83
2064 342
2789 335
2805 125
291 217
1114 114
3236 405
621 175
2618 44
3015 184
2579 26
272 300
2702 273
3386 94
448 322
1395 15
1758 346
2616 155
775 310
2501 123
2499 256
449 283
2990 392
193 68
1636 84
1707 382
2873 84
1568 350
2028 378
2900 267
3130 332
1382 44
2881 146
603 73
2794 260
2094 425
3179 117
1588 365
3197 421
871 342
1774 211
440 193
785 261
1878 367
33 128
3009 301
1136 335
3414 365
819 3
3052 164
3394 150
2532 160
3244 29
1948 263
2045 182
481 101
2589 121
2326 341
1666 6
2337 269
2040 320
3194 114
1003 324
155 436
2754 377
284 415
757 61
3368 60
3320 159
2474 181
3272 344
1768 260
400 39
1224 367
1161 400
1518 254
244 277
152 180
909 142
2121 101
2033 437
2635 193
1375 30
3361 226
422 153
1663 273
989 313
1960 218
3340 394
3351 435
306 258
2613 332
1442 309
3462 330
93 146
3023 268
196 201
3481 61
2811 148
1240 92
2287 107
3114 334
1464 119
1974 153
742 359
548 238
3063 17
2674 70
3409 370
2737 153
2951 110
694 419
300 280
420 297
2097 143
2291 421
2948 431
1006 139
391 432
915 15
1586 196
2281 190
1371 357
2154 225
2397 36
867 242
2348 0
2394 305
2973 161
39 86
2796 407
2133 107
2361 236
2354 55
2921 67
2524 327
496 403
1369 352
71 323
3385 43
553 170
524 125
1457 173
1473 157
3267 314
3269 218
727 425
3089 60
2975 104
294 178
508 183
318 40
3180 223
522 391
600 185
3274 406
1730 264
2699 282
3043 132
616 388
2404 429
1726 34
3414 234
2814 14
2894 343
2158 288
528 298
3248 102
802 31
2235 59
2867 330
799 130
2999 322
253 226
1566 36
779 116
1432 174
1703 417
886 305
3052 333
1820 63
1114 15
2383 242
3109 316
752 248
3324 422
2203 18
2960 123
1051 156
2964 408
1850 163
3115 353
1772 41
2197 32
23 279
3126 406
2439 83
3093 100
3032 338
2432 260
1225 35
2204 414
3032 343
321 370
2736 60
665 380
1496 42
113 144
1934 70
1357 49
1828 354
1775 20
795 400
1424 332
1873 90
2592 123
2145 156
1067 415
1218 52
1416 396
1373 107
1920 242
3149 406
1928 119
473 368
2754 424
684 71
2908 394
2801 119
2688 52
1460 304
3133 50
2137 75
3117 246
1236 134
2619 108
2802 401
1064 322
1774 240
52 348
1339 73
1659 143
733 391
3269 208
171 26
2095 22
2143 425
3313 341
1733 417
3402 285
3151 108
3080 279
3314 372
3173 48
2416 119
468 221
3471 116
1398 370
1279 368
1999 75
95 187
1735 119
3282 170
1354 325
2938 270
3438 146
2670 296
1286 162
3276 187
1797 243
302 415
3237 289
744 286
2695 406
1252 79
3495 141
2831 289
2456 178
1980 403
2616 300
3482 179
3407 385
1757 242
3331 433
3379 400
2813 314
562 323
1079 112
1933 179
1471 155
1999 206
2730 403
1814 28
1400 294
944 30
171 318
3056 403
2668 386
1166 117
3371 97
3472 49
1735 173
1630 123
554 27
3100 372
3303 384
863 364
190 321
2106 69
111 111
2257 291
1797 120
2740 364
1558 188
1993 193
1791 253
1870 238
1974 152
844 159
2453 125
1871 114
420 38
2176 86
2615 295
63 26
1681 311
666 122
103 67
1680 411
38 178
1164 203
417 98
2199 62
1464 151
519 343
1365 71
3347 148
2840 320
45 336
853 216
2733 98
3433 3
1553 232
2253 254
562 354
1310 352
2502 136
1040 45
979 230
2920 330
695 101
2353 250
1311 386
568 114
2753 306
3235 172
723 366
1228 86
1047 285
2767 331
187 306
1876 386
2797 239
1923 6
702 420
2392 183
2284 73
2976 172
366 238
603 256
946 21
622 245
3318 326
1705 147
1901 295
765 320
3383 416
2331 215
1496 168
555 284
602 427
362 245
2135 374
3093 196
39 384
2709 395
1800 29
2935 46
1082 216
292 244
1123 183
1741 298
471 398
755 429
2911 380
2318 176
706 327
1636 42
1294 238
3242 309
2281 372
1368 218
1790 398
2696 47
430 237
1616 206
1793 352
1778 258
876 14
2838 260
941 396
1071 305
1118 217
3378 256
1279 356
2345 129
2948 392
3381 148
2810 221
2563 333
3097 435
2184 286
199 253
1550 80
2330 273
2820 232
2398 195
1739 328
2216 125
1050 185
1145 268
3271 212
927 290
3463 148
1883 129
3000 277
307 104
90 367
856 326
722 280
2438 150
1210 7
3276 95
2854 376
3113 245
1203 266
385 337
3245 80
2730 202
3275 58
1093 402
2903 67
2677 311
2482 301
444 358
1707 3
2322 198
354 210
2075 135
973 76
1807 126
216 275
3151 261
385 218
3196 85
1849 160
3412 288
78 339
2990 46
1714 183
3424 173
221 41
2413 319
739 53
3403 307
2468 227
14 223
1923 166
3451 215
2661 40
2008 156
3409 98
546 240
700 265
2401 280
1116 165
3046 69
218 354
2758 389
171 95
2625 386
1171 57
2105 80
1405 197
1176 346
3382 141
1198 112
2318 225
2313 176
1100 151
137 223
3130 183
2836 9
1026 339
1308 188
2046 339
3041 395
2829 196
730 99
2439 254
2330 250
3411 407
3219 20
1530 31
3059 187
748 232
1982 140
3487 14
2348 181
2297 271
1305 55
3303 42
1569 212
155 426
3407 380
1524 300
3021 295
3021 64
2192 281
2141 245
3123 345
1386 193
154 346
1060 249
2457 187
2455 239
1186 380
1787 285
1344 191
2088 337
1607 160
2766 26
3332 342
1517 245
955 282
1673 45
3176 81
2887 57
2066 179
216 433
7 250
879 93
1085 181
2442 267
440 4
1071 254
2451 185
2472 325
3129 9
3463 223
817 309
2424 149
2843 150
1124 154
2832 374
2129 67
588 23
614 171
834 394
967 186
2597 153
2243 431
1035 11
2193 307
997 343
141 306
3157 63
1470 146
3241 1
1238 13
1597 316
2017 218
237 78
177 431
402 49
79 99
359 184
2630 344
614 435
1015 113
2261 236
3350 239
1035 3
2309 417
1233 402
1222 425
2392 179
1366 25
2123 114
1174 337
2078 164
2210 131
1901 14
86 302
1078 431
2450 123
1080 352
2336 383
1747 159
2727 172
2577 127
1502 253
922 308
2470 307
1612 248
2027 323
745 253
1878 318
277 374
2487 286
466 313
1837 56
746 301
799 232
3184 97
1482 423
1078 255
2288 336
3264 272
1713 17
2492 178
3020 407
1585 16
970 260
2973 384
2912 376
2562 175
1019 128
1212 156
2708 319
862 340
708 228
920 81
1899 136
1722 387
1781 425
1722 46
57 188
2191 362
492 312
2545 205
842 330
1400 386
2566 45
2177 397
1759 254
2183 281
922 407
357 128
2705 158
1144 30
1062 213
3445 239
438 289
3309 425
2075 308
534 2
1850 213
1490 208
1733 208
2055 19
1531 233
2682 247
3308 34
3240 246
2764 192
1625 406
3160 309
2811 204
475 105
740 159
3294 334
3343 43
2333 368
3313 408
3173 387
2219 391
1969 348
1675 1
1596 382
2010 92
640 395
929 2
1706 206
3419 136
274 363
3008 408
754 220
2507 256
1264 151
105 143
1853 269
3148 199
739 137
1114 40
1105 24
174 88
2548 409
398 209
36 40
3280 248
3372 357
1324 156
1784 26
3267 227
2488 193
512 359
818 307
360 10
2534 376
1399 174
3146 252
3453 221
2558 290
217 257
3120 340
2446 297
1091 183
3083 296
857 436
589 323
2631 261
1202 55
2771 367
2548 424
1969 291
3205 411
1328 213
19 59
67 87
957 13
1115 233
1144 52
337 343
651 360
2529 433
2613 352
178 190
1620 355
1959 433
3253 111
148 168
3184 334
2518 256
2680 233
3197 187
1307 178
81 121
339 361
3050 363
1807 339
690 130
1190 80
2347 182
2392 118
1257 121
273 378
1743 271
2412 3
3444 193
1977 151
1669 1
1909 129
464 261
1268 48
394 14
2892 211
552 191
2453 398
1674 241
439 202
1161 269
3216 97
2687 350
2558 96
2672 204
377 102
57 279
2204 353
3280 271
163 85
1261 294
1579 128
87 121
2828 338
1528 55
1742 172
3184 326
528 126
246 84
568 356
1959 395
1302 345
961 177
2593 118
520 171
885 107
43 24
634 7
219 284
363 397
852 274
2273 108
1929 83
220 168
90 46
2138 258
2718 194
822 345
2531 127
216 244
229 355
1286 138
615 118
2799 383
969 37
2968 237
539 17
3433 167
2904 305
1094 174
1207 283
3087 30
343 127
1483 6
322 360
2573 392
2378 93
460 422
1370 109
1229 0
549 81
198 106
2564 192
981 371
1758 85
614 60
1141 389
3222 287
959 323
428 66
3109 414
2944 434
1436 269
1303 306
3226 279
3292 36
421 175
2373 308
2469 236
3162 304
1142 25
3379 283
1250 353
2350 272
381 353
2009 433
1703 9
2938 174
1333 46
1054 181
1051 403
1334 40
743 434
1820 387
1941 270
2721 58
1998 315
3425 351
3153 97
2999 177
2194 324
3419 111
3269 132
897 216
936 149
3185 308
3338 239
1694 388
264 51
541 107
247 253
613 106
941 109
1650 268
1701 136
2723 318
2851 408
2046 236
2780 346
3362 200
389 413
589 184
2458 109
503 226
3105 388
2489 254
883 199
2594 114
1590 45
1062 135
217 51
2431 131
3211 223
542 222
1431 313
2542 428
1537 405
202 428
2205 144
2023 158
3199 309
2834 406
1796 225
374 365
3321 168
1569 16
2373 357
1728 259
2574 97
2823 180
1555 420
522 412
1028 269
567 322
1423 286
429 310
1355 59
2183 172
1423 101
77 124
46 367
1150 356
1365 106
872 360
895 398
1510 390
3209 137
2133 16
1678 330
1978 215
2559 417
852 248
3313 375
121 244
774 431
3181 396
3310 368
1448 409
1595 154
228 68
3408 124
870 9
3338 397
3306 428
3384 425
12 201
1726 300
2243 348
3480 189
3368 29
1311 117
496 236
1659 104
1482 165
1291 220
2195 108
1893 429
1626 193
318 311
3106 212
1084 260
312 39
729 216
3274 327
306 327
2707 351
1681 432
1449 427
669 367
1402 23
148 2
1664 217
3127 279
2066 153
243 166
1230 20
1393 257
3063 273
2924 85
2525 239
2223 113
1854 68
324 257
1466 167
1309 21
2441 188
2788 322
637 202
758 348
3226 309
2805 203
1880 429
3055 276
3375 367
1158 123
3119 152
1299 162
505 45
1283 420
1108 352
737 121
3157 381
3237 273
798 135
1717 181
158 231
2447 278
818 383
1247 11
1967 101
1693 280
1153 165
2111 68
1200 101
3380 136
2339 80
3460 83
2243 204
3160 87
592 407
2410 382
378 427
637 34
190 76
1702 252
2957 377
2036 264
2196 176
18 104
2503 187
2906 178
1606 164
1201 142
3322 7
869 425
1878 435
921 58
2687 45
1791 278
1040 420
2203 66
2527 101
2227 219
3098 137
3097 307
3162 273
2595 231
2857 408
1473 416
800 430
2855 119
1573 317
1481 139
1163 29
1114 370
1684 215
2868 126
804 89
1250 279
2767 361
504 39
1222 151
2372 409
2731 301
1424 94
2007 254
513 417
861 379
1843 286
3419 352
2923 355
3032 13
1255 308
1783 176
1385 87
653 308
1343 99
2367 415
1594 230
1709 378
647 170
2715 321
1122 26
829 102
297 353
3454 201
3062 150
2944 153
868 321
2894 210
662 322
431 372
1411 60
3326 420
2745 168
2851 203
350 390
2101 330
2274 247
3012 214
2703 249
757 65
1744 327
2125 421
1358 413
1841 7
2343 407
1550 159
1468 51
3046 169
460 317
3095 288
224 177
1109 239
967 323
1701 127
2502 232
1038 354
504 362
2366 176
1666 384
791 427
3281 390
714 331
841 335
1340 31
2659 140
1629 281
2463 293
1405 430
807 274
247 149
181 328
522 401
47 242
1044 398
1321 219
3285 161
422 410
1751 59
2897 42
2312 74
534 395
2604 234
3237 100
3215 339
1373 410
3108 75
2961 131
1807 107
436 400
691 84
2107 164
3138 35
1583 300
313 377
538 425
351 54
2326 210
1191 61
820 280
2383 426
1982 181
1006 115
2728 200
19 388
30 86
3221 266
2144 212
963 130
1639 232
1949 165
2279 262
2749 0
393 9
2887 357
2964 92
3330 242
278 35
1430 65
559 28
1815 196
1195 133
525 32
191 298
258 398
2871 344
3022 342
2756 269
267 31
358 68
1809 228
2770 302
3206 420
1484 61
2089 292
3099 348
2924 388
2088 141
2974 101
1031 317
1091 154
2146 162
323 385
1919 81
2948 205
1405 303
1161 400
2755 235
905 62
3499 354
1734 373
114 423
3459 137
612 39
112 385
3341 109
3002 250
1951 276
3148 185
2320 78
1968 25
410 44
3160 126
3117 284
643 345
430 11
948 301
2476 279
1079 272
2856 17
529 296
538 125
332 145
1375 200
1365 215
3481 428
2056 219
182 381
2022 291
190 237
2852 118
3477 116
2458 82
1566 410
1125 170
2351 426
1980 203
9 21
2753 181
1529 419
949 197
662 365
1344 137
2584 181
376 390
88 150
1162 355
473 195
812 55
248 311
80 371
1473 167
2196 371
836 34
1673 419
3299 393
894 310
2304 424
2544 107
1669 358
1247 163
3151 198
975 237
504 81
1274 367
2230 4
1266 165
1044 318
2799 83
2338 435
1461 171
827 1
1934 240
1985 105
1297 2
2993 75
2058 129
1663 423
3105 299
603 72
2883 48
1223 296
1327 246
1012 87
2517 75
891 26
2632 420
1374 75
1158 79
1411 364
3403 52
2606 406
2560 92
64 342
468 310
2994 65
2180 416
356 255
373 316
1231 211
2225 332
1391 209
2082 149
2933 415
193 334
1820 49
3311 431
3092 144
1242 186
1573 31
279 20
917 4
387 398
1644 277
2593 89
611 207
2583 226
1509 126
1266 378
2010 92
3008 270
2215 376
2381 424
2290 286
1428 233
2277 411
1253 186
552 369
3266 153
1717 266
2015 50
1155 408
1006 147
1623 415
854 0
528 389
2331 430
3044 117
2127 391
2643 129
3419 378
1806 295
1308 321
2229 143
1573 171
594 193
3276 83
910 128
506 335
721 198
1294 321
701 233
2999 21
712 200
1348 348
1845 305
2989 117
1700 348
3161 165
1926 357
1927 55
2905 431
3065 422
1988 220
2114 421
1722 36
1107 241
3110 83
1292 157
483 175
2652 260
1146 117
2229 337
1763 195
788 423
2967 333
2592 134
3334 328
2995 376
241 217
2540 19
458 228
468 287
3121 308
1356 212
3297 420
2078 392
798 210
3330 273
544 60
807 18
3499 43
711 349
223 4
2895 86
3071 229
1819 212
1243 122
2542 434
698 436
428 93
2635 105
1697 215
3125 350
899 95
3028 159
2760 421
981 369
1536 3
73 339
2507 44
2442 24
1082 379
2934 398
1196 343
2377 86
3133 134
1512 277
1800 271
3483 106
1233 20
2257 295
150 304
2440 55
1145 40
569 372
1358 11
2907 314
1468 310
1513 402
1450 55
2659 310
2980 194
2047 172
961 333
432 84
1226 416
2244 7
2034 356
42 156
2896 378
2995 253
2803 270
184 182
2523 242
3436 139
1301 204
1677 190
1726 325
444 401
1855 225
3411 158
929 60
1721 58
1288 349
2910 419
3203 177
2842 56
3433 277
1851 202
1809 404
316 174
2970 133
2081 95
2535 393
1821 333
640 11
1289 437
2171 120
581 368
1176 266
2005 92
2445 1
1843 254
839 72
2196 379
1904 433
1151 93
2217 311
1441 329
2161 35
465 228
265 202
3140 187
3383 366
2262 24
2188 37
3375 152
231 312
359 387
941 188
2564 351
2952 173
2125 230
108 24
2472 371
706 60
3331 418
3181 426
763 305
2370 162
2916 15
1602 301
1510 331
2319 156
1664 50
2073 54
1851 83
869 366
834 352
3444 66
1343 288
1021 293
2196 190
1606 157
1054 240
828 397
2375 417
2586 380
1393 369
1732 428
2668 58
473 88
838 410
1553 411
352 433
3285 254
1305 16
681 270
2134 297
542 260
2222 387
265 319
1888 94
462 86
370 175
66 349
1593 144
3382 339
28 11
2565 380
1366 84
584 427
1842 116
638 83
545 272
771 185
3357 35
891 123
2635 12
3106 18
2484 287
1860 197
1982 122
201 281
518 298
486 291
635 3
2782 34
427 8
2556 224
2761 174
3328 315
1841 81
2380 134
3220 394
3394 247
2769 303
3470 290
632 40
3142 100
3076 264
1138 166
570 365
81 63
3344 398
1408 245
2736 302
3132 288
803 340
1630 234
2985 182
518 422
759 231
2635 118
104 360
3452 329
821 74
1063 217
2405 29
1397 127
1501 152
1902 393
2660 229
2710 201
3193 56
764 87
853 345
2412 409
2701 308
466 329
714 212
2727 356
1349 113
2642 32
1052 126
2402 25
1072 191
2198 150
2369 206
325 179
2885 392
2957 372
1359 21
757 379
1866 362
2976 86
1892 91
1301 247
2117 306
379 345
506 352
2205 238
1235 404
2892 328
992 383
792 148
1390 126
298 185
1179 48
1350 216
1083 170
2555 88
2450 402
101 326
1985 427
689 365
2576 178
199 319
1055 376
48 361
2831 277
2378 161
157 100
2676 323
2061 349
340 408
2609 364
1763 301
2891 90
2263 342
2997 251
2054 368
1203 25
1037 353
98 402
3309 180
111 27
1863 394
1780 296
2741 9
2405 183
1459 121
2991 231
2823 214
2222 128
440 139
2254 367
1155 2
2341 130
2120 73
3158 248
2561 17
2891 59
2741 182
2628 370
719 254
3106 226
1762 296
2235 246
2944 399
305 221
1722 372
2803 271
986 41
1048 35
2747 345
2848 393
2348 74
1088 222
2412 415
2040 252
983 317
549 23
644 340
1932 352
1768 355
2426 43
2846 322
3465 410
1648 323
135 323
2050 340
2185 9
1918 294
56 281
2002 403
280 430
2022 68
3170 175
2050 389
2509 57
1558 121
1649 329
765 358
408 123
916 235
2836 384
1457 15
3422 297
25 301
3024 125
1276 290
765 245
666 228
1825 153
3478 284
1731 85
2986 352
1376 357
2727 410
1260 217
411 61
219 49
3037 290
346 205
2213 158
2677 106
2595 158
1757 164
878 150
3317 350
3204 334
2233 118
421 307
3381 237
2068 160
1321 423
1913 103
2617 350
3453 368
2167 261
1282 236
2475 131
1342 296
2249 75
453 0
2954 40
9 419
198 127
2321 344
294 202
2290 400
127 167
588 330
1382 316
1151 24
3397 428
3188 224
695 194
3153 380
2454 133
1548 321
1199 343
2203 270
267 209
2764 330
2725 289
2508 214
726 55
152 334
110 366
1367 45
2631 112
928 203
2195 398
1384 414
815 391
3006 178
164 286
3183 372
31 242
1110 64
422 351
1443 126
2860 259
2533 140
3109 297
1159 422
1396 121
324 154
2094 403
3404 48
1063 401
3299 230
4 367
489 85
2011 244
449 99
815 369
2754 163
1956 106
1997 124
865 54
890 117
352 329
239 435
1571 228
1095 147
540 344
1860 44
3439 422
2779 20
1497 81
710 270
658 288
3466 46
2566 157
19 139
1251 47
26 342
791 421
334 233
2071 135
1782 58
1480 374
1546 267
2111 96
83 287
2405 331
2612 240
1920 365
3171 26
1311 35
1969 356
1834 209
2461 198
1162 3
1411 236
3019 52
31 244
545 376
823 53
1417 355
1630 368
1652 420
641 29
1950 397
2412 81
1372 161
3369 123
3 336
2824 338
196 352
2688 86
1256 276
1990 385
1267 180
3423 326
2944 1
3491 266
2584 153
1431 218
981 239
3119 228
822 143
519 324
381 180
754 406
2123 242
1567 305
3053 90
93 360
1668 433
426 396
3472 23
1279 177
1002 241
3238 310
1694 378
2007 133
519 61
3382 383
3127 424
102 263
640 413
1015 150
2123 282
2279 378
719 279
2108 374
640 388
974 128
806 256
2828 210
1592 365
1610 117
2182 227
1466 119
2430 374
305 262
1893 80
2959 126
1347 245
2611 3
1153 47
2354 397
114 322
2277 293
750 18
2662 249
3156 373
565 96
2876 271
3389 41
3091 133
740 431
2438 21
2884 370
3419 57
2719 228
3229 42
1658 268
2498 229
3217 284
82 33
1282 155
2170 256
2285 401
2649 26
1454 195
1482 195
1431 158
2052 184
81 32
2484 340
464 263
2823 380
1148 10
2661 83
1686 70
366 118
1141 106
861 19
3264 375
1917 10
2125 278
1357 390
2626 44
2478 310
2509 48
2269 327
229 81
1061 10
3255 348
106 350
258 30
147 75
1707 347
483 360
2406 3
2762 179
2242 195
63 364
789 272
1967 239
2161 332
2039 12
2462 197
749 436
3048 148
3048 218
817 112
2768 380
3373 71
777 71
2050 364
407 330
2443 346
192 3
860 195
970 192
2251 279
3164 126
2809 312
2193 242
2248 149
2144 379
1744 158
386 103
1935 345
2767 61
3383 258
3478 47
662 371
2061 335
848 38
3224 110
3182 205
881 67
3497 223
1703 128
1132 177
294 395
1565 84
741 23
1191 50
1576 134
466 205
155 248
227 19
2601 30
804 83
1452 279
2582 436
2853 6
2067 270
3203 103
455 79
3185 150
1698 390
2698 434
2875 194
3377 9
2057 220
2427 109
2870 334
2349 65
2300 188
773 284
1226 355
2882 23
3260 291
3055 344
1002 184
41 230
727 388
836 392
2515 364
448 222
693 165
895 252
1542 390
2135 401
859 53
350 212
793 175
3250 102
2394 206
2617 374
2077 196
3179 263
450 40
1094 307
2296 254
1731 65
2759 332
3178 168
2841 162
1962 39
1276 272
1001 330
2095 254
3058 300
3342 52
506 254
1097 137
1469 105
2719 335
2331 288
143 325
1704 118
2038 401
2427 240
3221 215
771 80
2522 326
3092 358
617 214
2538 325
2559 296
1927 37
2978 268
2515 166
2021 80
745 56
1649 391
3216 33
1384 304
1235 72
1286 252
100 283
2049 67
3409 96
3484 297
2409 11
2603 82
781 378
1546 296
2761 148
129 346
225 82
2634 72
3402 259
1020 59
734 104
2162 306
1532 134
1886 315
2238 187
69 37
2825 411
2974 393
2115 301
2327 278
1663 94
1484 32
3120 77
1366 421
2695 268
1914 121
621 184
138 139
486 73
712 173
355 417
479 281
1188 220
237 260
223 360
3229 243
284 119
2715 273
1227 412
3074 179
2127 201
1791 275
461 188
1450 21
74 345
606 154
1 141
43 52
3467 373
1939 223
256 381
752 45
3449 288
458 231
3210 345
848 431
2706 95
3412 178
3424 44
2185 85
52 212
1144 12
3153 38
1788 75
1961 358
2246 343
1611 257
3123 347
2576 127
2399 64
139 8
2188 275
1118 89
3148 293
1353 216
2024 339
1878 215
1339 209
1540 352
2587 112
3443 264
2309 83
1176 133
2097 231
2700 283
3357 323
1749 215
1689 29
1877 49
1203 343
199 16
1725 308
3183 214
1537 356
2859 78
735 101
300 398
1288 316
2717 152
3011 204
3319 107
665 362
757 303
306 306
1294 102
3128 270
1064 214
2508 237
3271 167
1533 33
505 213
106 331
2687 351
3410 324
2219 284
496 66
1727 419
541 331
2420 28
981 339
544 303
3132 142
2480 221
1430 197
2467 2
225 417
2403 304
2262 345
2301 279
3108 53
3101 337
1224 344
2754 14
2702 423
2775 418
279 245
309 328
3481 133
1009 294
1758 111
2183 164
1716 358
3043 425
3228 245
2904 126
3102 129
2057 64
237 203
3296 241
980 37
3337 227
1133 104
3242 381
1107 392
1441 310
2636 243
1252 355
2153 38
3282 115
425 118
748 418
2653 41
1643 371
2373 200
1691 425
1654 167
3290 416
1991 322
2021 434
3124 228
1146 11
914 9
2043 157
3050 238
2354 56
1829 391
3395 88
281 283
2979 38
1002 342
1212 200
3226 248
2646 399
1104 91
382 84
1382 418
1485 122
2370 333
1325 2
589 104
251 161
2758 162
2784 78
2418 256
876 259
1558 344
3361 167
2704 135
2633 303
1966 105
1551 290
884 436
1897 163
239 275
1048 417
