3000 3000
2439 37
2546 263
780 211
689 183
1788 360
2145 128
356 47
2367 81
2720 46
2524 356
1033 115
2402 318
1671 276
150 330
1980 356
1784 362
2470 372
303 277
2273 42
2982 43
1645 43
566 305
1810 358
2273 37
2061 120
504 126
327 181
1253 34
2585 85
1292 140
2179 200
2783 278
1768 35
2888 125
2813 357
1525 86
1341 259
2103 366
1705 276
32 138
2761 44
440 88
2693 78
2515 295
2191 41
1632 16
1710 92
862 80
164 2
2034 12
1373 272
1029 353
862 141
669 364
2554 370
1877 317
494 315
1303 205
36 20
890 36
1844 133
2238 77
471 225
2821 224
787 349
2525 235
99 63
847 155
1897 367
1226 315
2812 263
1967 202
2016 52
41 366
2841 162
2126 311
1353 230
2291 63
185 347
686 164
1235 128
2823 79
2064 225
2382 246
2564 249
215 289
1422 34
2517 327
892 125
180 292
295 120
1468 291
1389 205
2829 37
917 52
424 194
2080 107
2766 193
2530 310
481 183
649 102
1515 129
308 273
2908 77
1216 3
901 40
23 363
584 279
2785 256
949 179
643 0
1952 54
1392 280
471 192
1621 142
2991 278
1071 214
801 315
2813 110
1764 149
932 313
2899 278
2823 191
2906 221
99 193
2506 312
1521 165
2312 91
1925 122
65 62
775 261
1645 27
2027 266
2726 60
243 21
1933 331
892 211
1595 227
2636 359
638 335
1607 111
941 252
1000 205
1030 110
1192 54
2835 222
1797 191
303 44
995 91
659 167
2408 303
788 258
544 211
1370 209
1114 309
2761 48
585 362
2734 202
2803 337
1955 104
649 45
360 31
1149 317
1909 110
721 44
1394 99
2902 51
2429 78
2942 118
1423 154
2564 367
1000 111
1673 216
1644 32
28 246
40 152
454 90
502 264
1332 291
1766 66
210 289
1260 184
2622 11
2956 83
2696 302
1444 299
647 40
1493 165
1461 161
2381 117
2511 219
1285 347
2311 243
2519 100
603 42
2983 61
380 45
2654 104
984 286
261 186
1718 100
2007 74
1257 4
974 278
167 79
2513 363
1186 117
1134 68
1516 364
1915 178
1535 18
1295 49
1075 116
947 115
2618 164
425 10
1402 85
1195 333
2973 360
1802 197
2045 261
933 277
2319 138
21 218
2460 89
1076 94
360 111
1517 329
1268 2
0 259
1189 359
620 297
321 369
1662 58
1182 108
1367 140
1313 185
535 112
1538 301
721 237
2697 355
2336 150
2701 364
1849 283
2031 220
2482 88
2435 346
2910 363
2160 163
1920 21
2713 129
1509 359
2834 81
2661 218
481 169
1772 308
1968 191
1230 306
1380 143
2957 2
1540 259
2325 124
2161 340
2188 141
2642 345
2709 242
1635 295
587 283
2076 157
2001 330
529 289
2808 306
2093 98
2458 98
2554 98
224 258
628 148
579 41
7 262
2038 138
917 232
2376 37
83 63
1692 58
1986 174
70 6
400 87
2016 374
1749 285
2128 303
2897 194
214 41
2744 279
2735 144
1399 263
1410 68
1317 243
2904 340
1638 149
2529 90
2107 234
1096 43
1532 114
2272 33
1820 63
105 262
2915 229
39 239
2416 143
2449 218
1820 286
2514 238
601 104
913 279
1871 107
910 272
2499 50
2227 99
618 218
2699 19
1920 215
153 81
2477 316
2717 304
2845 84
2232 299
2126 268
187 352
2167 187
211 99
583 188
2441 210
312 174
2319 173
114 128
2113 206
2684 315
614 223
1505 127
2649 341
2422 342
2408 355
177 78
2872 239
1805 321
1860 122
171 104
1180 276
2736 104
753 71
1772 298
864 357
1647 31
2212 171
2569 104
131 171
1725 126
886 209
411 145
1618 331
1660 61
1404 370
1897 181
2228 341
682 321
1194 345
2079 55
1475 73
1996 180
1779 263
1955 213
2228 190
2126 281
119 283
1319 168
2529 247
2382 35
1477 154
1048 297
2740 234
1817 344
1820 321
855 230
1531 297
2978 119
352 47
1028 21
2995 97
60 304
2927 126
1506 14
1420 23
308 268
1116 300
2153 286
306 88
2044 100
1631 204
1369 370
624 338
2314 102
2981 44
110 118
1827 173
1951 105
2704 155
2388 355
440 318
67 274
62 55
1581 185
604 251
2016 120
762 26
1784 203
1409 16
1694 156
425 284
2749 96
2650 34
793 90
2591 7
2202 289
2288 43
2258 347
1564 40
1978 273
1141 24
280 223
2893 77
1384 75
487 72
821 120
1521 123
139 220
2886 103
2268 45
950 34
1336 240
1456 286
85 111
1175 175
7 66
1820 24
1464 72
765 103
1637 129
2073 123
848 40
1707 29
2294 365
1850 361
2563 77
1285 166
668 332
622 220
2144 15
844 101
2583 363
1688 277
1724 364
1924 210
916 220
1387 280
2489 303
320 369
2743 116
1580 234
2534 308
161 342
649 189
1711 127
1126 65
818 344
4 338
1327 158
187 297
1764 128
598 226
2207 145
1071 153
1625 127
2879 30
2972 336
380 158
2143 210
1186 327
824 338
2247 295
2568 228
1714 229
2858 249
2125 270
860 231
844 65
104 308
2262 353
250 138
1626 12
2403 119
2206 332
2648 19
400 239
2279 88
253 328
1273 45
2188 62
1121 295
2392 224
2009 6
1793 278
1082 150
817 38
2147 265
1366 141
709 188
1270 78
1277 356
2194 302
871 116
2274 221
1678 286
1277 171
2799 113
132 198
1338 18
2287 286
2144 238
1398 42
2962 296
2989 127
2264 346
2150 115
310 259
56 346
1721 356
2683 136
671 357
1852 290
1084 325
391 2
2303 276
2768 336
255 269
2150 186
1218 173
1820 292
2064 339
1338 265
237 370
2313 369
908 47
1774 191
273 204
2441 110
1027 170
584 226
1697 367
2117 312
591 328
1464 203
1144 113
1800 45
413 224
2974 252
1755 320
116 359
927 143
1378 315
144 310
2271 265
1972 232
1979 332
2454 330
291 221
654 236
2281 54
983 95
959 329
1722 154
1308 326
2357 300
1809 284
517 39
1814 38
1460 88
1507 4
581 219
1422 135
150 95
930 128
1672 225
2786 369
418 309
2433 163
1256 115
2015 335
2308 320
590 33
2162 180
1310 311
3 68
2862 182
779 233
951 213
2605 342
2927 347
161 286
190 62
2042 325
1823 189
2517 40
397 56
2358 182
1283 331
608 93
2126 145
807 333
359 78
1983 96
2964 276
1375 94
537 0
1799 366
1262 203
225 172
521 54
1546 138
2164 362
2632 37
1993 218
2882 266
1286 246
2364 167
747 372
1967 56
1787 113
1503 374
1149 341
1855 317
1884 239
2250 100
2513 169
1886 83
933 166
46 315
1098 273
45 154
1910 59
748 68
1319 69
1536 258
34 218
2796 33
796 120
211 345
2886 301
2573 351
856 194
752 248
872 31
1770 247
1093 210
2445 130
1622 229
2100 78
2050 369
702 374
1146 68
2298 248
814 48
781 190
608 9
1782 137
983 138
1405 232
2052 1
989 319
1734 366
433 293
1931 355
2551 356
1578 58
48 349
852 90
312 12
483 348
1683 339
774 202
971 94
83 56
2790 72
1570 54
1436 38
263 83
1189 109
905 275
933 62
76 156
2829 203
1067 277
531 360
1803 350
2755 247
2100 358
2294 286
1291 197
1979 329
351 16
1140 1
71 108
2323 172
1180 231
1366 96
1176 124
556 145
87 330
1944 224
1113 274
60 170
1127 313
2600 336
937 21
1969 63
854 194
2272 349
1810 329
2563 144
238 108
859 30
1321 165
309 321
2345 307
953 3
2417 120
1167 313
33 225
2966 78
1208 134
2885 164
1195 82
2128 123
1624 182
601 224
358 44
2845 43
1575 272
2574 268
615 205
2317 111
1860 160
41 82
2262 315
825 150
1351 294
507 143
1449 6
2292 229
26 77
2599 37
1201 207
1286 128
145 15
470 44
64 58
1415 355
2649 329
40 207
2107 112
2588 44
2444 196
2314 68
1686 268
1641 222
1754 251
157 162
2623 320
934 87
189 32
2016 212
1762 30
1045 175
2542 178
1460 145
2677 148
248 200
418 91
1318 368
186 21
796 259
1667 178
1483 246
2307 344
2729 374
1214 54
2731 182
302 49
1278 90
2794 241
1037 361
1598 27
1378 164
1346 23
2896 236
1565 57
1327 277
597 339
1442 207
431 121
2787 84
2098 11
1234 228
1323 186
244 170
559 23
685 67
1342 349
2234 61
2190 254
2506 134
2967 256
1463 61
382 164
1361 21
1650 241
1282 34
801 148
2485 323
1209 108
2331 356
829 240
1729 231
2656 101
2750 150
35 302
2765 76
1556 358
379 314
2491 184
1618 83
253 88
2418 278
2618 38
445 338
6 14
148 241
1850 200
986 21
2296 267
1585 99
619 211
2719 124
883 65
389 39
107 281
2907 151
1284 155
989 10
965 139
1148 331
178 268
1126 119
1755 90
1712 3
1813 120
1481 368
1842 59
2618 234
952 123
2273 6
2198 100
810 323
2636 89
2016 221
2318 325
384 251
748 305
964 28
1368 166
77 200
933 28
896 98
768 104
2386 27
1855 54
2661 150
693 220
2402 11
647 48
2747 158
1706 119
211 241
2730 98
2162 195
490 135
579 183
2564 276
5 59
1120 10
2812 288
608 113
687 374
2808 370
1063 223
2571 72
2224 258
2502 274
708 207
1726 283
1946 248
313 235
2076 135
2542 70
444 76
2696 312
738 326
2373 278
1864 21
2224 157
1247 121
2665 59
1719 111
1141 37
1832 162
1899 366
1072 34
954 111
2766 315
1656 277
1916 127
1834 80
1371 367
367 121
658 286
2663 114
1524 269
507 271
1105 118
1412 310
1221 256
61 344
35 23
1695 129
213 253
1313 111
2244 48
809 373
2057 25
938 361
2968 347
1148 90
132 98
1827 167
646 363
1670 228
895 131
1087 150
174 330
1479 280
2535 42
2550 206
2754 68
2721 265
2240 71
2658 154
762 284
2106 234
159 219
2745 270
2712 293
2760 280
1680 53
123 238
409 90
2303 304
2082 248
2138 35
580 90
671 15
1106 198
874 277
1578 99
203 247
2494 319
2165 234
337 145
718 295
1491 186
1753 268
1926 99
2114 220
2997 228
2384 169
2041 352
510 105
2277 206
151 81
553 10
2969 164
1981 55
1553 371
2504 60
979 113
568 353
646 303
888 35
2666 233
533 333
2669 170
2431 357
1454 103
459 151
1393 188
1178 82
2590 55
1490 342
306 158
2808 204
1590 359
1181 23
2361 89
2830 44
2503 135
2047 23
659 192
262 156
2484 206
1031 238
2158 85
2025 328
973 348
2758 345
2988 364
2062 216
718 322
2722 64
1873 159
1243 309
2473 112
2644 316
582 324
64 87
1240 76
2056 233
976 202
2797 349
541 190
817 351
486 334
1402 239
33 202
1538 105
239 250
475 338
485 345
456 204
2336 350
2178 82
1166 38
1723 270
1013 242
1960 208
1136 180
98 314
1910 242
2472 195
1713 305
2804 357
202 37
680 20
874 288
1697 321
2253 309
725 107
2457 343
2841 58
890 196
2876 306
522 134
2218 27
2493 364
130 70
846 302
1826 132
1849 322
726 72
2548 91
1710 42
1648 167
2954 69
362 257
880 291
483 183
263 61
2121 158
1171 298
500 342
2350 121
536 159
810 296
935 286
2228 305
1297 319
1834 356
348 218
1750 133
1547 136
96 270
1354 73
2369 5
2123 277
1397 167
927 219
1826 258
866 10
1054 270
2947 80
1908 31
2874 13
1544 223
911 160
308 12
666 362
2046 58
2309 302
1319 196
2750 192
2034 123
1374 287
640 173
341 27
2258 237
802 262
1945 177
2009 156
1949 215
1519 291
289 90
65 120
685 40
742 260
2498 290
1309 259
2350 310
1184 353
1879 350
2182 200
1158 291
1848 75
2934 347
2622 237
907 23
2581 326
164 289
2897 146
43 190
2522 3
1637 208
2213 34
570 371
2040 173
506 105
12 336
1086 113
2183 341
1552 282
987 202
2147 29
599 227
1602 170
1790 150
2440 285
2567 70
883 212
1637 299
155 12
1063 84
933 333
2115 217
1599 295
1395 215
819 257
1288 117
2677 338
748 85
2934 284
657 321
87 4
297 1
1672 362
2199 290
2455 170
991 70
805 19
2436 61
308 61
2810 199
663 278
2637 115
2148 365
150 355
1633 227
2795 36
2922 57
501 172
460 205
791 327
381 197
961 163
1965 52
1628 281
311 346
1733 231
1632 5
1732 293
473 71
1024 190
987 57
2106 227
1046 51
1402 266
945 140
1863 105
2068 66
1089 142
2585 219
332 330
398 278
2286 313
2886 372
994 143
716 127
277 131
1708 70
2963 123
479 17
821 67
1021 160
2365 161
684 343
869 191
2719 19
1769 317
1999 352
2951 372
122 153
2483 153
142 105
2992 61
2859 179
1761 300
1113 290
1268 356
1113 329
1618 350
1948 239
1510 329
2143 236
1767 56
1754 188
2348 139
1419 18
1675 35
2091 261
1243 121
940 101
222 299
606 27
1428 254
1588 209
2522 286
2941 127
2312 239
2306 273
977 275
1474 153
2666 120
1099 186
622 48
1232 0
33 72
773 325
1524 147
2530 73
1763 204
2787 292
322 177
660 191
491 6
393 269
2403 45
2376 240
2869 344
2241 324
2206 216
832 311
2688 16
2973 103
789 8
1279 319
2563 326
1719 351
974 307
2695 33
2795 211
643 12
554 160
776 297
1449 126
1959 294
2602 278
1087 137
974 258
1203 24
2561 374
1313 37
2426 111
1724 79
174 150
593 220
858 139
83 263
1167 144
2381 288
1103 24
961 99
1709 185
1650 183
2654 137
1413 6
63 126
1713 97
2082 152
1775 283
1260 350
1367 370
349 317
961 322
1271 292
75 339
1129 145
800 83
2017 131
399 334
619 247
2927 69
1764 17
1949 207
1840 276
1473 181
504 21
1066 193
2340 8
2823 306
2682 182
387 363
1575 84
1978 145
2954 245
1533 1
959 283
2367 284
1786 148
2585 38
373 190
2570 254
1661 165
1527 278
2719 125
1740 330
2040 322
834 145
7 116
2587 280
908 117
1049 255
13 310
10 36
56 288
2952 166
28 362
355 282
1110 19
2744 320
1764 352
1318 18
1210 178
552 203
901 233
686 146
2504 131
2601 54
2670 221
779 243
291 21
2227 345
1961 156
780 113
2825 244
2997 247
1990 195
918 209
801 349
1930 299
2716 359
1775 220
1076 322
149 16
2597 232
2969 206
2933 244
2164 213
2439 56
464 374
1578 270
1869 222
1561 322
2231 26
1313 142
829 111
238 46
1480 216
472 235
1974 85
142 133
1175 200
592 369
960 333
2105 57
19 336
2547 120
1165 7
235 104
2106 220
1374 67
1267 96
2721 187
2946 151
2727 342
948 14
2751 6
1354 270
737 165
1893 134
2589 141
2360 213
1218 36
1170 369
2344 331
516 350
2732 346
2011 105
492 345
2660 212
1375 353
556 100
2145 242
1155 328
1517 150
1687 11
595 261
1046 351
2092 309
1684 311
854 166
1409 238
2571 183
2894 329
2872 106
504 147
1342 105
1085 221
542 169
1491 321
2241 172
764 110
2307 279
1706 195
1901 47
2092 150
1145 369
1198 69
2404 324
531 16
2033 350
2787 356
357 113
1062 129
2802 251
170 63
1642 367
2512 33
1209 156
2727 257
508 80
1723 319
1762 101
734 27
1333 11
2384 207
2309 128
569 301
1652 63
614 304
900 113
877 237
2 108
1128 90
2374 329
676 321
68 117
1080 285
901 363
1876 144
2499 350
1991 183
1142 286
1920 151
331 170
132 236
2321 279
1036 124
2235 313
2915 181
1473 261
1402 30
964 214
1469 192
468 158
2020 19
2925 53
2274 197
2094 288
1738 22
2718 198
2601 312
657 218
1388 154
2151 231
2162 281
2120 239
1926 168
676 278
1811 334
987 211
1638 213
1571 174
803 120
915 276
791 42
303 198
2018 14
1903 192
2943 240
1094 246
436 50
2587 243
2624 315
2953 127
810 355
1495 4
340 71
641 205
2118 20
1872 128
1323 324
1965 140
2727 113
1959 285
1428 230
1231 106
1461 42
2043 204
1804 131
1136 20
254 204
2652 328
989 207
1107 153
383 61
1661 204
2398 34
1816 58
1785 341
2292 355
1229 79
750 310
672 32
1924 163
2711 205
814 107
624 242
2853 282
1044 360
1497 81
335 205
1196 10
2798 284
2841 211
1828 272
439 211
2567 332
2585 21
2583 356
216 297
2309 93
2544 97
2944 316
498 115
2365 152
2901 41
835 321
811 66
2745 367
2111 184
41 201
1020 78
2538 94
962 141
1173 146
2380 367
2585 326
1164 174
53 108
2152 135
1238 54
1722 122
67 64
1589 293
1796 98
1270 366
1929 292
384 24
2106 187
492 263
126 39
15 145
196 36
1710 70
47 66
1560 83
1814 353
810 273
2927 75
2295 351
1124 329
2898 308
585 359
2746 255
929 260
290 38
1553 274
1693 285
2003 278
885 325
2895 8
1779 90
2410 186
181 142
2123 232
640 76
1237 69
2092 262
2086 178
20 120
444 332
2302 309
454 370
1550 340
91 177
1430 100
2512 135
372 139
617 157
1505 174
2152 205
540 133
1190 350
1647 113
1282 294
1863 163
625 330
333 208
1981 136
2355 320
2505 207
2301 254
1141 195
1483 307
1846 341
1611 124
2691 203
1735 171
1461 225
187 332
167 172
1306 57
2621 357
2872 303
363 14
1687 111
647 321
279 273
719 135
1312 75
1788 209
2027 148
2374 318
1502 147
1242 105
43 290
1059 197
1029 1
768 153
2199 209
1912 168
1583 120
1337 306
1584 230
2634 275
983 176
1258 259
1963 37
983 114
2130 209
258 39
1082 56
2699 248
396 374
2718 308
2361 257
1303 230
2228 230
2668 225
552 188
2641 220
1837 281
825 167
2373 39
2034 312
1798 256
939 21
729 260
367 9
2440 265
1813 104
2498 120
1110 38
1149 26
2361 127
2300 133
2683 239
846 126
282 34
2994 76
1017 103
814 249
1500 299
2632 10
620 259
1891 264
1716 313
1035 221
570 96
2290 254
2971 323
1059 122
2381 249
2266 101
1867 20
1208 117
1392 133
2385 219
2825 83
1223 368
2353 295
211 200
305 78
620 178
2521 246
941 272
63 337
1564 64
1276 14
571 22
779 130
653 52
481 15
372 265
2991 309
1034 227
1366 143
143 227
929 370
1571 73
1986 353
2714 245
1631 277
2240 218
2823 327
1292 252
68 251
2472 90
1095 337
37 352
1599 130
340 192
2123 180
2577 359
179 122
2814 109
1808 139
889 112
2540 214
1744 118
1567 148
2066 314
2702 298
1551 187
2389 183
132 361
1546 249
2464 153
2896 102
969 363
134 84
2556 282
1544 223
2414 53
2241 104
1178 35
2188 150
2872 371
1390 126
178 56
662 266
2787 347
2117 97
1020 93
1961 326
1831 320
328 302
2290 71
2667 330
1769 137
256 285
598 44
723 42
1843 67
560 304
612 38
772 190
495 368
580 125
855 89
660 68
2967 280
2616 16
1923 203
2436 302
1620 242
636 69
2006 177
1445 287
204 184
2235 288
1301 172
738 65
2963 13
1525 193
2834 107
2914 0
1789 38
2013 315
2494 18
1766 202
1359 349
1675 32
1357 350
1054 210
1422 291
1599 341
2034 40
2286 121
861 324
33 232
2791 98
1629 86
51 117
2402 166
1577 334
2675 54
2618 83
27 46
2477 346
1880 117
2920 312
2249 242
200 94
1339 315
155 29
1145 331
898 155
856 156
2708 223
308 190
1955 101
49 26
2162 284
2634 33
1643 131
254 21
422 137
767 189
2269 100
514 368
744 128
2096 129
1255 367
1155 283
2871 352
990 181
2713 179
2389 343
221 153
1044 23
2306 108
2735 92
1271 324
72 29
349 149
2441 125
2953 208
1788 39
2875 36
2055 161
2099 277
2766 374
1145 253
141 260
1494 335
2824 187
843 94
2554 61
289 361
767 150
2551 296
1737 41
1708 223
1620 236
123 300
560 329
1878 201
519 102
1358 134
1634 159
2448 213
843 59
2885 356
850 129
521 280
931 81
866 356
1255 210
442 223
127 83
889 158
1451 115
179 311
1603 184
1130 187
487 75
2018 47
958 364
17 141
424 203
2505 326
992 9
2913 11
1511 147
598 35
1619 372
2810 78
465 95
1602 280
2935 169
59 352
1977 339
1731 119
739 98
877 160
1797 324
413 102
536 22
2401 139
1840 209
2258 89
1004 121
2359 193
2760 116
1172 311
438 276
1299 274
1132 249
694 224
180 239
1973 215
181 370
251 228
1822 170
689 286
806 84
1700 203
545 99
547 48
2424 223
1863 191
2619 274
869 361
649 256
1888 288
567 316
1396 292
1429 306
2586 10
1043 32
1033 68
2860 145
815 76
2296 184
1496 317
623 187
2144 269
1104 353
2216 161
73 32
1720 366
807 72
55 100
707 338
2868 308
1349 213
1246 148
2007 121
119 367
1977 140
1958 101
1153 127
814 157
98 236
456 369
2452 9
1213 363
1121 100
336 366
1014 102
2003 108
1092 301
2178 247
812 42
1088 200
2410 351
1405 254
1620 71
1118 121
2124 132
2096 267
1250 67
2571 84
494 325
1457 210
2553 320
644 56
2473 199
937 106
2175 157
1659 269
2202 306
1063 163
2633 190
2107 133
372 356
2364 290
2177 188
2080 104
1779 67
329 307
1588 367
752 207
1041 351
2312 172
2625 51
2772 245
989 100
2817 255
2927 328
2552 360
2989 169
1511 364
2124 47
1546 167
936 121
1153 98
536 248
1992 347
2451 19
502 15
2686 342
1912 226
870 238
2123 90
794 261
926 199
1411 93
2175 66
2168 265
1647 280
767 12
1361 105
181 36
2884 330
625 229
2503 114
308 325
2488 173
360 22
1351 132
1174 261
2171 371
469 232
2124 350
2297 286
765 147
656 365
384 372
1626 37
1781 130
410 98
1398 157
1728 363
2024 28
1671 133
2416 106
2131 34
2223 71
2767 368
882 40
454 328
861 183
1404 353
2463 114
1478 268
1226 333
1300 290
2446 156
124 358
2533 367
2068 318
1574 164
100 123
582 257
2003 148
2243 301
327 140
755 180
1463 170
1540 271
2266 315
454 55
1323 34
796 240
331 138
1477 97
406 310
1116 114
1174 207
357 218
2718 54
1837 154
496 234
378 320
112 33
2556 216
1412 217
1773 46
361 62
2190 191
126 74
2916 274
364 287
2549 63
1965 195
578 353
302 144
1852 185
17 281
2577 239
74 299
2377 220
1352 259
297 63
1113 314
2849 185
1956 205
1929 15
1622 104
2467 342
2834 248
2906 60
424 63
2525 273
1834 5
2794 193
2504 66
2039 338
2810 343
1960 187
349 171
1791 326
2061 143
461 258
1776 0
1443 14
1213 176
1261 225
1738 77
530 19
1734 328
693 175
1989 244
378 275
2616 225
1068 365
1429 346
519 45
1470 334
2368 295
485 347
1823 234
1581 259
980 369
2551 233
34 267
1207 175
2105 271
2885 72
913 179
934 274
1466 319
1688 248
1871 41
1528 359
1203 267
1211 233
2666 169
185 371
2079 28
2963 10
1097 278
319 47
1610 60
2107 196
2536 322
98 101
773 177
1314 153
653 39
2268 62
911 324
2527 95
1098 357
2299 4
322 124
208 122
537 83
945 214
267 314
2988 26
1399 3
1182 32
2122 299
169 78
2805 162
2215 275
506 154
232 212
932 260
1507 138
1772 240
1636 27
92 67
1635 322
857 176
706 93
2215 152
534 244
2595 332
982 253
381 46
2491 112
634 360
2064 265
564 346
1809 257
1740 347
1565 243
1952 250
1703 114
895 114
47 263
2851 180
86 44
688 237
770 112
1380 312
1719 165
1948 13
68 177
2203 143
1005 48
537 92
810 332
2253 298
1754 3
1251 72
723 128
2039 168
1942 120
1585 228
2755 367
2217 317
1859 335
787 258
386 352
2731 290
1639 140
780 15
2301 287
306 253
1890 185
978 367
941 33
1096 311
2721 69
2259 163
864 298
881 239
649 353
2533 43
755 62
864 367
535 228
185 306
1616 287
106 113
2310 154
1757 198
2613 222
1746 187
184 169
774 203
2566 362
2946 262
1899 38
443 91
835 329
2304 95
2925 313
2355 289
688 30
2980 52
2396 127
488 29
294 79
190 248
371 264
229 19
2412 368
2450 320
2797 298
2081 37
265 68
2723 188
1893 203
243 333
78 244
2973 317
1895 12
2832 198
935 130
2483 269
2777 97
14 92
2930 108
1969 186
2151 16
1873 188
1995 5
2682 87
2936 271
1303 197
2719 336
2010 55
1053 179
222 86
488 232
1668 134
2259 51
826 331
113 50
1935 109
1691 9
2579 267
884 297
1668 321
1380 247
2567 235
1865 179
2186 289
1997 305
1722 92
947 8
2168 277
2862 45
1976 116
2495 86
2936 78
1814 365
1720 61
1247 36
944 168
1441 199
258 57
2843 12
1316 299
1096 232
1129 119
1190 61
1514 305
2682 97
1185 4
1001 113
2139 180
774 358
1156 143
344 186
1483 60
1659 26
166 359
1279 28
2945 38
2990 55
2850 260
670 24
2544 334
2702 137
2808 156
2039 14
1190 113
1147 113
942 334
1572 220
2183 324
1809 260
416 128
2143 188
1845 371
1542 8
635 354
357 352
1532 57
1796 152
560 32
2849 135
830 204
2873 127
675 61
1058 303
81 338
1320 63
2838 3
2742 322
2329 355
1207 6
2893 138
707 299
919 131
661 244
1723 305
1514 194
900 68
656 73
2764 358
1800 245
2360 231
2373 92
257 257
2943 244
2688 83
513 20
1686 99
1858 260
2897 85
1188 30
2101 215
2375 32
1198 98
253 218
2366 95
1106 130
2256 198
328 183
2025 106
382 121
1864 219
2967 145
248 242
163 65
2755 248
2882 372
2732 201
2342 39
2161 304
2715 156
1960 32
129 0
2598 326
995 69
1204 313
2762 39
257 68
1843 306
713 11
429 339
2264 33
226 308
2892 344
1605 236
672 165
1105 214
2348 243
2460 325
1972 37
582 135
2965 122
2475 207
1408 300
1872 128
1380 113
762 170
2042 254
955 161
2839 158
63 288
784 300
1716 340
465 113
118 204
495 105
2418 196
1141 147
2745 304
2835 210
2009 14
149 274
1933 66
2518 214
1284 77
2260 317
1474 259
20 260
400 75
2817 340
2029 338
383 76
1147 332
2712 119
1392 102
2987 44
1076 24
904 122
433 233
330 83
1026 322
2159 57
1551 206
2928 39
2907 162
1289 278
1542 152
404 26
2930 269
2511 269
753 302
2346 257
2742 137
952 357
1415 95
935 188
2974 99
2434 253
41 285
2860 289
1556 360
1600 90
2041 316
589 20
1228 30
1726 294
2098 34
184 364
2800 15
752 248
449 153
1142 267
1904 119
2674 266
1970 42
1077 200
12 41
615 46
1284 36
1665 67
828 135
2042 197
941 143
158 161
1624 271
2332 330
1603 268
2959 307
2685 205
843 329
1219 4
213 346
1638 272
215 94
1255 2
333 364
332 250
27 223
914 93
147 181
644 62
1319 32
2858 302
2749 365
2300 101
2715 120
489 15
2479 78
225 228
2598 172
2940 167
1556 205
2501 299
2914 35
124 86
2487 363
2342 118
1934 84
2954 307
1356 91
2751 80
1695 277
163 115
1140 306
808 179
1132 276
2905 126
1892 272
285 44
1038 188
248 128
748 24
2117 153
2715 213
2910 39
2568 97
2139 104
1007 140
1317 0
111 219
1257 171
611 93
2235 30
1479 104
1481 272
2662 292
1366 333
1661 180
256 126
2110 298
1508 81
1000 311
1949 114
1027 170
971 75
487 32
1445 362
2169 54
2415 184
242 212
2532 85
1015 65
2588 280
2719 321
42 241
2870 117
635 324
100 140
390 32
770 169
526 332
1033 32
634 195
1243 322
1795 321
2092 310
2797 134
2862 270
864 274
2402 277
65 37
2148 274
1295 22
576 122
2823 358
2107 260
1271 352
991 299
992 306
553 276
2296 276
164 86
611 253
2068 226
387 204
508 255
2012 179
2301 46
1590 45
1760 142
2770 187
970 227
2782 191
88 330
1890 108
571 76
328 26
2876 276
2655 336
433 44
2258 47
8 245
2241 312
2311 109
1062 124
1328 42
81 8
228 295
1180 263
192 45
2627 112
2885 248
2393 76
183 306
1240 300
1846 157
1356 51
2663 173
14 133
376 137
232 341
1694 49
865 296
2786 176
2814 213
2542 256
943 333
1678 304
1052 248
1502 4
2344 149
1939 223
1916 284
2450 270
561 115
778 285
680 77
320 354
2078 65
6 52
4 274
2523 17
1012 324
2162 264
794 62
347 110
126 43
2895 49
867 176
2275 193
1731 156
2344 41
1627 207
906 288
1639 150
936 29
698 153
2412 8
2397 30
2586 114
1147 297
2016 356
2648 69
2877 44
2511 111
2333 137
1889 194
459 31
1750 332
1096 133
1784 353
317 273
272 235
428 366
580 39
1501 112
1334 61
2857 47
2807 99
2198 229
2175 309
2157 81
2013 97
1876 358
2737 304
331 353
1212 28
1078 61
1072 187
1282 121
993 371
159 53
1264 215
1519 285
2731 209
1244 186
2592 366
2529 155
520 195
717 366
1566 266
2295 140
2720 209
2068 52
1749 326
2932 8
2101 5
619 204
1171 365
2924 33
1374 80
1169 294
1034 80
2224 110
642 58
134 17
889 99
538 261
1639 11
2466 134
1475 106
230 214
883 143
1302 294
789 353
1418 68
871 219
636 145
2239 272
1224 348
2267 368
1989 237
1097 58
2980 26
1075 200
1277 228
2979 252
394 167
2558 177
2192 45
924 364
2856 116
1035 57
95 145
1030 62
766 89
2975 110
1798 50
2840 345
1979 183
293 238
1746 36
2835 40
2822 266
1900 294
2820 142
844 351
2063 246
1412 303
1333 106
1497 38
39 282
2117 373
1709 292
1880 26
566 364
1908 294
685 353
1673 83
1076 80
624 303
1095 346
795 150
2060 40
715 93
798 92
2322 143
2744 39
1589 159
2663 76
1467 310
2389 281
655 365
704 247
843 82
837 316
2946 359
2508 261
2963 261
2933 135
2791 292
2565 170
779 258
2177 172
1795 83
2309 305
2910 103
140 0
336 323
278 28
2548 226
1357 203
2290 337
1059 249
2937 195
1609 179
936 243
840 351
1174 240
1368 326
2328 245
845 151
1560 143
1334 107
2506 0
1289 370
2185 246
934 352
2481 55
1918 183
2744 209
1408 60
174 174
2708 87
1407 64
230 335
2080 335
1495 80
53 372
2044 217
2408 38
1563 295
1411 117
2002 228
2124 124
295 78
1149 315
579 198
2022 5
1907 70
2362 371
1557 326
1139 370
2626 329
1750 371
529 256
1804 113
