4000 1000
440 99
737 77
644 26
395 95
940 18
96 68
301 33
65 37
237 64
30 17
372 86
606 116
565 111
218 98
193 104
478 14
615 72
352 24
126 61
252 62
179 122
790 32
800 42
69 54
419 13
555 113
854 44
705 48
411 51
798 81
294 94
922 32
421 89
654 29
720 88
1 115
35 83
721 28
112 108
459 8
226 57
59 87
845 6
917 115
451 48
67 24
198 64
583 92
329 42
931 31
380 15
331 74
566 51
315 85
891 64
441 50
569 84
538 86
371 75
720 30
665 100
231 11
465 35
935 108
782 93
348 105
823 83
303 2
288 74
358 46
455 98
864 34
16 74
942 20
229 38
666 105
560 40
472 5
337 33
734 2
997 79
684 40
946 30
608 9
922 26
759 55
922 91
274 65
521 54
697 35
0 20
343 41
677 46
102 60
878 121
749 86
638 123
196 10
152 102
929 42
899 13
788 15
852 73
285 23
791 24
986 64
620 23
222 41
878 15
824 72
116 7
50 31
34 47
372 49
96 54
144 76
547 56
17 35
755 48
323 5
941 15
403 34
604 108
339 88
190 105
87 110
846 50
84 74
616 5
128 83
937 109
655 40
368 38
500 112
843 77
288 50
227 17
442 42
20 70
756 52
554 85
607 33
691 27
505 48
176 89
706 101
49 29
118 24
813 20
95 20
806 51
78 79
906 46
949 22
0 50
381 9
622 83
95 118
812 61
471 45
758 51
274 19
658 26
605 0
404 28
343 117
854 44
544 67
626 90
871 1
603 94
320 120
604 14
279 74
406 37
430 56
525 6
958 120
621 122
190 102
823 95
524 114
715 92
662 52
443 53
273 59
122 6
392 57
143 44
919 51
831 12
348 93
718 82
751 99
697 49
714 96
380 111
917 46
811 78
383 63
705 86
661 20
421 25
920 43
732 36
522 21
3 51
125 13
797 90
246 0
179 60
908 18
32 15
653 77
619 37
117 61
366 104
713 40
550 39
815 40
984 95
184 3
94 81
105 47
585 89
492 44
407 15
227 60
871 26
299 17
758 79
689 66
391 18
865 78
590 93
932 92
524 12
215 1
255 11
273 69
623 3
118 117
556 38
804 33
655 12
733 31
192 20
148 71
981 16
768 3
819 13
823 26
917 15
617 21
465 26
550 29
452 11
820 71
976 108
979 60
306 40
653 68
843 17
145 37
316 28
897 34
41 43
469 36
684 51
982 93
26 9
157 92
348 92
179 33
57 33
64 13
597 95
665 43
914 86
848 24
348 112
553 3
422 99
713 32
693 59
535 36
336 120
605 84
816 107
148 105
635 124
951 21
720 86
43 105
255 121
878 56
253 37
433 48
73 46
127 25
942 3
785 43
206 16
187 1
90 108
903 84
591 95
517 35
904 87
70 78
712 72
269 57
776 13
415 38
906 29
311 93
434 18
805 92
290 36
68 28
819 8
802 107
885 108
723 22
213 52
978 59
602 76
493 11
133 39
875 20
236 86
457 56
988 11
105 17
250 91
682 67
891 7
744 17
257 117
744 10
981 56
684 34
203 107
59 70
405 45
477 76
175 109
455 115
807 101
976 17
326 48
526 49
462 100
733 121
198 112
294 62
150 62
577 84
96 12
505 113
743 14
731 40
511 25
214 54
750 61
550 20
233 97
515 25
130 82
980 85
214 113
79 53
466 85
535 78
850 87
180 73
834 2
874 84
782 103
993 105
749 79
471 70
716 107
768 9
176 70
995 76
117 29
506 111
811 35
226 80
938 47
758 119
405 45
439 99
21 89
82 39
838 16
152 87
378 7
462 10
844 32
822 2
426 90
942 85
944 84
887 15
119 89
362 4
492 40
341 57
144 15
496 63
393 35
978 21
286 40
988 47
175 10
324 123
411 109
116 36
3 49
990 92
346 120
904 27
570 18
617 105
705 87
988 117
924 123
600 2
342 86
67 10
136 56
594 80
575 45
481 19
711 56
459 85
448 91
430 78
756 120
96 80
851 57
279 46
370 99
16 97
582 11
90 32
358 109
266 25
517 12
43 36
57 29
161 54
429 113
942 105
724 102
131 103
219 85
162 46
413 97
306 97
350 46
148 93
632 57
969 23
561 9
718 105
297 91
904 9
729 122
882 64
431 66
897 65
519 47
841 27
981 12
99 120
964 120
687 33
469 122
162 25
943 122
588 22
353 89
187 4
706 62
136 10
581 35
422 96
117 95
641 76
561 26
735 63
631 84
146 18
46 53
768 6
816 26
636 94
701 59
298 15
796 32
39 62
433 29
427 19
589 61
706 10
892 73
631 25
151 122
370 11
551 105
660 21
170 37
477 46
726 88
95 59
593 114
566 92
863 90
281 23
920 22
56 95
548 43
247 113
421 56
715 105
355 116
648 79
69 57
589 84
400 63
91 72
151 57
24 93
684 65
346 21
789 42
32 51
0 99
879 17
315 28
750 56
116 53
655 79
238 102
827 47
305 112
168 15
653 117
786 89
736 29
847 2
32 39
19 121
762 63
167 54
133 114
420 4
685 29
824 88
898 81
837 98
895 4
494 11
124 16
216 84
887 91
947 95
220 117
555 94
973 40
578 70
587 98
736 53
193 111
271 111
439 88
794 48
561 86
998 87
324 92
778 36
170 80
832 77
401 99
2 34
338 6
705 68
869 62
980 112
281 59
144 13
996 47
412 49
346 100
681 76
38 35
983 60
116 84
831 17
979 18
770 34
538 72
556 55
392 15
628 119
339 24
236 95
663 25
59 116
945 21
934 78
572 82
232 106
507 92
360 68
45 45
272 78
735 89
672 19
660 77
879 104
931 77
163 115
756 54
106 44
809 58
897 82
842 62
29 87
544 28
289 23
677 10
291 104
300 98
658 44
61 120
595 2
178 17
40 17
587 83
654 32
549 115
494 41
575 82
439 99
79 85
542 24
35 99
462 34
598 88
69 16
337 92
488 88
630 75
439 32
154 30
24 10
601 106
48 43
116 42
327 53
19 18
471 71
755 85
70 65
587 65
494 33
104 121
250 101
218 31
646 22
20 122
495 49
500 85
821 46
380 76
451 90
960 49
785 27
957 10
274 1
575 84
736 46
205 13
587 54
665 80
284 49
471 51
485 48
698 118
425 64
856 97
147 72
327 1
587 11
876 45
583 31
896 3
352 44
669 44
16 42
511 70
235 30
616 38
224 68
435 40
108 75
532 1
840 29
843 11
446 59
935 39
994 36
994 39
373 69
983 69
32 111
979 70
749 124
954 54
630 35
555 121
611 70
830 18
368 115
582 50
65 25
379 69
485 70
738 17
428 120
136 122
572 70
70 13
859 63
395 109
164 63
205 4
943 80
726 23
734 9
365 61
722 13
156 78
705 0
680 90
130 16
754 86
454 119
373 20
527 5
892 21
961 85
195 37
444 17
337 70
64 7
517 52
514 103
969 107
575 68
90 34
563 4
425 54
993 3
204 69
116 95
586 48
144 57
490 108
519 123
870 57
437 38
668 105
738 30
174 29
765 39
233 116
198 41
687 5
898 111
430 77
283 28
172 83
595 36
572 18
297 33
784 70
331 39
696 88
653 17
394 116
580 83
359 85
449 15
240 13
219 99
681 44
518 67
318 87
313 26
366 33
207 121
55 2
395 88
679 25
89 28
565 84
480 53
956 114
685 46
779 120
716 53
309 41
544 82
375 8
835 56
411 118
254 80
152 45
838 103
85 84
846 20
903 65
715 99
496 81
717 12
605 8
647 31
119 49
240 76
387 47
880 23
272 79
35 52
268 7
306 20
600 38
680 23
132 47
829 88
985 75
586 74
316 58
906 89
989 91
214 46
198 32
673 23
622 104
243 24
419 76
412 75
353 109
257 9
317 102
96 92
670 103
364 23
597 61
702 68
468 37
72 52
404 91
396 19
186 8
657 110
999 53
875 22
897 57
611 107
521 74
827 92
61 8
501 1
339 79
157 47
66 93
307 76
122 92
352 51
610 113
397 98
228 15
658 38
701 58
473 81
428 71
31 112
280 52
661 11
835 91
263 8
517 80
835 57
112 65
684 116
276 62
755 80
492 95
79 36
553 7
568 48
311 44
462 115
695 21
950 40
764 64
570 51
542 21
451 113
141 91
389 73
961 55
484 43
777 21
636 24
950 81
129 118
887 92
119 76
113 30
55 124
829 33
368 24
568 53
237 64
271 111
677 102
981 89
907 88
679 45
17 101
929 41
841 10
795 88
354 89
204 43
639 44
819 43
761 51
152 60
618 24
903 18
808 17
215 80
768 101
39 84
975 86
402 85
714 24
186 6
546 21
776 21
218 110
378 97
767 21
817 57
217 13
656 7
424 59
55 120
348 68
763 10
124 23
591 51
966 66
463 68
543 89
172 59
693 42
96 111
498 1
129 29
464 77
434 49
380 1
592 49
513 48
617 30
776 121
851 113
119 3
315 47
942 115
185 23
591 115
510 91
857 74
251 54
369 34
109 49
281 103
526 69
807 115
821 65
852 73
915 90
781 36
841 64
669 80
929 70
893 90
236 48
468 53
426 72
521 117
290 124
629 120
986 73
439 63
250 97
512 109
307 2
900 35
398 34
157 96
451 80
295 123
266 121
875 60
937 68
942 43
276 6
882 111
209 22
740 75
159 67
219 53
897 34
292 69
464 14
141 89
973 22
253 124
256 83
17 121
208 41
716 39
223 77
554 110
934 70
65 64
519 115
486 40
209 48
459 37
471 112
183 87
868 4
281 13
394 75
132 87
926 40
783 99
33 96
337 28
874 20
589 96
486 39
593 47
173 80
49 113
735 25
632 98
841 63
538 61
347 52
896 99
421 121
772 51
337 9
51 6
54 81
863 54
567 35
505 25
546 13
290 79
682 13
794 43
874 10
840 122
668 101
358 116
308 49
668 7
953 9
828 67
988 95
21 63
644 64
58 41
299 36
21 62
739 3
214 122
734 111
471 85
489 85
40 57
670 50
727 21
924 97
540 27
575 81
396 31
581 82
742 3
730 40
212 63
350 45
828 93
848 67
381 85
53 108
734 55
113 71
642 65
681 113
345 72
555 0
725 73
390 42
338 0
961 25
449 55
89 123
530 124
637 14
968 113
533 110
237 15
78 49
257 10
190 83
982 67
446 10
850 24
68 82
483 112
212 28
478 63
202 70
715 5
461 9
222 78
847 46
633 86
619 45
962 14
104 65
268 114
13 87
980 95
139 36
593 35
214 123
330 52
491 53
529 23
924 26
904 123
543 36
178 72
391 48
30 86
646 23
994 92
366 2
706 49
35 92
206 62
992 29
743 22
189 54
350 54
845 111
358 0
582 12
32 91
297 115
834 34
999 87
736 5
774 95
174 93
380 109
502 5
725 123
761 61
504 48
793 122
943 0
944 49
277 7
907 63
783 86
881 121
178 73
946 5
864 58
241 89
598 7
247 72
223 37
199 49
404 72
739 64
168 63
488 35
807 85
917 102
162 35
927 56
480 111
329 74
738 10
353 16
156 46
856 67
695 101
718 101
97 116
606 22
367 48
134 98
950 64
263 54
533 35
732 66
894 39
115 103
920 49
904 118
127 7
415 11
582 59
472 53
358 110
420 60
810 60
763 44
133 91
528 20
836 121
670 73
952 102
770 27
825 111
409 47
231 9
491 114
18 22
60 21
54 13
351 5
75 90
761 99
653 67
783 86
254 113
600 49
695 60
99 89
199 42
91 86
391 63
667 42
256 100
818 45
855 84
71 40
481 12
282 64
177 22
829 19
494 34
351 101
26 47
122 92
321 76
933 74
1 83
417 112
547 103
921 84
238 93
911 2
691 2
605 58
76 39
788 29
654 95
521 116
923 86
893 112
81 8
867 89
481 47
307 13
797 15
444 78
576 1
432 13
547 20
779 110
700 58
323 60
519 83
62 37
84 45
700 45
497 83
873 113
890 22
160 5
920 29
330 39
533 18
578 96
155 43
303 114
745 58
212 84
248 65
180 118
961 59
405 31
361 11
316 97
226 29
583 124
462 1
466 39
758 7
984 98
982 3
687 18
942 119
844 103
611 90
979 34
641 35
935 55
800 52
411 69
593 17
738 14
831 61
814 38
205 87
241 84
626 122
314 101
652 42
538 22
174 6
729 7
162 95
308 2
270 47
913 28
84 104
262 35
37 117
190 122
210 108
768 10
18 51
107 54
696 57
544 6
866 13
733 112
979 74
57 98
759 98
195 55
498 27
872 18
330 112
789 11
766 78
833 40
485 40
799 70
688 79
815 32
229 53
456 104
858 63
992 60
406 50
454 102
221 20
868 60
773 40
178 117
35 123
788 17
229 23
304 118
566 90
838 90
571 19
389 19
570 3
218 4
642 0
312 48
343 114
132 41
261 33
478 0
269 106
436 59
890 41
318 37
947 76
562 54
646 75
140 61
961 59
467 121
146 49
36 112
563 49
105 72
467 39
508 99
807 1
121 109
450 2
797 100
374 124
845 7
985 25
586 74
756 5
570 31
225 5
340 48
264 11
518 61
341 97
433 96
460 23
471 81
712 107
750 81
252 11
603 24
336 39
851 2
498 63
983 30
258 0
230 63
526 42
243 22
806 90
911 5
464 75
569 25
670 90
295 83
782 75
983 107
759 120
757 61
424 43
916 8
329 109
847 71
308 9
582 37
118 123
132 120
442 46
277 89
328 39
339 76
146 67
194 17
722 15
100 77
735 25
662 65
314 49
867 102
897 61
36 25
788 52
739 70
770 94
693 74
12 30
264 105
925 98
773 52
700 61
865 7
636 9
232 49
823 122
552 84
878 47
106 60
699 4
824 28
323 77
998 17
906 69
94 98
395 89
427 65
571 109
239 102
783 41
517 35
506 49
983 35
842 74
686 78
65 84
581 90
265 50
195 8
975 31
55 98
375 37
336 2
115 3
496 92
861 78
494 49
61 13
139 24
697 83
878 45
823 58
839 78
660 69
810 12
318 19
380 31
69 69
721 32
564 70
618 96
559 34
283 53
333 109
336 39
694 10
43 69
234 78
971 45
266 108
321 88
465 38
880 0
526 8
186 47
134 83
42 93
596 82
397 74
434 98
56 84
897 48
969 86
851 68
592 5
305 39
731 7
851 36
382 96
235 35
255 10
974 79
86 0
816 46
277 91
890 81
354 0
912 105
299 65
516 115
311 48
801 24
963 71
895 55
721 29
461 85
276 115
115 108
767 58
737 65
540 110
708 56
87 35
513 61
299 54
477 48
472 89
346 37
171 91
128 11
423 49
381 56
645 38
334 27
410 11
161 21
813 25
302 85
709 51
368 53
917 46
28 40
342 121
503 8
150 29
173 124
389 23
430 118
39 95
867 66
911 53
763 83
122 76
780 71
783 89
172 78
0 18
837 98
409 120
772 98
416 73
419 43
171 54
377 29
676 115
591 120
747 18
374 22
394 86
267 57
172 106
680 68
747 31
111 11
68 47
72 76
525 97
659 108
912 123
549 33
622 101
397 63
293 58
582 114
664 65
487 114
241 1
442 123
578 25
836 111
284 105
639 64
298 97
740 52
643 4
508 109
917 83
787 94
827 73
779 109
593 65
668 72
447 106
681 112
261 13
735 12
655 25
33 48
963 42
281 86
281 2
642 28
610 92
390 5
772 100
578 74
474 109
786 3
593 21
705 24
83 26
913 87
327 84
801 53
656 25
401 116
155 106
870 27
60 13
462 61
710 102
158 29
884 73
361 31
44 1
280 98
680 89
585 119
696 114
238 47
82 71
388 22
306 12
351 74
886 113
812 71
652 67
247 8
140 69
490 58
906 50
102 34
392 110
616 108
650 14
726 117
656 96
830 124
296 50
382 47
873 22
106 43
56 60
403 79
683 3
922 19
587 86
510 94
810 105
298 19
843 41
630 113
601 80
578 47
743 40
544 88
964 47
848 98
455 97
242 44
969 12
663 4
417 105
359 99
702 113
242 68
641 90
366 43
580 3
511 64
379 40
311 55
49 94
730 16
333 32
623 95
195 112
689 39
220 65
890 95
438 64
720 27
799 19
108 40
238 20
361 122
280 123
728 48
121 95
176 39
243 95
937 76
214 97
953 42
774 51
225 76
452 75
461 31
877 10
696 122
10 35
354 120
486 9
833 57
944 74
320 72
883 98
628 10
127 117
823 64
820 95
879 56
423 21
381 27
991 120
835 101
885 86
601 98
439 21
882 110
978 58
371 118
69 21
606 33
740 12
939 19
504 101
380 33
985 14
205 52
771 122
743 25
972 69
543 64
392 1
444 117
746 34
913 91
503 88
789 99
366 8
195 110
207 82
865 96
611 25
712 29
305 107
756 90
275 42
832 65
159 114
528 77
141 74
857 33
495 71
121 37
785 100
87 68
451 107
295 63
297 80
361 92
106 5
501 27
307 21
766 99
520 79
381 44
645 107
21 13
132 80
981 0
423 96
209 20
575 124
570 5
515 50
195 7
310 96
192 8
678 91
490 112
906 5
31 123
288 103
652 107
128 72
13 33
302 79
963 26
160 10
231 8
434 0
995 74
716 75
381 42
20 87
595 34
912 65
216 108
787 37
598 76
533 23
707 121
321 88
543 111
859 55
77 109
836 53
821 3
298 89
528 104
993 3
261 57
858 111
776 101
672 112
767 70
224 55
340 53
918 112
171 44
528 9
334 22
86 10
64 52
981 63
472 26
913 105
41 5
530 53
869 113
127 92
405 70
548 123
572 11
183 24
217 124
897 29
389 27
182 98
50 25
167 62
944 44
284 44
505 38
583 22
805 120
379 91
636 5
84 105
182 24
772 105
344 16
972 67
740 108
799 46
320 42
511 77
384 112
797 22
337 95
470 11
398 108
649 40
262 17
13 76
673 116
300 50
523 34
361 59
215 21
268 11
628 122
184 78
185 108
621 17
375 87
255 39
976 66
916 64
151 100
328 42
334 66
634 36
220 18
431 45
875 36
565 70
206 40
585 8
214 98
321 63
556 98
734 90
155 41
798 110
224 60
253 24
923 54
615 44
265 70
350 55
859 108
964 17
107 115
933 46
982 93
731 62
632 74
507 100
340 38
429 96
469 81
682 40
274 11
815 82
58 23
449 62
494 52
61 51
604 5
269 49
981 46
380 9
336 110
173 73
149 96
833 56
365 10
441 70
151 22
592 55
919 17
55 105
632 78
136 90
657 64
741 99
619 96
137 73
580 66
239 22
269 4
236 73
378 81
16 105
727 120
711 58
575 14
689 70
547 67
188 58
123 40
849 30
161 38
422 41
690 87
699 90
407 10
835 19
214 70
45 75
187 23
902 96
877 3
561 12
919 111
576 120
223 26
510 0
25 115
905 36
924 49
189 96
772 27
213 37
674 29
140 84
194 39
598 87
238 124
885 103
338 109
563 45
544 112
360 80
732 44
190 8
197 93
991 96
367 60
330 86
193 77
351 36
888 60
925 121
630 117
604 66
160 39
262 105
888 21
886 30
878 52
163 48
164 35
900 54
684 6
690 23
433 63
285 75
616 72
905 43
972 105
402 82
125 41
974 68
747 15
212 63
420 48
340 100
528 107
897 95
802 32
379 1
116 108
403 24
887 86
815 27
0 66
694 22
858 117
188 4
52 60
239 66
500 58
315 92
509 66
543 44
295 35
59 37
399 54
189 75
254 110
38 74
776 68
486 28
409 89
926 117
335 120
781 107
604 96
215 108
193 25
737 20
362 34
441 123
12 82
722 46
323 93
881 67
906 47
561 118
699 69
551 96
271 54
266 47
154 84
29 58
469 103
548 66
306 69
651 75
989 58
211 110
597 108
384 63
952 107
902 65
165 94
697 18
161 50
691 117
746 122
786 60
806 103
581 73
428 38
822 10
493 61
161 5
242 111
252 38
822 17
833 30
983 99
87 121
107 48
383 22
374 101
316 53
480 21
481 89
911 35
40 54
273 72
214 91
306 71
669 69
69 117
502 62
297 43
418 22
929 30
905 41
821 124
157 43
827 71
638 62
676 47
973 117
487 19
801 42
496 91
947 61
163 85
718 80
926 68
48 77
91 109
868 57
326 97
637 64
297 64
621 1
281 27
77 54
177 104
324 39
856 49
624 31
759 81
562 40
924 63
272 44
726 88
879 26
63 80
233 42
159 82
792 40
521 91
357 26
210 30
996 58
604 91
154 26
718 15
781 88
470 39
525 106
363 82
140 25
429 83
597 0
343 15
708 32
948 19
574 39
553 72
976 27
860 48
11 5
556 115
673 18
91 114
952 56
60 74
958 47
249 115
699 10
891 124
441 112
250 102
700 0
418 116
277 32
535 19
814 108
201 107
303 115
366 81
450 44
662 31
513 11
648 59
163 108
368 115
117 6
867 111
355 0
790 58
743 71
495 47
544 33
945 53
979 75
163 28
19 73
969 33
276 75
388 122
682 63
156 26
838 113
686 78
205 52
83 84
69 0
725 76
477 55
110 64
560 108
728 60
590 77
199 48
861 12
3 109
153 58
966 41
957 117
957 56
277 111
66 62
456 122
212 75
677 70
981 111
584 95
166 32
414 24
162 117
631 87
859 94
219 67
868 88
612 83
19 18
998 31
122 31
537 121
942 74
764 97
431 117
800 9
187 28
131 31
665 69
811 84
492 94
490 57
246 2
864 21
647 123
582 49
0 52
231 5
689 18
288 49
219 23
957 121
252 113
351 7
701 84
551 0
676 67
900 70
391 34
352 115
769 1
993 59
306 0
397 90
187 108
250 46
644 34
168 73
472 58
749 99
700 122
815 39
344 68
183 77
248 63
512 14
822 43
417 86
274 63
482 4
65 24
280 100
64 80
618 115
269 105
86 55
837 79
402 65
584 109
267 77
645 28
522 118
386 96
931 116
657 71
683 78
560 111
873 122
186 5
439 34
727 121
446 4
372 118
889 100
914 11
614 46
975 70
807 22
334 84
69 55
507 26
211 59
216 15
352 8
181 109
914 66
598 63
675 103
802 112
436 120
839 96
501 89
113 74
222 81
805 20
646 81
13 55
552 64
937 35
338 68
37 105
542 100
611 70
796 85
350 20
102 35
902 106
78 28
28 89
701 44
49 107
194 93
465 11
676 94
383 6
880 120
744 8
122 66
217 78
609 123
119 68
208 38
459 83
295 8
184 110
765 18
895 59
724 4
50 18
643 4
12 99
902 104
98 112
414 106
64 48
65 6
521 67
152 19
736 68
347 109
980 117
91 94
43 85
477 47
23 67
249 122
895 4
255 18
79 109
128 43
80 23
897 18
927 3
752 74
897 86
384 40
425 30
762 124
981 52
45 32
772 59
430 16
145 98
919 14
746 35
637 82
547 100
178 104
249 4
517 42
431 48
912 51
377 12
182 47
25 94
269 105
960 112
14 122
973 86
798 54
826 123
854 85
470 108
398 25
413 24
612 31
944 11
940 47
530 57
290 37
298 8
924 66
760 121
580 80
667 6
833 9
11 38
490 117
672 39
506 61
18 65
485 60
643 111
65 61
531 32
397 65
329 123
31 80
551 102
351 73
791 0
562 83
588 6
735 10
658 97
988 21
456 114
912 5
530 55
817 114
223 12
950 123
837 114
362 91
134 55
692 22
588 58
852 96
801 95
387 76
87 85
955 35
788 75
894 44
968 93
991 34
783 94
636 17
233 3
742 59
727 116
907 38
197 87
480 106
550 104
970 50
186 123
474 119
578 92
472 123
712 0
675 77
610 80
220 47
225 110
978 38
381 74
335 69
489 43
815 94
15 116
830 106
452 116
647 81
267 38
212 79
135 123
336 68
197 23
122 116
267 7
273 62
821 70
110 51
853 48
588 23
856 50
482 94
387 6
0 63
104 94
253 24
233 106
536 112
595 81
860 101
480 44
329 0
63 49
69 23
549 80
549 78
108 45
529 79
366 103
814 48
762 57
596 16
900 60
836 23
357 74
675 50
125 84
353 15
360 101
789 20
526 88
45 15
560 18
948 25
876 16
564 7
863 43
868 51
549 37
18 50
815 70
757 49
766 99
894 52
388 71
303 82
412 35
743 2
737 39
946 104
99 31
56 10
538 84
573 124
471 62
92 90
929 118
267 19
363 87
332 104
332 13
251 91
513 32
437 3
198 8
424 107
850 123
789 120
733 29
105 70
60 1
519 5
982 67
170 111
629 49
716 58
297 103
658 4
824 77
77 110
118 86
113 19
348 84
946 11
49 19
837 11
254 14
485 20
744 1
908 80
411 53
956 38
888 46
464 122
396 10
788 1
380 109
943 48
6 90
70 66
122 93
88 43
269 46
512 16
990 8
227 102
133 69
257 120
844 104
590 80
973 51
379 59
567 100
971 52
946 16
714 45
739 111
615 79
873 4
88 112
223 123
873 13
974 6
136 99
288 19
792 48
430 112
853 120
864 86
117 120
894 35
35 14
367 1
658 106
413 23
179 26
466 45
458 8
314 72
533 90
467 46
906 24
534 98
310 101
535 115
378 94
104 19
189 66
280 40
763 87
490 77
109 24
459 104
350 19
28 22
574 124
32 39
466 7
803 102
8 115
755 105
858 91
244 5
678 38
317 102
157 69
687 78
36 105
800 102
673 115
698 28
363 118
592 43
267 117
626 76
969 18
237 108
3 89
434 74
89 6
276 99
46 10
103 49
979 103
660 51
306 107
762 10
923 109
233 75
533 81
611 39
503 65
854 67
930 14
551 100
989 75
980 117
219 122
836 105
373 113
688 110
163 89
950 119
587 37
454 28
490 93
571 26
357 106
132 65
897 123
198 86
979 95
445 68
483 90
413 29
159 94
398 55
230 24
69 116
938 69
83 110
99 110
209 48
549 10
843 6
481 70
332 11
213 45
217 73
625 25
112 14
413 19
383 41
91 31
762 85
93 109
553 103
230 28
318 81
937 86
672 81
481 73
944 18
289 86
821 115
768 68
978 51
194 62
680 50
0 63
875 102
532 27
18 37
315 120
725 70
38 56
172 57
338 84
999 53
299 31
221 92
740 34
565 64
324 94
500 99
941 18
811 8
452 109
364 44
883 53
743 31
209 18
85 93
688 42
517 79
373 32
830 100
277 88
988 33
458 32
501 120
806 116
642 28
189 115
340 10
950 19
916 68
357 7
239 59
741 34
695 74
828 97
252 51
985 109
950 30
261 5
864 53
548 75
808 14
675 66
700 72
15 54
567 11
178 27
658 33
717 14
263 121
826 72
540 79
261 13
29 98
862 43
405 121
440 36
89 6
464 8
542 115
845 62
179 38
209 75
289 99
511 49
984 99
557 39
630 117
860 89
187 118
664 102
448 25
60 42
270 72
405 78
764 108
594 59
783 72
284 42
601 82
143 64
882 2
373 56
820 22
794 83
355 80
982 4
451 24
339 28
15 82
358 58
288 37
866 57
697 99
995 56
254 100
704 23
239 92
365 116
853 122
721 52
339 101
610 20
135 21
578 44
871 95
626 88
56 89
849 76
124 8
867 40
6 94
772 99
25 43
645 27
354 124
518 101
513 59
676 98
841 112
753 70
982 2
410 35
11 61
470 36
18 89
705 90
963 117
997 44
581 14
461 77
143 78
202 50
884 22
220 8
995 119
951 86
756 7
245 72
619 13
209 21
372 25
761 10
819 107
443 58
751 30
612 101
371 5
429 24
932 33
931 68
244 50
109 58
424 47
450 89
897 112
6 1
132 60
221 21
734 32
714 21
908 58
676 71
996 69
376 90
432 13
961 47
377 36
125 62
147 46
338 104
75 114
185 37
118 4
777 60
651 56
867 9
17 37
391 6
110 89
516 23
918 76
335 40
574 121
897 90
721 88
725 17
188 8
147 100
597 82
795 26
990 24
292 11
754 109
642 108
524 5
546 29
416 76
310 10
433 79
489 25
278 81
699 119
187 75
877 39
231 42
538 105
889 72
93 64
101 44
956 17
69 18
257 46
390 109
543 67
832 47
76 42
329 88
846 29
858 90
770 54
591 13
824 3
212 21
133 31
50 117
386 47
309 12
177 37
160 36
440 28
258 105
815 73
138 80
354 14
897 4
274 74
389 17
412 38
8 6
126 78
318 112
872 93
835 11
405 111
840 34
328 100
121 34
131 89
534 112
709 95
822 11
463 96
744 118
40 0
458 105
454 91
283 5
392 101
154 62
266 87
43 123
627 1
421 118
55 48
690 82
51 63
251 118
390 56
118 69
263 116
215 12
253 61
743 14
539 101
38 112
595 9
798 43
687 84
350 53
640 21
199 50
547 3
102 23
296 81
551 18
430 90
103 5
500 19
949 16
448 26
410 41
240 10
944 64
912 6
217 87
504 60
755 44
245 119
518 79
620 86
586 103
575 94
906 118
829 119
630 75
770 29
550 30
642 48
868 77
423 40
257 5
141 24
423 103
397 58
331 18
706 36
586 79
217 101
616 113
461 58
131 24
578 66
926 58
923 56
922 86
915 122
116 21
240 95
320 17
663 103
515 114
203 30
900 40
407 50
967 106
587 30
343 80
597 124
299 34
766 12
304 73
94 35
959 36
276 11
572 42
806 3
334 61
899 45
327 98
539 103
156 49
956 56
555 49
780 108
923 112
762 46
344 45
352 40
274 103
601 13
381 64
885 64
754 60
907 7
369 5
946 14
612 49
489 9
644 44
78 8
676 46
587 13
283 124
73 31
272 61
716 0
85 23
817 15
414 7
65 79
535 15
526 56
228 17
830 69
337 44
117 67
662 60
917 43
159 112
973 119
513 55
501 11
477 12
589 100
735 61
658 66
478 50
571 28
11 51
636 87
643 73
137 78
83 70
960 5
894 58
260 13
654 32
408 94
559 114
475 112
573 107
581 84
403 89
423 117
637 122
282 26
126 71
853 23
915 24
303 66
182 86
740 88
876 8
907 81
542 77
740 12
673 115
7 72
450 34
670 91
815 15
145 53
116 19
269 32
762 77
682 13
671 15
411 84
129 21
531 33
922 4
73 39
923 61
545 71
785 62
906 12
482 76
917 59
414 106
200 86
358 31
484 110
764 38
873 33
663 113
706 47
916 33
797 57
782 109
495 88
313 30
829 106
751 13
13 6
107 59
539 10
390 80
18 49
421 8
3 121
260 43
671 15
214 40
795 73
558 122
929 26
118 93
853 58
610 61
4 74
921 88
929 11
811 40
478 12
44 53
711 97
825 57
549 54
930 54
308 79
226 35
576 33
934 30
349 60
347 94
532 107
720 59
621 113
973 25
307 99
258 9
358 5
591 28
914 70
906 107
733 69
774 32
51 98
834 27
530 4
170 24
696 122
282 81
59 90
185 73
341 86
827 11
133 34
630 81
695 76
587 25
828 103
374 83
415 29
314 65
568 3
525 60
756 61
621 116
11 74
3 58
191 117
634 119
982 42
514 53
916 85
685 6
487 52
346 98
300 25
583 6
634 10
0 0
8 50
701 105
298 96
248 60
82 53
882 58
494 82
394 114
524 36
631 22
801 95
293 65
416 97
987 66
263 11
475 1
871 50
981 41
553 36
973 20
8 59
219 94
583 74
203 12
963 45
402 73
383 67
666 121
890 108
106 115
243 55
239 124
886 49
15 78
778 1
432 38
972 106
406 23
990 11
391 87
601 120
856 0
34 81
544 115
391 100
324 68
890 114
337 90
664 117
960 57
478 80
356 13
872 43
10 113
246 57
521 72
385 108
127 99
615 58
280 112
751 95
164 50
554 29
4 109
716 55
727 15
965 70
733 17
184 106
839 26
443 50
851 13
176 2
727 49
449 64
360 36
395 26
323 17
686 50
867 31
244 102
500 2
906 73
366 122
302 111
970 124
138 31
51 19
498 77
584 107
714 80
483 43
543 118
953 59
506 123
459 18
657 45
916 95
168 66
516 120
313 89
248 81
264 117
470 6
227 108
727 116
500 3
938 16
246 90
898 28
326 116
729 38
819 71
385 18
735 117
816 104
955 16
862 52
790 41
896 60
939 95
496 8
84 6
543 78
303 30
680 112
914 14
713 50
387 45
698 123
727 54
995 63
529 78
226 100
271 65
333 81
146 16
806 102
300 77
15 94
291 6
441 119
108 66
104 124
629 4
929 24
127 64
105 104
829 75
535 99
210 68
592 33
178 43
758 105
580 5
964 98
573 68
692 3
524 16
246 24
509 100
952 3
252 38
777 76
65 104
118 83
605 70
461 3
364 61
666 19
893 40
970 28
198 24
113 33
608 49
84 47
133 41
751 78
163 25
861 57
474 110
485 101
151 88
830 85
917 24
463 109
471 108
451 121
897 116
121 114
135 116
646 67
910 66
818 78
563 77
445 49
957 48
370 71
150 14
837 17
133 41
246 111
566 2
523 38
253 118
179 119
101 10
233 26
540 71
399 75
802 68
38 113
905 23
78 32
305 109
599 78
80 0
492 77
798 112
843 73
962 83
21 101
973 74
699 70
375 7
673 22
739 16
357 104
333 101
152 75
853 121
547 25
168 11
455 64
512 107
252 26
691 48
31 59
520 51
785 50
300 95
978 120
297 17
239 56
657 52
492 120
877 4
105 112
126 52
873 99
610 30
502 75
933 33
539 110
442 17
662 123
666 18
997 87
84 33
879 116
537 15
304 30
296 73
950 61
140 54
495 58
272 82
571 2
881 44
26 8
574 50
218 99
693 49
393 70
778 57
818 59
272 113
811 20
928 100
832 86
580 109
646 41
394 58
992 89
219 28
883 76
171 23
260 71
126 78
829 3
430 108
267 16
598 94
114 81
843 103
269 88
466 45
912 49
347 46
366 68
694 117
369 18
946 115
652 108
633 32
232 49
892 105
814 110
612 94
883 34
517 51
918 26
778 26
784 50
338 110
196 103
811 37
103 41
96 74
643 72
220 96
55 73
691 42
476 96
101 35
440 97
755 76
370 58
786 63
772 93
664 58
684 5
850 30
734 59
625 85
722 40
695 68
65 44
538 108
382 76
996 111
448 4
46 75
970 7
477 7
402 105
65 48
85 21
94 14
387 122
53 12
527 76
104 21
296 104
957 56
752 110
693 42
639 36
900 22
483 86
454 113
620 88
724 43
887 36
293 117
650 65
857 2
94 104
523 25
666 44
339 44
464 20
22 64
942 58
281 124
257 31
275 18
791 49
607 103
740 115
136 85
488 70
410 80
164 17
778 32
786 35
501 85
588 50
916 102
327 5
545 44
957 2
750 81
848 26
878 46
115 54
1 22
800 19
324 1
0 85
526 123
805 72
554 59
504 61
408 123
161 117
16 109
369 62
363 77
140 76
275 51
736 92
532 5
458 110
60 61
803 22
469 27
736 97
300 37
421 76
27 117
758 98
309 112
672 2
751 54
859 7
435 111
493 28
991 27
285 101
723 96
646 98
394 85
781 17
624 121
527 102
967 93
52 60
901 52
296 105
974 69
643 28
168 101
310 36
895 84
702 51
677 59
372 103
235 35
400 121
726 99
21 122
193 84
811 36
211 85
752 44
668 73
49 7
963 82
203 21
523 43
165 89
492 98
546 3
143 77
863 117
445 18
349 29
362 84
124 17
780 44
710 36
573 92
113 83
362 48
695 23
458 41
870 89
86 95
210 90
486 52
517 18
939 120
128 0
826 105
698 15
162 14
974 78
467 42
313 50
272 87
414 96
563 101
436 63
897 24
621 23
60 10
458 23
811 14
44 115
444 109
312 82
478 24
898 80
532 114
86 21
734 123
5 25
52 109
573 76
511 85
308 28
341 51
706 89
370 122
281 58
118 68
646 27
869 114
689 107
65 37
171 83
622 41
383 29
28 81
407 62
864 5
979 68
700 11
926 95
653 90
981 100
627 56
532 87
802 102
594 13
135 65
887 64
404 62
346 19
8 69
337 101
394 5
792 114
379 53
709 41
330 83
225 23
520 92
723 3
830 59
323 68
655 38
33 34
608 124
823 91
729 55
259 107
72 94
486 36
473 60
360 123
152 93
339 53
181 92
587 53
217 34
362 82
216 8
491 26
856 60
