4000 4500
1752 168
2316 323
1924 393
3902 286
1884 40
2066 481
1941 340
3352 400
141 271
1828 455
3748 434
4138 324
3867 412
2552 360
291 481
1091 507
3563 150
1500 329
2202 337
1338 122
2780 53
933 204
1675 385
2605 233
3615 85
2630 412
237 168
1960 274
1265 235
997 281
443 261
2521 495
1996 448
878 107
3482 426
479 177
560 478
1354 315
655 205
3819 438
1929 514
3849 264
1523 109
1615 140
2992 559
4395 192
111 430
1576 330
2614 29
3954 431
3112 471
1714 39
4056 138
4228 56
4167 159
3944 534
1227 278
942 550
4296 387
1536 134
504 70
3441 140
4473 31
3934 289
647 428
2970 539
2018 46
2697 93
451 465
3035 377
2618 78
182 190
2506 340
2565 224
1733 512
3494 17
3163 320
3734 102
1612 425
711 72
3499 11
1565 109
3692 235
1829 298
3246 489
3823 172
3458 383
1421 463
4237 484
306 214
2737 382
3363 492
816 50
2625 47
1510 478
4369 278
2190 244
2837 260
3999 467
1430 403
616 472
3781 50
221 269
3092 356
4237 277
3734 382
2277 502
3896 366
932 148
3488 483
4120 207
2028 0
2637 420
3918 144
30 257
3161 354
3388 129
1175 31
3478 205
3915 371
2420 12
2291 434
2344 477
1102 217
48 140
257 296
4116 102
2498 325
3302 25
3324 294
993 232
4067 305
438 8
1240 376
1311 190
763 38
1103 203
3471 171
3569 4
1423 169
2867 291
240 380
2856 441
1006 222
921 429
592 174
2720 526
2213 196
2478 433
1220 506
603 123
2352 27
469 462
2405 196
283 531
1329 362
1630 13
1447 227
2265 484
3097 47
1072 171
3154 556
1663 273
995 221
248 224
647 556
1609 215
2186 4
1039 512
3202 274
2396 294
1938 391
2302 246
1758 358
2638 171
2769 506
4383 553
3722 167
1499 488
1091 299
30 171
1887 187
2682 32
868 254
3975 24
364 353
840 222
3897 255
1777 395
4326 78
3412 324
66 366
52 362
3833 65
1486 489
3808 317
2890 141
4015 16
215 218
1230 426
569 241
1631 381
1488 482
2910 214
2828 298
1414 501
713 262
3369 462
362 147
650 190
1859 351
4084 484
2018 65
3293 348
1354 194
2339 500
1177 544
3771 436
258 468
3154 181
2020 374
1278 33
1554 417
2731 217
879 493
3365 244
3372 317
2989 430
2028 278
1511 518
3781 453
3931 16
2812 390
3326 529
2601 489
712 245
2367 247
1732 468
1365 462
342 80
3797 405
0 245
3056 92
2621 496
4369 447
123 385
1758 469
2710 260
1024 175
2141 499
3224 29
3460 336
3290 401
3441 225
166 435
2679 65
3924 344
96 463
370 85
487 57
2772 30
3088 431
3014 256
2487 550
1342 419
1324 341
2371 330
3744 0
2566 239
156 315
2759 526
395 373
3043 89
850 451
1342 366
2464 441
2886 209
4287 445
1371 104
4312 422
4247 79
1575 546
1273 528
1283 240
2006 45
2167 311
562 37
1219 129
2129 295
199 180
4401 258
1782 9
2883 41
2496 203
2566 84
897 237
2743 399
2890 492
2483 498
2628 104
4186 134
1666 352
3831 214
1875 502
313 153
3339 486
1286 4
1719 30
2052 10
1611 138
3538 174
3302 450
4138 402
838 112
3937 299
4349 413
3887 493
2915 276
1394 48
4495 196
1863 549
4198 161
2079 217
1076 112
2015 231
898 246
3027 233
2977 228
3401 350
2890 253
113 426
2432 10
4336 518
784 409
2121 527
4411 478
3853 254
1859 535
3996 169
1992 48
2430 545
2408 511
1880 363
273 197
2390 478
42 26
879 109
3713 48
792 497
1642 151
1402 135
3018 387
1057 129
782 225
2489 66
2858 75
3680 207
2499 61
950 246
4421 528
1378 197
3571 181
797 333
1873 205
2744 188
2417 35
1003 213
3360 395
1268 73
106 468
1588 370
3785 128
3425 156
1711 284
2408 103
2463 399
2267 295
1589 528
3941 195
2585 147
3393 157
1481 522
715 526
1773 166
1875 34
496 65
363 248
1532 396
2492 109
2098 179
2432 89
1202 548
1450 498
4035 72
4068 40
1749 26
3673 464
1751 289
3459 445
1743 553
109 533
804 148
4433 116
4460 442
718 32
45 356
4332 82
2397 52
2509 273
3423 3
2380 28
699 76
643 321
667 417
827 396
1462 25
1757 11
3581 358
2459 41
17 204
89 184
2179 374
2672 224
3480 517
4119 401
2983 250
1661 93
55 48
1199 250
4387 476
1583 294
3308 27
2363 1
4163 428
4429 141
2360 136
1240 254
467 472
4364 361
439 361
4336 466
3266 200
1593 464
939 203
1451 263
542 273
3656 319
4223 187
2749 383
1995 458
4065 29
3584 373
2902 365
4135 261
700 561
77 344
4190 323
238 252
379 386
2716 61
1298 219
2362 311
2132 121
734 440
1001 146
3307 244
734 231
3354 123
3435 494
3968 149
863 323
234 109
3480 238
1616 117
2612 188
1562 238
3430 215
2837 301
798 59
743 395
605 404
4134 516
2664 343
2549 385
1904 87
355 455
3396 255
317 185
679 367
2688 351
2631 263
3880 208
1126 53
3463 105
2366 40
3079 126
691 348
4376 171
2182 546
1350 396
1504 484
2833 328
1722 293
1045 125
1830 169
264 226
1753 549
2297 542
4206 439
4406 479
669 239
3069 81
694 428
2808 232
2719 225
3364 382
95 313
1609 461
938 249
242 559
2370 84
1805 506
927 523
4336 122
958 151
2359 544
4001 56
1634 433
769 448
550 89
77 87
2581 195
66 235
3783 418
234 545
3040 422
2974 383
936 497
1970 480
712 532
2046 117
641 469
791 323
1544 431
3003 281
4384 275
423 140
180 32
824 339
905 428
1472 214
3063 127
3972 557
1075 126
264 450
1131 113
2917 40
521 425
1699 64
3189 389
2979 239
2021 339
649 526
2998 235
4132 439
3951 363
3245 381
3278 303
2573 221
3216 187
224 288
2591 301
344 538
1188 91
4258 529
3867 226
4350 188
1171 2
4064 302
1152 537
2405 543
4451 415
1110 371
1195 106
515 557
349 321
464 255
82 202
1811 308
2865 508
2443 112
1260 547
3370 258
2897 195
496 127
4441 110
2781 51
3680 73
2708 273
1013 260
2871 366
2109 428
2369 175
4249 466
60 35
317 205
2839 216
1309 308
763 376
2152 478
2576 400
699 331
89 246
1021 200
1354 250
61 131
4215 97
655 370
2668 481
2780 444
847 488
2954 139
1086 225
4254 39
3357 295
3992 375
527 549
2652 513
2668 335
4020 182
1654 285
2575 154
3753 520
3327 378
846 547
2144 116
3354 4
3775 331
3699 384
4478 114
111 276
4125 231
1426 541
1185 332
4086 259
1814 201
307 457
3456 63
220 518
543 510
1576 19
3521 442
3104 517
4308 463
1851 195
903 475
3759 339
3369 523
1698 429
2379 504
3073 119
3695 60
1003 450
3587 282
1763 288
2565 375
4469 440
2034 359
4417 482
2633 153
4365 344
1197 514
3995 195
497 45
1347 239
550 497
2043 87
3372 152
1413 112
3657 290
4333 513
4337 15
1561 364
4219 295
1505 534
3642 418
2939 494
4290 262
1878 40
726 526
4107 25
4083 493
3651 128
828 77
2292 309
4387 26
3937 4
1297 430
1993 419
516 15
3219 4
416 324
550 71
227 350
40 184
4201 220
2873 483
3040 434
3122 389
1344 126
2294 54
4305 237
3513 508
2011 87
4473 527
515 293
4149 539
802 353
3525 95
2823 172
547 66
4475 550
3309 486
930 248
1448 309
4066 391
4084 554
2508 146
325 119
1002 197
4402 377
1060 214
3927 21
3118 282
2422 478
3867 138
742 85
1244 216
1393 264
2390 231
163 329
2028 146
2544 518
1424 39
1547 397
846 215
2016 558
851 66
962 200
399 399
1382 194
2289 272
2290 406
1402 454
3136 468
1604 502
2971 133
899 529
4236 128
58 135
3939 158
2804 263
2458 210
1378 462
2555 535
3792 186
1527 100
3311 320
354 154
1906 269
2333 39
28 331
1425 160
3015 45
818 510
3407 547
773 191
1170 301
244 354
1576 129
2541 495
459 518
520 136
2194 275
1289 487
3429 371
232 560
286 78
1098 84
4186 466
1220 400
171 130
1616 220
2707 452
1720 364
2542 504
1964 489
4116 243
1843 72
3693 222
3665 51
3371 45
3045 522
1711 127
567 460
1225 482
504 495
2284 88
2255 501
2443 280
2318 9
4407 294
2846 2
3303 420
2701 518
1588 79
2490 22
3763 513
2496 317
3354 367
981 169
885 444
3234 358
4009 210
4097 11
803 556
542 378
1394 476
1046 531
154 325
2871 339
4427 203
2774 552
4304 154
3904 396
644 497
3733 141
1258 363
2434 148
4386 158
883 235
1055 389
629 373
2816 416
569 473
2685 292
1361 30
1392 328
419 459
4457 464
2653 52
2281 313
2870 537
3112 514
4313 229
1733 279
1468 212
3779 455
4485 129
296 204
1263 90
1639 526
2982 21
4224 374
3127 402
1973 252
3409 442
234 5
771 496
1260 250
414 1
4373 72
2433 541
3069 389
975 67
3084 552
4101 60
1050 143
1206 115
3659 217
671 453
2637 165
2949 63
1664 247
2084 425
1085 71
397 276
848 138
4420 541
1965 120
3991 492
2338 290
4391 150
4087 126
1687 430
1525 104
2800 330
575 459
3286 47
2841 411
1568 107
1042 481
161 27
2641 3
92 191
1342 107
2659 259
1820 143
3838 98
63 11
3539 50
839 221
3126 28
3899 315
2392 232
603 273
2680 186
438 71
1460 189
2538 291
2107 217
2721 511
3411 503
4179 267
1752 80
2878 455
1712 511
247 21
2894 423
840 527
2957 151
2939 65
4273 249
1819 90
3207 146
3281 536
326 215
278 155
2865 408
2409 198
4470 501
3862 116
4130 72
2214 516
236 235
4386 35
3298 256
2285 361
4297 355
2903 39
2363 349
42 98
3766 215
4402 60
3045 255
1114 403
688 2
525 392
1030 71
4031 192
2352 315
2482 530
75 308
3375 97
4489 493
3556 42
1927 362
3099 284
897 515
2342 207
1623 419
4300 260
908 204
4353 419
3651 418
2456 165
1151 78
1945 511
1127 314
3068 246
1194 557
1111 154
1698 245
1774 289
4331 518
4161 77
2924 98
3806 440
1995 250
4397 261
4485 103
1758 178
369 252
336 459
4012 228
3607 513
4389 544
602 148
822 413
338 359
3252 447
4396 57
1956 169
3496 46
682 468
143 347
4003 134
1966 6
3527 95
1700 234
42 526
136 446
1594 260
1586 257
2798 184
4047 57
35 457
584 427
3202 152
2599 168
4094 276
3527 220
2893 166
3160 431
488 424
953 298
3981 409
2990 528
1182 25
3240 308
1292 465
1251 447
3270 459
3696 247
969 64
2917 448
4239 217
2579 531
2616 534
4045 197
3344 111
3040 366
3687 191
1440 490
276 306
2237 382
2794 394
4469 27
614 187
2516 473
1051 523
2787 265
4195 154
2237 381
1526 137
2935 553
3116 183
1448 429
193 462
2691 303
1881 344
4160 211
1656 8
1645 386
1163 304
3815 212
2470 265
845 146
554 81
14 499
1219 513
2872 521
2686 203
2079 300
3766 352
1093 558
164 491
3485 163
2417 469
2174 57
1794 399
4165 504
4363 372
4059 180
1029 383
1644 290
1796 223
1936 481
2415 319
1423 479
3301 476
31 249
1137 203
1393 480
3682 472
4200 524
2825 61
1221 420
2541 11
1352 233
46 554
3246 363
2670 91
160 422
2667 164
1128 370
4392 198
256 176
4309 237
578 22
3034 210
1612 108
3904 161
1744 365
4211 426
918 410
761 110
1893 527
397 309
2451 226
2819 3
253 299
1946 280
50 15
3044 344
3327 269
3 60
3589 125
254 11
2639 404
1588 39
445 25
249 360
3068 468
3230 423
3399 163
745 265
1727 487
1078 74
3255 23
2660 420
2369 257
3356 127
4045 380
3169 66
1991 322
4077 394
979 254
437 561
3296 104
685 457
2508 89
768 58
1675 540
976 25
1123 301
3465 335
1332 533
4370 171
1432 138
3262 127
3995 151
2353 273
1534 176
3516 474
519 416
3895 148
1979 484
231 443
3653 210
2233 222
685 33
3891 65
1234 20
4145 421
1145 2
3250 317
593 553
371 66
1476 211
1155 94
1011 37
1991 9
1469 73
3377 305
3581 460
2105 189
576 353
3230 124
3729 507
1498 316
676 470
1960 126
1802 26
4429 449
2488 480
2670 189
4496 25
789 443
3348 368
3137 558
3179 195
1688 455
1000 124
2015 366
2906 291
1944 36
3385 75
217 105
2272 210
2786 33
1746 539
1355 355
4429 58
200 378
189 472
890 301
2912 51
1409 384
350 170
1917 361
3696 385
2391 38
3856 549
2322 257
2512 357
1125 516
3869 258
1388 246
3572 223
2892 7
4428 364
4345 297
3953 120
3566 501
2747 317
2383 420
1283 209
2384 305
832 247
4421 206
1556 340
2340 25
1578 58
3149 133
3167 396
1063 81
2880 213
2459 487
3907 170
2610 357
2360 524
3206 532
1329 410
3995 372
544 239
394 41
1998 313
3185 400
613 88
42 183
400 517
2826 427
413 515
4122 12
902 337
12 57
1971 103
3558 96
1470 210
909 239
1708 511
65 548
2498 189
1956 416
2229 526
1860 49
3624 47
2698 440
3335 558
833 277
3831 252
1955 186
1728 141
3458 261
1313 370
3014 334
2495 102
3941 555
2186 20
3319 18
1266 499
2261 233
2620 108
1587 536
2708 133
3747 432
3800 88
2324 18
2625 110
637 478
2770 26
4036 453
4163 400
185 335
4052 137
4360 77
3126 418
4183 72
3661 323
1591 121
4235 198
963 432
2538 533
2657 252
8 236
3196 81
1757 16
3493 318
1715 555
4139 23
207 326
4174 430
1696 261
4093 455
4259 551
2373 18
3704 162
2248 170
2098 526
3207 525
2952 143
1317 502
2818 494
3072 376
59 239
3792 263
2287 0
3365 339
2456 75
3749 182
2513 473
4032 50
958 268
523 307
684 82
1596 362
3275 362
1252 393
1463 508
2253 163
516 472
1273 35
1975 33
2726 434
1402 260
1206 177
559 267
4248 101
1286 492
1264 410
3997 481
2972 492
490 56
3 103
2987 551
3653 203
3530 536
4283 552
3817 415
2023 24
2955 103
4283 50
1500 282
4420 1
3164 297
3486 410
2236 246
3940 125
2787 143
521 412
2723 108
1304 17
617 66
2567 220
3375 501
2754 330
3971 2
2774 383
3620 184
2220 78
1958 197
3044 48
2223 295
985 167
2848 360
3673 10
4273 300
446 229
221 318
3466 143
575 361
55 53
521 200
669 166
4308 460
1291 312
3459 227
501 394
13 123
2694 18
3236 155
2950 421
4221 187
1942 151
4329 379
2516 76
1844 106
238 532
1295 63
766 419
1690 89
3873 382
1413 51
2291 234
1872 363
1710 6
679 519
1183 546
325 285
1780 389
2591 408
403 74
728 111
132 317
3588 120
3928 236
1560 359
73 435
1107 275
1773 528
1970 387
3154 92
4279 397
1148 44
2893 157
96 119
3349 510
102 113
2162 463
287 185
1768 322
1715 154
2512 391
1430 283
3793 344
548 106
3690 144
1070 131
428 91
4333 418
2627 413
785 285
1519 95
1672 248
4203 402
2896 8
2238 14
3980 97
367 169
922 465
978 24
3637 12
3385 99
3841 413
2032 57
4001 463
2751 171
1529 6
4256 545
4 170
1957 296
112 26
2899 464
4409 76
3175 96
1453 338
4471 433
3310 560
595 291
2617 58
860 230
2258 425
2573 141
3665 5
1212 538
2950 101
1014 260
1905 39
2846 97
348 372
2059 98
829 250
2640 444
4165 79
3594 449
2596 156
2980 382
3540 126
3617 297
2381 472
3497 240
516 454
1332 412
1878 47
2611 168
201 5
696 410
2501 179
3766 57
4418 421
29 506
3735 457
2856 461
3329 522
2841 423
2340 59
2119 81
4082 518
356 549
3967 430
523 42
3801 241
713 123
1057 44
2364 410
3761 471
2701 554
296 268
1703 258
1944 555
4378 224
2590 137
3183 314
2950 168
683 137
1562 430
4390 359
1219 188
3541 333
2611 85
1752 127
3871 234
1093 422
787 169
2715 163
809 228
3917 547
4136 398
3912 267
3475 419
1228 230
3979 186
2780 179
2926 313
835 150
2221 29
151 362
2847 14
3116 217
1342 52
4180 319
826 123
2822 139
1707 250
4287 297
606 432
1519 227
3624 36
266 337
3046 506
1081 520
4095 459
4229 352
624 109
706 341
230 555
2179 233
2233 555
3568 335
2429 360
162 463
1397 287
2257 279
3088 351
3345 412
73 329
1809 259
96 363
2342 272
1341 556
1398 231
1314 55
291 176
1046 353
897 37
4271 529
3798 119
640 365
2068 221
2599 40
1199 219
313 277
2160 67
2690 156
1930 56
3561 350
2399 86
3426 83
547 495
3837 523
1273 326
1040 301
2458 46
1325 492
1804 316
1434 254
3302 298
2647 132
2471 196
1815 512
426 12
854 527
679 34
4184 252
3745 109
1930 418
924 451
1505 398
749 174
1999 255
3547 326
1878 18
1054 227
3603 461
3003 438
4412 221
2845 281
1639 407
1321 196
2127 383
2034 545
2180 68
2602 406
555 159
265 85
1476 515
2879 275
182 172
3230 104
920 363
2262 14
2159 283
3084 391
4252 538
2224 497
1089 343
960 474
3742 288
2891 472
3341 2
2800 409
3319 277
93 368
1279 223
720 466
391 551
2917 535
2363 348
2110 299
725 57
1509 207
2608 81
2057 421
224 542
1801 483
1507 26
225 123
1232 163
4063 344
283 159
3245 355
2775 436
2706 106
1268 356
1559 528
1827 528
1261 317
1552 451
3569 82
2594 8
3130 547
2365 311
390 519
915 562
3055 410
2824 515
561 65
553 239
3404 280
1498 98
2394 46
1297 543
377 413
3440 203
1436 486
1348 41
1793 289
1342 308
2244 378
952 105
2031 465
287 534
1884 0
27 496
1945 240
460 207
1990 453
0 306
1458 230
1061 543
1170 420
1227 465
2333 117
2423 306
319 102
2708 398
1146 93
2596 124
1267 61
2032 19
2994 37
2222 354
4241 378
2173 324
2667 44
1587 164
74 351
4152 319
3435 34
266 515
2082 117
2935 218
2385 397
1161 525
3007 214
2352 112
1563 20
2180 460
640 276
3931 553
4008 481
2447 505
3243 2
3227 278
2361 478
3594 554
2608 75
4423 376
2650 382
2757 452
3542 94
2830 275
2795 508
3471 295
3874 184
538 10
1498 306
3861 271
4367 198
2131 442
674 454
890 394
4355 30
549 239
2757 243
1607 398
981 223
1395 83
129 191
3077 503
1479 19
1775 406
51 283
563 500
683 271
1985 378
4259 350
1322 113
369 351
2047 558
2765 487
1671 430
1084 268
3768 224
1953 297
1526 401
3101 352
3068 95
2284 259
2885 430
955 208
772 147
3001 185
2029 193
1704 132
3479 403
1476 70
3844 275
4480 347
3990 531
1901 387
883 515
1061 82
1597 539
1776 22
2451 262
1746 184
3247 213
4427 404
2662 335
2419 506
268 70
4041 546
941 463
1899 41
3724 279
628 421
1353 261
2896 287
299 227
3052 402
849 479
2411 204
1519 230
3839 277
2299 48
3557 510
3748 360
1172 474
2951 538
623 11
1836 551
1776 499
1546 558
4320 527
2929 537
794 295
122 343
1679 248
1514 17
4279 477
3622 469
2435 168
4253 140
1366 329
700 236
3879 310
2493 394
1506 459
3231 99
1747 71
1342 314
1391 549
1348 383
4397 51
3799 297
4394 270
2079 174
4174 522
3852 206
2910 40
2114 36
1452 87
3369 423
4207 238
1809 458
2801 363
2193 291
3193 293
3220 302
3005 480
473 160
2607 32
4471 450
2807 80
2524 209
3616 405
338 528
3418 344
954 194
647 236
4208 551
3296 97
122 26
4084 85
32 25
427 503
33 405
1322 359
2717 18
3246 72
94 433
3847 346
192 333
698 409
387 304
193 311
3758 351
1537 100
1849 353
845 112
2980 236
1136 361
1458 531
3436 455
324 150
2884 220
3186 225
2070 20
1822 221
2395 216
2688 276
1580 189
3586 442
4148 454
2121 320
2111 164
3536 123
3606 282
1504 137
3570 26
301 549
4297 272
2910 184
4307 229
3331 78
3068 469
1396 361
1244 556
362 53
3811 468
4360 497
3202 290
2500 363
2506 79
2491 284
223 136
2608 379
3381 452
1669 61
3637 490
3573 99
4363 482
2367 539
2231 496
4177 372
1900 160
3369 89
1447 288
750 96
1657 100
1257 389
317 442
499 143
2277 225
3705 209
1139 103
4349 24
3872 516
2241 453
3709 56
1466 279
4386 179
3360 139
2477 246
3382 417
3673 531
3982 528
2823 533
331 111
3133 314
568 442
4045 436
2122 95
162 551
170 419
1962 170
519 16
2252 203
2392 378
2951 462
3711 267
2034 530
1175 521
97 150
4015 509
2977 258
493 542
3871 499
4325 81
3690 312
4304 222
2246 286
4294 328
3801 284
3970 41
1555 350
2791 297
2563 224
3914 202
2601 527
1730 322
850 242
868 198
4200 17
1333 228
815 411
3822 168
2241 202
2815 497
301 481
2953 248
344 2
257 306
2259 9
1669 517
1279 430
3521 195
1616 164
3462 432
1827 532
3114 507
3004 372
2434 226
1531 447
3251 413
464 502
438 421
25 438
1800 29
360 366
2405 519
4176 543
2144 327
3996 389
1508 155
3555 35
3943 351
1894 383
4482 472
4345 337
1803 220
3990 234
2311 193
2735 149
732 334
2148 323
3013 88
1581 330
385 501
2763 56
3507 412
21 427
2367 27
2514 235
1683 339
1875 315
787 65
3638 127
2522 276
520 370
728 516
4180 364
3988 314
2128 276
2419 301
2741 345
2907 516
2334 467
1286 499
121 536
2778 112
1158 206
3355 385
2050 482
4402 227
539 46
2262 427
2554 33
3575 240
1085 286
2169 176
3479 336
224 100
482 207
689 440
2721 448
314 12
2082 542
1885 231
1373 152
3570 189
386 303
2655 117
4073 526
276 446
1629 554
932 542
1300 224
917 259
2181 510
625 492
3476 509
152 184
3049 142
778 510
2494 324
3429 483
3593 124
3582 78
574 412
4054 458
2505 304
4169 341
3609 177
4316 71
197 101
1974 195
148 159
4002 177
3062 486
989 540
1739 405
3442 16
3010 353
3580 0
2860 414
3592 377
967 372
1118 484
1906 384
2821 37
4445 445
2645 227
3070 116
4456 184
1535 135
939 502
1228 416
1038 257
3812 125
1355 300
3793 36
1733 332
1065 139
3912 479
2078 66
1372 421
1280 356
3705 156
2734 294
2330 30
2321 12
209 420
763 9
2824 115
1716 25
2838 28
2428 431
3170 561
2802 445
2562 212
2547 81
1517 166
2429 528
2806 155
2561 330
3788 225
3064 11
3888 303
2418 124
2750 535
1974 83
3161 368
2892 528
1645 340
782 113
483 525
3980 118
2411 517
1253 211
2815 456
1121 52
1578 222
2168 252
1123 271
1961 286
1530 145
3339 279
735 510
4428 62
2245 80
2610 180
2869 177
2794 519
2044 367
1078 119
3580 352
829 498
7 539
3790 412
2680 477
1361 37
4431 268
1246 34
2263 310
2671 244
180 68
4404 379
3193 335
4396 62
3053 112
1818 463
1432 477
1778 522
3034 560
3549 394
3400 221
2735 479
2324 140
2644 161
1622 48
3672 168
2226 366
2126 31
1920 92
3080 159
3482 215
1952 27
829 119
3517 452
3084 555
927 527
2184 511
491 479
3378 147
2248 315
1394 245
2835 293
3164 410
2653 470
2301 276
2997 361
3650 448
1189 151
3155 395
4293 87
90 521
1120 512
175 41
3131 332
3273 84
612 209
66 285
1720 16
2400 446
2989 492
1765 240
247 153
3632 422
4317 175
3865 284
3501 288
3065 326
934 222
3328 357
2729 4
3168 326
1920 81
3057 189
1987 313
3724 164
1753 316
1818 294
1794 445
1619 67
971 509
2718 156
1461 108
2977 396
729 366
1008 362
1523 395
130 416
1730 9
3235 29
466 481
2042 353
2730 174
402 425
2063 19
2397 459
1076 285
131 506
2663 549
1670 183
2135 111
2652 334
3880 210
3886 334
2813 560
3806 406
2228 546
3682 508
4096 24
3137 187
1302 290
2167 165
3795 215
4327 300
163 330
2814 390
1879 363
39 362
2658 302
1482 235
1230 237
2196 556
3614 508
184 106
155 99
1941 381
2652 361
1335 349
595 203
17 68
1357 438
1057 338
1208 82
2512 457
376 319
3696 247
2905 204
2245 477
3117 439
1471 403
1158 64
1460 433
4104 455
4166 534
1994 497
1021 165
2661 49
3487 361
3269 395
335 387
1065 123
709 251
98 447
4412 122
3994 386
407 408
1695 480
3578 396
2078 287
1879 382
2625 195
4364 425
2658 237
3293 531
2137 348
839 132
2393 43
2044 236
583 83
2505 329
2438 187
3707 214
1472 51
2972 18
2157 541
2340 497
383 340
1758 237
4072 30
173 177
3419 209
3299 313
1009 458
1219 104
3753 108
490 426
944 546
680 189
4077 25
2916 548
933 252
2676 238
4468 528
1903 299
1069 335
2338 40
600 9
4116 7
1020 263
589 252
4237 118
1821 149
3304 310
164 81
2206 7
3194 509
2499 2
3652 404
1032 226
3922 195
657 318
3538 58
1919 499
664 386
2116 175
4229 363
3733 504
2700 371
2817 440
3715 2
3806 505
2038 545
2000 282
2139 279
2509 395
588 543
3378 399
790 485
2468 439
247 10
788 263
341 484
3994 313
2523 372
1320 496
1813 486
781 309
2744 471
4164 241
3221 208
2873 144
3269 552
3937 248
3755 532
946 10
3161 192
1537 487
4086 69
16 163
3430 452
1434 330
4444 300
60 131
3954 540
2403 187
2990 95
232 463
4010 301
1509 115
2263 353
1731 360
3263 279
4358 266
2176 228
2443 496
1152 549
2525 423
3264 304
2462 464
1605 73
2731 7
2324 149
3850 378
531 426
1641 167
3819 190
2822 74
3175 523
3649 519
2604 272
4099 509
1861 561
879 213
3829 556
2727 495
3860 35
3710 114
3920 260
1453 154
1935 216
4034 510
1856 205
1533 132
749 361
479 40
3772 509
2869 454
3692 27
2944 162
1269 198
1303 328
799 139
482 89
110 342
3148 116
128 413
1621 296
2921 18
2245 305
1805 278
3347 55
3370 81
4119 215
155 48
3685 239
541 497
1580 396
1125 157
4306 195
763 163
1400 188
819 546
4361 405
906 418
2211 498
4128 162
1067 461
4384 541
3723 25
1395 333
1357 449
598 159
759 96
2824 117
1646 480
4466 49
3372 127
2752 133
1537 398
2471 198
2995 100
3242 188
623 241
1517 415
328 413
531 558
3504 138
2089 342
2469 23
1394 16
1858 189
3218 425
2498 364
489 391
1129 350
2367 107
3250 363
356 386
3578 84
2137 293
165 438
1534 417
127 15
2174 252
136 201
3479 501
745 57
4223 23
2516 413
949 331
2424 398
1548 143
2400 343
1349 449
1586 514
3400 404
462 469
3788 143
2580 85
1229 201
4277 173
2430 53
3745 50
1450 241
3634 466
3061 511
428 272
606 312
2468 8
2754 98
3072 346
1076 245
1552 495
3077 487
3289 557
1616 353
2365 8
1803 340
4342 301
1599 290
4222 306
737 270
542 376
1907 34
999 278
1259 324
1694 508
2915 556
2874 473
1572 98
845 435
3720 131
2303 81
2954 368
4415 147
2561 377
3364 92
3959 56
2076 177
953 62
1669 198
949 397
4399 91
611 134
3650 553
2912 373
1084 69
1442 322
2313 446
1855 498
4255 268
3519 405
3158 376
978 215
845 180
463 5
3763 469
3226 236
1672 470
3572 382
4050 336
2510 331
3503 470
2075 50
4375 384
962 530
3453 217
543 522
464 202
1480 63
4409 160
1364 321
72 95
2810 77
1202 159
1900 117
1943 2
504 328
3150 285
3741 394
624 139
383 204
3043 551
2335 177
3474 288
2223 431
3126 60
389 335
546 225
2902 541
591 21
2016 187
980 78
2619 348
169 25
329 109
4235 162
852 373
3753 388
2138 15
3514 54
1860 156
3997 38
3209 30
3105 275
446 252
1204 440
4306 547
2183 268
1574 508
3012 388
3384 326
3162 534
3327 335
3549 24
2150 440
4061 102
2093 221
3558 352
3169 274
760 439
4070 209
784 171
3809 401
1307 297
2878 288
3417 362
1981 524
548 394
4103 207
4311 106
39 85
878 513
2430 285
3796 366
2150 131
1425 245
469 270
2646 43
1750 464
2432 146
3978 16
3835 210
523 32
3978 321
221 439
2222 119
2480 26
3294 420
1093 352
604 140
2786 151
3145 36
3593 68
4046 291
3221 329
1464 357
1620 481
655 152
823 332
3991 114
1644 275
20 135
566 376
4202 382
1761 482
3747 503
2656 188
1140 530
4017 535
1945 176
3502 461
1612 357
3597 68
3920 313
28 248
4161 260
1593 377
1450 323
566 9
2061 333
3555 308
841 63
162 35
820 310
2056 309
977 14
3817 394
4119 389
2633 440
4188 134
3080 251
3960 42
1656 224
1551 211
4071 237
1215 51
3194 50
4404 551
3490 277
120 296
4209 107
3277 3
4126 493
470 71
1772 401
2607 146
911 517
2473 341
1869 11
2203 504
331 423
3159 129
1589 1
1384 458
549 252
3712 35
3648 89
4160 351
3032 501
2785 93
2034 195
2962 32
3922 401
1466 105
2926 345
758 157
3054 158
4388 78
4462 453
3167 77
564 407
155 525
3883 243
674 502
3212 394
3579 134
2617 494
158 225
1728 76
2007 326
3956 513
745 433
1990 496
2230 479
1452 487
58 177
2598 289
3127 215
2855 382
971 481
3890 204
519 164
3236 145
2317 282
4188 6
588 174
2291 22
889 45
2526 397
2236 291
1291 241
1295 474
1183 542
1868 284
107 286
3525 59
404 312
4003 526
1839 346
3009 294
717 220
2156 531
3117 140
3074 105
2099 209
1179 337
1046 524
602 235
4332 79
3019 264
2477 553
4277 5
3201 319
2451 250
1742 149
3666 531
3292 333
1367 500
2393 164
1631 408
4404 211
333 301
3236 396
4279 338
2566 542
1407 411
115 439
776 179
4312 428
1951 397
3227 365
3511 227
85 165
3144 465
4412 506
893 337
2986 229
2555 14
3157 452
2721 489
3373 490
86 76
4008 130
2104 457
3615 396
3665 65
3974 514
4077 299
1763 340
2636 392
3481 294
3026 350
2906 37
880 495
1259 31
3410 175
3751 146
577 432
1953 88
1427 160
729 520
2691 92
4172 245
4373 369
872 205
2300 506
715 74
2120 225
1319 79
2921 276
1166 226
1808 107
3278 132
2694 552
1165 194
786 291
4295 512
608 47
2962 406
4316 548
2016 481
2346 205
1388 516
3043 324
2338 514
2577 31
1051 145
415 220
1460 96
619 533
3383 366
3891 433
2672 115
1914 337
2444 73
360 204
1141 517
4034 34
1569 290
3329 392
752 174
1879 461
3234 322
972 73
89 548
2905 341
2933 479
1787 99
2689 399
1836 472
1948 249
2809 262
2681 71
551 289
1853 311
1092 411
1235 328
2714 142
668 70
128 7
4382 524
2089 14
2855 36
4297 417
1627 120
959 120
1618 292
1842 449
4126 217
1460 282
910 123
1331 443
18 364
1409 437
3766 78
2103 439
3231 347
973 218
1768 507
1821 152
2276 39
4120 526
2853 64
3097 253
2697 508
1500 223
136 139
1686 170
3412 104
76 185
3738 228
1867 487
3379 101
2723 207
4186 230
2627 482
2234 253
4162 15
3778 516
109 376
3712 100
761 542
2892 221
3183 398
595 51
2253 134
277 55
581 286
1117 75
2000 78
3830 11
324 244
3024 115
3800 488
2295 298
3360 242
3774 288
2647 104
1631 280
129 290
2653 520
711 441
1023 114
360 560
3007 26
3456 432
50 337
3345 339
4112 414
1014 173
2150 45
3938 515
4105 87
1006 200
2425 323
2429 163
4209 176
1040 120
2084 420
3648 442
3495 246
3593 410
4331 244
150 122
3416 30
1865 152
471 19
3043 372
1364 126
3504 453
1171 330
768 213
474 58
2045 119
1698 76
4292 291
3146 172
3021 42
1863 408
3897 25
154 467
690 310
2829 352
1755 29
2992 189
2353 479
3041 103
1972 57
2388 175
4444 474
4403 362
3357 60
4197 459
2427 207
1060 180
172 57
19 185
3599 391
3172 119
2612 521
1585 436
471 272
2910 19
2779 23
3458 441
4111 449
4369 287
1466 51
4402 267
154 9
3493 232
2163 172
496 192
1688 557
1724 242
1327 298
3690 124
1341 243
3103 543
582 131
1952 515
4023 64
1359 313
4095 44
1871 192
2379 451
1953 318
3112 542
1293 279
2039 156
895 433
1575 334
314 199
2443 225
340 528
2625 6
419 81
965 209
3008 185
66 213
2416 135
1941 529
1452 45
736 444
2726 194
280 210
1360 143
4235 356
2394 140
3521 542
53 182
3179 270
2257 339
4358 387
4405 317
1829 72
4079 206
4069 123
12 99
4108 427
1175 291
1389 4
171 40
3781 189
906 477
2426 5
3518 314
3301 82
2087 478
1165 486
3928 61
3868 8
1207 181
2646 482
3048 367
413 318
2309 166
4142 187
2086 536
701 448
1073 24
4072 195
2352 425
1785 4
3189 470
1781 132
510 321
1736 314
1543 110
586 562
723 355
739 133
4123 64
302 438
3072 273
3267 510
3966 275
551 546
1884 57
598 258
1783 364
4128 124
3515 473
379 53
4348 93
4008 424
869 215
2218 290
1659 305
3537 216
804 331
1289 533
199 334
496 135
1773 295
3781 43
4317 201
2241 342
184 427
3980 441
1095 507
4223 72
4004 469
1003 432
581 268
1767 246
2445 392
2199 548
149 238
221 225
939 385
1080 258
3599 178
4341 457
3950 129
4359 496
2695 446
3936 258
156 106
1389 3
553 54
3044 45
1229 177
829 396
3300 390
2767 370
2143 310
1900 277
1235 165
4046 68
786 116
2985 424
2629 228
4019 537
2898 30
2074 161
1343 179
2839 156
926 364
2761 300
2056 508
3383 70
4283 411
3518 47
1893 75
112 58
2538 344
736 526
2032 357
536 9
4447 421
2920 312
1644 93
526 78
1329 140
1974 522
106 271
795 90
3827 389
1369 151
421 46
489 348
2501 67
4313 191
2185 249
3630 536
4460 510
1100 455
2068 141
449 71
2657 77
688 249
216 461
4499 295
3574 287
3197 224
2142 516
4197 192
2269 231
1864 63
983 315
3433 390
4230 27
4462 395
3221 205
722 118
1614 69
2698 44
839 373
861 177
2494 446
1000 525
4035 556
3238 388
1928 477
1646 264
1221 418
1209 360
1321 121
1558 431
2356 76
310 172
1480 133
933 21
3382 36
2008 539
841 415
1831 367
268 546
1418 362
1310 537
237 532
1810 355
4462 256
2137 537
1671 239
3178 517
3548 0
605 134
2702 429
1945 410
2227 442
2351 89
3852 116
1204 87
118 440
644 328
773 160
2020 344
2214 365
485 125
4273 414
2510 19
3289 105
4343 203
2369 516
2306 46
2101 18
2848 351
3905 506
4024 418
2115 530
2101 143
722 93
461 546
3358 450
2984 266
3115 355
852 102
4406 121
3175 422
4384 142
3597 546
12 39
1644 514
2969 71
2136 355
638 273
3859 310
1204 516
2624 439
3668 374
242 85
3147 271
3942 4
1983 107
2603 434
558 13
1054 502
3731 559
883 474
3510 204
431 80
729 514
1966 464
1237 153
4011 560
703 547
786 193
1886 516
3625 351
52 148
295 109
1342 238
314 114
3485 45
2351 171
644 378
4202 498
3454 554
661 469
832 541
2432 386
620 520
4091 123
2358 422
4340 85
4028 168
4482 524
574 192
1319 514
520 366
285 31
943 168
3619 425
525 519
3639 522
2594 82
4191 106
4264 533
3522 504
420 0
2679 182
4130 504
2369 455
28 357
3443 89
513 141
1010 537
1748 116
1088 157
1763 307
2992 70
2371 170
841 459
3141 419
2362 262
225 268
3410 300
3660 288
4382 137
3807 131
1770 267
392 410
1052 263
4083 495
1695 530
688 396
587 65
608 423
557 284
600 95
4404 204
4102 475
524 282
3330 197
2228 499
3017 318
1017 372
3402 375
1123 537
703 405
4494 264
3292 408
1403 487
2517 199
690 500
2076 217
1607 310
2667 195
3749 48
3202 49
3334 482
2636 10
3579 25
315 540
919 25
805 273
3382 355
827 218
3081 469
3522 223
3630 224
2874 233
467 32
81 162
1395 467
1712 509
3705 203
3772 414
206 110
3513 124
213 254
380 2
740 197
63 235
3640 163
1729 309
114 64
249 341
3849 20
4029 314
3800 332
3569 36
2613 23
500 202
4089 473
2659 29
2347 336
3281 447
4152 489
437 223
2650 209
1825 125
3061 222
4148 194
2109 427
3371 136
2513 367
4285 427
700 165
231 512
1180 410
2648 443
1950 108
2241 343
3172 466
623 120
481 11
2661 54
2282 453
4269 308
821 252
1261 141
2423 70
1051 450
3862 306
2750 238
932 508
3704 509
1116 86
4049 69
36 487
955 126
3533 356
436 75
3249 338
1426 63
3725 518
2594 299
716 388
308 15
1744 338
53 528
2174 41
3144 262
2907 231
3276 23
2571 204
3768 328
481 457
4205 168
1513 442
1160 13
2109 527
2951 318
3362 9
4336 166
3976 546
4070 126
1290 15
2799 502
2197 22
3350 274
2900 529
3904 428
453 103
2043 29
2160 83
346 43
2415 159
2228 215
904 424
1869 269
3684 204
858 461
3187 500
2935 207
1202 254
19 182
2184 550
3947 511
4224 245
1499 420
3729 104
4001 163
3480 135
1367 147
2640 156
819 465
3608 247
928 441
2033 42
1912 337
1404 93
2438 104
3436 158
1642 55
2390 37
39 200
3504 420
2830 278
4424 463
594 384
543 127
351 395
1733 539
3236 516
1962 99
1166 213
146 190
3715 474
4497 168
1849 251
2031 144
1917 533
551 73
1746 463
3981 515
1399 547
1308 528
1166 209
732 275
1162 105
4332 344
1574 486
990 273
4332 68
647 147
2049 59
78 85
3504 187
3197 511
4226 143
1126 79
2814 330
4033 538
2248 513
1685 314
3932 236
3742 272
304 437
791 557
892 44
3248 442
3386 291
1578 552
2912 320
1172 324
3336 323
386 382
250 484
4387 354
1297 430
2992 391
2583 479
1097 485
3253 442
2259 213
775 110
1033 272
4205 70
1957 66
3963 352
1727 333
1535 262
1964 245
722 244
1727 161
456 195
1684 413
2892 366
3683 504
1074 463
1729 525
1718 187
541 288
3417 399
518 476
4251 206
817 455
2208 537
1208 254
3466 233
2933 425
2439 534
4270 475
881 382
2715 320
1951 346
3365 528
802 497
499 118
947 242
2578 421
3390 97
1534 360
3015 388
140 367
3044 492
203 55
3847 331
3840 196
4412 248
3116 353
2184 200
3584 364
1752 127
2499 533
1952 53
1492 516
3574 158
1875 227
4034 207
3395 349
3120 109
768 405
4311 548
3252 112
1810 127
267 14
3218 409
2260 349
4200 504
2909 530
2405 336
239 186
1613 481
4004 541
4478 0
4358 193
257 398
560 174
2990 67
2610 191
1936 516
552 488
421 490
4092 503
4241 62
2127 211
2118 232
2892 176
2738 455
1053 43
953 2
490 2
2160 489
741 429
1212 72
3882 342
3911 240
846 422
3811 70
3797 9
552 417
1487 526
3938 100
2766 24
3902 177
4148 316
1202 88
1750 299
227 156
4013 127
1312 52
2260 145
902 97
2716 48
1689 415
1659 39
3511 469
3451 2
2968 35
3450 520
3934 96
2518 17
2039 85
550 451
4471 89
4308 55
3301 30
1135 67
2132 342
2913 477
138 254
3110 353
2817 525
3946 249
2237 234
2891 488
1646 159
3557 404
241 166
3494 350
3875 522
174 157
818 388
3740 418
2374 353
3635 529
1908 10
1282 379
3803 211
2555 204
478 122
4229 509
3350 427
941 260
4123 365
1042 377
956 142
2240 322
801 550
3389 375
1380 86
1799 516
3640 293
2136 310
3171 444
3718 323
671 344
3369 489
3100 279
1750 146
2598 159
935 71
1461 322
4489 270
1300 114
868 483
4211 198
2807 428
3278 278
845 275
2513 387
2911 539
3956 211
741 513
3133 161
219 64
3508 396
2994 203
2981 550
626 413
1736 436
4120 43
3071 446
4104 540
1652 363
681 438
858 208
585 528
2561 543
2523 168
3096 277
2839 457
3242 562
2071 191
636 361
1663 443
1804 318
3346 231
720 136
1519 336
4012 328
3951 488
4166 348
2260 309
1229 7
1873 221
3713 36
4291 324
483 193
3021 192
1219 154
3622 105
3025 47
207 543
3519 427
3594 68
3060 286
3662 386
3915 505
2741 19
4056 124
4321 520
1336 215
1191 354
1506 352
1552 370
2485 210
939 464
1830 23
2589 66
653 407
3961 326
694 353
1874 492
3399 476
3066 495
2249 429
4189 79
3910 318
741 421
1504 410
879 299
1377 446
2817 528
3930 320
1328 312
4126 501
1326 50
977 498
3438 345
1042 331
1052 309
869 525
815 415
4051 180
3349 88
500 404
2293 208
1768 411
636 24
3685 493
1852 342
4437 71
3703 314
3263 115
314 160
232 254
2348 209
2610 292
154 290
1474 337
1013 22
2973 390
1854 255
304 541
1262 475
3871 70
3016 51
568 385
1637 146
1210 523
925 381
1322 543
3256 61
2759 485
913 395
2588 271
1017 414
379 202
3354 163
1407 233
1481 489
4453 356
4430 240
1631 79
2428 228
1959 560
1991 440
1222 403
2619 510
2128 25
4323 251
4354 529
1221 221
1952 168
2551 273
1022 524
