4500 3000
2440 28
2286 70
1263 293
615 243
2185 16
547 290
1693 201
881 247
2313 98
2483 336
1264 273
173 355
2474 329
871 291
2282 19
857 75
947 3
2900 268
330 114
1609 193
1739 116
2114 134
1417 145
2207 270
1970 34
1293 174
2268 229
1997 368
44 185
1395 308
231 346
861 57
2408 158
860 82
1881 228
587 181
944 269
370 164
2517 355
2653 342
1688 182
2767 230
1610 279
206 100
110 253
2876 131
1406 137
2097 70
1915 350
2426 337
873 219
685 273
2393 275
167 59
2965 318
478 157
2936 137
2466 111
237 155
1921 170
182 176
1076 338
2224 78
1281 268
2736 290
821 204
2325 93
8 67
1741 287
528 340
595 161
1084 254
1717 334
2981 199
2014 329
2337 128
247 372
1070 261
1300 202
1113 248
2564 96
628 206
1491 10
1324 289
907 222
2512 334
944 301
2813 328
1577 224
458 60
2515 60
2288 123
1879 9
2667 155
1884 199
2082 181
2886 292
586 224
932 80
2885 85
2185 365
1078 347
2606 207
1572 97
1744 295
690 185
2614 106
924 259
1808 227
1958 311
1003 256
1979 192
1203 372
962 212
837 364
2776 179
2167 233
2992 278
1650 43
1038 362
1659 0
1923 28
451 271
2974 292
801 321
828 96
2845 161
1914 157
2101 193
1326 259
2871 229
108 121
1258 228
1151 142
2676 110
2063 83
472 132
182 347
667 369
1801 104
2282 70
1415 289
771 132
426 70
1834 305
2123 310
1220 327
1797 236
627 23
214 333
1966 96
922 60
2808 367
554 181
859 192
1147 343
1361 319
1791 23
1266 244
1060 37
2843 80
343 341
346 342
1034 260
1812 153
1077 64
1707 103
731 129
1859 252
1510 136
2295 273
2365 63
2226 273
2838 5
1938 182
133 235
455 294
1155 126
2758 334
1248 20
1765 37
137 281
2420 10
1592 172
425 122
889 271
2030 311
2250 95
1284 86
2395 280
2634 288
158 319
1552 240
2431 266
1140 193
1355 193
139 225
2901 186
1138 264
549 21
2667 349
473 102
1975 316
1312 128
589 242
2013 214
2858 106
493 239
2341 286
465 356
935 203
1669 274
2336 155
1438 265
2450 300
998 13
68 236
2289 3
952 113
2742 242
395 339
514 142
174 242
2441 43
2038 202
2130 283
1627 72
2308 7
275 354
1791 305
1059 12
2316 175
1046 262
1000 170
1822 43
2732 44
159 264
1434 151
1730 16
577 17
2974 184
456 118
1305 310
2822 249
2190 315
2316 225
454 346
420 276
1722 200
326 295
388 291
2931 98
132 235
2616 236
1911 228
1855 186
466 243
1451 373
1073 317
810 232
1288 66
2983 234
1677 40
268 123
2104 344
2336 29
1694 365
1462 72
706 74
821 276
862 134
513 302
1136 233
1286 160
2492 191
1805 296
1972 289
1612 149
622 187
2547 81
2967 307
2010 248
330 87
2749 203
2135 138
2524 258
1938 360
1309 217
2220 180
2776 340
1893 120
573 351
1632 115
838 197
681 359
140 348
847 2
1803 321
2822 65
2404 86
1043 37
2577 297
1474 268
1400 238
591 5
2799 303
45 361
2872 362
559 99
434 286
2976 178
1333 101
1033 80
2424 323
1009 83
395 371
96 21
2033 54
2837 116
181 9
2629 341
1474 29
775 163
600 113
765 16
786 97
2062 158
2102 217
2567 152
1027 265
2563 320
2904 286
893 231
863 123
529 57
507 372
966 9
1575 24
2132 353
1103 16
2695 341
2382 17
2821 369
2580 105
2010 264
2332 284
1952 89
1809 17
2227 217
1707 209
1079 159
2023 357
2252 218
725 33
2204 75
2923 85
2212 302
2182 353
2184 170
328 306
630 10
1658 212
8 367
2323 369
1195 127
199 196
1081 222
716 29
1171 280
1871 322
1965 212
347 175
1452 212
1677 264
344 223
530 227
1852 128
1249 114
853 275
2310 250
1549 34
2462 78
1743 347
1288 144
2786 273
210 260
2866 6
2693 140
1552 356
1603 62
1006 311
1003 309
2702 229
0 14
861 340
1076 360
2766 50
2112 274
1680 177
200 127
191 253
2384 347
1485 305
1057 50
2153 325
1262 35
2699 207
2151 3
2183 175
2984 231
1707 144
600 4
2990 350
1503 43
2490 220
2542 315
1894 97
923 274
1673 48
484 232
2987 274
129 361
2576 288
2763 10
1614 293
2856 299
2418 7
521 276
2012 189
61 155
2263 231
1385 8
1776 40
866 12
2002 290
2530 178
2803 196
413 242
380 82
1005 213
1682 219
746 302
2083 50
1673 374
2328 66
439 241
2717 4
1263 258
1207 274
444 115
1380 90
2636 14
557 2
887 190
1530 65
2076 10
2573 59
494 72
2451 82
79 67
2788 360
1037 366
2673 329
411 12
2184 273
2934 91
1295 276
2740 61
2270 280
2235 357
1228 237
10 311
1212 356
309 251
831 358
1504 179
2472 82
544 208
2650 193
1641 356
1093 177
917 61
2349 15
1250 302
2034 299
2092 355
397 101
1259 54
2075 373
931 87
1398 139
1625 264
2098 71
2690 58
1730 335
64 212
2713 126
1409 12
1519 345
599 315
75 151
314 0
1718 188
2790 174
757 119
263 167
24 173
1247 25
665 151
62 300
215 356
2528 16
1232 41
2192 71
1603 123
1029 266
1303 369
2073 198
1164 275
31 26
1542 32
1202 317
471 332
1171 158
130 36
2964 136
1298 204
1440 25
1039 86
856 155
1131 267
752 82
2872 262
2333 211
1810 255
738 365
2962 358
530 327
1869 167
136 219
1706 64
1451 191
356 114
2338 88
2248 136
1928 151
2878 163
364 171
1805 271
2372 131
2966 275
1147 104
664 99
681 331
1546 77
2827 31
986 227
1961 136
734 68
1019 78
2031 128
1290 204
2124 210
2536 129
2439 365
864 278
122 156
2580 100
587 71
2522 75
2655 305
187 310
2658 200
295 206
2442 358
2580 97
356 355
2938 368
312 298
1189 289
2400 127
2801 82
103 55
1973 200
22 301
861 137
123 160
962 150
50 161
2289 242
361 48
1886 61
113 322
800 369
2478 271
772 210
1553 267
2189 214
2297 90
1756 78
2760 294
2435 239
165 152
2666 354
2418 191
2653 121
226 271
2721 353
2462 164
2583 122
1298 172
851 356
2939 306
360 88
514 345
1243 353
2290 246
1196 305
2543 196
1434 254
538 15
504 87
698 99
1434 324
2024 178
1823 339
808 38
655 368
1288 254
126 303
1582 263
2343 101
1908 191
2276 248
914 251
2480 155
253 229
1981 302
237 202
1148 308
1339 258
365 162
2259 206
2385 175
2896 128
538 209
2296 238
1709 109
1005 262
1241 258
2639 19
1106 319
1507 83
1349 77
2573 54
1711 209
2711 264
1835 151
773 3
1024 25
1455 286
1461 369
2010 291
2514 90
1532 12
2310 129
28 165
2928 247
2091 53
2653 202
1714 284
2024 105
632 137
2985 186
1494 235
152 139
2513 316
1585 139
1285 141
864 39
2688 238
2444 157
1128 134
1591 207
598 232
2535 360
1974 120
1813 2
684 273
2672 293
1194 205
1979 95
2560 85
1314 280
1466 95
2974 65
729 284
1892 367
1688 138
1385 128
164 102
327 230
1852 141
2690 151
1791 175
1801 88
2034 303
613 300
2612 167
879 223
2799 99
1334 176
2075 340
1806 180
664 303
2213 222
2911 57
2951 44
1188 71
271 68
2967 26
1779 82
1925 97
526 288
1652 232
274 231
182 309
1259 21
1219 195
435 116
2928 286
2616 310
713 143
2821 37
487 253
2593 220
2064 161
2801 352
2679 300
316 59
1542 305
215 127
2462 95
2925 124
1502 97
2098 321
594 126
2176 353
1875 94
1540 185
1386 100
921 290
2668 235
1453 99
944 343
2248 367
545 269
294 87
2818 340
331 244
873 169
503 189
1695 203
548 76
1292 254
2777 24
2401 245
1248 298
1080 225
1309 321
1720 81
1960 85
974 67
2150 206
337 121
924 71
168 119
344 301
320 14
163 55
1125 275
998 283
285 210
1018 21
205 166
1985 307
2222 250
2320 233
732 275
2186 290
1477 62
2903 218
330 226
2112 62
272 259
2292 147
1742 181
34 63
97 4
1175 56
1262 221
1521 116
2835 296
2408 322
2930 113
2931 13
2124 346
44 271
979 31
2033 41
197 28
2566 137
415 239
1177 47
2016 304
378 231
1990 196
1632 105
1156 186
2653 86
350 195
900 64
372 329
2842 265
2065 72
1590 305
820 75
2342 234
679 361
556 186
1351 104
1713 2
661 128
236 135
2128 133
25 5
2499 93
2996 119
1031 21
1742 247
1346 263
2876 270
650 366
977 19
2582 229
1409 168
277 124
2222 16
2535 368
510 284
466 74
1888 316
1666 264
633 31
407 134
2321 340
2600 246
2790 75
285 258
2628 120
1735 163
1279 135
513 127
171 108
1928 299
636 362
1836 94
1723 255
2252 47
9 312
2037 55
615 295
1299 39
1060 203
2134 90
252 139
20 96
1301 28
1739 215
1823 77
97 178
2688 283
1237 153
610 232
32 336
2989 341
2121 157
1005 284
746 225
2875 309
963 188
1115 164
202 7
1804 295
478 201
1422 203
1808 192
2435 368
1674 66
1745 61
382 267
1364 155
2861 232
642 293
2033 202
1309 38
466 268
170 253
1585 91
431 129
786 347
439 250
2391 274
435 117
2250 27
497 338
2325 9
1576 106
744 131
1436 217
241 53
2731 8
2758 142
434 341
1878 125
229 138
1870 143
874 71
2940 210
2137 301
63 299
2624 10
316 363
1956 288
400 271
45 255
2580 312
964 283
1218 213
2463 19
1728 239
1036 25
1510 170
1696 310
369 131
1582 365
1995 302
1321 335
2175 255
2031 270
417 195
1352 70
1533 236
275 85
671 275
2197 137
1427 143
1576 91
2384 85
1425 235
1270 97
817 315
1328 239
2520 48
1612 229
504 192
611 67
1580 241
2698 205
704 290
2029 103
382 294
2443 367
182 367
1781 331
2150 84
2309 30
2652 180
2681 247
1592 252
1702 133
907 231
1469 278
1644 8
1402 110
1451 151
1834 157
471 352
646 218
2823 284
730 299
1094 206
2816 331
1729 54
40 211
575 210
246 328
949 158
969 126
807 123
422 364
2654 116
1365 79
2692 281
2555 170
2447 106
814 66
678 172
663 85
378 338
1226 82
2637 64
1216 145
738 131
2433 372
2075 233
2002 135
2563 30
1118 267
713 104
2590 168
224 56
2581 319
988 321
1041 0
2767 99
835 369
1713 39
929 21
601 72
2443 55
539 249
625 133
1088 349
1850 190
291 266
1693 0
1755 371
1439 262
689 57
1527 160
255 72
1019 15
899 194
2248 348
2966 42
334 5
1658 247
1165 104
195 165
913 371
1582 292
1853 183
1679 23
2748 49
1413 171
1956 146
1740 147
1753 361
1056 355
2451 336
1860 109
1693 276
298 100
2946 149
2735 344
1867 278
1119 114
282 343
1140 75
1665 341
1802 369
2396 145
1165 346
465 166
1335 149
571 113
505 295
855 278
434 197
2047 6
1523 138
226 0
2140 15
903 0
950 253
2524 63
579 357
1172 26
279 293
2828 205
729 161
2066 198
2379 244
2855 43
1267 178
1445 38
839 7
1911 167
2672 216
330 285
2019 249
1825 207
1083 273
2189 185
2186 150
707 299
2725 361
1555 229
1608 34
1962 170
2875 315
542 45
101 10
2957 143
555 98
1353 28
341 86
2310 206
716 241
726 352
1140 207
1491 167
1578 46
395 134
2153 220
131 373
97 9
2578 360
1328 208
419 367
2850 237
131 221
850 171
1632 333
2787 220
2993 318
852 315
2545 232
2154 297
2543 123
808 115
1261 248
664 210
2962 241
1332 1
1044 316
188 131
2305 307
1549 207
1992 196
1712 348
2610 168
2783 120
1746 304
890 311
639 175
1637 108
2328 363
2400 361
314 260
2027 309
1166 67
1055 96
2455 367
548 159
1752 369
1014 179
2789 294
284 223
1911 128
2089 363
487 258
1576 20
936 253
2602 181
1898 167
2963 59
23 145
1662 155
1819 161
2518 119
2409 220
2036 205
606 111
980 98
912 35
2245 188
1882 53
2695 203
2601 374
1968 370
24 17
2109 214
1877 327
1313 228
150 44
1239 22
727 100
2479 119
1454 91
2369 350
841 253
1150 297
2235 15
2642 364
889 282
416 69
2753 95
1277 248
1626 122
1249 262
361 58
777 254
2440 134
170 343
1434 59
2118 239
2651 66
2208 259
2341 197
110 202
1270 89
2504 197
1981 327
738 82
2957 247
1986 126
1671 206
2290 353
2387 138
2052 51
1953 209
1535 268
1567 259
619 115
2123 68
2967 198
177 142
2801 230
1814 215
1517 32
2816 318
2945 102
205 147
1803 318
2853 358
634 232
2818 369
2925 271
2389 369
1061 372
1016 60
954 208
2461 227
8 371
2004 120
320 370
1057 34
2363 211
1566 190
1480 157
2856 119
2149 115
728 287
1457 334
1598 272
1456 218
455 21
1341 204
772 181
1751 95
655 265
814 152
2087 178
2198 195
2644 72
590 33
178 191
975 281
1964 173
121 212
1565 364
2197 179
744 90
294 34
1319 96
1006 325
1527 54
1972 180
955 5
1042 337
1478 180
903 60
490 175
883 79
1409 180
65 79
1658 75
2481 101
1678 44
2768 95
2983 300
2658 330
439 167
2687 134
2204 240
2488 176
1741 30
963 115
2725 1
2103 249
1619 202
1817 12
797 142
533 315
1398 105
920 16
1986 26
972 283
1487 332
1225 130
977 317
2423 97
1022 272
405 143
2411 149
654 342
2089 186
1311 28
1512 20
2092 166
370 248
2154 220
1574 56
1166 10
1028 365
192 143
129 127
613 312
1772 133
205 363
272 211
2078 345
2792 49
485 213
2426 153
2477 357
1792 213
2495 284
2603 248
1304 284
1305 12
1480 74
1802 238
2109 47
2779 64
1558 219
1439 304
1074 345
544 291
2111 276
727 298
288 327
2859 363
1122 63
2299 165
5 277
291 168
2393 332
2058 208
1930 245
2098 169
439 88
757 252
2735 218
374 331
62 362
2124 329
513 39
2659 332
1277 67
2492 216
1740 55
2834 59
2327 178
1409 260
1280 48
1476 78
2969 84
1543 246
470 332
2275 124
1778 208
2496 165
2906 357
269 142
1824 20
272 172
963 31
2652 228
1282 121
425 214
2039 347
310 361
2980 46
2385 229
1294 362
1308 265
534 239
2407 22
2483 355
1974 306
510 185
89 212
1815 174
879 277
1035 11
241 198
1531 118
2981 47
1316 241
564 143
2033 220
2550 277
1511 60
1767 11
1688 31
1246 253
991 325
1102 208
250 348
2649 95
749 182
1149 45
1529 315
2500 71
1976 364
1777 45
1524 235
2892 167
1185 275
2595 190
1360 256
227 91
1656 303
2672 329
1747 48
188 119
148 283
2608 115
2485 102
2207 229
2627 340
923 249
2477 167
484 326
930 132
1574 161
1016 281
901 195
1101 94
1756 157
2439 259
2345 355
1984 163
786 176
1864 100
429 354
2404 234
1608 239
1219 225
445 280
1436 178
479 374
2339 83
1328 222
848 146
2692 168
213 66
1067 153
522 338
2592 315
363 336
1904 317
1410 191
2226 213
1449 90
2980 189
759 219
208 91
622 80
928 19
1556 314
820 131
234 91
2642 178
2742 200
727 132
2899 363
1715 176
2033 346
1778 74
1091 366
864 39
380 106
1893 166
1807 69
156 71
920 253
1122 136
444 57
2820 316
2311 185
2459 59
1877 330
2041 353
976 349
2454 108
93 117
887 226
2028 104
1669 267
2167 373
295 21
1504 222
1530 353
2226 172
1393 271
804 267
1876 179
2248 276
231 134
454 24
970 103
2902 164
2088 248
521 243
2759 133
9 340
1109 81
2682 217
2366 353
2915 296
586 211
619 24
547 116
1373 230
2558 287
856 250
2881 9
519 373
842 197
2193 44
1276 13
1748 303
1727 217
402 307
1911 231
1841 88
743 247
1310 69
1297 190
135 294
826 296
1740 129
183 187
2517 308
51 111
1547 227
1343 264
2733 152
2021 92
2412 50
1671 310
813 59
1933 350
1201 21
568 30
991 19
767 353
1983 295
1802 335
1573 231
2078 143
2940 211
2661 362
1844 193
2630 340
1655 41
1177 35
253 18
822 191
2602 9
1627 71
1764 243
1336 6
2107 93
419 360
116 300
2736 224
33 41
1378 314
2643 225
2939 346
466 82
1155 21
1539 171
2983 292
2076 233
12 251
965 264
381 5
1006 329
2789 145
1767 226
11 312
2840 232
2746 42
2029 155
323 213
2728 279
659 110
1568 329
871 148
619 47
192 4
165 344
906 71
1878 101
1901 105
2498 333
2032 187
1407 17
1660 164
2794 366
1669 176
1028 314
242 221
315 17
396 305
2087 256
1837 297
118 357
2771 217
2312 296
530 310
142 329
2520 184
19 117
2193 12
817 28
2322 74
903 372
2472 186
1915 244
2890 132
2855 359
688 316
1260 63
1821 52
1505 233
1450 116
903 325
2534 18
2480 245
363 282
2918 3
2532 255
1772 282
2582 70
1032 329
980 71
1622 41
2543 204
933 129
1877 367
1092 127
1907 164
1503 112
1890 31
526 304
1808 34
2148 311
601 181
2862 102
23 144
723 365
2461 86
2352 233
503 16
2951 8
2331 158
1391 30
1525 331
2774 217
2262 25
359 12
165 262
746 168
2185 352
1161 302
1815 58
2040 349
8 108
2118 101
224 331
110 338
2078 311
365 99
2983 202
744 310
2431 359
781 79
970 200
1877 325
393 226
627 40
114 187
2476 347
2315 39
1672 105
1508 27
1542 190
52 190
1562 54
1525 257
2094 204
804 267
746 284
2989 369
1841 364
1276 265
2563 66
1931 353
1651 153
2614 94
630 64
1381 46
1821 191
104 258
1542 149
1503 352
62 140
1317 152
35 53
2354 199
2401 142
2288 301
2042 28
2935 363
2632 18
577 156
1849 212
1305 0
1024 94
805 174
1660 229
1900 169
2195 229
1640 23
962 111
2552 251
24 170
1926 165
2071 255
866 212
2873 258
2278 57
2730 170
27 237
301 225
2983 15
2784 301
2955 25
1477 354
2450 226
2920 135
1370 172
1066 270
638 221
2371 211
899 185
987 83
574 242
1822 92
1837 355
632 127
2411 350
1271 16
1710 209
1192 7
2731 47
2552 33
2798 237
2257 26
1063 359
2995 293
1314 4
1335 111
2941 142
2496 243
2359 72
1735 297
954 104
564 292
2925 205
911 120
153 96
2193 74
1529 29
279 188
2065 212
2780 369
1179 250
77 84
2410 120
507 19
1552 151
2262 230
583 241
2867 318
1067 239
1933 280
847 219
795 344
2868 10
2277 373
63 361
716 369
700 224
1079 214
1150 161
1772 312
365 325
2149 299
563 184
1636 26
1590 350
2871 336
933 300
795 354
2964 79
1655 132
2463 323
409 205
902 27
1279 214
917 351
1471 296
2701 346
1717 149
20 224
1372 238
2118 295
1943 294
805 75
723 78
1392 273
803 165
1376 113
1751 131
1243 126
64 315
843 154
1861 320
1268 360
2438 214
1062 259
2057 50
1198 179
1223 90
2283 262
1099 192
2538 361
2262 88
1888 338
1372 81
742 290
2848 294
2693 273
2066 45
774 191
1173 166
564 96
873 102
1002 29
2766 284
1525 152
2957 127
604 43
252 319
466 183
1897 321
2899 314
276 257
2404 69
828 277
1529 275
1174 291
2793 170
1538 200
482 122
1328 66
1057 33
1746 98
2559 277
1934 374
2637 261
2714 14
57 12
2269 85
1433 295
1098 131
757 117
1124 152
621 232
362 189
1004 22
2155 318
1252 7
2356 205
755 289
282 312
2107 40
1002 208
218 17
2860 296
390 194
2145 175
966 321
1353 260
931 122
1008 75
979 186
2395 330
1344 49
1872 259
556 146
2752 338
558 77
2953 56
1754 16
793 128
2240 246
2101 175
898 349
1574 8
283 20
1637 248
1189 331
2606 88
254 333
1473 114
1021 85
397 157
1602 112
2507 374
1540 250
1946 369
2812 56
2994 128
2976 88
331 274
2661 212
798 347
2741 323
413 70
354 332
537 167
2664 128
1870 284
304 348
1899 163
1624 41
1082 57
1599 93
1153 316
1281 56
2942 50
2670 177
2488 57
866 226
2425 255
2687 86
2596 292
100 292
1924 371
2969 350
589 175
2892 160
1644 118
1914 287
2661 98
2815 30
79 6
1429 149
2221 323
1447 154
2220 247
40 43
2093 269
1364 31
1667 234
254 284
1367 323
1504 165
558 77
1504 124
2449 359
2008 77
89 93
1747 87
603 33
239 134
1409 332
1569 161
1629 306
2082 104
2962 314
152 14
1405 190
693 18
597 345
419 348
209 244
323 199
509 276
2382 209
1580 324
2951 362
2560 19
982 173
1249 239
1511 95
2232 332
2154 201
2764 131
2554 103
751 135
539 355
496 353
2462 254
1325 191
420 55
1603 289
2221 185
1774 194
2414 265
2243 354
2379 145
2044 224
2566 169
1951 317
2604 231
2504 161
2739 264
573 232
1675 199
2185 322
2163 172
2537 101
591 40
1917 325
125 205
2651 58
1740 124
860 82
698 335
949 171
607 231
32 107
112 140
275 319
1854 257
172 122
2568 372
199 160
1772 188
1116 94
255 209
1712 361
96 151
2692 347
773 371
275 5
2209 155
1189 275
1891 260
496 28
1720 216
2463 374
1185 2
349 190
31 230
2658 1
260 336
1103 351
533 66
776 225
783 200
1875 308
65 341
1018 138
1984 32
1731 261
60 370
1240 225
106 337
930 52
1508 216
965 332
161 138
2586 78
2129 113
2310 343
310 372
2918 51
2403 343
1775 109
1483 164
2574 306
56 322
2879 85
675 146
2344 221
2780 230
260 204
204 189
2794 106
1084 113
67 239
1951 0
267 206
550 162
454 369
1992 131
2725 170
13 304
216 193
1851 202
1363 28
2294 13
2721 82
2660 230
1440 123
2714 48
1360 46
1002 191
2358 319
238 15
2510 0
1971 260
1197 319
2235 68
2777 336
2492 115
527 322
2212 147
1501 66
1326 204
396 248
2195 107
1349 133
2293 261
2855 162
2795 132
1845 178
47 282
1843 118
941 78
213 151
2243 296
2656 231
1874 156
2118 236
913 179
709 208
265 22
2121 41
15 1
1091 210
434 5
2125 249
2105 343
947 33
1000 89
2644 179
1036 313
1815 353
435 166
2480 256
2814 43
916 239
101 234
2940 229
1951 228
858 235
529 318
1581 203
1426 77
1761 289
671 239
1900 312
1677 144
635 168
2093 340
2162 134
2728 340
341 27
1784 112
2057 155
14 190
1921 91
652 54
2124 205
348 95
412 50
1025 186
2530 215
737 1
1986 370
1184 296
68 40
2343 332
76 170
129 155
2639 222
2316 187
2929 90
72 302
2898 367
487 140
1939 210
444 314
1885 145
2251 248
791 167
1606 318
2465 233
1777 169
781 3
1832 24
2775 291
1672 304
1086 144
488 40
1700 172
2667 216
311 145
2181 101
1946 99
1144 335
408 37
2430 128
1424 278
911 18
1300 153
631 287
1107 260
1049 364
655 236
953 12
18 246
1087 316
554 172
2897 342
367 333
512 24
1185 374
1621 267
871 346
2879 352
38 261
1219 261
575 249
2250 160
1341 160
1818 340
2791 71
632 251
2762 316
2620 80
933 331
27 142
768 367
1655 353
1980 199
1394 277
1775 127
1663 222
554 67
769 155
634 369
1590 15
663 56
1501 188
2264 363
1104 182
102 260
2071 122
416 73
1077 223
1100 172
2843 107
323 363
504 36
2558 340
1435 81
2681 92
312 104
1858 323
1173 163
1359 239
421 186
2730 154
1125 75
2759 191
2436 312
92 281
448 107
1847 312
2660 339
1286 136
2204 33
1950 68
724 90
1633 339
384 170
243 318
1766 109
436 26
133 115
209 128
114 327
2136 164
280 290
1700 137
936 100
3 208
2993 164
2434 264
1002 299
2494 278
1412 189
425 195
282 74
1788 301
2136 66
761 132
970 175
1980 84
24 353
269 0
572 142
929 267
2791 32
1071 200
1500 357
404 229
2776 55
1348 341
1176 95
2904 157
1637 163
51 330
2422 344
2638 370
2800 261
1096 73
1587 120
1157 258
163 200
423 350
2771 183
2765 343
414 62
2785 220
987 168
1862 370
2461 371
1435 226
2785 312
2827 235
2606 150
2228 106
2348 283
2166 111
543 167
2269 65
681 245
2875 135
1009 334
86 10
1398 40
2986 213
2231 210
2826 275
559 79
643 282
886 286
1367 149
1129 111
725 59
2817 165
714 65
923 221
1400 56
2002 224
2740 103
1660 157
407 285
571 143
1150 239
728 64
2673 240
2841 252
2670 210
1349 343
2888 10
1374 369
82 76
1428 285
587 1
296 76
903 229
390 108
820 192
373 253
2026 48
137 91
2704 334
272 84
1702 207
248 114
1680 184
999 156
565 178
1426 247
2698 316
239 103
899 309
1006 58
2874 225
1818 9
2361 18
2151 227
1437 58
977 282
1996 192
137 10
1869 13
858 179
86 165
253 6
461 342
1117 43
337 218
2662 161
2793 201
2022 227
1501 111
1769 352
1738 293
2942 257
366 202
1449 279
1398 138
2643 49
1272 8
2663 292
53 123
657 213
2693 258
2422 166
1393 10
2336 354
1131 52
1774 211
1125 63
716 38
2993 40
1969 242
2546 361
825 196
854 0
95 247
58 111
2545 237
1897 12
256 262
1362 269
581 76
1548 275
2623 303
1592 195
1929 299
2665 26
1569 248
866 134
2338 76
2366 15
2094 89
2456 230
1582 344
1401 228
1841 271
1240 357
1315 287
2282 333
2398 210
611 164
925 242
1632 341
1490 133
1673 59
2284 324
2412 86
1766 232
846 306
79 256
2307 89
1178 18
2667 55
2611 166
2079 36
305 253
614 159
2234 169
1455 46
402 119
2469 323
1040 207
1154 38
1940 236
109 356
2049 40
1262 65
105 311
2482 14
1060 177
354 319
1418 274
2512 190
2502 233
1286 277
264 271
2114 129
1863 209
2856 172
667 99
2294 204
1420 261
1039 194
1091 300
1080 284
1981 192
317 340
591 75
602 193
2021 149
105 128
1711 40
2636 81
2582 346
61 300
1845 13
1975 176
182 121
1359 228
1302 39
1677 333
882 209
2965 31
2211 121
2793 297
1516 124
359 42
378 252
2418 367
103 256
1618 87
1774 31
1029 357
2754 331
500 186
448 332
791 340
1218 5
15 190
2246 131
1180 72
2193 331
733 230
1937 372
1469 368
370 111
2656 267
820 99
2625 349
1962 29
542 258
192 211
1721 75
1825 305
1346 8
2925 178
2973 173
323 221
2665 127
853 325
749 44
1880 78
415 318
2708 275
652 187
1451 182
2618 18
113 168
2847 70
2847 157
1275 143
2965 356
1521 301
380 248
1634 217
1580 89
2953 12
1508 19
1622 192
2808 304
136 329
52 345
2174 363
494 317
2963 7
2202 370
2533 236
2733 101
483 71
2623 20
578 3
1376 332
1109 105
2708 139
938 253
2386 299
1618 309
181 200
1798 348
2826 55
301 317
824 167
1760 176
2161 356
1682 176
1765 167
582 74
64 211
1728 45
42 256
2766 344
1955 116
2835 77
1149 38
906 369
954 9
464 168
1396 271
1721 54
152 235
2068 233
1041 174
1578 311
447 338
2689 99
1840 308
2529 142
712 232
2361 145
743 333
1418 71
585 264
346 247
2146 145
1771 160
2883 360
2760 238
1953 343
10 7
1595 338
100 147
815 132
66 261
1834 57
2283 270
782 239
2135 363
213 196
326 132
2249 67
2543 279
2926 314
2333 288
866 275
1199 216
2633 78
2934 224
2943 264
773 192
2892 75
406 210
1909 331
2663 198
2295 130
2350 82
394 202
1836 281
2632 171
2216 83
924 2
2199 95
1788 331
1871 12
1828 52
1995 312
706 119
1689 105
2563 144
2317 153
2032 216
1885 360
2174 218
2383 316
1114 259
1036 168
1674 25
152 66
753 197
1415 152
915 158
1496 66
2439 247
1937 141
648 259
2713 239
2113 139
900 371
1318 235
2586 29
929 304
2558 139
2228 286
1837 37
2693 235
1103 254
1916 28
389 330
1468 124
2521 139
1710 66
2677 103
1867 69
1734 151
939 245
1904 34
862 39
2122 202
941 13
2629 251
2831 14
345 209
2761 281
2590 340
2767 186
1983 316
2674 341
310 49
111 265
2860 89
2231 235
464 183
1104 279
1673 206
2447 289
1847 28
2317 317
1384 245
1062 151
1433 112
1097 69
1586 153
730 260
1025 313
2542 282
1691 238
2668 278
1334 75
2385 279
860 15
524 260
1339 21
2603 302
2099 283
2520 106
1840 205
2341 11
2598 175
1860 297
2445 185
1619 208
1691 59
2472 24
188 107
980 356
66 268
904 178
2105 259
2224 61
2286 302
2050 320
1889 155
2538 59
2159 126
1043 260
703 249
1676 349
1859 245
1706 124
21 66
2702 33
1411 297
709 244
655 75
2635 231
2710 365
2391 169
1995 325
156 370
2802 335
1039 212
347 220
490 221
2610 118
88 221
394 335
2433 86
800 87
1056 332
1958 51
2692 228
981 138
1409 20
1317 53
1519 0
2291 4
824 292
817 128
2239 26
576 172
2930 167
636 4
462 202
953 72
534 183
1896 140
1159 190
595 274
2258 128
1635 121
971 122
1692 263
1101 326
11 127
882 21
1033 126
796 173
772 136
917 108
898 125
1932 283
1437 143
1984 244
77 40
2478 75
1396 9
2087 248
1338 45
1029 34
1920 160
2321 3
2695 118
327 272
1651 320
1663 252
1433 252
651 204
1454 334
2533 344
332 217
227 350
926 254
2596 189
2832 117
1878 373
381 11
483 171
213 186
845 220
1094 11
2487 47
2149 367
981 314
672 192
1692 106
891 170
1820 71
352 131
2240 348
762 82
2769 205
685 115
2720 26
1080 4
607 133
2046 28
2115 153
1016 351
2368 1
1508 84
1792 166
2732 163
2016 152
2133 221
1098 326
2418 318
1933 287
901 212
2531 322
2407 169
802 27
2823 81
2810 162
1925 71
835 262
282 171
501 49
2608 88
139 122
2565 213
663 43
2252 33
2910 124
833 162
15 184
863 313
1889 312
2380 270
2365 275
508 359
828 32
1082 189
454 146
2348 271
1909 128
237 177
873 41
2906 15
2764 40
440 257
1679 152
2711 139
2342 185
2350 163
713 38
974 321
689 373
1288 240
1501 295
2567 234
105 355
15 127
2459 102
373 89
1744 97
398 177
2303 278
948 232
1519 210
1919 295
2931 213
1654 139
1605 40
1654 104
862 68
2304 214
2561 292
1039 15
2680 217
422 316
802 234
1739 32
20 257
683 130
1258 73
2063 278
1837 134
2921 69
2725 31
2467 175
363 312
1581 329
698 226
2321 147
2118 37
33 263
2791 133
2319 94
1279 75
2243 349
745 87
2415 42
1080 333
58 241
1596 91
1630 332
2968 236
696 148
1119 342
649 150
969 282
1759 181
2251 182
949 177
1558 167
2418 280
2733 340
508 257
963 311
654 146
740 91
1243 39
1081 193
1088 140
1179 5
1649 42
1550 281
416 148
2887 155
639 107
2596 101
1043 237
2304 324
263 311
195 127
2543 318
2466 119
211 7
1049 61
2929 155
17 48
1005 251
106 155
2291 61
2831 69
2408 300
2488 254
1924 7
2811 169
2049 38
2078 207
1898 323
653 329
2037 232
440 339
2226 175
2883 370
2090 297
1967 336
1878 123
2047 98
2655 85
2401 119
1817 68
2891 344
2397 77
1440 374
2050 201
73 43
2415 106
1573 161
1573 310
1512 343
673 184
640 222
1516 69
2731 47
1831 171
1507 148
1448 271
1422 283
528 75
2534 191
2456 296
1727 241
793 362
846 38
417 56
217 2
1888 346
2382 128
60 262
1902 148
2494 334
1378 6
1949 210
765 339
2210 35
1876 40
66 186
1828 146
502 344
173 233
851 162
630 25
1993 189
469 133
667 81
404 81
2715 262
1892 142
1030 67
911 85
766 319
339 74
2199 18
1850 87
1775 181
2934 35
1364 37
2535 248
1686 348
787 57
1296 116
1069 180
948 236
2929 282
2251 119
763 348
2565 176
2939 129
2783 311
1195 131
2642 282
566 233
1387 319
2008 192
810 305
2168 144
2601 226
1871 228
2549 51
596 168
1375 227
222 273
2591 268
606 42
2391 178
703 153
1452 275
1744 29
264 26
1266 356
2094 110
1215 302
859 147
2644 159
2505 12
2983 57
2472 268
2639 203
1260 68
1504 328
1162 250
647 150
1096 192
938 41
1401 266
156 190
2198 228
1782 120
2542 184
2943 186
2608 222
1681 3
306 186
2881 3
1773 165
2205 34
2676 235
601 141
838 310
661 245
1326 283
1408 273
66 366
2860 21
2728 29
2514 274
125 259
305 233
827 303
2686 107
212 67
550 139
1352 101
218 362
1774 309
1267 113
2646 88
675 372
1279 63
1993 37
911 374
633 314
1859 26
1628 130
1623 374
435 129
2336 270
2651 225
2292 271
2840 49
207 81
2092 282
2885 343
215 64
1135 317
2582 223
2376 172
2248 354
2563 208
2744 154
2869 57
886 257
550 114
1836 123
591 38
1890 288
54 29
2620 10
2582 39
1881 226
355 257
2402 299
2010 78
2207 251
2263 373
1097 115
2612 14
2577 10
681 285
2912 81
1692 300
1014 330
1096 250
2873 1
1392 341
1022 154
251 247
1101 308
1312 1
970 328
1921 253
839 80
322 211
1604 199
383 88
2282 128
1254 338
787 83
1994 168
2943 338
2374 19
1544 212
2074 237
1219 316
7 259
1823 94
1572 156
53 267
2236 141
851 315
218 191
140 267
284 163
615 278
1935 163
926 203
295 313
395 285
737 34
2208 247
1921 157
1215 372
315 127
2308 232
2881 134
678 191
2713 361
2444 29
1290 44
2369 200
2180 242
1054 202
1937 289
1827 179
478 4
2623 50
2205 9
927 189
1598 161
784 54
1458 225
2191 10
1098 167
1791 40
1657 7
2899 313
2642 64
678 164
2537 110
2463 286
1390 212
955 324
472 268
1847 336
293 248
1561 372
749 184
507 200
2962 262
245 192
2838 233
1846 259
2263 258
1129 251
1798 250
276 205
920 256
1993 59
2382 6
1731 15
1157 15
1672 311
442 103
541 301
2421 289
87 108
1502 279
1685 59
798 26
1635 75
877 144
1746 282
1514 205
1585 336
2696 9
1880 49
2236 48
1378 79
2361 248
2424 260
2300 268
1972 276
2245 13
83 344
400 243
1760 77
1222 329
757 136
2225 371
364 150
51 347
1206 358
480 182
2852 73
2410 311
1026 174
1536 313
2142 11
850 189
275 262
1239 363
1067 54
1899 135
1018 5
914 64
1812 46
2729 61
1823 152
175 250
1741 240
1631 134
2668 310
280 122
2868 166
2334 171
1730 315
634 276
2542 333
2666 12
2067 126
1589 156
410 193
607 352
2757 8
714 131
1019 16
1417 335
917 40
1505 78
224 29
1137 291
2387 339
122 203
2023 260
2101 86
1424 147
1148 98
1413 200
920 190
496 276
41 8
1040 297
2565 60
2320 122
2499 198
2432 38
852 112
861 43
193 178
1818 125
2007 138
1453 158
2146 100
59 41
143 2
1094 68
1072 312
2077 304
878 135
401 313
1459 253
2526 266
736 310
860 60
1499 147
2759 122
1134 280
311 113
2258 343
1294 194
2993 258
855 210
2947 228
2339 44
1299 48
1852 276
1606 192
1534 295
123 299
1001 226
1726 9
2231 279
2824 189
2055 145
2876 251
2895 220
2590 177
2232 104
1973 89
2080 109
2782 181
632 284
128 167
1550 87
2123 79
2780 162
2949 163
2846 76
1169 200
1675 146
2712 268
1698 114
2123 225
1268 345
2985 51
119 358
2915 33
1954 354
515 374
1531 270
851 52
2312 164
2750 30
286 164
1011 259
119 70
465 354
1247 284
652 129
194 287
1088 155
1764 37
425 0
1023 198
1339 313
1146 132
1984 228
1090 54
2655 374
79 277
5 229
1368 299
1892 75
2746 32
1937 373
448 191
1697 149
2433 347
1894 169
2915 67
870 156
537 83
1826 211
2008 241
2058 18
2962 355
233 127
2467 244
738 115
517 216
2536 103
1710 146
786 269
2332 346
562 295
2625 104
1257 39
847 270
973 187
389 45
2445 77
2035 343
2693 312
1606 222
2114 250
2582 330
2624 212
1132 300
2877 53
1478 230
1173 21
1547 288
655 47
2203 10
1050 304
182 198
998 316
735 43
299 308
533 36
834 71
2478 197
2321 114
2312 372
323 158
1839 53
1928 7
904 355
2229 219
985 204
1882 332
682 102
2600 8
1742 352
1199 236
499 260
397 151
537 205
1249 198
2672 356
1153 25
2977 253
2978 204
910 103
737 316
1727 238
1106 334
840 116
505 354
1882 325
1793 14
2374 203
2426 173
1858 246
116 11
1397 230
2746 21
1189 36
968 258
1976 325
972 246
861 188
794 3
32 46
298 195
1161 367
394 191
2394 335
1935 178
1517 111
1296 363
1352 186
520 83
281 301
1252 131
1309 247
2216 179
2100 53
1219 302
170 267
1695 19
2517 230
1959 205
1710 239
2932 71
556 161
1490 19
304 204
32 74
1603 171
888 43
1135 3
1530 295
1792 361
288 18
696 151
2680 151
5 186
1418 159
2178 372
963 146
463 4
2215 94
5 373
1381 68
2747 302
148 159
2886 276
2428 31
262 154
2651 271
2440 316
172 159
2738 229
375 153
892 224
2320 212
1908 71
1495 353
1853 370
2578 99
2898 167
1690 140
2516 337
617 69
1378 152
2647 168
1654 227
1417 365
1405 156
1451 279
524 37
1060 43
2330 146
483 141
1307 25
862 93
1487 253
2873 10
2194 372
2415 193
1711 338
1214 205
833 269
2194 69
646 250
1764 104
2396 171
699 73
2560 295
1770 93
2790 222
191 108
2173 161
2165 167
2456 298
1460 374
1202 220
692 320
185 53
520 326
2338 301
2070 197
675 276
1206 298
157 89
1791 40
555 288
2298 107
20 232
615 34
1456 0
993 335
770 21
1399 128
2152 61
1040 246
1586 334
193 245
1898 73
346 229
295 276
1480 81
648 69
2966 205
2667 257
304 374
1303 208
458 57
265 364
2994 110
2872 97
2321 107
641 169
769 17
2910 138
2496 210
405 144
1477 237
2366 234
2979 81
1312 244
2879 343
2709 65
1541 197
1209 363
2825 106
418 303
2127 81
1560 120
2981 85
645 294
2606 224
2556 371
2528 262
96 100
101 89
800 14
1802 4
2994 212
1178 163
908 302
2263 44
1597 295
2088 39
1291 187
2704 272
2203 81
514 105
2684 337
1315 140
2589 241
1386 8
2885 64
1436 145
1041 107
625 232
347 87
1015 215
1398 329
1703 286
1285 100
1920 182
319 65
1771 11
1394 140
1703 212
204 325
1454 32
1066 7
1995 80
2538 262
1420 202
929 291
2968 166
362 161
1080 215
453 144
567 285
982 172
2018 149
924 150
501 167
495 114
2534 335
642 49
795 133
1136 90
2470 80
1959 11
2471 80
2407 181
2880 164
2097 156
922 69
120 45
2652 218
961 17
2455 15
183 161
2787 137
624 119
2495 370
2705 114
1311 54
1018 241
945 126
255 159
1773 203
261 197
1579 35
2539 134
1980 21
1812 244
2414 142
341 150
2335 128
562 202
2782 132
1361 87
233 234
2285 130
2940 12
201 13
2367 34
2407 270
2887 304
521 300
589 133
2312 145
2963 215
1706 99
2660 92
2775 103
1286 269
1403 22
2050 360
1519 354
2633 325
117 336
193 284
634 57
292 135
2318 188
2875 119
2871 247
47 285
2582 21
2531 52
1910 315
2193 89
1838 306
1803 155
2399 168
513 6
1268 169
1190 46
1551 346
705 186
371 345
1359 179
71 242
517 48
1119 251
2321 347
1953 269
1529 169
1023 235
37 104
1002 25
517 215
2179 368
826 340
1740 218
1568 178
1546 317
461 53
1143 243
1376 8
1981 13
977 332
985 261
2433 173
2452 163
2343 29
343 249
1345 128
337 357
251 256
1811 162
1669 96
2532 280
1426 214
2715 195
1597 218
43 323
2324 173
2359 230
1054 193
349 176
662 44
1353 327
937 47
1473 109
93 30
934 86
522 17
1987 337
45 20
483 263
2976 355
2843 312
629 237
2425 295
2658 47
347 366
1657 123
2734 265
2887 124
2539 324
1943 285
2163 329
2235 288
2529 64
508 314
2137 212
2972 243
1359 358
2744 107
71 295
478 365
2992 268
171 41
974 103
1895 271
1549 222
2533 283
1357 94
488 320
2512 44
1059 112
37 341
916 148
473 211
977 83
1427 92
58 108
1957 338
2099 366
1869 44
1665 209
1558 58
1829 3
1654 158
1819 316
1783 253
1696 44
2681 156
436 326
818 0
2822 272
188 289
2516 316
1428 139
1724 357
1938 8
2451 335
2573 22
981 46
2576 129
1116 316
735 99
765 55
429 220
2153 25
267 5
134 45
185 51
1103 189
2665 87
1291 83
118 226
171 245
1234 131
2389 85
1259 102
526 361
1456 124
1869 140
2626 146
1528 139
1092 309
941 169
2578 42
1550 114
2815 229
2617 207
2552 354
2201 165
1460 181
2172 365
116 237
1723 332
133 111
2281 213
2302 74
667 288
1786 251
1968 336
2796 177
244 118
807 153
672 248
1449 180
2665 286
734 264
2510 277
2683 83
2310 12
2067 42
544 161
1104 256
2164 163
2397 191
977 201
1856 262
856 305
2544 0
2840 307
1538 158
2026 146
2925 241
1975 16
2170 120
199 250
2047 231
144 166
1574 351
318 304
2172 273
483 275
294 88
1599 265
2484 250
2628 330
1803 341
2761 372
1570 97
2868 64
698 370
424 359
332 183
1556 63
1939 18
1855 345
1922 80
423 195
30 192
1254 349
750 333
309 3
2136 24
1818 272
1285 144
402 99
2607 196
1104 360
2348 61
299 314
384 317
2232 192
1083 29
95 53
870 104
1832 293
2351 289
2053 123
756 342
2541 150
1330 303
1063 133
1534 289
2076 262
729 91
2089 204
114 345
1457 267
2485 177
2788 205
1124 370
1316 342
1033 336
820 118
478 61
625 92
333 223
2621 59
2099 23
1785 20
488 306
298 348
1320 13
1072 359
34 127
914 55
2086 30
708 332
2190 356
1861 190
456 161
2166 148
818 344
2637 237
252 240
1684 67
1867 190
767 344
2520 209
336 85
700 277
147 338
1415 162
1666 363
1998 238
2486 357
768 172
1134 333
2044 336
2453 57
1252 352
140 191
380 257
2148 145
382 261
439 56
594 314
170 38
2210 322
1722 229
886 113
759 236
2288 3
1535 134
2865 365
1097 335
1335 6
486 304
1136 346
1588 214
561 81
2723 167
2856 9
756 93
475 245
249 43
1221 314
2490 161
1557 96
128 283
1518 278
1893 15
1160 5
1052 169
477 154
2046 306
513 184
2759 354
255 276
1335 140
1163 44
1139 84
2373 349
2854 345
1936 213
2955 61
68 165
2610 29
2637 289
1129 281
12 164
956 337
2808 326
2175 80
191 279
1942 283
656 190
2264 345
2418 282
1740 6
2904 165
749 16
2787 138
2041 175
1305 183
712 268
2964 264
274 18
1981 40
505 195
1747 45
1328 47
1188 70
9 166
1431 163
1841 93
2483 51
353 224
66 58
302 352
954 201
506 103
2728 238
1391 24
1792 103
423 347
1054 240
254 326
2150 168
189 320
2404 254
187 36
976 157
739 45
1203 307
1498 66
809 370
1242 368
2399 145
2590 105
1744 264
967 325
1238 307
2658 106
1562 225
690 258
2808 76
533 29
964 180
2807 43
2686 34
1383 61
198 155
617 186
948 122
250 6
1242 326
2370 223
2925 196
2436 294
59 135
809 300
250 319
802 371
1242 349
952 374
475 239
398 277
896 22
1313 193
1821 282
2374 147
1111 193
683 72
298 260
1445 324
1536 317
2194 289
2417 52
2719 32
1503 199
624 245
2337 113
143 157
2468 371
367 100
2959 351
2238 142
2840 337
1601 222
1962 348
748 131
2172 304
2567 210
1606 17
72 68
595 294
50 121
2563 123
1268 118
746 97
583 344
598 43
1255 12
243 305
2420 227
161 232
316 219
575 302
2801 15
1555 138
1144 84
2519 301
1488 33
2320 202
134 274
2364 206
2491 346
2053 246
2300 266
1459 115
2222 369
1153 263
808 347
2893 341
403 341
1518 135
1262 2
99 72
2806 246
1343 47
316 259
480 229
1295 46
811 325
1477 193
1057 202
852 304
36 125
1064 129
214 129
2422 25
1960 150
2889 41
153 130
1585 54
997 76
981 253
907 199
2470 291
2920 237
1311 168
1513 208
1048 101
1548 349
1073 278
2740 74
1554 140
2290 362
1922 75
2018 163
2353 337
2718 128
2821 326
1009 318
2332 369
2327 228
2973 321
596 204
1176 259
1069 251
149 88
2951 315
2638 35
1326 35
2212 180
1624 255
2355 128
1255 137
1724 352
1959 150
805 109
989 364
977 361
562 80
2249 221
729 125
2607 363
525 336
2912 238
607 265
910 280
1269 137
2734 262
2437 351
1257 218
104 46
1843 332
254 53
1931 19
2797 374
2214 264
2310 146
325 44
2532 94
1277 295
2966 144
1211 341
447 229
737 149
928 370
2784 10
1441 349
1114 5
1946 185
1381 290
943 258
2467 256
1051 365
94 10
2584 328
85 253
1868 369
2153 163
2491 357
1106 109
2678 16
340 139
1096 371
1696 371
945 293
660 269
934 55
1901 352
69 117
2258 307
1022 78
2589 175
972 209
1733 363
1540 5
2890 207
2630 187
1198 57
1877 276
2363 9
283 219
1836 211
1621 116
294 211
1241 52
874 165
1350 236
2212 328
467 206
2478 177
436 52
2065 113
2984 267
242 329
1257 263
1549 145
1038 162
2526 340
1346 227
96 220
1040 99
1141 253
828 69
80 303
1625 275
2213 175
2801 312
1635 291
694 158
1143 133
1597 192
134 177
