5500 1500
207 49
847 122
925 169
1280 6
179 31
746 163
1457 181
1024 30
455 178
1324 29
567 132
1302 49
289 110
1176 182
242 61
779 60
21 133
584 186
78 112
666 62
927 36
736 3
889 85
14 22
866 10
1289 6
289 79
1114 154
1275 139
153 34
1002 176
108 147
1402 71
196 72
200 52
9 135
992 129
137 31
281 19
1471 43
445 26
526 9
1232 182
851 81
951 163
618 31
811 90
1316 138
1172 117
90 2
1014 18
1303 92
995 167
804 154
649 19
1031 81
1295 92
878 50
1467 86
238 153
196 159
941 110
1165 162
1255 113
800 167
517 158
530 134
174 55
166 62
317 9
907 67
543 137
965 1
1260 91
595 34
811 82
16 69
1151 0
343 163
218 166
772 163
266 148
852 30
745 125
1240 180
47 104
293 69
591 138
1484 174
1126 107
13 79
913 178
274 43
777 2
533 148
1408 123
360 81
105 114
1221 10
1338 50
641 158
820 31
816 165
939 123
1172 146
1068 165
1475 125
1193 112
536 65
1474 183
683 67
198 106
990 62
1071 59
1060 122
308 111
832 79
1466 17
1182 76
1077 49
226 79
1026 167
190 43
80 21
837 43
376 155
522 187
560 142
966 139
298 127
1107 6
741 184
1201 176
568 35
1242 64
1020 3
106 176
730 116
1036 96
584 181
935 24
973 158
489 142
376 80
750 187
188 169
102 98
80 11
1000 85
200 82
209 57
1256 13
683 148
528 68
340 91
932 40
24 141
163 23
964 56
71 141
920 184
898 72
1487 165
925 45
488 157
1495 124
1322 28
1250 36
888 180
1443 28
589 43
1284 89
191 80
781 175
782 45
1119 166
1115 84
938 152
54 101
315 126
987 69
1397 170
934 26
853 167
64 182
374 145
585 45
618 182
1192 41
1240 61
320 1
763 103
897 86
1355 61
1391 131
594 123
1050 0
433 154
1474 41
944 123
1489 82
786 54
308 117
158 107
221 143
338 31
258 181
1256 77
1189 101
434 183
987 142
194 81
1301 106
1133 173
1095 62
177 55
988 107
1490 90
540 121
1328 156
1478 25
367 24
1235 123
1292 18
586 148
24 39
1276 50
227 90
974 173
960 184
1195 149
1056 127
708 48
1274 10
1207 157
1073 90
1020 109
700 123
1334 147
52 151
901 54
958 23
784 39
632 160
1109 108
1285 155
849 163
968 10
118 3
1202 26
576 110
1267 151
15 114
175 111
1463 73
347 33
1179 100
343 175
1280 156
118 128
43 129
951 58
539 139
365 183
1381 85
568 138
1325 3
163 11
538 133
83 164
767 147
1472 118
726 104
572 8
719 163
197 107
1248 66
686 101
934 119
173 92
1378 154
684 153
1293 173
231 79
486 176
1370 77
137 183
300 94
1175 95
631 156
757 140
1150 175
358 126
1276 39
33 98
267 119
1446 110
1362 20
372 119
1488 36
971 157
21 148
725 3
924 58
1445 154
154 84
48 70
157 183
641 180
1125 146
71 127
709 60
651 179
3 90
964 168
1082 39
562 181
629 112
1279 24
1462 184
1129 152
1144 96
1288 4
139 134
887 62
1103 78
798 160
41 160
473 141
1460 179
625 22
67 155
313 10
502 59
79 167
707 148
803 26
1264 112
476 119
613 133
731 171
426 78
829 8
81 69
620 169
1005 116
513 37
1281 106
667 121
915 168
439 110
1225 120
131 68
400 62
293 176
182 26
1021 92
1251 68
49 39
415 131
773 174
117 109
1001 16
377 152
701 133
1117 92
592 115
1088 155
1430 83
767 129
133 73
858 133
621 77
56 152
1394 32
780 14
371 8
465 164
992 184
338 92
1349 19
234 137
1498 153
1402 89
515 62
1110 140
577 2
1486 20
823 158
542 90
1461 102
844 117
751 149
963 35
1250 22
716 18
330 48
392 103
404 47
1092 35
278 185
1456 79
548 186
426 4
889 153
265 130
935 77
1294 146
281 66
891 124
1391 44
631 82
838 27
1290 97
46 175
333 95
103 99
647 110
442 6
700 34
382 38
517 157
281 84
188 50
1201 125
1133 172
1487 89
186 107
69 83
565 12
669 90
619 185
587 9
626 137
1389 162
540 85
11 20
636 52
38 63
1151 98
1296 183
64 96
817 94
1268 89
1170 125
773 168
1467 31
279 125
1451 49
5 94
1062 47
1096 160
331 118
1306 19
978 65
1352 78
1043 5
1060 1
416 130
413 85
1088 66
1096 96
1140 163
871 85
663 43
321 20
464 109
408 26
909 175
1312 173
736 15
953 38
727 169
409 27
281 108
895 31
883 23
885 134
615 76
231 124
205 61
832 67
210 133
302 182
1303 95
486 31
490 141
449 2
1273 96
540 21
1221 138
1023 78
630 101
1009 28
379 79
1384 81
764 125
1336 55
1450 186
100 107
1115 137
546 44
384 177
553 119
1290 24
1448 69
942 122
1213 77
793 169
317 27
1395 123
293 99
824 176
212 178
1092 32
329 39
560 82
1206 9
956 135
83 142
1302 108
497 149
1443 81
1399 148
661 26
495 80
920 169
1481 118
337 83
161 26
1019 115
578 12
385 132
873 94
996 100
638 166
802 32
880 8
1446 12
1399 186
822 160
783 8
1011 167
442 163
28 50
1464 59
306 55
892 146
373 134
1168 166
1258 58
134 81
528 127
787 93
1114 86
94 91
880 132
566 140
641 72
1460 127
303 14
1354 31
1194 133
668 107
791 140
137 164
724 94
483 145
1231 32
1349 145
106 113
541 150
79 164
79 104
810 113
1053 13
73 18
1308 145
679 115
387 168
677 174
196 44
1004 173
1357 186
818 107
1002 183
1139 185
1382 150
1395 64
530 66
1311 80
408 70
169 26
389 107
567 162
118 142
349 5
21 4
287 18
812 43
1071 123
969 75
1185 105
416 175
1144 175
440 106
882 69
376 180
1013 178
176 102
1181 108
1190 11
1213 74
893 147
331 137
1421 108
862 82
1149 126
824 107
323 148
549 87
143 20
1196 7
742 100
30 119
1482 43
431 23
395 92
132 148
662 73
1361 39
473 36
1461 146
285 119
1397 132
633 179
278 86
1184 29
1320 152
928 35
820 49
1151 29
446 158
1108 137
1459 63
114 88
484 136
113 10
1242 60
1019 158
823 170
1272 32
1357 19
112 77
1328 182
1145 70
1062 93
41 176
183 141
1179 74
480 104
84 116
68 25
673 46
581 15
1154 181
1214 45
337 24
1321 103
980 152
898 31
1419 178
611 127
483 117
433 23
920 0
923 92
678 112
1494 109
444 47
908 172
367 121
276 7
1121 136
370 107
111 73
1280 149
816 132
32 41
106 38
147 10
685 72
295 185
486 118
209 162
905 0
502 115
929 136
1038 16
829 79
910 149
161 178
119 88
1345 168
679 37
812 14
1017 66
352 136
450 72
23 92
1011 174
1302 31
1287 41
991 97
242 183
901 76
523 140
307 4
1477 44
33 20
233 152
341 116
533 24
1342 132
1019 2
981 84
343 26
1390 113
680 183
1127 73
1405 29
18 165
802 39
1037 165
793 118
1474 4
201 111
1412 88
771 33
957 59
1463 125
360 44
1377 90
121 69
1466 48
401 145
325 94
1054 164
220 87
518 113
963 154
564 164
1435 92
840 150
982 23
1155 173
235 35
582 101
139 111
1047 40
127 151
288 41
1388 76
1437 140
197 155
818 124
659 58
590 184
1212 106
1398 17
743 7
190 86
267 109
114 129
1381 110
949 24
839 168
1063 119
647 46
1274 158
442 71
1336 119
1183 38
502 61
1029 65
230 91
459 50
1324 63
1457 126
30 117
1079 16
428 126
1249 133
425 73
1309 141
260 124
152 49
380 135
522 62
152 185
1069 55
285 15
787 106
1188 89
1269 61
1 84
1330 137
617 85
357 117
1205 101
1403 33
989 166
1365 119
1383 90
1468 18
284 59
1230 55
677 50
25 150
634 65
469 100
856 175
424 151
58 42
872 123
1475 111
90 121
1060 145
793 71
324 76
434 66
264 110
1345 183
661 95
230 5
1314 32
1142 142
1009 20
1330 3
271 140
129 75
826 101
753 1
724 17
830 0
1124 88
1413 64
684 104
1377 76
1189 107
761 61
1261 163
1273 39
445 149
95 79
1349 160
636 0
137 98
192 53
1061 68
366 68
1207 140
112 175
422 172
843 113
54 97
809 113
620 51
647 26
620 34
631 26
1329 2
1435 151
846 8
99 58
180 149
1189 161
1086 131
964 113
547 132
869 139
219 105
1284 56
494 67
881 112
1411 166
442 40
606 28
359 126
1089 166
309 184
1293 166
879 157
1065 11
346 182
1353 123
49 30
96 40
822 126
621 34
431 3
1014 182
254 90
1317 135
286 186
775 104
527 48
1124 7
201 66
1475 31
359 143
1433 84
1464 164
857 77
630 185
153 97
1365 181
1122 97
369 183
620 16
1013 61
891 38
95 102
108 175
1022 2
8 135
1331 172
1275 56
478 28
61 40
1420 122
524 62
1311 158
471 47
811 27
1281 66
158 117
409 56
901 166
258 46
929 175
978 27
912 101
606 91
548 174
1199 147
345 148
841 141
372 180
696 114
639 146
1278 29
422 130
1107 141
801 146
483 106
1422 120
544 137
544 170
776 61
669 95
640 33
880 154
397 73
1315 54
1296 126
200 72
1474 40
330 41
355 59
770 15
575 82
744 137
599 48
333 33
834 89
994 122
1271 140
985 26
1293 172
1006 32
441 174
616 184
1169 151
1036 25
798 76
221 48
977 146
1432 161
702 47
1309 54
661 132
1087 26
69 46
14 51
1308 75
891 116
1080 24
251 4
86 178
379 105
1126 14
158 32
131 134
368 169
427 93
502 33
581 71
594 74
573 38
1051 152
1358 5
1073 181
1078 63
1323 63
1006 100
356 102
946 154
997 1
436 85
1288 151
1037 136
314 25
1317 27
283 124
242 94
435 156
117 141
1083 126
1274 126
1054 102
1463 40
283 71
1110 12
927 127
199 14
83 104
178 99
542 64
73 65
449 50
1234 123
441 65
596 119
868 7
382 70
48 160
1406 101
926 0
819 96
1482 8
284 186
1459 98
1011 66
993 165
920 125
1277 73
49 31
816 18
438 20
965 139
43 91
1495 118
1104 49
81 67
225 113
36 147
1315 71
1166 9
869 72
151 97
38 42
780 64
1123 19
537 126
831 137
289 140
850 181
11 170
893 145
796 157
1033 97
1333 126
1354 144
56 33
27 69
941 66
115 109
389 157
51 164
140 186
1368 105
449 63
1258 43
473 41
948 162
281 80
1407 177
239 35
1023 17
871 13
1182 120
548 111
237 96
766 117
182 66
1244 2
155 101
150 75
1492 103
547 145
1202 87
334 44
703 76
454 158
1036 142
708 147
876 76
235 5
681 51
906 167
189 72
9 43
539 15
307 68
1178 185
744 169
1111 8
967 172
759 43
453 57
1294 125
232 67
576 44
144 110
264 54
1045 97
1456 174
759 148
391 175
1259 179
1397 121
106 146
1082 33
145 62
861 122
732 86
565 19
271 140
1207 58
21 124
225 86
544 150
1350 165
531 48
1496 1
233 28
1319 116
1291 146
275 81
671 63
677 166
1026 54
551 179
448 64
497 182
387 181
1288 168
82 98
798 12
575 68
560 129
281 114
1302 8
578 68
767 91
661 119
1418 108
893 134
1226 37
185 5
331 143
1271 166
575 81
1199 129
1348 21
174 68
2 31
1155 98
626 150
1265 106
1141 114
49 12
220 131
538 26
501 132
690 0
583 94
585 6
658 76
1472 155
1142 15
1293 53
1020 37
261 49
1082 174
1125 75
1116 22
1436 55
452 7
847 72
1179 6
1016 31
927 165
164 136
710 112
1479 30
648 99
43 4
703 7
1383 84
1254 37
195 103
497 182
1050 135
661 93
932 82
428 17
1105 72
1362 112
853 109
214 52
1215 98
620 181
1106 147
263 178
376 26
331 177
1324 176
148 164
560 159
269 98
711 13
795 50
896 16
1308 98
1113 133
1425 182
308 111
1135 99
1282 122
1324 172
1241 130
210 184
1346 30
593 132
1063 131
1483 44
507 110
866 73
1031 163
1250 104
361 54
545 90
1385 66
405 160
783 177
1224 5
891 98
484 28
1496 88
80 100
124 33
663 19
146 10
296 175
1349 160
713 143
959 186
1137 79
662 1
447 97
1098 89
85 51
481 105
317 5
1223 148
581 157
848 161
779 169
930 111
397 130
277 66
352 159
408 178
1496 161
778 68
1299 167
1303 80
113 39
724 108
816 41
872 127
35 44
1005 51
363 65
782 161
389 67
1063 163
221 6
243 80
1140 152
270 172
316 78
1210 145
810 63
251 35
1497 100
1071 144
1 0
534 103
399 62
1377 91
1197 42
233 34
635 2
1454 44
513 45
998 19
753 21
793 151
446 127
1204 4
198 171
1297 3
596 7
1133 156
472 35
1085 11
439 34
1245 166
60 154
962 93
547 54
1189 16
352 4
430 8
806 29
467 58
109 153
368 30
1439 102
1363 98
105 138
91 82
1133 85
201 7
1042 144
1474 149
73 140
786 129
1331 32
1495 2
270 100
1096 56
609 186
327 75
471 97
928 68
887 92
224 36
215 30
602 52
844 55
60 74
1268 86
208 48
563 42
385 44
11 73
1008 77
560 35
437 36
1471 88
1361 19
1339 44
1439 182
1314 166
1158 71
676 19
1179 154
1026 20
126 92
1161 126
730 16
186 43
799 33
564 44
1377 131
601 108
1392 127
127 120
534 28
248 69
103 122
350 131
1305 50
362 88
647 145
869 166
1234 26
607 26
827 111
639 142
1404 49
672 47
1155 153
506 68
576 168
1357 25
994 163
1296 154
579 52
1412 106
1097 143
667 158
392 129
268 63
976 28
662 8
123 174
196 114
1231 63
1014 79
122 59
956 135
694 134
100 165
16 143
647 124
1040 160
80 40
66 61
326 87
832 44
1075 126
658 127
1281 34
468 49
463 147
1219 89
353 125
743 170
1350 41
1085 12
1289 138
745 141
412 158
455 101
1436 124
1404 36
1093 29
51 187
591 162
804 64
228 34
483 11
1394 151
252 27
750 37
1097 89
896 100
270 109
741 151
555 107
133 66
941 18
821 143
807 138
193 73
597 0
1309 90
384 35
1199 162
1309 10
1108 86
839 73
411 165
175 15
1195 41
563 114
529 63
585 28
510 142
902 61
604 153
1453 44
656 97
1357 89
1400 69
897 120
489 61
1145 5
74 167
1236 68
463 33
1143 70
1353 90
1143 81
469 18
411 126
1122 175
295 147
658 118
1484 4
472 116
636 57
1399 39
225 86
313 59
1376 148
1324 160
1442 143
1274 49
2 86
567 179
396 99
1490 80
815 176
1488 73
1407 174
94 122
992 98
47 115
718 183
843 22
570 129
843 14
231 152
1461 110
31 139
598 57
990 6
289 176
507 77
134 14
1375 48
368 34
246 137
726 129
1470 43
932 68
1038 41
569 80
946 99
47 169
1115 23
1021 67
556 7
796 138
982 52
212 28
195 150
489 24
1390 141
771 171
203 166
1403 73
691 134
765 94
880 55
870 40
182 69
323 51
731 98
932 129
126 147
112 47
523 149
1093 96
1301 78
404 105
441 43
1177 132
915 114
959 67
604 53
616 30
268 119
154 154
253 11
340 112
657 134
976 134
1158 111
1465 81
1103 49
902 60
1110 82
528 23
1419 93
1415 87
897 154
1184 138
160 22
607 180
1259 181
469 57
276 71
482 96
1105 13
419 97
595 35
1488 110
687 115
1124 72
807 156
831 10
1162 10
489 58
213 140
478 51
1474 155
710 159
1283 85
18 14
600 30
566 13
821 161
1328 14
474 21
865 42
1117 102
724 165
1295 20
1270 37
290 163
1012 49
86 68
163 7
43 135
1229 92
160 41
12 19
1308 46
1445 25
723 48
49 44
151 54
735 30
1028 23
784 47
81 95
953 81
229 95
849 83
683 82
433 66
214 50
139 7
728 132
125 50
405 86
1138 74
315 80
828 51
1397 113
212 117
752 150
74 94
1003 179
1230 18
869 80
188 74
113 65
965 108
701 164
546 41
86 182
826 118
1466 45
227 10
573 83
905 143
446 32
631 118
69 62
1482 27
1318 169
450 113
1396 110
1096 34
202 53
584 71
197 100
701 8
981 34
179 64
779 99
1093 126
547 115
1334 71
167 129
212 54
1487 128
483 117
1221 12
1431 36
1353 66
529 123
151 21
14 87
983 99
844 146
1154 102
203 83
684 180
1448 87
1311 41
1097 141
612 123
1238 18
1410 165
911 127
880 23
144 49
39 129
1434 96
150 151
631 152
240 48
1192 157
185 13
664 11
1002 93
613 34
1317 29
205 106
428 115
1106 103
1374 186
283 4
141 96
374 116
369 65
966 164
945 73
230 36
643 111
603 186
136 170
1356 139
636 122
1438 37
308 114
746 61
561 57
1056 81
390 1
622 100
898 43
359 161
947 17
801 167
1323 83
1443 37
97 150
1462 106
699 55
417 51
981 164
663 105
1368 160
1360 127
1387 97
530 160
966 66
1388 131
1416 40
779 75
1034 122
602 176
352 116
374 80
44 75
1095 137
355 33
167 55
629 104
1038 102
257 155
530 123
19 30
181 132
576 79
295 109
239 65
661 177
945 69
671 9
759 94
577 136
582 162
1362 34
565 170
986 107
585 169
661 60
1052 129
265 116
169 29
111 62
159 182
648 80
629 129
746 53
14 5
1468 148
535 26
1379 155
821 70
1326 180
1254 127
1423 68
90 114
396 96
1459 21
148 170
818 62
985 155
534 171
498 136
855 133
1253 59
1085 177
1093 158
717 46
498 33
402 79
206 141
1234 73
1251 14
1334 145
331 130
122 59
159 36
1435 162
579 182
763 87
383 100
1347 69
316 61
1199 168
1313 169
1241 111
1064 186
257 74
1231 77
806 41
1143 110
1407 36
636 127
1069 65
222 131
1307 168
584 84
1437 59
1287 131
311 116
1211 101
878 32
713 67
1409 122
1390 183
1329 176
11 90
785 96
116 76
1340 47
260 84
802 115
135 4
538 169
698 40
1283 107
377 88
1210 43
1000 183
1167 183
526 78
1404 153
1192 124
340 181
361 154
749 145
628 66
35 66
1223 12
397 24
749 132
895 55
69 131
1140 147
667 25
376 181
1410 138
776 21
17 146
815 23
16 127
943 90
1189 153
1123 38
970 154
608 155
63 180
455 179
1252 77
1136 24
778 80
193 131
639 89
1267 80
533 26
960 186
539 178
129 98
169 62
1239 146
1034 29
1034 181
771 128
1019 13
1296 127
383 8
1041 70
1061 174
135 36
238 167
1146 5
19 166
1400 105
1178 156
1040 80
994 79
399 137
748 28
105 146
1009 33
534 3
451 167
39 133
861 83
6 15
252 54
482 64
1155 61
796 163
522 114
541 107
710 175
627 154
606 72
141 7
194 28
798 53
891 3
1483 69
640 62
1300 57
152 97
955 138
753 153
831 68
304 31
575 64
714 69
794 73
604 160
617 156
457 168
98 127
1050 41
148 26
626 35
579 49
474 165
1361 46
1271 157
1297 170
1293 94
1234 92
775 180
222 144
734 87
1320 64
206 7
1265 91
1091 82
689 134
788 166
424 13
1221 135
466 120
669 150
874 121
1011 125
1375 157
1017 32
120 165
669 80
107 11
15 121
312 93
1158 85
864 67
554 52
371 2
276 50
250 35
465 12
223 8
1272 54
1478 113
822 16
171 12
458 150
36 77
390 19
18 94
1267 184
1299 159
1435 15
165 131
1275 77
1012 154
1341 22
564 134
408 83
325 160
1353 50
28 63
436 15
288 36
958 12
991 7
360 100
1 23
200 29
618 60
1146 173
51 121
1152 10
1085 115
1190 30
747 19
1034 155
685 148
687 39
693 28
917 94
1014 37
911 90
613 164
832 63
1200 94
1149 47
327 109
231 75
130 127
515 186
1334 151
913 143
179 66
529 54
1491 177
1249 23
868 127
452 8
991 12
467 93
796 162
534 111
699 91
1199 94
1398 87
1198 39
1397 3
665 173
1033 147
539 147
226 5
225 95
234 22
630 113
1377 5
332 110
1207 73
1276 104
753 90
874 181
1493 134
719 81
1093 105
23 105
866 79
1448 14
385 58
567 117
279 17
1025 89
948 65
126 166
760 63
638 174
146 168
990 84
906 122
842 111
791 127
199 39
251 140
1378 26
466 6
37 169
205 68
825 19
283 154
402 28
811 30
990 25
1069 57
399 51
845 158
789 159
407 77
338 71
609 0
1169 31
821 45
530 178
156 126
21 152
329 2
708 43
1028 156
1402 177
315 145
1466 32
694 181
1410 80
551 123
1307 14
709 46
1105 158
319 143
1478 138
1435 98
1254 24
779 93
153 27
285 57
1234 81
1312 88
901 37
1306 119
1189 183
641 180
150 9
1143 172
1394 108
254 131
339 171
1064 139
479 128
24 82
762 49
721 145
657 79
1026 138
382 19
90 56
858 130
698 89
471 140
924 30
1033 162
377 84
773 92
1310 67
162 133
227 57
1199 73
99 90
1427 119
159 97
719 81
129 57
528 50
1034 102
380 14
97 115
92 27
915 79
1044 49
278 15
114 72
461 70
168 25
1021 55
786 174
196 51
907 131
1245 46
723 5
1076 137
559 133
770 99
254 96
440 88
1183 46
248 92
1488 111
504 107
281 7
339 22
379 135
330 36
684 102
1025 128
689 152
1225 81
936 126
1026 22
372 7
739 21
585 167
350 85
1065 47
972 84
303 117
1330 100
223 166
728 185
1255 162
798 10
222 106
738 113
1423 32
306 128
587 146
1133 166
128 173
1026 125
955 27
217 42
797 27
531 53
132 163
1310 96
634 1
658 56
121 44
967 90
975 107
257 109
50 17
1091 17
1416 13
1210 76
1264 109
193 119
572 94
729 21
703 7
967 56
646 65
711 77
465 114
1248 27
719 101
1447 81
917 81
1205 4
334 49
1368 145
242 30
1092 27
1221 51
1395 71
1461 79
668 93
1370 110
694 47
269 66
1120 50
398 147
1418 124
1225 175
398 64
390 22
477 63
985 176
1182 158
930 45
637 129
910 103
319 83
1041 183
1421 177
1292 48
744 104
1484 94
967 10
1116 96
1494 141
39 147
1147 32
1363 112
1298 127
914 105
71 167
853 35
152 54
1406 17
1272 45
443 153
194 41
626 89
407 184
1261 186
718 153
148 163
1129 151
515 103
199 7
1141 185
419 169
1246 25
985 57
1069 36
486 6
819 181
171 118
586 24
355 63
417 91
1249 18
51 5
810 110
460 35
177 15
1023 51
214 181
1484 143
1292 154
755 129
1308 107
64 122
1278 0
231 116
301 38
958 86
768 21
208 156
130 41
848 170
1093 64
98 112
947 172
1156 88
1235 9
1365 34
10 166
418 60
313 44
1087 30
841 41
677 105
765 167
1047 38
946 19
1322 176
394 55
577 59
570 162
1082 30
346 64
870 85
600 82
328 150
520 4
1476 137
862 141
778 6
968 0
853 123
674 21
606 187
1285 32
896 158
1296 132
1304 143
1425 63
63 23
867 185
344 121
237 39
1235 45
442 174
713 26
1488 49
498 17
227 57
516 96
1427 95
107 66
1275 166
963 79
142 56
766 31
1291 8
815 103
111 110
1052 111
753 114
1242 119
1220 177
377 115
391 1
1472 33
607 42
996 106
65 74
1266 114
1422 119
50 39
240 2
1226 60
355 149
1180 13
281 27
270 100
50 128
183 88
694 124
644 144
1102 50
1291 104
1245 28
567 141
702 147
1217 159
744 10
744 145
167 86
7 86
1084 48
829 4
481 3
934 147
1109 146
1108 24
5 127
570 162
827 58
90 42
443 65
873 93
232 12
199 54
520 129
649 164
248 152
1064 16
574 104
526 162
811 153
637 38
664 75
1456 136
875 75
534 81
1114 98
584 135
216 66
236 116
807 34
884 96
40 86
1208 25
130 127
1276 108
1240 49
300 38
686 159
571 66
239 30
1143 53
395 53
1183 3
1194 59
827 143
1227 42
1232 25
1104 33
166 128
754 174
888 110
609 39
1022 21
890 15
614 126
1392 37
1020 113
548 83
1004 70
1436 142
1382 42
226 64
243 95
1003 56
650 105
1400 66
270 78
298 98
685 127
483 140
1442 183
296 76
343 167
1090 138
676 26
915 90
1448 40
971 170
305 112
1264 38
1292 184
976 38
494 61
915 107
794 4
560 22
954 79
604 4
837 143
646 154
989 18
1227 10
619 181
1072 161
1136 8
1182 96
1448 67
455 7
940 183
466 105
683 69
979 170
1147 176
1445 46
1089 130
1362 94
728 183
1270 29
799 130
848 122
265 179
134 0
456 157
635 169
510 176
1407 30
206 50
1378 105
470 4
107 25
953 62
1427 134
266 114
1107 128
1 10
1220 79
206 116
460 184
1184 5
91 26
1206 155
1031 11
243 57
649 120
316 52
400 71
643 171
191 42
779 151
1424 125
1065 105
593 46
672 89
1263 167
637 83
422 11
1238 99
1242 72
1000 138
730 14
365 99
1428 13
432 169
61 49
73 11
1489 25
128 134
1120 15
1047 55
551 132
976 58
1141 106
648 28
231 121
295 52
252 60
751 92
776 48
96 170
960 128
496 79
1186 186
262 41
964 152
318 96
1162 117
762 56
1262 116
189 179
436 148
193 178
191 39
1125 151
193 44
243 175
1030 96
16 106
101 128
564 32
1024 32
1109 160
796 34
829 64
972 94
1258 120
1300 141
962 181
681 152
61 102
1266 81
413 73
111 145
12 112
232 34
253 42
1215 25
908 111
865 84
1444 20
1496 2
225 177
187 117
1277 82
1015 81
1043 70
1250 81
660 172
961 106
709 28
75 31
366 98
505 156
1182 78
1103 83
1288 111
123 175
868 22
268 116
579 101
320 26
710 7
1439 147
488 75
564 1
732 142
137 7
1473 18
1404 106
16 152
1032 45
976 10
920 58
1131 96
1186 137
451 45
1329 53
1092 45
1050 42
195 3
1103 113
161 119
954 180
188 125
329 178
766 145
1339 87
877 59
716 95
1166 102
826 82
4 43
184 89
68 116
1026 44
1330 124
34 126
1011 3
825 61
1259 163
880 158
1394 85
349 16
644 60
80 161
45 141
1233 176
1220 145
1382 21
576 81
440 157
885 86
835 114
1178 89
32 104
1360 103
633 3
79 63
28 128
1399 102
1448 183
448 145
610 38
329 26
162 177
821 153
382 49
304 67
606 8
505 47
1244 2
820 69
769 107
910 169
273 99
1120 86
1479 73
397 154
299 22
1428 158
530 8
280 114
294 36
1355 22
1105 12
1099 40
948 13
669 144
1026 150
607 56
202 86
105 80
1161 72
691 48
1496 52
464 128
557 23
787 8
416 81
586 167
150 112
134 149
18 37
385 119
63 166
307 53
625 167
1428 92
373 129
1121 178
59 164
460 162
1487 32
609 154
1045 130
1447 101
784 1
442 124
315 41
1174 12
271 52
97 45
764 108
1309 140
699 176
350 51
14 126
938 144
885 71
1128 38
1096 28
63 98
1163 148
914 68
189 36
1417 73
401 181
368 67
290 3
898 155
444 171
913 154
887 123
512 40
173 101
651 54
1102 142
893 76
17 172
1014 79
632 77
744 37
949 137
921 137
1171 41
228 144
350 156
140 145
691 31
1202 123
1161 163
911 78
367 106
1202 110
1241 183
143 24
799 181
728 72
167 163
1219 71
1003 89
466 66
41 37
1475 51
217 15
1387 183
880 90
1152 93
829 47
304 169
1434 186
417 136
241 167
863 155
560 115
838 13
738 186
614 103
86 122
1349 182
1368 73
1199 143
694 63
973 73
990 167
53 37
180 158
1395 137
1096 10
1250 114
1319 56
1379 163
552 49
925 149
882 63
797 133
344 174
353 7
438 117
1146 87
1210 18
1246 78
490 28
672 25
1235 116
1353 169
45 106
182 109
53 128
1308 160
695 76
91 1
219 77
1072 34
447 157
291 59
1099 38
1498 0
1442 120
534 43
443 26
152 186
1028 29
421 82
790 29
1343 114
999 90
776 88
74 178
361 82
734 30
51 91
1022 7
776 83
32 146
104 31
1478 8
1449 12
40 170
998 110
1313 68
921 89
739 57
246 71
1340 129
1334 66
128 63
1211 61
1338 169
1050 89
58 115
1176 119
124 0
880 171
1305 102
1025 23
528 187
1286 67
1096 159
58 10
122 80
153 132
671 67
967 11
110 151
1497 90
182 64
1048 154
78 73
755 80
865 86
1374 16
339 103
821 156
1328 148
637 32
299 120
903 16
762 16
807 149
899 168
706 111
548 82
1352 108
991 48
413 34
747 4
911 142
78 137
282 116
1086 76
1437 173
1110 4
1378 6
1221 150
1345 138
578 21
1388 160
1175 159
6 159
1320 29
1273 131
470 144
432 84
333 49
717 143
529 169
1163 30
1300 72
509 85
764 80
1 30
1259 127
734 57
845 118
931 54
879 40
659 79
1392 23
901 6
193 131
999 184
1429 59
923 174
385 158
1056 36
1297 1
652 34
226 187
1482 36
84 84
193 156
900 93
984 94
425 162
605 16
1466 157
69 77
412 162
731 28
1010 14
875 6
1182 137
300 67
305 9
175 100
1100 27
739 23
982 25
158 70
1483 179
917 120
304 1
268 20
1398 56
185 139
127 86
249 46
148 45
1037 126
842 1
199 116
254 116
875 74
1168 91
212 0
756 173
1198 11
497 152
123 79
994 169
1286 50
946 133
819 100
410 166
688 16
1170 116
287 68
1293 89
697 63
240 186
847 16
227 100
951 86
369 36
421 181
26 144
254 108
250 74
1054 10
484 51
1448 37
1180 35
1228 68
342 22
45 20
443 168
56 79
1489 155
1176 71
1464 69
923 42
1447 185
1246 145
423 88
734 20
55 179
168 64
413 75
1240 103
1175 142
1067 71
30 38
664 11
634 98
343 137
167 139
807 55
1023 114
1296 144
714 139
103 101
1230 51
589 140
175 111
878 109
1213 19
1053 52
663 24
562 84
1279 184
1053 75
547 67
874 83
625 0
577 54
1405 100
660 123
1276 37
1220 89
503 99
327 66
1321 1
110 13
412 170
833 168
600 142
1317 146
12 163
1284 107
962 23
1426 185
542 96
1302 6
120 18
697 124
827 122
82 68
970 134
1201 111
1033 182
157 139
456 46
984 150
1000 10
241 122
39 126
883 149
386 111
559 117
289 77
1344 176
622 20
52 185
1264 18
750 85
629 168
417 87
968 45
733 131
837 143
1194 170
766 162
1087 24
52 130
514 92
1421 124
601 64
636 75
1398 84
624 140
1367 144
261 148
1496 113
314 174
1170 111
1087 142
554 58
1112 164
489 176
674 135
1166 185
834 30
390 180
179 13
898 95
374 8
1211 6
995 169
1017 110
995 28
405 71
418 68
280 68
1292 181
260 56
872 136
713 23
102 11
223 27
302 185
280 167
90 13
686 162
466 170
345 174
621 186
484 45
290 78
724 151
475 8
759 42
900 165
642 23
398 105
174 3
194 177
673 54
739 131
888 178
865 160
1078 20
709 27
1013 13
704 164
904 143
32 124
1105 25
967 171
531 72
939 123
1220 118
992 10
1200 184
549 73
1437 176
565 101
30 79
543 112
1298 109
1435 34
89 145
178 154
1192 36
747 34
112 134
1217 156
312 132
624 90
256 66
753 66
705 30
1317 29
443 2
1396 62
611 46
45 54
899 46
778 148
700 46
624 70
779 186
960 126
871 108
968 159
523 21
969 6
79 17
1367 178
427 8
976 65
130 119
272 152
558 186
1462 171
16 125
1046 64
200 182
561 92
958 54
166 84
155 61
797 95
789 100
1303 54
1406 71
290 75
650 44
1497 35
781 97
32 60
785 160
1030 97
538 77
838 172
1108 114
206 68
56 30
895 164
528 107
116 102
1099 134
450 5
1312 164
710 45
1043 145
1320 182
1353 158
340 151
1334 161
1468 24
368 160
1220 114
434 149
660 87
819 82
355 23
303 30
602 155
256 182
740 121
220 92
766 126
47 28
380 116
148 70
678 180
141 22
316 100
981 24
986 136
689 76
1332 162
113 123
325 31
619 117
60 88
1446 127
1205 130
916 34
639 93
1459 117
259 4
1479 46
4 32
517 72
1010 180
270 111
457 60
730 90
500 66
805 82
174 25
411 64
556 186
594 164
281 112
357 110
437 56
591 37
330 70
900 166
264 166
1194 139
1471 43
317 176
431 14
1123 73
83 151
356 183
573 11
1391 134
375 48
1422 82
379 155
221 89
423 61
1001 145
1311 6
694 12
1161 11
1288 137
1353 120
1303 71
607 12
1030 96
932 137
797 149
448 76
1422 70
446 68
923 59
1065 123
1262 125
303 149
510 119
8 55
916 5
1126 13
1113 162
643 117
1139 152
1418 138
518 33
850 168
1186 105
24 176
374 39
447 170
1077 49
1044 173
869 163
553 100
168 103
553 95
296 87
604 94
494 20
528 145
1024 170
891 125
585 21
1065 73
1478 128
1286 21
218 33
6 46
881 51
1007 75
1368 129
1439 172
12 131
639 155
553 113
1264 63
1046 119
404 165
52 72
648 142
1189 157
1103 131
1007 107
1493 90
1128 73
1247 123
570 133
897 5
756 56
1452 6
485 165
31 123
1147 90
866 70
67 108
171 87
1093 34
822 102
175 5
1258 65
251 152
696 88
1457 63
666 27
391 20
679 116
1325 128
666 22
547 68
1210 134
560 114
728 19
861 142
724 161
48 112
1065 69
283 90
1175 18
138 179
635 176
323 50
1457 128
225 139
1033 4
192 157
599 62
492 8
1339 28
1294 44
1282 103
1362 179
915 102
1003 84
917 148
832 159
565 0
492 15
1409 59
301 169
472 109
241 42
28 32
286 65
146 187
1014 105
719 41
1487 23
183 34
674 96
628 159
261 116
1058 61
123 93
854 141
142 167
941 68
631 128
867 3
285 126
793 121
1027 25
859 118
1371 180
924 180
123 128
846 148
1098 123
1250 10
1485 109
1427 176
823 140
1030 127
1041 72
1313 141
1439 86
1427 11
862 187
763 33
221 94
1337 92
575 163
1357 13
1440 111
755 115
304 145
602 120
267 15
289 74
1222 153
1398 130
1179 175
390 150
1164 148
1437 147
994 63
397 99
1378 100
453 163
415 173
1247 134
1467 144
683 181
1140 35
642 92
382 29
1002 165
7 53
614 73
1252 94
1257 67
443 40
790 6
123 36
1007 160
31 131
315 146
1159 94
1378 33
1041 81
1147 102
1282 107
859 164
1198 93
836 72
767 15
1188 76
746 73
1090 16
167 176
422 172
309 163
189 109
1150 149
834 169
1240 49
1005 97
1039 175
1205 6
873 173
373 167
705 140
987 147
561 7
890 80
334 62
1262 4
211 41
804 57
1057 183
1378 91
521 37
910 64
679 15
247 177
222 181
35 131
1290 105
30 28
1208 48
39 135
739 139
630 177
604 117
743 110
1280 58
715 10
223 32
59 91
412 132
515 85
758 34
87 151
1246 152
1193 95
398 182
316 29
1397 80
99 137
1254 159
880 125
181 76
1435 73
805 120
7 66
170 161
909 104
467 142
110 148
25 55
1483 139
896 173
739 81
1425 136
1318 89
1355 32
1340 173
661 145
873 120
999 166
857 98
1027 45
716 47
81 82
525 170
704 96
1010 85
274 32
1217 29
1305 82
1119 169
1109 108
1039 19
1101 64
878 1
1128 182
1419 175
522 37
1029 58
916 131
1311 141
1399 91
553 128
913 130
307 98
149 36
1010 129
690 158
517 143
762 82
297 139
234 17
26 116
702 96
1187 113
1378 127
328 75
215 4
967 123
1198 8
760 77
1196 153
299 97
762 102
771 121
1309 52
885 185
1115 48
289 114
87 29
1245 170
1196 179
366 18
1249 156
1091 139
319 175
380 159
1048 165
869 182
1342 104
107 165
1286 146
646 163
1039 135
575 85
498 69
1397 159
705 76
137 130
1196 107
308 53
1106 171
1348 60
723 149
1358 83
869 49
1074 69
576 105
1155 123
1048 64
1377 184
998 70
316 65
531 94
952 32
438 49
305 121
1131 133
1198 78
678 105
201 112
1082 124
1383 92
683 129
1160 112
63 173
1318 102
22 38
1252 11
702 91
484 172
860 185
1047 78
642 6
1166 97
1234 62
191 131
1232 48
1496 18
25 164
191 135
569 47
746 115
709 40
484 178
211 159
365 88
454 140
374 165
335 117
840 109
816 96
976 127
446 116
527 56
1398 98
766 41
507 184
1263 93
321 126
889 12
86 83
144 58
1282 79
86 25
1375 105
596 59
1437 184
1493 113
91 36
1261 74
953 16
1247 53
1103 186
821 138
588 133
89 148
648 77
111 32
1034 1
415 53
484 44
586 22
1388 10
1173 22
1107 12
762 29
645 183
376 2
1120 54
1407 138
217 55
485 148
256 156
832 163
1103 103
1195 46
1196 186
1158 150
161 57
990 42
1194 59
794 67
494 33
1313 150
348 36
1043 28
254 21
1120 184
1204 125
742 158
1106 178
95 28
46 15
1419 139
1386 18
1283 62
1094 121
1224 93
1380 103
350 127
266 23
283 64
1364 62
679 147
1141 164
656 112
1094 44
479 42
1376 33
1252 95
752 52
925 100
1028 152
972 120
1463 159
1425 56
1363 102
393 179
1429 99
770 106
900 54
580 78
811 4
1326 51
819 24
6 154
972 125
866 36
751 70
722 183
928 175
163 96
844 160
1212 152
561 42
1399 39
216 72
157 103
214 148
712 39
613 127
1371 182
872 81
1280 90
851 104
721 130
438 121
56 11
1420 21
1387 19
1404 57
1478 85
291 55
1355 31
223 63
235 94
849 22
71 138
116 175
879 18
1354 73
626 81
246 96
1403 105
918 32
1022 13
388 153
1029 65
402 28
586 162
46 118
787 111
570 89
991 42
636 9
1131 81
1153 10
1152 138
414 43
347 41
1415 99
982 179
887 105
1275 100
1471 73
593 45
97 141
1198 127
182 34
282 29
1074 27
1053 35
36 40
501 156
874 121
130 13
1292 65
10 118
613 166
1146 95
716 155
903 161
537 157
861 52
614 91
1081 144
1391 132
1326 5
911 142
569 51
819 21
11 129
778 165
463 25
432 106
1379 103
130 35
200 174
1257 70
259 64
1306 41
1323 19
1088 57
27 144
678 42
1424 121
309 83
691 147
776 78
590 1
1012 138
1430 151
1366 75
1451 35
242 22
565 49
1180 10
1292 69
1307 147
738 70
471 179
94 181
390 177
348 114
1045 93
1245 175
272 109
787 94
1073 86
1492 135
934 160
669 166
778 122
1215 136
503 73
868 63
570 54
561 117
766 89
224 39
151 117
379 82
225 5
605 12
1157 35
779 18
1134 55
299 2
620 1
1027 127
329 137
261 54
685 137
419 124
1186 2
816 117
1011 97
169 167
349 179
270 57
1351 18
1043 104
381 16
1197 35
700 170
1376 97
696 14
881 136
232 65
799 179
1434 176
248 44
1066 136
637 51
1448 70
1204 88
157 139
1236 152
336 63
1343 77
556 49
386 142
507 129
332 149
1460 71
1098 10
68 186
1289 58
1339 142
270 64
194 179
609 80
670 44
877 51
238 89
821 45
311 85
835 111
879 156
71 129
852 126
886 177
276 34
187 31
681 150
866 136
754 12
483 54
1435 103
507 158
53 46
1269 70
584 13
1348 24
984 47
2 37
547 152
424 67
896 80
504 136
1431 178
486 99
855 82
1495 52
1124 136
996 85
95 27
928 65
1365 56
851 120
271 35
1210 55
43 89
671 116
633 85
279 182
639 162
1294 143
492 149
631 83
325 159
457 85
1167 85
1327 90
1009 81
227 27
575 158
276 141
989 71
1217 71
776 154
1204 133
744 54
1049 175
1100 135
659 16
616 108
546 152
1076 54
902 164
663 63
1155 2
1397 64
928 24
814 18
1079 86
335 39
1452 52
1492 151
896 111
390 85
1208 131
333 120
267 156
163 138
161 154
575 103
658 142
85 75
1356 164
418 102
619 27
1247 160
805 49
1401 183
963 88
1127 130
849 109
1138 41
373 30
1185 125
64 18
339 50
1062 119
84 112
1061 147
1430 144
1340 41
23 164
1360 2
875 139
198 134
1077 147
147 101
840 91
206 181
766 66
693 41
448 73
1242 178
356 135
1069 96
1250 77
103 103
1406 29
702 70
1241 111
1357 180
28 8
912 158
1072 64
1474 163
1349 111
385 118
363 3
1494 32
592 6
593 179
594 103
21 88
1264 81
1234 65
1258 110
291 93
334 43
689 110
1430 47
968 85
973 155
718 168
515 0
1389 85
933 107
1441 77
584 160
1208 173
725 62
1423 83
1022 110
1453 11
857 94
1157 105
195 22
211 173
776 39
905 118
424 62
184 147
678 126
1468 96
904 163
1186 52
1161 79
300 45
387 121
944 53
840 161
259 90
784 127
372 91
365 72
1480 74
183 126
199 126
300 157
1085 181
975 177
265 21
1315 13
1450 119
1487 179
500 128
1134 163
1035 159
64 17
18 131
651 177
80 89
280 133
361 44
1089 164
740 26
676 11
966 92
752 175
138 62
553 129
9 17
472 150
449 26
307 12
572 79
127 141
699 171
157 144
1343 70
602 153
569 92
1177 100
741 8
925 65
732 66
411 116
1452 12
751 165
304 19
931 1
188 148
1113 139
465 26
601 57
683 83
99 135
668 52
320 123
373 122
282 183
1089 70
1062 38
1263 187
721 13
1143 185
316 29
894 129
1377 145
582 146
57 23
1294 24
1483 93
222 153
619 126
499 39
1040 77
150 42
136 26
692 4
466 114
211 93
874 34
502 25
293 66
37 184
894 159
44 49
1246 116
128 103
1098 67
1272 166
1350 8
911 138
987 71
1198 100
1163 10
997 116
817 49
596 42
1260 181
826 12
691 44
312 87
744 42
1293 40
866 58
93 180
1421 105
1198 164
11 56
395 117
300 41
602 114
873 43
862 59
753 34
1112 109
1370 164
808 175
42 80
408 17
1334 162
874 101
368 68
1428 175
278 160
1074 146
1494 88
823 43
1251 127
1302 35
1298 131
149 40
1015 173
1203 34
532 170
220 30
188 75
1358 16
1139 185
38 16
1227 99
775 166
151 168
417 102
369 127
588 155
1458 128
710 130
779 179
1175 127
777 156
447 51
1092 57
1129 122
774 78
647 113
1252 129
1081 88
740 63
1057 71
1346 84
326 104
68 111
1007 186
1386 122
90 177
1306 61
1083 34
682 23
432 47
346 78
983 150
241 31
981 163
220 180
1442 67
1394 142
1388 102
433 119
827 165
927 82
406 94
1466 105
818 28
1266 103
1338 67
440 8
296 9
953 21
243 110
159 116
467 93
524 17
1062 139
174 108
901 28
155 118
712 54
216 112
527 171
176 147
1399 128
314 39
489 62
1036 24
645 92
209 94
1232 167
935 141
1478 81
413 113
806 83
95 127
321 158
195 81
403 88
1361 168
1258 85
774 48
1261 108
435 77
1486 22
1042 97
951 0
698 120
867 49
1006 9
370 67
1125 67
1233 2
1142 100
637 73
852 120
575 93
1383 59
983 126
1358 122
1251 69
1171 160
67 106
244 110
616 117
465 166
63 78
1153 129
968 72
583 91
1287 11
498 123
1349 8
164 126
1428 78
545 167
615 3
1455 60
83 34
1243 32
713 88
1010 114
344 95
152 185
244 92
45 27
1088 42
560 65
804 161
149 180
1493 145
163 131
54 74
458 178
256 182
1218 83
924 67
712 143
310 24
577 105
27 22
703 153
1443 91
1057 131
81 124
758 23
688 56
1136 64
923 187
1192 53
937 167
901 143
1280 70
1497 8
657 91
517 180
241 11
687 66
1444 34
1295 89
1014 1
598 22
952 173
283 127
681 79
980 50
878 15
812 171
414 100
342 123
166 53
1016 78
625 124
533 128
573 2
40 53
1190 140
696 137
562 24
115 105
1101 52
1443 6
122 86
73 40
1161 125
298 152
310 47
1475 117
723 157
1005 44
696 182
1006 95
157 77
103 119
96 42
244 48
240 144
928 57
1326 34
1499 33
307 7
500 52
185 142
648 121
1430 111
1162 7
369 84
152 133
426 80
554 179
1443 95
1138 20
429 41
691 99
610 111
214 105
1302 175
1193 24
1059 9
407 167
1194 69
338 87
1424 156
122 174
1106 44
341 49
1406 164
1293 87
1474 45
943 14
165 89
1288 161
303 56
624 86
531 54
308 99
623 119
4 56
534 34
471 122
342 98
812 39
1093 140
1209 62
1435 37
508 30
15 160
118 93
205 5
1365 183
920 50
951 154
1201 58
843 51
1467 13
911 70
852 77
113 4
406 129
1158 173
833 179
429 150
442 61
502 97
29 7
1305 153
1102 122
1487 144
69 88
144 91
1147 152
885 78
627 33
1101 24
332 39
376 18
361 126
1309 146
842 87
875 40
537 80
902 153
996 116
1245 56
882 26
300 97
482 9
558 33
575 115
1340 4
1011 174
428 51
937 52
1439 109
1032 120
636 148
899 108
487 103
207 115
820 102
275 113
298 174
1317 51
664 76
1187 171
602 137
811 60
907 35
623 179
1046 25
1167 76
1437 153
972 43
535 158
758 121
1338 26
1428 33
72 81
155 127
402 35
489 148
741 22
1366 183
1486 6
111 116
450 41
657 186
675 5
478 186
525 20
429 37
1107 52
202 57
646 72
1052 167
1136 104
756 28
934 146
1078 66
922 31
1282 174
377 65
498 112
234 179
1203 174
1425 4
974 47
200 144
12 169
1476 181
307 84
674 116
276 0
184 129
350 141
722 37
1270 29
1094 186
336 142
1268 4
270 133
1307 59
126 154
1186 44
1107 88
496 143
748 21
10 138
1248 105
502 175
200 23
436 180
1484 117
457 53
630 1
765 95
357 67
1305 45
216 185
1223 12
737 109
297 63
1196 60
493 164
836 109
1418 100
1116 71
909 56
440 114
546 104
94 87
1486 20
461 136
623 84
741 104
733 72
989 106
1388 60
624 78
275 150
117 37
315 44
222 15
653 173
750 176
1378 29
1077 29
811 45
191 75
779 41
169 27
628 136
110 112
1457 116
1464 53
105 114
659 140
922 91
1190 85
752 6
1375 89
644 148
278 100
1345 42
510 6
554 65
871 37
541 58
579 11
151 112
744 158
902 141
906 86
155 29
178 69
1410 153
603 52
750 73
626 83
1437 44
634 19
997 115
1155 75
636 167
64 145
1183 103
227 129
541 96
1124 175
1347 100
574 132
1395 78
1338 167
834 17
1009 25
1145 49
1265 127
98 53
219 181
126 182
109 169
1429 110
483 14
582 42
1259 179
343 123
463 160
857 46
1247 127
97 11
130 105
693 178
1280 54
756 44
106 187
744 46
195 146
1074 127
822 170
746 43
1459 124
349 32
326 135
214 63
9 33
724 52
821 62
808 51
454 29
1121 99
255 185
116 79
703 111
307 101
984 4
269 33
868 36
457 167
992 15
885 32
1435 136
1168 69
861 51
423 92
733 67
154 118
353 29
1488 73
372 9
392 107
156 11
130 63
587 180
420 113
234 100
1455 75
256 46
241 51
957 120
668 15
1209 154
922 27
164 20
522 92
666 11
111 66
340 147
1092 28
638 16
76 100
406 144
1350 85
1109 42
32 165
97 77
306 72
921 29
690 68
411 144
1189 11
641 69
1034 181
1368 101
1331 15
1000 28
516 159
262 87
536 8
118 130
1079 156
873 60
699 18
1475 22
1321 27
909 181
262 152
107 154
23 121
982 148
923 105
945 129
1195 85
1035 47
775 169
973 21
634 33
95 186
1081 98
1341 110
326 86
1405 54
171 94
1115 113
1001 1
1256 52
1025 99
495 95
581 97
1449 168
467 146
511 145
610 153
286 118
294 49
591 41
1265 181
147 166
534 172
1424 11
2 58
644 145
283 181
521 165
1493 26
224 166
124 183
1111 31
705 111
1020 35
842 82
466 13
681 124
987 22
158 30
107 172
1424 171
1361 135
760 180
213 9
613 131
313 146
1410 153
720 139
631 32
325 57
1087 135
596 107
220 61
162 152
1136 92
44 89
142 86
632 107
679 108
447 31
213 105
605 38
690 77
302 186
1224 185
754 136
1110 48
732 32
561 95
392 156
1199 70
1225 164
1166 172
118 8
1290 60
598 45
186 156
66 159
1204 148
204 63
693 109
277 97
631 133
286 74
257 187
1005 162
895 160
879 49
733 26
812 112
421 112
767 172
724 19
781 36
1349 15
348 169
341 168
790 175
807 126
1103 77
1457 104
1445 168
13 125
548 33
299 156
518 119
485 143
819 76
662 150
1090 97
1307 118
942 47
53 165
109 126
60 153
1099 22
362 153
1425 147
466 91
1288 132
1098 179
121 160
1236 124
1149 2
934 111
785 40
545 136
1461 79
1078 24
1056 168
151 81
1262 171
1394 166
1455 186
249 103
1374 12
108 35
66 187
1433 109
1334 176
74 162
267 30
1472 59
607 161
1000 122
527 59
385 104
1207 69
1116 23
402 178
236 54
27 157
1042 47
898 96
1278 14
1407 128
1093 122
1399 41
66 72
395 33
1318 41
539 157
181 114
87 147
961 84
1152 33
1451 111
355 41
135 111
938 161
1035 180
759 56
607 146
537 121
257 65
1132 131
1498 53
1286 83
1032 163
251 171
779 58
1159 134
1148 66
1234 4
356 90
473 163
589 75
809 64
544 87
816 114
866 111
1052 14
759 113
1135 60
1183 28
1284 166
1306 76
1059 24
172 111
65 36
1466 78
458 56
871 99
420 78
1234 156
1330 6
1224 40
678 136
610 102
1134 97
303 69
372 57
363 92
789 98
1322 28
1350 172
1125 172
668 70
460 160
945 113
690 183
1229 59
414 65
711 176
821 4
149 44
349 98
573 122
455 89
385 72
561 130
1247 134
1299 116
1239 97
637 116
1101 25
1444 180
1408 141
76 28
537 105
600 1
1161 49
1050 90
83 162
354 185
52 4
1326 96
695 84
692 6
848 96
544 86
284 185
1014 125
975 30
897 26
386 89
952 22
931 112
559 1
650 145
1231 45
1267 29
182 79
1417 159
988 57
46 127
772 122
1492 89
383 82
110 174
1177 165
1269 59
629 60
787 184
192 70
585 70
205 133
1073 185
1238 130
671 69
415 53
727 57
1386 136
450 153
1414 124
422 137
854 164
411 122
176 183
316 166
789 67
1269 161
674 118
1029 156
650 148
54 112
1070 17
937 11
722 22
81 14
1131 121
1100 49
1099 122
636 177
268 174
1369 23
763 34
76 139
1229 135
697 34
154 13
1118 115
243 179
906 75
916 146
639 114
960 75
410 38
1219 160
360 105
281 70
1131 162
1030 181
1411 84
1400 19
1333 91
218 171
145 153
1341 18
1191 41
203 28
601 71
132 14
347 44
333 30
437 135
1439 17
1374 131
1126 143
1196 41
1259 109
959 24
295 72
757 69
1352 117
1211 86
627 135
190 147
1114 27
1209 99
889 169
1371 119
466 84
391 85
669 59
1325 101
853 153
1308 68
823 110
1156 53
1222 18
87 183
750 49
791 20
991 171
1468 158
583 15
1355 140
1098 178
938 154
980 35
1229 10
1462 175
737 114
152 122
155 107
1224 54
1337 8
908 154
427 3
1167 10
995 85
711 149
1091 148
168 167
98 182
1325 168
1258 21
1117 46
798 126
57 84
1194 30
835 165
1458 75
1346 54
37 55
366 180
1368 7
193 92
48 115
1066 171
109 156
1253 153
958 64
339 92
868 150
1150 46
361 8
247 84
634 17
1002 3
1387 63
107 54
1143 1
948 159
200 81
368 0
442 108
135 114
1146 121
1472 45
1235 173
983 112
609 15
1432 104
305 121
176 88
83 14
1351 38
1236 142
524 149
1207 182
270 3
632 178
1327 164
1146 103
1467 79
194 168
458 74
714 157
1329 97
632 127
491 53
302 18
929 32
273 168
698 22
1112 183
821 63
938 82
661 135
1009 68
243 167
1414 127
1180 168
1013 98
967 43
322 114
255 126
58 141
265 55
222 138
378 97
353 12
367 180
531 47
883 143
20 31
1115 81
474 173
393 174
1082 169
831 112
40 66
28 61
1397 25
1049 126
1217 21
233 91
6 144
648 29
768 141
359 10
221 116
781 15
380 162
66 63
1415 83
395 146
1108 158
1133 126
974 96
931 168
225 160
767 72
1473 179
1304 8
163 29
970 48
1250 74
1410 187
902 72
1118 11
589 94
214 122
1017 61
1393 79
1099 86
348 76
202 21
1159 75
1097 151
1158 103
1288 36
67 97
1173 171
370 179
654 170
87 4
611 157
1228 106
186 102
1103 135
979 65
1173 101
1274 94
953 106
350 132
979 127
526 153
1138 56
960 27
557 45
208 138
451 183
1069 0
802 128
456 128
1312 110
1130 149
128 154
1369 94
1204 35
404 109
