5000 6500
4935 102
1092 551
1622 798
989 741
1085 307
65 388
481 763
70 364
4450 112
3116 764
3093 162
808 197
1668 578
1080 467
3555 129
1226 380
3517 330
6241 27
4690 417
4421 287
1847 345
1179 38
5147 649
4086 436
1318 600
852 446
3958 497
241 671
5068 445
3476 658
6440 355
591 581
2296 372
6014 189
1608 538
160 341
2339 475
3250 366
6257 641
6140 435
3095 280
458 391
285 76
3048 790
50 383
4664 706
4850 469
4928 655
3635 330
1495 738
2971 101
862 299
6080 705
6395 210
2519 33
469 51
4252 290
479 187
2065 464
2610 683
8 286
5981 78
739 452
6164 610
1885 443
3442 237
348 328
5293 339
3128 533
4632 111
2208 536
3506 596
4841 797
3291 90
4135 559
5508 582
4521 768
1510 267
2334 606
4504 245
2930 137
6224 57
4234 28
3437 143
5954 353
6441 348
3896 171
4187 447
3867 656
2230 616
6484 259
4161 163
859 396
6343 468
3824 696
5134 601
2824 413
5256 423
3918 553
2999 776
323 526
208 434
832 317
554 771
2517 777
2577 579
17 456
1992 706
3408 181
4481 366
1196 765
2270 553
4831 265
367 302
3505 173
1013 131
2290 613
5553 435
3060 481
2633 726
1254 556
2497 558
2699 718
3246 497
4994 706
3971 667
1121 469
396 374
2750 6
2738 779
3930 597
659 697
4938 171
5964 794
3429 122
5020 347
2655 787
3865 472
1035 395
4373 95
2411 3
4748 111
5116 634
5070 810
2948 392
2660 36
5435 810
197 492
533 162
180 24
2285 224
4976 606
1606 593
4114 55
4543 316
2262 471
5511 673
6008 355
664 802
2352 629
4707 150
822 430
3185 419
272 64
1543 506
5824 289
5134 193
2185 289
1260 595
1820 392
5856 599
2616 428
4410 151
3771 238
5430 270
4814 495
5565 254
2134 801
4920 69
285 235
1922 489
3943 64
104 187
6239 672
1461 429
2326 115
1742 297
3070 595
1146 301
4431 429
5808 674
2091 159
395 203
232 620
4795 782
1659 247
1732 729
5766 156
3406 296
4246 358
6192 493
80 97
5270 419
3967 435
5400 26
4960 721
4280 171
5844 57
4244 762
3259 463
3569 609
6438 428
4552 609
4484 796
4964 48
6339 754
3596 45
2466 412
4685 686
5794 487
3294 213
6476 139
3184 531
3062 311
1961 703
4979 84
2733 284
1396 344
5699 159
1364 776
5480 248
3166 298
2577 757
22 413
1641 609
1817 253
3481 560
6492 663
2306 744
4994 29
4155 100
1240 81
4410 85
6118 503
5307 785
2141 74
5160 389
799 585
5913 321
3020 730
3670 541
4142 411
651 349
2467 129
419 797
1588 773
1611 775
1363 318
6366 790
1941 202
2168 761
6167 750
5060 496
6188 566
5837 302
4410 136
1750 212
1585 42
2898 310
3643 196
3728 481
1364 417
5164 460
4435 84
4680 339
4929 274
4736 303
3646 691
6250 36
1939 349
6267 606
4337 357
3754 615
2579 257
3118 650
4948 20
2066 782
1713 724
3006 489
4248 367
2844 658
3674 536
1045 70
3101 536
755 146
5616 196
5745 644
299 473
2184 740
5851 207
3358 329
293 372
5174 12
881 693
6085 700
5573 621
191 96
4937 11
4774 623
2535 673
2683 607
2860 420
5283 440
865 276
2544 643
3210 198
3986 777
5489 365
6011 135
4596 8
2859 80
6207 689
2373 105
563 560
992 626
6228 289
3998 168
4516 805
6418 662
1021 810
1480 788
1258 210
4306 725
4325 127
5660 777
5273 340
2767 278
4344 474
686 682
796 88
4183 786
2845 100
3349 228
3468 578
694 65
1501 419
1231 52
2613 612
4625 121
2829 280
362 609
3354 369
585 569
1889 184
4065 368
4635 614
4844 682
403 80
4427 257
3262 464
132 768
4355 695
3846 24
1467 515
785 107
536 341
3459 781
1851 601
5671 650
1275 785
4753 115
655 727
5586 355
3368 715
6028 668
4097 589
2471 244
6091 201
1255 215
4273 251
1369 752
1485 250
6457 452
1267 46
1485 95
5394 569
5750 510
684 266
1679 277
1630 691
3551 336
1589 365
241 661
5265 767
1886 669
4034 266
4669 437
4319 567
736 781
6495 571
821 738
3234 518
3862 558
3726 164
671 561
3359 313
4605 667
5266 503
5139 273
5520 10
1326 625
1362 194
2505 716
4262 537
4355 598
3108 164
2183 256
815 293
2995 230
397 401
672 770
2469 767
3680 42
5480 791
4652 650
1616 498
3247 78
263 701
2307 59
5732 59
3575 524
2195 549
6213 225
6370 166
5709 347
1466 123
456 419
5103 504
1165 324
1531 593
2958 342
6131 625
5169 518
3433 596
3367 105
10 640
5649 463
1869 161
3545 690
1138 566
1906 689
4210 389
2311 204
2619 288
443 673
3083 663
2876 599
3590 267
4679 205
4297 685
1524 577
3269 702
993 521
3487 305
4338 551
1433 772
5864 589
4679 160
4297 12
4165 539
6166 337
5349 429
3771 528
5535 739
4612 98
3321 708
4251 366
5863 763
1024 790
1310 346
6084 629
4109 718
1202 227
5785 167
400 486
4403 391
4504 473
3404 13
1200 771
5364 542
5121 41
2095 179
1065 68
1445 360
3933 78
5080 405
2984 651
2342 402
3489 304
4469 715
4020 669
2005 498
1487 513
1663 511
5197 600
218 225
2626 372
5108 744
6023 385
5454 804
1573 140
2096 398
4278 590
4804 357
3069 265
5095 802
4113 456
5056 747
1568 196
372 86
4449 296
4542 13
5516 211
3363 158
5716 283
5261 624
2744 677
2470 630
773 381
2145 205
4025 132
3313 443
2776 422
2090 106
2239 709
2732 7
2992 605
10 7
4311 628
4926 30
2469 662
4177 591
5772 455
2227 450
2910 168
3380 12
5930 749
2098 352
3178 396
6092 102
915 245
66 506
3653 415
5483 188
3051 278
922 371
5786 107
1730 686
224 745
2263 257
3983 723
5561 472
3739 246
3777 326
812 765
1567 392
1466 43
4651 637
1220 546
1932 210
5111 488
1647 793
1663 333
5451 291
4720 276
2914 728
2861 708
1626 162
208 690
2129 762
822 424
350 45
4661 706
4176 544
672 592
2986 345
2819 638
2160 146
848 581
277 602
5838 295
1444 451
3476 803
5111 371
3965 213
1653 359
5477 801
5210 453
5424 792
4788 279
6145 366
215 247
6467 285
3269 456
764 272
160 382
5130 471
5107 385
1421 754
388 747
675 279
4341 742
61 525
2536 160
1582 602
6263 743
3291 137
2879 11
6168 540
5607 10
5660 296
3725 517
236 670
4174 559
543 804
5095 73
4967 153
108 328
2884 409
2550 317
5008 776
4713 211
1809 440
6336 70
6060 37
1146 180
3429 565
6490 661
831 686
825 267
3752 4
1030 43
636 720
1450 389
3441 288
2737 233
1186 90
5622 553
6258 779
3658 688
251 619
2896 164
4585 178
1608 30
2194 509
985 364
2075 373
994 551
945 404
1517 32
195 336
3722 470
5188 216
3633 8
2973 361
1089 578
1057 465
2444 162
2002 803
2841 324
923 629
4854 765
4814 315
556 328
5267 412
4271 757
1869 539
3991 388
4068 94
5097 245
5226 468
5196 672
3990 668
6228 624
792 796
2679 695
3163 426
3835 434
3134 569
6122 66
3995 4
4716 448
2513 90
954 505
921 752
5781 495
5046 75
5789 797
4902 637
6248 221
6320 709
1394 311
705 184
4182 512
552 393
6304 743
4935 773
2316 620
1714 215
2328 550
1519 124
6301 573
298 780
3725 688
3799 705
5888 21
969 669
3358 652
2398 122
1782 201
5254 44
1190 37
1083 497
1186 317
4844 31
2324 198
5422 32
1278 127
3027 141
4663 154
1197 787
5563 367
5467 90
3096 4
4256 496
138 674
3277 566
6260 193
773 406
1844 783
3762 587
4188 649
168 203
3181 173
5051 219
5304 733
2662 474
442 718
4971 204
4494 64
3098 79
5328 76
3452 265
1772 617
3355 140
4895 115
3014 206
3126 12
5457 98
531 149
411 712
4949 680
3770 647
4789 131
5583 479
4165 797
5830 226
678 66
3046 512
296 51
5035 108
5494 276
5888 249
2253 671
482 137
462 503
5786 203
2015 232
4775 588
4374 65
5853 212
2702 697
2922 310
6147 491
1680 626
3445 803
141 650
3682 615
2066 75
729 431
1139 538
5634 392
2060 66
713 180
4424 123
1384 778
4526 71
3164 93
5536 626
5271 24
5895 748
1306 0
2174 779
6329 659
2683 723
2332 474
3120 212
1613 2
573 162
60 385
5328 365
2042 180
3558 754
3125 588
3872 568
57 533
2121 730
2545 406
3417 212
1431 399
664 753
5165 619
1471 699
3613 464
4989 465
1948 654
291 238
2971 359
3320 647
5580 446
1503 612
14 213
4461 471
613 418
2156 557
4689 563
5795 537
2389 120
6200 694
5554 769
4148 420
1339 757
5637 723
552 57
1392 606
5902 300
5845 37
1096 413
3929 386
5978 516
3478 562
4192 7
6084 321
4929 795
296 37
2069 482
908 477
2533 544
5004 733
4867 391
4685 418
2519 538
1769 396
509 316
5463 113
5917 52
59 632
3022 382
2565 198
3461 174
4589 783
2440 142
4504 325
3078 642
2852 364
2966 477
3739 594
5426 462
2213 545
477 41
3017 289
1594 616
6115 533
4460 301
459 434
5331 593
281 779
3122 428
3733 487
4532 534
1539 571
6243 337
2270 293
5828 172
359 442
1560 72
402 592
1644 376
3490 734
5743 343
2786 133
3801 112
4530 523
3664 429
2495 575
3098 718
4444 648
4346 518
1370 659
4854 774
4058 606
3300 799
350 636
400 271
5927 528
4027 591
5293 505
5320 588
5454 70
6381 285
1619 351
495 34
447 456
4826 567
905 116
3996 40
6221 54
1663 664
5194 493
3653 627
6136 312
1390 385
2111 449
2767 529
1287 441
3604 42
5330 551
6336 251
5184 793
570 808
935 384
1798 391
3476 563
3441 669
3870 506
728 637
214 708
5450 712
5825 388
5848 347
1499 387
2283 618
683 369
1726 536
112 659
1305 255
1556 95
84 123
1897 127
3337 199
689 91
2769 710
682 702
429 689
5659 97
4177 551
202 555
4175 168
19 645
4616 794
3015 166
3503 668
724 147
5128 34
1573 616
3998 5
2225 97
3054 675
4404 130
2479 405
156 181
4332 739
1056 112
1872 244
886 510
4942 520
2856 634
1417 69
3045 72
2695 85
5445 280
3858 130
3180 195
3818 307
2599 229
375 534
5218 112
6400 279
1426 341
456 226
4393 107
4601 720
2344 412
5756 85
3213 578
4767 654
735 138
5183 571
6280 586
770 106
2455 487
1421 333
122 688
5634 359
5617 145
4175 803
876 690
2958 466
5586 295
5567 604
71 332
457 748
3489 40
4138 117
3485 66
3085 365
4565 491
3024 155
6270 242
4288 454
1494 644
5987 215
1285 117
4734 275
4603 240
1199 680
4932 660
857 418
2216 480
4207 215
3986 416
3707 431
5852 354
2011 359
2819 0
1488 145
1603 318
5136 2
1976 657
5776 520
1276 442
1250 269
3789 456
35 640
5714 3
5890 717
813 765
4355 684
290 492
5440 351
5927 475
3353 782
2096 93
3272 91
4121 108
5149 483
2390 659
446 777
2572 368
3369 118
3954 561
5618 62
2724 146
160 404
2162 2
154 518
4706 367
1357 449
6432 646
3326 242
4565 576
1052 15
5647 673
3769 419
6388 351
4467 739
898 299
5713 102
6138 388
2156 733
5878 242
170 611
1227 804
165 98
1066 653
1323 794
4263 362
903 41
403 186
5999 522
2109 732
2930 478
432 772
375 301
1951 371
2474 687
424 334
5438 412
5852 111
4359 184
1410 691
828 623
3807 630
3828 582
2913 510
2018 774
1444 571
1031 506
585 392
2037 283
1515 408
4687 456
2512 324
880 785
5648 464
3178 617
4177 55
612 622
1584 212
3842 702
6365 143
4866 374
1690 666
5528 19
4308 434
4669 104
1431 404
4034 250
5473 697
1060 330
4774 601
6340 472
1826 682
707 809
1798 314
1975 86
2967 394
4215 377
2789 484
2866 435
164 642
178 500
238 492
1081 741
1626 755
5438 178
2755 650
743 392
6073 595
932 128
5687 687
4101 336
2899 239
3805 342
3176 692
532 130
3213 554
6499 370
4090 189
1964 431
6445 53
6086 526
4925 470
3799 711
5162 382
1884 92
3243 316
5911 200
2071 361
2064 550
1540 296
6430 692
1532 50
3693 167
1079 739
1365 242
4908 668
686 759
4795 612
921 503
5422 484
6253 252
426 464
2164 122
2785 350
3838 261
1720 390
2378 117
1902 760
5819 788
3959 412
5377 16
5150 498
4122 374
6349 763
3017 338
5275 518
4457 273
5796 757
3500 73
4736 175
1600 557
1009 85
2240 732
864 706
4040 578
2132 368
5477 243
6280 360
2178 457
6357 578
4495 242
2987 481
3396 598
288 521
639 340
2251 609
5522 414
2648 449
6218 700
3134 116
3306 644
909 135
3351 762
3708 100
5867 166
3117 459
5859 374
4778 155
4031 66
5905 141
889 750
3620 145
3096 492
3735 3
6309 803
57 525
2793 660
5990 155
1329 296
3833 554
1790 122
2391 222
1430 502
1815 576
3885 44
1497 365
2027 219
763 537
5131 757
2314 40
2443 520
497 215
3332 136
1303 267
3603 317
6425 781
18 429
5388 503
654 783
3537 402
2889 306
5464 354
1245 460
3069 360
69 620
3828 453
454 236
3162 35
4134 434
3658 93
2201 687
306 529
6025 364
5951 648
4803 47
5097 79
5499 134
4324 148
5587 268
3778 478
5520 381
1321 19
4067 534
2167 290
3752 639
2601 600
924 376
6150 775
4783 48
1712 587
976 754
4884 445
2685 424
5992 179
4414 215
4825 257
5972 22
3524 597
268 796
6282 58
903 0
6021 483
1062 34
3469 675
5781 669
2648 245
289 243
3883 735
4077 473
75 615
5680 418
6008 723
3306 100
3966 787
3433 603
4091 257
3540 82
6354 761
1487 295
1057 359
6284 52
4841 330
5035 542
326 778
575 470
1151 486
4096 489
4880 802
4113 521
2024 310
4086 800
2854 202
3132 44
3828 401
4830 50
1990 459
4063 693
4739 452
337 788
1032 350
350 547
5654 805
2692 223
262 675
1684 804
3713 640
1917 455
4473 645
5177 308
1174 417
71 348
6086 94
4452 274
1072 377
3697 365
4253 169
4425 331
1009 721
44 372
2197 745
2052 601
1229 56
1866 299
6479 788
5963 179
4061 132
4213 117
2564 553
4407 754
353 217
5279 497
3417 523
1495 418
2992 716
6378 594
128 701
4174 561
3802 101
4905 222
4870 284
1642 763
4757 128
2277 788
454 734
6009 506
5500 62
4611 379
1906 777
3601 101
5053 798
964 603
5643 325
5140 554
340 687
1787 112
4432 15
2791 401
2121 18
3059 62
352 751
4018 765
4781 8
1590 651
3030 165
5347 566
3444 653
6454 774
5067 391
4198 294
38 224
4574 523
3266 546
4826 677
3333 317
1930 604
4623 362
1092 592
2174 402
5432 800
2321 140
4686 62
5436 311
1143 811
6288 447
5450 394
5898 723
5260 513
1146 256
6132 173
585 297
3438 161
74 334
3504 142
671 522
4032 658
4113 807
2010 309
366 208
3489 93
1974 414
1068 521
1237 188
3881 759
1549 758
5374 231
514 380
1542 17
4766 300
5364 398
5666 786
3634 303
4019 91
5812 18
793 345
4173 304
964 643
5240 612
3281 803
5649 360
148 686
2280 87
4139 809
1427 7
471 402
3600 223
2657 579
522 475
3336 87
6249 57
1020 618
2351 482
3229 706
2647 356
2175 541
2983 516
2303 48
5376 128
5339 648
693 352
3475 735
2085 636
175 797
960 33
3156 167
6228 174
2785 702
3253 502
1015 759
4658 316
2327 279
5460 694
3082 802
3209 311
6200 234
2348 247
5908 706
1565 21
5838 181
5648 475
1629 740
1367 436
5259 216
5838 663
5315 611
4634 701
6075 697
1443 371
1580 48
1321 119
1800 644
5751 652
721 598
6349 692
1816 322
1540 246
1171 329
3143 679
1263 214
4862 719
2584 479
4177 370
2499 230
2519 269
352 255
4579 41
107 709
1699 577
3417 23
3413 10
1406 179
5151 324
946 348
5892 552
3177 597
22 576
152 138
1446 403
3985 116
389 25
174 803
3522 42
1760 721
3218 84
6042 83
1619 62
830 650
1909 160
2833 632
2819 643
3795 717
1874 686
1859 398
5636 621
6096 799
460 657
1503 257
1878 249
3806 506
5883 233
3548 383
4985 802
244 137
4749 409
2958 309
3042 766
2097 110
894 149
1749 60
5001 398
4581 106
6017 246
1630 703
4776 451
3551 171
6263 800
510 107
874 673
3070 109
574 483
2452 333
2222 401
4247 412
4546 715
4554 123
127 284
1592 143
5627 726
6399 187
5831 160
5853 172
3759 32
381 357
5912 121
4067 810
4359 169
2060 226
1138 598
3702 300
6044 57
2507 778
2767 469
818 604
2934 758
6011 101
4013 248
5132 757
1869 97
459 476
87 722
5213 690
3491 596
4274 341
2793 745
2894 127
4324 764
3296 463
1448 798
4152 405
2458 177
1772 461
2597 658
870 429
6312 321
1777 464
5799 108
4804 97
462 489
6050 6
3602 85
4560 569
4300 553
3354 368
2042 641
4596 173
2551 382
1033 52
2545 387
1370 143
6383 699
523 226
774 130
1717 426
4596 547
498 105
887 77
2310 576
1569 652
4909 116
4985 256
2742 14
3871 303
5637 485
1900 631
3706 189
5364 43
3534 494
3073 276
2586 75
4632 759
2759 488
1310 748
3479 275
3187 565
6444 636
2236 201
2321 35
1897 429
4090 404
3254 254
3905 135
3452 158
6260 803
3235 541
3117 602
495 26
2432 240
4799 683
4783 267
5006 658
1202 248
4741 463
6195 238
1083 205
1729 234
1091 332
5960 106
4496 803
39 286
1382 180
3618 686
5384 385
5237 18
5280 715
1084 408
6337 99
2023 357
4725 425
219 230
62 417
1003 491
3278 432
1536 784
1130 733
417 342
3772 353
5482 359
2448 560
6317 728
4047 385
3710 146
2316 618
5813 654
2958 92
2839 417
3132 770
6487 115
831 162
1462 493
5337 222
2164 55
3025 543
4635 468
2053 267
3774 616
336 418
4650 47
5748 624
3426 96
5924 638
1496 628
3123 549
1237 253
166 412
2374 253
4773 551
5727 294
4910 597
2874 116
4152 164
3925 550
5482 138
5612 202
902 45
2557 488
5518 603
2246 26
3779 23
2717 235
5306 240
6175 231
6275 576
1209 558
5920 412
5154 266
4173 562
2608 447
4693 105
2160 649
2308 296
510 95
3270 644
3546 503
3932 644
1283 405
4362 536
126 600
2176 478
5901 29
2310 572
5425 255
4559 200
6339 744
2418 764
6379 326
434 260
5779 522
1314 306
5150 564
1985 528
728 65
5968 43
5168 396
5491 61
4792 298
6492 44
3366 607
6277 144
394 721
122 461
2635 470
205 463
3664 477
5366 680
3490 315
115 783
1937 509
3441 197
4774 112
1993 798
341 738
4144 576
1085 779
5477 6
2408 671
1576 125
388 89
2954 488
4567 807
4381 737
3567 209
440 695
1731 785
5165 154
2087 295
5954 156
1835 461
648 273
4976 197
673 745
3914 602
1607 418
37 464
5005 389
648 552
2631 660
6104 445
93 426
4032 611
3290 53
3746 616
1303 93
1045 319
5080 532
5431 398
4861 23
2721 588
5569 200
1246 806
3327 573
3224 250
1413 676
6338 219
984 167
5055 332
5278 212
6066 554
3727 24
5429 781
1859 119
4104 576
5101 9
2754 163
699 513
4017 577
185 143
3598 427
5686 342
262 155
5801 270
2963 766
4793 780
2092 241
1296 263
371 360
235 28
959 257
1379 219
195 465
2224 682
3220 231
5776 636
2629 287
5288 66
1241 440
6115 561
5419 708
5471 132
822 333
1305 801
3457 473
2078 101
331 130
5641 319
3963 482
485 404
4451 496
1664 792
5795 804
1683 263
3067 557
3363 536
6421 764
5182 540
4247 129
258 101
4739 759
4429 217
3592 708
221 555
533 103
2823 80
2145 507
6347 219
6198 632
4294 283
6287 600
99 94
5438 360
5262 751
2808 684
1891 511
1457 492
3583 772
2450 366
3012 638
3016 527
3250 622
1301 526
6086 501
4495 565
2117 588
2516 671
6100 283
3228 374
2889 665
1289 59
4904 158
6178 630
792 308
4648 134
1086 760
1718 781
1879 106
224 229
4964 763
5705 98
4069 507
5815 8
1982 415
6167 89
4783 337
6321 264
1465 503
1573 127
657 137
1609 403
3939 465
2067 550
4640 335
1001 305
1576 232
5908 3
6246 551
2415 549
138 567
1147 774
2677 328
6218 236
615 656
3653 539
1695 718
4054 541
4337 117
624 632
3178 550
3042 443
4219 634
1212 39
5948 518
4891 159
6003 640
454 706
1534 671
3766 277
3169 532
5989 780
4590 36
4489 77
5692 88
5555 612
5351 733
3590 734
4915 734
2757 256
1176 623
2624 2
70 221
638 742
768 444
292 363
880 563
1175 790
443 132
787 160
3368 400
4886 49
6224 330
1976 213
833 237
5019 95
333 230
3280 714
1745 507
6097 507
2805 507
4383 541
1426 488
2081 374
689 483
5499 65
2248 579
1145 194
4515 674
2344 206
6482 637
4021 383
3872 140
5037 279
1327 40
4466 477
2759 773
5982 410
3312 117
5673 606
5086 397
6398 5
2484 709
1316 471
5565 260
3096 181
2364 615
4393 758
83 19
1136 567
1075 691
2505 804
484 652
4093 616
5051 768
321 460
2685 303
1716 709
3545 378
3538 562
101 773
1769 232
2110 399
3199 120
5827 356
3511 257
5741 559
274 432
431 34
5624 515
5598 580
4410 444
1696 704
2909 214
1863 217
6247 28
3086 702
697 650
2576 124
5151 303
5814 474
1204 356
1513 509
309 483
1885 232
5545 628
5041 163
5857 174
2633 188
5301 509
2327 620
2914 564
4005 371
1058 124
1338 369
4477 626
3199 624
2011 218
1890 756
1848 255
2512 143
1849 709
2951 782
1837 112
4333 113
6281 694
2788 213
4424 397
2422 178
1549 378
1680 24
723 27
5815 603
3382 675
5689 578
1519 159
1566 15
366 447
6105 138
5334 152
6176 501
2142 291
4096 183
581 730
4071 393
5083 194
5920 147
3497 123
3131 345
838 395
2668 439
5840 673
1573 364
2751 553
975 18
1728 421
3518 336
920 390
2445 48
4333 731
1586 341
5897 545
1631 435
2083 403
3498 592
4688 262
398 349
2119 316
4696 548
3625 495
3985 106
6407 176
4775 39
3008 679
4240 463
2572 92
2670 320
2612 199
3 581
2535 743
667 545
2186 765
631 735
5830 205
5589 400
4404 382
4441 574
4926 561
3148 239
928 683
2561 455
4022 756
5409 480
3631 346
1364 755
2482 226
524 221
5697 6
2928 129
1903 270
1410 110
3241 243
5084 471
4420 106
3514 540
944 625
837 7
3399 681
2381 87
6349 271
385 773
2345 663
3740 273
5962 489
3785 140
6004 145
1293 509
6181 495
934 372
5367 355
2356 575
5243 436
5297 707
4364 760
4521 440
1277 471
3153 243
1543 767
3518 68
5183 282
1820 528
5918 64
4649 593
1943 766
5676 506
820 215
406 99
1755 155
5543 528
1809 241
3696 78
4996 231
6310 809
3450 616
4946 564
3619 208
2592 326
4831 243
5795 324
767 743
3494 646
3388 193
997 474
6038 118
3341 602
5351 309
3200 307
5766 241
3818 97
5445 621
4957 74
5404 144
5749 408
6027 120
186 192
5710 437
1189 309
1777 311
5272 588
929 630
3413 675
1711 385
5672 789
621 133
2447 521
1902 495
4676 439
4116 43
5334 320
5505 588
4087 527
4399 235
4460 269
1342 206
1389 367
4444 74
1376 540
4878 375
296 338
1214 175
922 10
4867 769
2406 92
824 483
2743 448
6065 79
2891 316
1322 478
4339 332
3814 448
3710 261
6181 16
3810 728
2079 794
3240 288
6017 641
4051 574
5307 126
6219 811
3714 606
5094 466
3425 747
5807 217
1660 176
1444 141
2500 395
3578 295
1505 253
4508 509
613 321
3069 488
1024 473
6297 445
5025 124
5285 334
2790 137
4849 629
3742 284
6360 57
1772 189
595 423
2053 256
4747 709
1077 215
974 313
2243 805
2169 466
79 471
4121 718
1732 567
3674 209
90 624
932 392
6114 235
1826 79
5123 201
4419 707
4654 711
5431 496
2237 183
683 271
1092 82
5573 112
5470 429
2725 206
1390 673
1014 230
2169 228
1005 728
4506 17
704 630
4756 5
3226 139
6179 30
3303 673
2284 446
684 28
1493 568
4189 300
180 64
3973 89
6215 363
5177 321
3289 646
321 196
5916 630
6322 807
2470 84
474 733
4275 796
4900 222
4388 534
1772 748
5675 83
4965 284
1855 643
6286 783
5653 237
1344 386
4768 747
3783 386
6103 380
199 400
3927 333
4983 59
710 703
4870 187
1544 203
5796 520
1091 552
3699 789
4538 800
2025 297
4931 116
2630 255
1991 546
2367 439
3001 662
5182 754
5745 749
5575 69
2009 316
2687 144
3115 733
1766 636
1755 228
134 260
335 144
4490 625
4308 655
3036 72
2634 809
5778 672
469 446
3761 350
3376 296
5913 280
4662 200
2884 560
2590 687
5088 424
59 690
1226 445
2799 4
898 131
5056 241
1165 502
5512 407
5560 208
5975 293
6196 758
183 265
2221 27
5175 491
56 109
1017 381
2549 523
1986 412
4817 771
815 427
3987 360
3878 440
6027 335
1312 431
5916 640
2526 298
2479 762
434 493
5927 649
2055 64
4478 568
2479 732
5824 744
1924 344
1173 90
5139 641
63 704
3214 567
5732 173
3631 326
5955 186
4787 53
2112 747
3467 359
3436 519
1580 349
0 759
2428 17
1509 16
3075 138
405 622
5120 129
6318 263
4375 265
1072 806
3953 704
3997 55
5689 726
475 281
1088 189
2578 270
5791 456
4500 667
3479 150
1049 665
3498 791
1105 629
4653 448
5041 74
1292 808
1756 208
3168 341
3263 70
5874 93
5602 418
5106 528
3134 386
721 33
1339 1
2052 93
1955 116
2280 703
3721 517
602 554
3944 186
6373 110
2391 242
744 477
4005 204
4910 653
414 413
1616 81
4492 130
3768 273
5757 556
1170 406
3124 603
6078 724
460 455
3236 257
210 380
1850 519
462 132
3637 557
5706 553
1073 436
734 266
2433 765
4974 229
1844 305
6013 615
5142 539
5649 565
5572 357
4686 241
6116 62
1042 101
3545 348
3007 453
5874 565
2134 678
5374 699
2498 304
5005 351
3199 336
2346 651
565 404
5392 79
3886 344
1569 468
4040 790
370 643
2074 425
2942 243
5216 186
1924 376
4815 60
2594 634
894 41
708 315
1573 562
158 504
2817 663
5889 788
2339 69
713 31
5380 532
4836 59
1815 262
2818 780
296 749
4232 62
3265 508
2731 467
5356 632
5439 411
1710 455
1449 378
855 303
2701 272
1991 95
2529 135
6148 66
2114 529
723 74
6155 435
6187 248
6323 189
958 91
3461 532
6485 460
2961 59
581 168
5861 373
1174 584
4049 192
2307 339
3045 249
3101 229
4967 223
3732 544
1206 144
577 674
1927 617
5600 340
513 243
1294 136
726 674
4679 393
5788 695
4175 530
2 594
6403 478
3221 436
354 457
3446 219
4399 182
2436 348
4205 483
2222 622
2663 465
4059 692
4425 779
1390 508
5802 696
3637 428
484 688
2905 198
4828 27
3515 152
2475 303
5413 274
5890 250
5483 326
186 371
5206 659
2834 513
2368 428
3038 68
732 62
1874 760
6290 579
4614 406
5425 568
410 649
2964 684
831 218
5664 709
2868 165
3785 769
4044 617
3190 400
2621 596
153 575
1255 601
384 18
1953 317
4814 744
1701 211
3498 667
2263 548
2007 358
4754 305
4099 136
4882 328
1173 765
2938 426
2145 133
93 304
4851 73
5119 172
963 176
4722 54
3425 481
3915 141
6009 645
3446 732
2440 440
202 85
3989 668
5383 16
3748 219
5481 771
2457 270
3310 306
4677 258
3204 166
2386 7
200 467
644 751
987 532
6357 241
3175 144
2827 450
1712 121
3781 473
1797 60
374 327
126 83
2266 147
1839 359
316 657
5395 517
4266 752
6045 614
4028 569
6175 537
4740 6
1299 75
2515 705
1609 249
170 693
1297 117
2348 474
430 127
6460 138
4589 173
5672 327
3033 696
5796 584
4663 541
4586 351
247 31
1899 118
2996 152
3927 311
5339 393
3517 198
3317 447
5363 368
6485 528
601 349
3453 291
62 271
5418 375
5505 676
4376 180
5550 494
851 788
329 352
5116 228
5521 506
3126 640
6271 497
5145 271
1451 77
2259 82
284 752
1833 760
3830 412
4396 666
5199 688
6250 178
2820 431
6447 730
1905 189
3760 604
3177 110
1505 36
6470 659
4898 41
4962 676
4381 511
2204 627
1822 151
5938 421
1427 593
4514 361
4183 3
1585 340
1863 546
2876 530
2515 545
3657 751
4407 211
3217 620
1422 333
4167 356
2564 302
954 234
1156 543
2783 604
3536 486
5630 174
2742 598
3548 465
3781 686
1285 293
4017 505
4006 247
1080 572
4326 171
4150 588
4356 627
2775 230
2605 771
1229 217
6495 264
316 188
1539 357
2584 292
4111 278
1468 587
2699 200
2835 582
3978 372
2315 326
718 203
2648 619
5182 686
4806 312
2216 766
4133 498
333 513
809 343
2976 331
267 282
3718 192
2040 76
4835 303
1051 262
1842 119
2075 372
5306 317
337 488
1930 131
4258 261
6359 427
3262 766
6166 518
5768 124
3324 134
1959 337
1801 126
1292 674
6102 157
946 693
2561 19
4426 95
503 174
2469 434
4759 410
6271 116
2689 361
2327 508
2108 784
2824 80
4486 369
3689 168
4106 498
1316 219
3450 678
466 122
2828 677
5085 672
77 338
2091 2
847 387
5605 710
4011 428
1664 111
3535 99
3523 765
4315 385
2815 5
4015 88
5335 261
2537 769
3044 311
1173 346
2165 77
2949 744
5277 94
4008 6
63 652
1359 763
3806 405
2248 38
243 388
597 628
2274 765
2125 90
1452 770
3627 554
6480 628
5545 717
5205 529
2545 669
5217 508
5416 788
4590 64
1491 301
4423 240
1242 83
2211 441
6030 468
768 583
1799 388
855 310
3280 689
2945 52
5143 797
4555 484
6405 766
3088 419
3155 173
3996 484
1230 806
3102 352
4170 187
3508 11
1269 600
3425 730
1759 292
2928 248
3745 534
5604 129
6455 615
3176 468
5816 370
5664 662
2527 691
1069 593
6103 481
238 260
1164 120
5592 258
6402 561
4703 493
4180 9
4036 678
2400 737
5874 10
3197 262
1454 240
890 777
4786 489
2708 448
720 20
4299 99
3720 698
3086 714
3141 34
3437 500
229 344
1443 730
5656 458
663 577
770 118
1076 738
3695 38
2220 141
876 454
786 148
5620 458
616 672
4600 670
4480 695
2857 135
1264 766
4907 551
4347 78
981 796
2655 654
5151 773
1909 704
1833 70
6333 295
5861 274
5857 117
1754 65
4470 137
4007 202
1560 547
948 271
3665 84
2921 468
4554 275
3060 15
2730 786
4040 734
3206 615
4667 307
4483 26
4478 340
5558 455
6193 355
744 647
4331 69
1666 118
4892 112
1733 531
3359 324
703 741
4822 785
4527 667
4401 200
5473 805
4027 785
4837 296
5785 350
657 646
412 428
5794 776
5832 502
4147 222
5579 725
5130 750
3080 287
6138 411
393 452
6326 765
5602 747
6142 275
3488 234
1211 259
4667 603
1971 33
1581 91
6185 276
2138 812
3548 650
2378 664
4174 776
2200 426
3321 717
3199 780
1432 25
5185 536
2092 126
3081 325
5286 131
181 311
669 478
1062 35
5560 40
5131 221
5530 479
3034 726
3923 263
5056 413
4236 809
3519 323
273 286
4252 498
3522 551
530 648
6499 594
1556 529
2064 22
5287 366
1649 699
5965 287
3362 365
5878 641
5354 217
4897 34
4247 700
5806 354
2702 441
6146 163
3954 753
6466 108
3621 252
231 776
3475 158
5273 233
6331 197
2861 79
3024 330
6370 226
351 16
4867 265
6140 545
2479 363
6473 367
3231 299
2811 379
2514 766
5343 742
4584 18
681 131
4004 205
507 230
1540 267
2689 172
2615 191
1208 117
2742 315
1112 456
3160 383
5194 715
5884 161
5903 426
237 772
107 596
3677 594
4470 174
3657 289
936 332
5624 212
2178 649
5064 293
1041 623
1387 782
712 140
5358 463
4392 319
5952 277
2667 215
1476 725
3786 27
4212 195
1042 672
711 186
165 82
3122 732
3654 463
3967 747
5051 729
1152 491
3336 153
834 208
5321 15
3326 751
4839 47
5244 739
374 772
5079 14
4967 327
3376 466
1773 82
1750 73
5336 180
3316 65
5153 449
2490 725
1699 195
4415 26
5490 500
2781 295
5208 0
4685 178
985 610
4733 137
1304 334
2108 727
2988 312
852 403
559 306
3138 452
701 61
1058 600
4353 764
2144 469
1504 500
2952 473
903 110
4494 169
2394 410
5095 494
2719 573
3905 542
1366 704
3542 339
1325 807
4293 235
1185 360
5261 462
511 14
3717 384
1434 159
4927 259
4288 363
5433 687
1878 405
1909 210
2564 131
204 348
2790 426
3199 489
5616 808
3697 207
5096 208
5567 661
5071 539
5311 426
6441 409
888 287
831 654
4672 637
2132 94
6125 215
398 669
6216 268
195 587
5447 621
4355 681
1452 377
543 31
374 178
3477 247
4111 645
4743 639
1881 22
655 176
3712 69
2562 721
1027 473
1679 533
2975 66
834 100
647 131
2787 195
1322 299
2529 36
2862 600
5507 374
3462 663
1015 387
6417 328
1896 305
521 715
2839 569
2533 507
101 499
5857 691
3784 325
2601 35
1837 771
6021 349
6282 413
3656 113
5040 439
464 81
1818 88
1345 291
674 256
1999 440
1951 259
901 268
4535 599
2927 309
1624 221
2402 560
855 530
3165 671
5411 24
5093 182
5132 68
1146 4
1310 388
4998 640
5871 214
1982 89
6261 583
152 166
5768 158
3398 542
152 28
6122 550
4889 481
4969 594
2475 116
1436 573
2170 198
3824 333
2193 280
2051 132
781 16
2186 688
4695 126
5357 640
3400 381
2204 762
194 309
2300 633
597 295
5161 563
5389 528
4764 633
2089 701
3342 788
5877 122
2738 95
1677 217
2675 513
5753 183
4987 408
2508 678
5593 378
1653 503
5368 464
4067 1
2821 583
539 766
4052 91
3542 674
4162 340
2728 534
4875 471
5125 639
3856 337
3923 688
2580 129
812 567
3370 183
2299 342
2745 543
5331 614
2537 282
1543 137
998 671
1493 260
216 559
3397 414
2659 538
5469 520
3621 61
2171 130
2699 499
5853 47
5509 638
5328 257
6367 456
2307 716
6396 538
6336 406
5428 99
3503 794
5869 748
6317 575
834 793
3583 6
3578 301
5469 690
4509 215
4866 272
1054 587
6417 141
3078 808
5547 543
2101 142
2570 464
720 559
293 662
2909 305
3560 29
6028 415
5734 793
3984 119
4811 665
4784 126
3856 628
4998 550
4086 606
950 749
4246 432
2078 121
1618 622
3060 370
3859 681
5380 125
4789 225
6186 566
4119 116
6391 389
3337 547
4570 638
5895 357
336 671
736 90
1554 45
2480 358
5438 29
4334 45
3318 124
4840 779
6136 631
4094 245
417 193
5758 366
6033 774
6202 488
1454 98
938 438
2492 20
3007 486
6236 634
3446 391
376 71
5398 588
1100 384
4669 291
5264 447
5957 128
2632 277
577 313
3451 658
5432 217
3238 173
2575 387
5208 638
2134 377
4201 713
4213 576
337 345
3716 219
5428 108
2695 96
145 549
423 788
755 668
1698 734
4060 680
869 195
4825 235
562 778
2092 178
2795 472
863 318
2299 667
3643 663
6452 155
1375 742
21 279
5290 330
2137 188
2190 224
39 588
1256 750
2886 778
1391 102
4043 341
2915 153
5436 758
4039 495
3867 94
1185 53
6342 746
2976 776
740 609
3661 95
5509 346
4736 107
630 667
186 723
2846 502
288 120
4534 309
4553 329
3176 244
5675 334
4292 745
1350 609
5769 90
6013 157
2478 146
6197 632
1127 17
5781 158
3693 739
6271 380
719 373
5989 430
829 163
2214 478
6476 76
2931 497
3494 14
186 233
3661 149
632 213
4476 390
4964 71
4081 344
4062 688
2751 263
1454 808
3665 585
1143 355
752 671
4374 788
5389 636
5745 619
3845 291
1516 791
4591 487
2123 252
4262 754
3711 583
5007 721
2184 32
1469 692
3078 344
2439 41
5373 380
963 299
5097 458
4384 310
5261 286
705 48
5198 340
3419 266
4319 697
1705 8
383 175
924 731
2850 71
2662 637
1519 109
4904 681
2387 570
6253 197
6083 495
3385 516
2938 664
1528 70
5467 549
5219 687
1191 615
3215 302
521 537
4245 711
4521 193
339 273
3164 188
3162 307
1693 644
3979 43
2994 713
5293 584
3235 424
3905 677
2934 734
2465 615
2937 74
1730 679
223 103
442 443
3886 526
3474 712
6494 18
3288 117
5030 157
2764 485
5485 638
1328 638
2033 558
1534 304
3415 724
4838 222
5295 670
6440 8
511 170
831 727
1414 468
3789 174
4253 167
2497 673
6217 727
362 103
1861 116
2455 295
6014 498
621 486
273 570
6271 354
3567 34
3858 386
1076 746
3315 547
4368 21
645 396
3068 356
1552 180
2247 133
3764 453
163 233
3842 609
791 286
3316 695
2946 327
6432 459
1724 228
3332 217
3984 329
2161 762
4147 174
4375 504
2622 56
4598 486
161 302
694 596
2910 499
6498 312
6499 1
1921 46
434 387
6056 303
6104 30
4841 39
2865 155
2077 122
3850 99
2879 291
4636 605
4811 370
2751 423
5158 333
5239 17
3355 472
3933 545
2243 283
3828 507
843 66
5954 731
5003 450
5338 206
1602 692
2552 8
669 118
3028 578
922 670
2327 369
4596 780
2651 196
2061 17
3581 336
1243 645
5488 641
1199 725
1426 330
3366 154
1789 176
6195 291
3447 31
2112 269
1683 385
441 689
3257 377
237 224
4904 796
216 717
2058 243
4574 798
3262 364
3375 131
2135 72
2440 584
1420 342
770 102
6191 799
5239 100
2302 337
367 1
755 656
3256 650
4484 326
6452 557
1427 275
1682 655
5970 809
2370 106
1355 667
2833 637
5108 748
54 766
203 562
122 351
1940 254
3327 680
870 46
2172 312
3309 181
519 330
2666 492
5267 721
495 373
1417 807
4554 230
1820 524
1787 105
579 535
6079 540
4625 536
2467 724
4310 340
3312 209
688 585
1133 477
4555 406
4912 195
2561 259
6171 133
2678 647
4197 674
2521 520
3077 432
2839 39
2722 449
5178 296
6365 397
5782 618
5129 122
2657 782
2589 207
1783 178
5100 523
6240 25
3132 57
1674 36
3793 258
5376 160
843 696
376 593
77 249
3852 578
1747 264
6256 661
2219 672
5974 785
5010 122
2304 475
2497 699
4074 265
1360 340
4087 400
4297 386
5908 710
5618 207
616 243
5637 594
5807 801
669 300
1636 160
3608 80
6268 518
6398 286
259 745
2107 661
2770 68
4639 100
577 713
5828 623
2222 788
5636 551
2430 364
555 480
2261 0
2547 265
1959 271
5741 253
2564 41
5104 617
5739 474
5263 656
228 518
1974 174
1010 620
3685 275
3339 722
3910 545
502 424
5972 651
5509 319
1554 714
270 225
4028 707
263 692
1379 23
3378 436
4050 42
266 114
6469 235
6279 525
1126 739
6080 360
5794 741
3505 102
6233 78
3252 578
1508 806
3712 269
4300 599
4148 557
6365 786
3689 193
4417 9
1431 559
3665 112
5808 451
1961 46
3918 213
3396 318
6392 169
2805 21
4716 639
4214 65
1683 606
4029 617
1680 588
4826 191
671 496
6081 643
4049 618
1801 19
1568 18
785 627
6445 740
4471 379
5718 259
4560 811
699 217
3511 757
3947 482
3623 699
4912 182
1640 232
5193 665
6149 70
5647 18
1624 315
291 761
3986 210
6039 717
2082 538
958 131
4328 409
1363 291
4394 763
3923 619
3364 263
1733 670
6002 96
4833 684
3818 149
2452 488
5481 580
1013 478
5147 37
4357 48
2325 478
3052 250
3917 373
6017 397
3403 464
5803 160
4900 75
5081 718
4245 498
4631 690
3531 568
6271 679
879 534
5567 716
2881 584
2938 166
3044 702
4947 501
6258 186
5621 186
5859 417
5138 694
851 166
2620 327
3363 731
1301 444
6298 722
4329 736
3478 801
1122 719
3339 289
2808 727
3316 702
1565 718
1625 232
1536 134
2991 465
831 714
3319 807
1222 112
2718 611
3728 190
3270 710
5259 238
699 638
1924 327
1487 790
2199 25
4759 615
5209 368
4978 194
3327 488
4651 13
2797 722
5429 316
3578 734
3559 274
2155 75
3759 509
2009 417
1083 722
2990 90
281 430
4842 663
786 146
2561 699
6161 564
3046 801
1339 411
1472 188
737 475
4242 145
3605 546
5705 548
935 271
1263 226
850 238
5662 236
1098 145
1974 243
2245 495
4621 376
3808 596
3077 508
1094 608
5909 193
4718 685
4942 45
1485 232
6126 387
2443 540
3052 751
2163 688
1144 71
4264 291
2122 643
2970 323
1392 42
5192 228
4257 154
5720 474
4073 580
3910 60
4051 727
3610 623
5876 315
185 546
2628 669
1815 102
3980 185
3799 316
274 55
6151 738
48 225
5651 78
4314 56
6280 4
2272 515
1915 374
4496 21
5563 208
6485 138
1072 181
565 210
5653 568
2590 72
51 427
2313 127
352 210
5913 264
699 67
4605 313
430 269
2006 224
4571 217
4940 481
6107 297
4530 390
600 340
2912 471
285 360
1044 187
1219 707
1974 459
4998 406
1407 738
5885 622
1934 769
3090 421
403 151
2985 749
2423 546
5974 123
5773 35
3541 167
5132 378
2264 740
148 626
2894 319
22 689
2915 705
3127 607
4591 434
1540 529
1911 595
3363 337
5620 77
4656 522
5865 37
5785 485
2956 557
2268 10
4190 306
1025 340
4553 134
511 657
3830 390
4018 661
5659 737
6079 666
3914 722
4316 455
600 511
5643 698
5580 267
897 421
797 178
140 157
6324 807
3964 17
5011 744
4863 521
2068 554
1181 589
1696 474
2562 645
3570 47
4749 715
3519 705
5221 396
3029 291
6420 683
4428 219
5501 383
1366 329
2514 281
844 659
2253 532
1724 765
5423 400
5454 458
1366 378
5084 494
5198 693
4159 120
5422 439
2771 787
4092 507
5121 691
3685 51
1149 32
5650 283
1842 63
5442 260
2073 799
1680 768
5441 651
342 99
226 593
4393 237
4635 536
3369 416
5777 401
3195 590
4484 608
4056 175
4579 29
2450 118
6187 196
2410 21
5271 747
2561 154
418 193
1687 618
6296 219
3825 509
2707 239
6325 706
2731 9
1130 34
1882 576
4068 98
3462 364
4483 439
2332 673
222 441
5769 650
5339 506
1439 602
2468 409
3478 490
1937 448
5088 337
2319 258
6286 118
1256 157
1534 81
3382 96
6167 480
1758 700
1090 477
1275 362
242 489
3195 15
2517 251
3628 489
3608 217
3416 574
3211 354
1404 56
0 397
2635 425
4181 572
4146 632
2080 594
1231 602
5032 766
2641 341
68 299
5712 200
4166 558
12 483
4666 182
4605 460
6318 508
4522 459
2713 743
2262 113
5719 694
2346 275
3410 530
3902 215
5452 587
819 77
4002 10
3839 665
777 2
118 641
3063 321
811 556
147 415
2957 801
1367 469
3120 224
3160 119
1018 295
25 157
4935 46
1419 414
872 283
1677 724
1914 260
3678 417
4687 797
3056 382
4291 76
2057 221
374 115
3477 46
5322 581
2905 124
6268 271
4391 724
3452 282
3423 638
19 202
4644 557
5380 666
4455 426
4641 73
5602 732
3017 196
5070 129
1706 554
1306 438
6147 637
6127 477
2920 568
3855 260
5937 508
5450 801
1724 596
4842 569
1658 647
4949 525
4904 46
3662 177
4778 291
5514 421
1363 753
340 28
6464 98
756 456
6323 68
6122 667
90 532
4774 207
2571 452
1174 692
3876 15
5863 502
1856 446
666 669
2979 603
1664 759
1581 300
1000 671
4867 389
61 410
1640 89
3224 265
4636 570
5723 582
1261 401
2909 589
5793 500
4418 680
2098 125
1076 464
3207 136
5642 810
4880 503
3949 702
2274 726
962 560
4769 798
3390 210
1098 235
5533 332
3012 652
1813 95
404 523
5084 653
908 296
4744 79
2969 724
1102 327
3854 549
4343 111
633 201
2888 131
365 389
3431 661
1218 677
2092 95
2363 344
5030 544
6201 47
6313 13
3762 127
2475 532
1624 745
4521 189
1308 374
1563 630
899 582
6132 182
3602 415
5041 105
1562 10
4385 804
3933 439
3847 45
1490 117
4936 121
2658 199
4834 779
4993 719
5225 533
1346 665
1935 620
5354 317
3527 50
2821 551
5323 454
6244 233
4232 505
1807 29
6258 124
1823 74
4031 376
2741 144
3746 163
4317 350
925 736
4329 242
135 75
6236 677
5366 605
3471 434
3584 47
1019 765
1144 786
4339 150
6293 24
1154 689
1173 437
2506 637
2238 172
37 283
5643 759
5019 642
4623 654
5114 218
5073 622
4170 719
5525 237
2331 547
3758 752
3657 529
2568 783
6370 262
5993 457
140 134
4821 471
5699 411
136 473
747 782
3158 474
4880 495
985 14
927 518
3264 459
271 752
5001 357
1356 173
4590 75
2908 439
3385 799
2422 612
907 746
5840 242
3540 91
2172 444
2466 766
5033 492
906 172
2135 566
503 176
3850 147
931 17
5317 782
3182 20
1307 135
4592 377
6405 377
1456 427
33 366
695 748
1064 606
1657 525
1967 64
5305 738
2550 311
2098 262
226 5
4089 737
3699 272
5109 690
3445 783
6241 235
2218 306
2576 660
4929 365
1112 557
4140 126
2749 48
2430 501
6187 783
304 740
2032 563
4494 215
671 210
2852 640
416 475
3697 124
5599 611
3625 182
1359 2
638 551
2264 223
4833 294
2332 782
5812 567
483 717
6235 448
273 147
3460 350
5939 4
1338 59
1773 353
2927 655
5569 264
3647 637
2111 267
6014 793
3124 700
265 565
4560 467
6416 754
1945 627
3823 735
102 614
6260 539
502 532
3842 704
689 166
301 257
3731 88
1429 25
552 790
3850 513
854 566
1156 150
2995 511
4310 504
155 509
6084 87
4248 523
160 561
3883 36
5743 769
5151 588
3815 79
4343 36
4678 254
2900 587
1979 256
4277 366
6048 197
4148 311
2449 3
46 20
2945 98
4519 659
3950 755
5846 25
3703 65
2581 200
2846 307
3408 641
6464 480
1609 137
4614 555
1144 559
5607 762
1788 521
3154 208
2625 272
5558 136
676 643
2252 535
1066 520
6397 754
643 269
1638 124
4151 752
4384 211
2015 81
1452 169
3421 9
3442 260
115 569
4376 336
1543 8
3472 678
786 702
1498 708
1772 601
4642 451
1372 626
5152 679
5847 594
4440 338
5259 70
3944 299
968 226
1610 402
1704 493
805 295
2947 120
386 302
5718 178
309 180
2759 91
90 776
3185 81
5882 704
1618 223
3479 63
5666 484
2631 532
4367 338
3266 130
3563 281
2056 685
1973 394
6064 365
2936 633
4920 175
256 250
2380 17
1271 423
2532 184
2899 164
2420 180
5825 625
680 724
4011 704
1269 367
2272 199
5301 141
5551 618
5962 334
873 150
3706 243
2825 627
5548 304
1277 169
4616 557
3016 789
2134 110
4984 784
1346 69
623 407
6354 242
83 117
3756 475
1933 313
1074 291
1503 426
550 301
4622 411
4458 803
4022 493
1900 484
3970 659
6487 346
1433 344
5629 699
5273 390
3127 320
3789 256
1498 666
4425 197
6018 228
6324 177
5345 372
5663 596
820 726
2740 181
1701 627
515 554
1385 723
986 106
2797 683
5464 678
1423 703
5762 458
5537 109
1864 424
3963 178
5734 122
1129 432
1303 258
65 42
5235 751
1904 643
229 128
4761 769
4270 145
6480 314
4628 65
1249 230
3719 3
1729 63
1166 115
3745 451
3095 170
2272 608
626 589
1040 160
146 518
731 432
2117 275
406 273
5958 618
1986 730
324 666
2524 789
3884 390
5554 725
866 96
4273 254
2554 601
4366 29
2208 806
558 613
3117 757
791 182
263 514
5527 375
1310 202
939 389
238 367
5991 434
6003 295
66 744
4136 271
2647 459
4206 484
1373 784
1044 560
2073 263
3672 415
905 501
6167 182
443 647
2037 499
3531 47
5345 551
437 52
5738 224
5027 14
2607 570
1959 192
3514 782
3030 775
4988 582
470 101
4959 668
5925 334
764 228
254 661
6435 801
2567 747
3700 388
2183 442
6222 481
2645 216
34 320
252 664
6005 132
2825 62
5754 54
6037 190
1787 471
6101 337
2536 205
6141 555
1329 408
1934 549
3885 693
3976 710
728 160
4581 601
5667 683
3080 594
5834 185
460 595
4514 679
1122 760
1605 132
5434 676
857 670
1864 327
1968 27
2430 500
3077 279
3905 196
3425 94
4536 728
1003 354
5241 748
5229 683
3476 426
2551 35
3328 240
1359 418
4572 414
1214 556
6400 147
4876 175
3461 65
1160 808
4954 363
5719 463
2304 721
3583 569
5107 134
2300 587
4871 536
5827 600
5387 768
4062 396
218 456
5036 639
3475 486
55 574
3464 108
6359 405
1498 355
5186 65
5059 409
6032 708
6165 798
2157 181
384 57
2984 145
1088 675
4709 405
890 167
3537 685
2307 172
2574 111
2902 555
4248 637
5768 566
3442 392
4439 377
6032 615
1420 765
1606 226
1650 648
4511 54
6327 45
967 512
1578 331
1120 153
2822 646
4716 747
3210 110
5523 753
2587 51
5165 549
5413 810
2785 564
1921 101
2207 530
4251 453
6046 76
5450 641
6050 630
2653 779
1168 318
4416 14
546 431
4214 378
6322 591
848 413
45 10
1510 802
5913 245
6288 133
341 797
2992 396
5926 526
6049 30
6365 198
1165 500
1702 779
3489 214
4095 622
6163 112
1639 499
5042 221
3449 239
4301 760
3984 489
1890 397
3212 553
215 600
4432 207
1749 0
4660 6
1416 367
6340 283
2469 793
966 306
3620 329
1261 113
244 772
1216 460
2158 246
3616 435
2615 578
876 377
5196 761
1831 158
4621 236
6499 57
5268 298
130 146
2137 249
402 101
5842 21
490 144
1932 350
5309 709
1152 307
3834 50
5440 72
4225 670
1058 249
1819 45
3317 119
5997 205
6241 251
218 533
2008 203
3838 484
5645 424
2157 406
2449 723
5952 348
1421 385
4915 364
3112 187
6482 564
1927 284
1455 688
3521 592
1157 483
1707 688
693 490
267 384
2709 279
2477 77
5002 722
5646 196
1993 276
6162 540
5748 340
3215 732
749 500
2557 516
2635 580
1016 444
5084 532
5144 192
2626 433
2154 224
6433 325
1645 560
2241 69
5671 25
4337 630
5416 224
851 77
4370 697
6473 303
1969 727
3690 608
4397 510
3783 707
3650 774
2406 183
3591 18
3590 621
4237 291
1495 449
6453 508
3322 784
4305 141
3661 677
1038 762
3322 260
3839 323
1356 552
1386 292
5245 159
5926 76
6015 474
6443 411
359 590
6395 445
4832 465
659 284
5071 334
6064 373
6055 429
3063 415
931 98
4930 434
5112 371
4221 303
756 0
4255 103
3168 483
1924 559
5540 799
6107 347
6333 810
4672 612
4600 155
2942 737
2185 325
710 9
5971 67
2627 310
250 510
3507 319
814 400
2355 153
2914 737
6429 682
4167 799
4688 288
2128 445
3101 199
6392 256
5368 560
3487 511
4761 403
247 122
445 598
2671 70
3715 523
4166 550
5656 744
2240 18
5316 595
1045 350
1341 632
349 299
2815 528
1936 707
3686 306
2999 512
270 595
287 651
2889 181
1498 762
1305 401
5857 772
252 707
895 656
5848 272
2616 161
77 598
2902 569
176 11
3659 701
4101 355
3978 503
740 163
1777 166
2193 811
3131 769
5641 410
3324 702
382 674
2001 120
380 132
6100 229
3300 232
503 526
3298 332
291 667
1487 296
1595 315
4274 21
27 221
3712 559
430 515
5701 540
353 495
4718 86
2039 185
6475 725
3272 302
49 453
2363 245
1056 20
5945 700
3284 361
2670 93
4596 433
4970 727
933 161
253 54
2707 344
3517 182
2486 39
3468 304
3197 430
5494 434
6468 623
2468 435
3120 558
335 624
6143 188
6481 681
6069 533
939 430
5823 697
875 804
6072 108
5008 387
3496 406
5553 773
3443 424
2041 495
