5000 4500
3156 354
579 113
400 56
1750 145
2447 46
2896 256
1447 440
823 422
4317 519
3234 238
3824 55
1120 467
3636 445
2694 197
1323 293
580 175
941 124
4171 270
4313 252
884 457
3373 217
4099 445
3679 40
3950 68
4025 522
1619 29
3403 332
2821 18
4313 306
2308 22
285 475
2433 413
2054 230
4329 26
1560 118
4381 514
3541 482
1092 263
1110 430
307 39
3895 241
2176 379
2222 407
909 544
3456 372
3271 375
124 14
4159 556
3242 448
336 117
1080 440
2371 115
1056 239
1805 343
2625 350
330 468
2946 454
3900 310
2238 245
1503 20
3919 186
1485 328
69 329
1793 481
3212 77
3986 447
3634 392
1633 231
3809 184
161 168
3951 365
2971 292
796 35
3787 54
716 166
2891 170
898 436
673 466
1608 63
3138 118
1380 441
2744 141
3055 251
4400 211
3114 501
2257 521
56 235
2605 16
2338 290
2393 17
3885 38
1254 406
2451 29
3224 91
778 353
2547 532
3940 253
920 543
1595 527
3049 471
1331 267
1002 368
3007 32
407 378
601 213
3297 127
2062 64
874 466
1665 327
3076 197
1358 294
1376 44
77 454
3236 126
891 117
4220 156
1522 279
3206 500
2217 197
3447 161
4366 477
4276 509
2883 130
621 439
2905 318
3069 325
2563 52
2057 437
3337 46
3094 28
1799 441
1276 5
804 426
1402 446
131 495
1459 341
4164 378
4267 311
2635 327
2314 320
1852 326
232 497
1041 223
1754 213
3608 80
3113 31
4105 313
3427 527
3188 168
1446 404
3768 390
585 449
3823 519
2303 438
430 411
3774 326
4348 215
2005 381
885 10
187 223
2347 63
1595 258
53 496
3326 548
2691 355
111 93
876 424
2433 133
316 386
761 162
4270 90
768 374
3429 77
703 460
718 156
3343 67
2588 418
1028 68
1339 167
3981 6
3665 30
4074 91
346 34
1937 489
3701 208
3430 540
1134 122
2486 370
3413 8
912 119
332 474
3769 490
74 350
1134 158
4160 186
3334 314
2594 432
231 427
4310 253
954 46
906 370
1788 520
766 296
173 176
1702 225
1619 136
4129 544
2011 361
4354 444
4022 530
3050 428
2605 506
3435 12
2449 231
1697 472
2984 117
1379 417
3186 88
2211 211
3477 113
390 429
73 478
4254 290
2121 73
1063 181
780 166
1953 249
897 552
3201 330
2364 367
3257 321
113 287
1509 55
478 438
848 482
2620 182
3533 490
3128 557
1166 315
2138 210
1129 536
4061 244
1032 370
222 177
1310 141
1949 482
3505 31
1438 109
3674 218
3036 60
1625 232
1958 295
4115 517
4169 219
1370 558
1744 243
2930 556
1600 443
3595 345
3299 134
3796 243
3661 18
2877 218
290 537
3121 28
3918 134
4487 272
1979 316
2840 241
3250 342
577 395
1735 252
2456 234
3111 425
2670 307
2012 191
382 503
854 374
1600 487
1616 25
2630 527
1978 494
2888 343
2996 233
4281 145
3438 21
4468 409
1133 433
840 183
1794 199
1678 109
2531 334
130 178
3652 306
1924 288
1262 187
3157 324
2004 540
1113 435
3034 23
437 428
583 210
1188 292
3872 16
862 50
1505 394
1041 453
3049 544
2793 254
754 219
2127 142
1336 20
3610 550
1242 10
395 205
2612 255
2556 181
1239 3
896 269
1275 459
1250 18
886 20
1843 317
739 467
867 268
3838 153
2633 175
3316 90
2412 128
4403 284
754 0
2309 517
4233 253
3217 395
2035 442
478 193
2921 172
967 43
4461 341
393 285
2055 360
3815 113
3408 7
559 47
1090 349
2698 74
4224 328
3998 248
1034 531
2135 260
4395 556
137 378
2443 367
1063 76
1810 94
4225 243
4456 490
2259 175
3540 403
2115 363
3045 133
4218 30
4120 366
2288 227
3415 165
3436 75
58 377
2285 228
2485 35
334 101
2040 333
44 167
2756 176
1318 7
3887 352
2302 24
743 255
2775 491
2751 93
3706 160
1197 450
4175 97
289 327
2832 509
1513 108
244 398
2402 198
531 490
1304 60
3950 349
3206 556
2990 277
3546 156
2144 498
104 446
2652 461
1719 48
2770 39
874 192
3020 141
3679 431
302 36
937 348
1674 468
3822 305
4405 284
3273 4
3034 81
3352 209
2006 316
2481 553
2073 440
4433 63
1036 30
2638 352
4444 230
262 111
2822 127
1279 120
3740 168
2268 376
26 135
3148 171
3187 402
2908 445
2036 332
2462 359
497 232
2333 4
1120 102
1466 49
507 311
613 190
4313 187
3841 318
1934 238
2886 494
2964 5
254 447
1226 154
46 2
1824 244
2573 476
3366 202
3952 481
2061 214
2456 218
3973 538
4293 263
1586 101
67 168
2144 545
771 40
66 32
3007 44
1233 532
2932 274
844 315
111 310
4190 259
311 335
1661 552
953 95
3061 560
3697 231
2722 296
3700 390
143 465
2854 172
2051 517
3096 426
1535 338
149 397
4202 68
4393 290
2815 158
2269 221
3327 509
2502 191
902 357
2104 467
809 484
1909 207
887 355
3584 395
3702 369
1786 4
2478 405
1166 341
4431 65
3900 427
2073 491
1846 529
2979 45
1937 253
3737 141
2003 178
3404 364
2638 504
2298 398
1747 401
783 412
3934 529
1649 485
369 259
304 37
279 284
3288 163
2243 205
2471 319
933 112
1084 495
3454 339
3182 23
2799 292
2730 273
906 214
1868 203
2799 556
948 526
1069 70
614 69
1494 109
3247 553
3146 176
1207 514
652 283
3885 174
3201 442
2990 91
4279 69
1051 151
2873 554
3265 431
4398 461
2182 245
2819 469
816 314
4196 318
1774 275
3628 377
1901 516
91 74
3056 414
320 533
3767 427
3638 228
3848 322
4304 482
1717 374
763 144
3263 484
3432 364
1556 246
3477 551
648 267
2506 170
2928 248
2242 126
2069 444
2652 391
3959 175
534 269
819 322
2833 374
3553 95
2270 114
2221 241
2579 521
3762 491
2142 479
3667 469
447 219
447 311
1286 544
662 346
282 490
419 4
3696 29
114 504
4141 264
926 266
1446 547
4105 158
596 103
1599 341
526 446
2037 196
3315 322
973 381
2197 160
3796 501
3225 168
4295 216
2312 77
3802 39
2091 419
4328 332
1131 311
1319 65
778 161
1610 48
4438 295
3040 52
3117 471
2781 62
4104 489
3251 146
2603 359
1658 196
4338 276
1704 327
2290 52
1700 122
1409 436
2814 315
2431 135
896 425
281 62
2516 360
3513 255
4346 351
1950 59
3929 560
3359 97
1386 463
983 471
443 314
1882 267
2552 248
4110 480
2583 203
87 305
1716 558
3367 437
3849 26
2322 345
2141 59
273 456
732 329
2590 539
3010 51
2955 32
2440 134
4207 450
556 302
2488 396
3648 465
3730 371
1371 472
2709 489
3140 377
902 322
2466 447
2811 256
4018 292
1443 2
4 388
1192 308
1829 426
2886 380
1662 53
6 214
3596 486
3275 157
3653 295
3393 248
2042 27
4332 528
152 414
1178 106
2646 290
3378 448
2230 212
3124 79
906 192
118 417
2651 257
2858 85
2305 173
1771 428
1227 48
808 410
2816 31
1756 117
2218 58
1645 160
4464 544
1530 424
1420 543
3248 255
3861 483
19 205
2627 508
2261 295
1265 424
2193 431
1407 286
3505 35
3084 261
2696 94
1092 441
1830 428
1744 48
2688 122
810 158
1934 251
1289 146
2198 417
523 553
2663 304
1429 223
4331 291
574 0
1109 514
2080 292
3010 377
2600 129
4136 225
37 304
551 310
2135 345
1226 488
534 129
2955 192
2927 442
1662 66
4091 501
83 151
2787 123
2919 34
1322 491
786 188
388 21
4106 86
1328 370
2317 352
1237 536
1606 373
1253 547
2845 33
1523 270
3916 111
4317 96
3993 257
3352 220
980 16
1659 103
3707 350
1659 15
3794 213
609 448
688 147
1051 100
581 377
679 260
1850 324
1179 489
2294 236
74 148
611 429
1692 375
2683 267
2252 124
923 66
4077 401
1215 324
2415 178
3487 342
3717 526
776 2
511 27
3370 91
2785 553
3979 397
3325 407
1425 418
2602 384
3265 509
1890 496
1020 341
2000 555
2243 7
1138 239
2071 76
605 431
2471 369
4173 354
1224 456
1370 428
221 522
3331 546
161 473
3470 368
3607 269
2288 316
2620 233
343 391
277 460
4372 175
2703 513
1606 314
3992 246
2889 248
302 193
3592 263
2815 551
2324 333
4175 147
3387 112
1852 497
4155 120
3274 225
4 371
2584 500
2599 475
235 166
1224 376
68 34
2408 276
421 70
3591 322
3723 362
2842 433
3380 325
2192 143
3222 281
125 350
1920 292
2331 246
2374 112
2756 276
4294 269
3805 361
2656 159
4392 7
181 145
4230 191
2891 134
3303 156
1313 339
165 348
86 182
1945 0
3513 321
758 74
1056 162
568 254
2994 22
3108 424
3056 162
280 551
1230 153
476 269
1869 239
4468 36
1855 333
682 217
871 0
128 119
2353 163
3228 100
1159 160
3298 475
2281 349
113 428
1969 16
3275 230
837 382
4397 304
4309 479
2375 385
936 73
4051 1
1856 182
3753 183
1963 424
2585 503
2204 332
1300 210
2087 513
4307 4
340 328
783 147
4223 327
3734 390
539 291
4119 42
2824 117
1315 456
518 130
76 41
3617 208
358 551
750 21
3885 447
1631 388
376 275
18 453
3210 6
283 354
737 63
706 275
120 464
2274 311
1311 45
2063 528
427 380
3054 330
558 371
114 169
845 511
4011 447
321 173
3833 198
3071 172
1291 508
1889 537
4366 301
2456 387
1288 93
818 141
1633 347
693 282
3946 290
1419 236
2231 94
2464 395
1861 330
4226 526
152 531
2589 504
2788 303
1451 288
3306 297
4241 12
1283 250
1889 398
1079 332
1653 377
716 493
1365 17
3778 450
650 279
4284 190
3947 240
3034 165
2802 275
148 19
2409 479
447 101
1981 6
2578 182
906 60
4084 360
3992 541
943 460
1442 346
1702 367
3085 80
230 365
1894 151
2434 123
139 363
3331 495
4441 300
591 534
2064 107
4154 140
2582 276
3561 315
2929 168
1499 225
3269 86
487 35
1169 416
345 12
2779 291
3518 504
685 459
434 348
1316 62
492 511
3382 73
2294 446
3415 512
1718 41
2489 198
868 33
2771 239
2663 185
3877 146
4316 307
2345 416
3097 60
1355 330
2199 213
938 48
1531 113
3201 144
3977 271
665 537
2444 337
1429 75
3965 239
3036 263
452 303
2998 181
2399 483
3865 359
2805 382
3518 443
2482 14
2946 358
4170 412
690 432
2277 435
4479 449
415 462
2056 33
462 422
3362 148
2300 42
1648 508
2809 222
2212 188
1998 377
4172 510
3661 272
578 194
2213 236
2165 127
3154 487
1328 38
344 83
2357 448
1274 179
1519 475
988 284
909 357
739 183
837 378
1010 541
4388 443
3267 143
942 479
1980 541
711 384
1546 545
2543 444
991 413
1332 371
3089 414
241 182
3795 8
764 172
1874 83
3092 39
2456 191
4044 65
302 367
2156 378
1931 395
1339 555
3967 483
967 40
977 405
696 531
511 525
1893 439
1728 213
2632 271
789 459
2877 320
2492 425
2474 524
98 304
2029 194
3297 1
2588 68
4448 75
207 463
3837 404
3036 96
2833 154
176 548
461 141
3805 484
4351 229
1542 328
3142 0
760 172
2573 279
2043 293
2282 97
3529 506
3003 83
3241 520
2849 334
892 169
1577 285
3273 259
4235 60
1000 486
126 131
619 364
2971 296
2464 176
4032 349
1467 369
2009 246
4283 255
98 362
1406 472
470 557
3883 450
21 427
1622 336
3705 343
1259 321
3448 186
3311 25
909 460
578 232
1972 554
3634 381
1165 65
3689 182
1496 424
832 465
1229 239
2712 542
3434 198
901 400
1594 252
2919 529
3731 185
2676 214
2103 21
4053 215
873 363
1204 320
130 110
2705 391
2855 501
2213 374
2213 321
2383 281
3936 88
3576 540
2411 248
228 118
2310 307
1951 190
2204 276
697 1
1044 168
3895 190
4452 217
2269 175
1997 379
1633 225
4284 383
3830 89
723 104
2390 512
3716 379
796 110
2537 181
736 64
1683 192
4145 475
2947 16
1559 205
3181 92
994 428
125 163
2927 195
1589 143
2727 470
1563 99
3760 105
3178 310
3020 110
953 361
4114 408
4261 382
3715 119
930 301
4032 496
2109 126
136 204
4186 272
1868 63
2567 127
2375 519
3164 502
1899 276
2901 325
1779 13
2841 394
826 111
2185 357
959 430
3553 91
1711 541
1105 496
43 326
3181 385
422 348
2076 96
109 215
3584 546
2457 37
4204 357
2518 137
658 443
498 59
4204 383
1821 526
1716 190
1214 148
2444 191
4350 209
3750 416
1702 444
3112 102
1686 555
636 353
1392 428
73 114
1693 145
453 331
311 192
4381 404
1473 207
251 133
1791 5
2679 472
3998 246
2286 202
1242 150
2484 40
2441 386
1499 274
3184 357
2197 186
3565 21
2804 351
1226 484
771 67
1954 87
872 277
1517 184
3681 253
4294 9
2967 424
2059 224
637 286
2977 371
2062 182
4471 441
1336 417
1662 363
3501 9
5 138
3102 19
3800 536
3964 439
4306 112
731 301
3264 422
1951 110
3818 360
3567 305
1717 318
2942 155
2842 103
3913 210
398 145
990 170
3755 28
1148 20
1889 441
1494 232
240 440
3252 391
595 488
1067 182
3468 324
3843 475
4428 536
3064 453
1057 127
4432 178
4090 186
2596 512
1442 516
3314 7
4057 418
1156 273
4286 228
2570 431
3094 132
2947 530
3659 351
3885 256
3700 488
136 372
140 130
1953 536
2992 12
3986 303
100 449
417 5
4398 432
530 353
725 239
904 168
4279 404
3760 145
1162 129
192 414
371 375
1257 216
3249 384
2361 425
777 498
737 303
4418 197
2186 409
3265 338
3255 490
4078 38
4379 527
961 334
2839 357
1844 374
320 273
232 87
1512 117
1184 16
2180 478
666 260
3383 374
4087 156
844 78
1414 321
2205 524
932 192
2330 36
1391 149
590 101
3588 381
3067 381
1539 178
2123 225
3201 470
4474 113
1512 404
3892 343
381 282
3826 400
3863 148
87 508
950 381
1685 166
4151 349
3526 161
3660 16
474 340
4468 372
1434 251
3416 211
506 352
3748 9
1096 557
171 416
2234 483
2108 134
4414 451
3056 430
3552 30
595 148
3987 477
3415 502
2703 197
3178 445
3633 215
4024 132
1558 558
3969 551
3566 186
379 278
4121 475
491 273
4377 358
3574 77
1488 559
1147 56
3002 356
2683 301
835 236
2088 342
793 437
1416 40
582 494
1298 275
2000 560
2448 271
3316 41
1832 24
4496 96
2418 87
416 305
1844 299
1443 401
3156 336
3707 528
325 351
3125 197
3036 553
2888 51
4455 90
2552 46
2615 377
3086 434
2969 22
1199 177
3659 454
590 498
2657 122
1315 89
3333 260
188 389
3045 135
3008 204
1553 528
861 340
550 200
1105 248
4490 219
1754 353
2191 289
205 45
2052 396
1019 545
952 372
1647 484
4027 510
976 410
3021 259
971 248
802 101
4064 541
413 81
4481 359
447 262
1156 450
403 157
101 57
1064 78
2563 399
2270 237
2132 530
3280 542
1278 264
651 325
2847 11
2815 163
762 182
4192 403
2186 495
2652 76
2573 456
4095 499
856 446
2196 448
1125 337
2934 518
4125 235
735 300
3407 491
275 548
3220 34
170 32
1452 62
2908 184
3557 49
1977 242
3042 66
3606 226
3955 98
3616 231
1304 416
1351 216
3573 452
2514 59
2944 379
1089 184
888 540
1910 135
1920 350
3598 526
2080 560
1012 236
3868 546
4096 172
1966 18
3770 375
1081 244
3393 547
459 234
2197 345
2227 289
2440 347
1690 372
3269 352
1373 280
1122 439
1173 489
3939 485
3477 361
2228 131
3200 279
2090 507
228 214
1858 439
3243 493
640 155
2347 448
4405 439
3164 279
3034 143
1312 164
171 419
632 537
453 32
3051 216
2976 52
1561 16
1864 475
1982 174
263 290
4388 497
4051 507
2890 542
725 439
2880 415
2282 561
4378 539
430 498
4159 367
1312 375
1673 356
1493 436
631 80
1503 266
2440 186
1528 167
3328 403
1137 453
3277 493
4197 253
430 262
3555 207
507 49
31 250
116 59
2030 320
1074 391
2832 539
891 534
2738 442
1819 335
1959 167
964 49
1211 214
2050 209
589 218
4077 229
1712 420
57 271
3140 295
1697 83
1563 152
4203 44
1942 503
4438 208
3541 344
3890 323
524 54
1287 465
2624 436
687 461
1013 172
2380 504
2902 188
1673 481
607 358
109 547
1843 526
603 105
761 269
1907 419
3959 400
1964 501
1002 152
3072 137
248 463
4346 482
1011 162
2807 423
1104 427
1781 218
2111 311
2742 140
1764 364
4233 135
3151 73
726 58
2802 239
2690 194
3009 0
4129 413
1434 526
4084 328
2572 530
1677 259
1214 140
3363 349
4236 69
1364 12
2359 155
282 276
2804 347
3556 554
1198 289
1394 347
3736 490
2479 272
2578 223
4049 229
3434 100
4330 214
1208 214
426 169
1256 347
4119 466
2117 561
4369 464
2679 531
2536 11
1936 505
1366 142
3186 147
3486 391
935 190
1675 232
3573 171
1956 98
3420 291
2729 518
914 10
883 364
4230 212
957 216
2363 133
702 76
746 313
2073 157
2597 300
611 237
4065 118
4488 283
1205 457
771 361
3569 191
3047 354
2894 7
2423 75
2284 270
811 364
2227 219
583 101
113 136
2795 496
2629 444
900 136
2748 161
3027 368
1763 133
3191 24
3168 158
3329 509
293 238
2641 213
1350 59
3248 182
3385 55
656 347
970 520
4255 390
1594 476
3919 478
4420 101
620 188
959 80
2563 24
2415 339
3828 331
2185 507
2236 161
1724 362
3999 33
1925 6
2374 44
2630 153
3719 305
2545 113
296 337
233 445
4032 447
274 552
3817 518
599 531
979 9
1459 288
2439 430
3296 550
507 341
1488 160
3509 49
220 115
3842 214
2938 179
2410 456
120 6
828 237
4317 513
1546 200
125 229
1669 477
4242 439
302 194
4113 441
1605 182
1904 511
1622 489
3573 177
152 284
1876 253
507 455
2149 227
2754 85
1949 500
2102 554
796 271
818 212
2066 515
1299 154
1813 463
3263 372
2615 149
2480 241
3088 26
3288 268
2749 518
3493 76
1325 296
2663 0
2950 372
3472 91
1968 498
2385 482
3660 123
1800 443
3905 354
1853 435
1836 523
3637 288
1118 562
1801 103
2988 142
1897 233
4151 2
1953 387
4056 30
3353 535
2419 152
108 67
1890 268
2041 46
1739 390
1421 245
819 375
1760 189
927 419
3142 221
2676 95
3939 289
4102 1
3521 479
914 454
4453 399
1011 250
1116 119
4405 78
4326 215
3553 111
2203 201
3584 127
1878 114
3708 517
2106 516
1034 230
997 317
2331 17
3171 63
1856 280
754 154
3435 262
2274 480
4199 434
3672 450
3055 338
4270 160
1821 255
4083 198
4403 375
1205 83
2226 129
434 264
2971 338
2520 239
1607 111
1101 513
4073 141
4028 98
3469 463
345 263
1470 218
841 302
2745 12
2531 361
2319 507
3929 497
3450 119
3480 208
1315 161
1738 51
1276 519
3125 357
2632 22
3962 113
20 218
184 313
1522 268
4020 534
1763 393
980 488
1133 540
2113 25
2100 28
3517 116
2184 233
4347 323
1681 317
4052 111
2262 22
4311 156
1675 188
1012 311
2745 121
236 11
3110 491
1919 375
1042 286
2384 159
41 265
1169 233
494 167
3160 93
2294 482
3951 306
4279 253
2116 440
1354 467
1186 509
1830 270
1444 253
2801 427
2288 481
86 254
2917 200
3858 370
1140 204
1249 535
3300 510
275 8
19 221
2590 334
1460 5
1621 509
3476 517
3611 339
681 172
2037 40
2175 311
1732 183
1945 453
717 126
2280 47
1768 558
1819 317
1501 254
3920 443
4097 277
3743 262
4461 512
4497 206
3771 169
4228 418
1317 387
1220 388
199 481
797 274
14 514
3155 39
3848 357
3972 533
4311 273
1202 319
4192 126
2314 317
2627 122
1482 110
2747 400
1112 283
3904 464
2528 221
3985 333
2511 328
854 209
2037 222
4070 504
3056 410
1266 518
2094 233
3423 50
1067 419
2935 481
1364 210
53 555
662 198
141 217
575 285
3591 28
3018 161
1573 268
1167 312
3530 519
1706 269
2871 395
700 481
4359 190
2358 124
1187 270
957 487
1400 81
3382 409
3859 216
3568 247
3874 147
3386 165
3656 8
1886 296
1899 232
1196 88
3215 271
1559 315
3263 555
2926 385
4423 355
4163 288
1558 169
1648 22
4078 387
3238 372
4284 68
2038 470
805 53
2742 456
3897 478
787 262
2718 272
2478 176
4445 317
1114 548
2636 519
3840 208
3899 130
1701 431
2666 393
4200 71
2448 85
2452 422
857 400
4413 317
2911 144
3851 7
2918 499
1350 157
3556 480
917 547
3628 431
4264 25
3466 59
1994 139
3611 487
1444 288
491 258
2028 280
4264 112
3049 4
2992 74
2567 497
2033 475
4313 489
257 236
3781 557
3934 526
1530 238
4444 255
2073 425
580 446
4314 187
3447 12
1926 403
1307 116
1554 286
4007 114
3678 266
2272 135
3773 220
1121 464
2869 392
2337 461
4106 279
2158 277
3067 448
1851 548
1584 166
3846 405
1784 215
1429 354
1380 41
4470 229
611 286
3573 192
1591 326
2289 145
2479 290
1463 367
903 116
1979 169
2667 397
11 194
181 447
1990 11
1650 262
2423 160
3010 361
2972 125
667 406
2985 54
2478 393
3943 386
2865 449
3089 295
2744 423
2626 144
2918 296
2912 551
1612 521
3703 378
4222 207
1866 481
2194 108
4404 297
17 470
2925 10
3087 476
4381 351
1472 151
3784 366
2917 89
1078 211
1455 519
854 376
246 373
4411 53
4259 81
1677 556
3448 554
3477 402
980 215
1609 347
1524 183
2345 236
4352 315
1016 224
2116 34
3527 10
2317 317
2178 292
4153 537
2531 147
348 522
1665 429
2530 38
3292 38
2670 531
3188 209
1406 514
1093 540
362 54
3649 284
1848 255
2104 371
3902 287
2324 253
3438 106
1575 182
4028 427
4301 16
3229 45
3476 2
2072 349
267 92
2388 422
259 465
2616 243
2110 156
3847 272
1490 333
3535 208
3426 556
816 535
2192 490
730 115
526 175
1247 117
2078 179
1739 388
4186 383
1662 542
364 328
719 49
2838 321
2479 296
2233 456
2597 391
862 476
3007 335
3463 439
1771 199
453 130
4357 14
3780 440
1016 295
3254 207
3660 421
1287 337
4155 112
2274 216
1481 326
3230 179
975 473
1781 7
1346 457
2158 126
750 4
4325 438
268 373
643 561
2854 174
2978 364
2549 374
2604 58
2399 418
4194 31
3650 142
2939 376
396 411
141 14
4179 69
3088 355
521 538
3752 280
3520 92
248 428
2477 225
2238 353
2585 372
3882 178
397 293
1713 508
1800 208
3306 281
4050 39
3993 433
1750 34
3132 297
1303 114
4166 266
682 367
4110 264
154 120
3718 89
665 393
549 220
2517 455
1972 516
2486 533
832 550
3703 4
2651 39
3113 401
4012 458
4289 464
4055 440
95 349
3168 20
1266 216
3168 491
1845 546
2780 252
375 94
447 285
3650 191
2162 87
1040 330
1410 531
3420 291
413 136
2872 109
4363 179
3421 321
4286 231
2355 310
3168 138
4460 5
2322 305
3455 12
943 54
723 122
2659 58
2222 322
3008 215
2002 55
3453 344
3778 211
403 372
2145 233
1522 167
1474 276
1985 309
533 64
956 132
3661 219
385 320
1758 400
1811 79
2246 356
3779 540
4015 479
3532 62
1493 412
635 404
3350 460
1831 183
1985 204
3563 106
3181 358
1950 51
3919 54
4037 165
3544 200
1740 336
500 39
2699 331
436 8
1730 34
823 196
1854 112
2375 16
4050 46
3496 560
1670 87
2087 321
899 69
3997 357
2643 65
2321 521
158 132
4068 319
1144 489
4028 59
2484 53
3037 207
1802 526
1393 20
3344 295
395 369
1323 117
2662 55
3406 66
3224 57
381 253
4048 262
3610 335
81 220
616 21
1983 324
4435 194
3097 107
1121 269
559 112
2893 90
2929 7
812 321
2870 391
1984 421
2719 386
2930 550
4440 0
4165 38
774 226
3635 153
795 121
1199 178
3804 172
1298 46
3363 271
4429 442
91 56
473 411
1720 470
1876 560
3890 448
1664 261
304 291
295 421
166 120
906 490
880 74
3245 98
3731 398
116 514
3784 318
3272 116
3722 139
1958 154
3637 231
103 153
2698 13
3545 13
98 177
572 290
2384 447
2875 400
3647 430
4256 24
4064 502
806 468
2758 250
4408 159
2960 39
2506 221
2195 436
2606 45
592 560
2647 530
3824 228
1395 471
10 538
2471 152
524 447
847 181
2580 40
2911 246
2309 299
3795 323
1096 505
877 302
259 397
3736 341
2271 82
3545 206
4437 205
2741 151
429 547
1587 452
3271 175
2215 362
3299 341
2400 555
1443 428
244 66
2225 223
3565 352
4473 398
660 515
2413 175
3680 506
3579 169
1469 6
790 62
2816 25
1401 140
4319 41
1673 372
795 28
45 389
3006 236
1928 331
3762 527
398 36
2852 384
1137 243
2345 68
2180 387
2232 101
2299 486
2553 382
4496 262
3034 213
2659 467
4167 333
331 494
2702 103
1003 144
1706 178
1518 69
1281 481
3810 506
2811 523
4465 212
2479 526
4400 122
2487 55
3993 231
3257 533
3813 117
3876 545
2349 122
2852 200
583 298
3163 109
689 197
1036 168
3725 388
1071 248
2552 88
1346 261
4475 518
671 321
3132 551
3377 336
999 320
3075 454
2132 362
862 372
349 27
4249 57
1872 151
2453 232
2191 442
2575 370
230 187
739 89
4147 63
3155 393
1370 117
13 542
1579 513
306 293
405 431
3969 7
749 323
211 555
248 328
4098 362
227 295
1658 325
2096 252
3862 166
3851 231
1755 122
1421 458
111 135
2988 96
4337 555
1820 512
2227 432
1771 160
1232 560
1610 288
2791 203
3988 211
2166 195
3517 330
3468 505
2805 540
3446 343
1778 323
133 3
2583 520
2567 286
1011 443
3168 217
4460 93
1746 32
3435 15
275 246
3000 237
309 425
1333 314
3864 12
2870 218
630 521
471 2
2422 34
485 0
4475 340
586 105
1710 201
4087 58
1290 154
1192 470
1396 337
3791 173
1973 293
3661 400
1428 335
2145 165
33 240
182 225
3130 116
3180 488
2905 263
1262 430
1821 256
4115 234
1774 179
2739 42
1931 533
307 550
3982 258
3929 348
3083 12
3906 51
3902 222
1 413
671 231
2551 170
3604 331
3452 561
3547 250
3738 393
1681 448
1124 97
286 190
4190 406
1399 93
1969 406
3339 549
4346 466
3370 253
3043 336
1885 91
4337 103
4439 316
4390 316
1686 164
2714 239
632 512
3655 471
3375 438
2474 503
2470 307
40 371
3874 136
1461 94
893 540
3170 173
2207 325
1360 300
4422 38
3902 139
3601 33
2925 57
119 285
174 149
3585 188
1540 105
1627 256
584 147
348 198
518 487
39 367
1935 323
959 246
2384 254
1581 434
745 334
1898 476
3339 131
750 393
4450 490
2430 285
2205 254
1901 159
1209 470
175 143
3798 279
4055 88
2460 409
2371 250
4047 445
148 366
354 297
2500 527
1206 246
720 75
3724 223
124 142
1330 425
797 390
4344 141
4127 188
759 510
2492 165
115 165
1476 42
1061 175
1376 184
2179 191
2855 467
2485 226
1113 330
3046 166
3812 323
3513 527
2327 144
3852 171
4315 73
2334 61
3715 507
2171 80
3474 196
1082 246
1691 338
739 363
284 248
1474 315
1203 328
1232 39
3255 176
635 512
3172 536
3304 455
1621 508
1253 307
4246 80
113 466
2118 386
820 379
4068 478
1219 215
4428 404
1279 291
624 336
1379 526
1768 78
2062 197
3153 78
2842 403
189 274
358 488
3518 335
3448 148
1441 404
2334 306
139 16
4417 107
2565 82
2595 413
1436 129
2017 402
1690 237
1875 98
3364 71
2312 66
3796 65
771 529
4454 127
4144 224
996 155
4338 133
1015 332
607 127
2486 425
882 336
3894 425
1660 162
2629 248
660 470
967 161
1705 62
1591 266
1155 85
1067 260
1697 257
624 336
200 272
1340 272
1564 262
4454 185
956 367
2256 19
1782 337
2344 434
3040 281
4481 65
274 88
565 199
4031 439
3581 358
954 108
2620 540
3601 454
4086 161
2500 86
2964 496
3643 392
16 453
2612 472
1861 139
2399 16
4214 221
3522 410
238 49
3322 527
4163 340
1688 428
2342 77
3218 295
3522 11
161 450
4133 234
4374 236
2279 288
2394 414
3383 287
136 51
1854 121
3352 408
2100 291
3609 151
3247 376
3526 342
1359 163
2482 124
3628 332
2699 327
3695 272
2001 538
2909 527
1840 166
2962 111
3129 449
2269 137
860 360
249 35
2166 282
806 434
1020 73
1112 416
3977 504
4420 25
2623 365
1942 545
529 281
2378 189
882 0
1677 501
776 60
931 348
680 134
1866 70
4481 43
3004 29
732 22
1812 33
777 413
2053 384
3019 207
2965 59
1279 2
2448 250
3451 493
3122 485
116 205
1082 502
3784 363
1610 344
4416 534
743 253
2083 427
162 307
192 254
302 421
3587 85
1651 14
213 288
4330 464
2471 313
2927 542
4209 18
1338 229
623 384
850 161
1751 491
4456 235
3861 39
782 537
908 23
3407 493
1384 88
1381 409
855 533
1003 83
3221 304
409 444
2295 252
1316 191
571 23
2706 151
2348 527
3252 12
4217 112
4122 11
4074 235
2898 119
2293 309
1935 160
916 525
4319 261
4082 268
1521 146
267 173
2027 280
2822 467
1389 162
458 532
3439 521
1762 309
2929 416
3572 379
2986 403
3255 59
1320 84
4282 365
649 99
425 133
2589 276
2223 74
2981 98
3813 375
4492 172
194 478
3223 560
2878 1
4005 343
3197 201
3513 556
220 4
123 15
3049 360
2130 217
3929 502
4079 429
3508 409
1518 35
2526 346
1380 265
1851 231
1808 149
2222 27
1645 503
1317 145
2066 114
1339 479
2717 213
3080 390
405 54
3401 521
2066 86
2818 446
3866 134
2405 499
206 312
851 317
842 454
2907 272
2357 457
1211 522
2535 266
948 213
1960 462
2480 511
3807 221
263 336
1310 252
1500 92
1708 474
4377 129
3420 533
4087 128
3396 502
1345 375
1836 436
2839 142
2792 151
2554 260
1830 325
4040 234
1615 11
1097 501
2112 410
250 531
3548 489
4055 272
1664 19
4419 487
1416 71
44 470
209 351
977 113
2764 395
1181 370
1898 558
951 452
2510 238
2839 444
3149 418
1188 316
3488 107
1654 152
2213 337
1504 363
1766 551
3663 196
1710 252
3363 204
3962 11
2832 473
2902 241
2105 139
3403 557
2403 59
2738 386
1449 535
1912 99
4464 23
1051 336
3317 262
3966 335
1396 203
544 399
2869 63
544 158
1559 233
3594 251
3946 9
2480 87
2277 343
2558 397
3170 109
2345 38
1601 319
2119 38
1306 507
3104 157
3283 64
1336 92
932 492
2058 392
2064 551
3917 122
2740 179
1532 399
3948 158
2929 349
1408 474
1098 213
826 255
3764 358
3088 411
1701 309
2302 467
2461 320
2552 35
3597 40
2406 357
2592 85
1442 427
235 404
1163 518
1601 444
2543 244
2695 530
1074 517
1254 507
1333 87
1196 475
2118 161
2943 366
2112 83
3143 287
4087 119
3807 211
3310 104
3269 385
4114 184
2562 335
1611 34
2534 350
1454 414
2138 216
4061 330
1301 302
2676 212
1713 535
2955 345
2819 201
3621 117
3238 185
3721 437
1968 118
1067 160
2145 146
3647 444
815 296
167 68
2796 401
2463 390
4094 301
1551 176
3437 209
1063 143
1169 73
3754 25
3823 8
3687 313
104 558
3754 530
1396 457
1620 218
2692 427
1262 1
938 306
148 7
2586 507
1352 286
914 166
741 344
2496 550
2972 17
2851 149
911 123
3970 62
4383 110
3108 41
929 518
762 306
1874 408
1052 226
2030 421
3992 151
3238 187
2370 436
3258 523
627 437
2751 330
4007 407
1948 101
824 506
491 119
1338 435
3198 470
1982 269
443 97
2371 478
4345 411
1174 267
2169 130
1173 376
3616 203
90 527
338 66
3050 462
88 336
3992 263
3957 547
2267 395
1422 133
2789 364
1218 334
1781 521
1475 153
413 431
52 397
1117 498
3850 543
3017 308
474 474
82 344
263 357
3217 488
2573 481
1278 275
1291 308
2673 502
1266 196
1251 349
3557 137
994 396
1835 236
939 236
2108 425
4044 69
770 230
4329 64
941 414
948 313
3165 340
4233 376
3521 203
2336 170
4485 440
843 197
571 140
866 120
2634 348
1344 501
768 217
1372 189
944 447
3630 376
3736 169
2712 222
482 431
1766 81
2854 526
1858 284
836 27
3906 67
2534 138
4471 120
3321 441
2141 422
3408 54
3406 337
4480 55
3328 414
2966 4
2508 167
1683 508
3390 195
3996 406
1897 238
2488 329
1665 242
3734 24
2996 370
4056 407
819 105
2609 97
3323 456
2840 138
3470 263
4485 438
4411 160
32 67
4214 24
4157 453
3941 399
950 226
1574 98
1035 397
627 246
830 311
3763 127
2122 537
1560 273
4428 19
61 99
2310 338
1885 472
3594 278
1235 385
3990 157
3754 515
2978 91
4408 298
3353 220
2288 411
2007 526
4448 396
575 65
731 194
3486 117
3617 169
330 227
1814 128
3115 120
2149 385
1393 341
1512 189
2963 251
781 128
2819 327
254 472
3952 59
861 231
1423 141
1815 170
2210 295
331 340
3406 158
2794 60
2110 27
2018 167
2636 307
981 246
925 85
2824 522
1979 59
3821 470
3945 300
2226 562
3623 283
852 455
1657 314
4137 490
1976 448
2269 468
3862 154
2583 87
831 113
3254 139
1537 309
4433 221
3688 466
2872 299
858 496
134 136
249 101
1554 396
3280 318
3757 379
1578 144
4196 561
216 177
3258 162
74 488
3092 198
518 429
730 209
3443 393
476 92
2471 101
1197 221
354 419
2524 56
4210 154
945 281
2427 495
625 26
2168 90
689 513
3104 346
1369 407
3591 12
2948 297
1178 276
2963 120
2383 191
2911 404
3016 37
1190 400
3300 400
2984 467
1297 159
3531 269
1895 300
2772 280
1260 348
2505 478
3533 177
844 34
2089 236
1233 44
1181 133
2963 158
3398 515
1836 416
1925 476
4261 209
2666 521
2852 148
3298 462
1090 350
4213 359
2382 65
3241 210
2043 559
3420 280
915 545
3849 87
1618 471
2454 372
2515 470
1526 429
3679 413
759 148
3179 356
1135 363
1292 290
4236 492
843 19
2971 245
1397 36
1910 487
3055 189
1558 300
946 457
3687 65
3756 317
3939 66
1345 70
698 418
2774 127
1340 420
1216 4
1071 213
2534 372
1953 340
3943 49
3541 496
1954 556
4321 51
2500 68
478 186
3872 53
1072 362
621 482
2494 498
925 511
400 180
353 225
4490 20
1144 115
1517 396
2522 325
2455 26
1930 214
1293 19
4479 520
2352 244
4224 238
3060 130
2797 197
3441 368
1679 150
3270 136
2155 222
4154 438
1406 121
3565 226
447 495
554 428
681 499
487 89
3077 16
1511 55
239 454
408 248
2001 184
911 380
4158 116
4179 439
2102 215
3174 193
1870 146
4417 365
456 132
2184 499
3638 359
2340 404
1732 471
1576 157
1255 112
2564 431
2244 522
694 399
2462 469
2172 309
1016 118
4341 540
2903 377
2050 67
3714 360
3159 527
532 55
3152 214
3064 206
201 489
3282 105
1649 350
3442 6
152 181
3980 122
2425 44
3641 216
1421 46
837 560
834 355
3843 151
4470 108
4066 6
1749 415
2561 262
1765 270
2485 152
1381 255
3869 60
2110 364
324 374
753 48
4357 207
3095 345
1121 483
917 281
3729 327
414 163
737 510
3817 498
1914 185
3731 260
2135 166
3161 365
1204 52
2975 252
987 483
1052 318
3932 475
4274 219
1215 252
3417 63
1417 428
317 235
1780 271
418 463
2652 394
4469 104
4429 311
1374 166
629 303
3216 489
3189 241
3345 502
715 320
761 508
4142 319
696 150
2464 454
2146 355
2673 406
193 174
3461 431
2127 233
3701 470
1132 41
465 531
2048 84
3284 82
4481 71
3175 397
3442 497
1509 500
4058 442
2107 256
1270 94
2048 460
1541 424
3265 355
4076 165
150 95
389 119
24 454
4149 401
1962 263
1903 554
3197 511
1897 55
752 103
880 185
2144 171
504 393
4253 50
3027 337
2103 309
3305 277
797 423
1030 406
880 372
592 76
2786 450
2058 479
1252 60
2969 111
1088 544
1339 534
3352 336
3443 239
1315 372
316 294
2103 224
3746 346
3073 136
699 96
339 30
2753 474
2738 48
3646 319
4297 436
1026 426
427 151
3738 112
1644 385
1202 183
4003 302
4087 437
4257 165
534 85
1133 289
2262 126
1873 560
1246 260
4404 496
870 299
3286 200
1044 207
1028 550
1715 472
2469 96
144 40
104 223
3210 89
4350 245
1717 22
1466 161
859 404
767 290
946 478
1328 435
1052 57
1500 147
2555 473
3508 41
3939 293
2529 560
174 548
1157 435
2684 342
392 195
4016 560
2998 80
169 225
2971 343
764 125
283 223
2393 555
1698 413
3407 180
595 83
1121 521
1799 486
493 296
2474 207
116 217
3009 477
1485 367
1156 46
458 326
2077 405
362 341
2771 176
2535 28
129 150
4034 51
695 341
618 314
334 291
3625 293
2173 211
1930 517
3727 298
433 292
3752 207
2142 288
4453 395
3764 195
3808 195
2070 328
26 45
1518 420
1579 465
4175 191
3561 522
3191 489
1078 181
3746 312
991 200
1067 176
2499 360
3129 527
1984 532
2323 371
2597 274
3160 502
3384 121
27 363
820 225
4344 215
4393 415
3934 198
4345 218
973 326
2184 543
2148 285
3928 478
533 492
275 241
1373 286
1996 223
2123 269
3373 475
3617 483
4354 332
3929 104
1603 89
322 121
4014 137
77 560
3675 203
899 442
1418 367
50 315
1927 94
3955 288
1000 233
2844 69
22 167
3737 376
777 489
2407 85
4153 140
2846 178
1310 551
739 327
2717 342
1468 464
3858 130
2079 446
3676 359
3635 557
1656 406
4063 2
3267 263
3394 77
1628 238
907 243
1955 70
1921 203
2462 132
3741 366
3079 337
3804 129
4442 417
1092 169
758 181
402 204
2631 511
781 54
4319 42
2269 346
4257 314
2047 311
2578 324
1840 400
1379 407
1671 15
2845 518
2354 269
904 527
4374 57
2480 365
41 409
3794 221
3609 315
4491 237
661 302
4209 373
555 499
2772 128
1540 529
4164 265
4115 334
3141 189
693 52
2349 24
99 385
535 127
2341 146
215 494
2732 380
1009 484
4133 545
2472 90
2080 363
2995 379
4284 97
1314 33
168 325
1507 227
3833 541
3447 223
28 281
76 544
715 198
3536 254
2304 187
2461 553
2559 116
237 390
1693 63
282 542
2991 480
4299 511
3066 85
4127 175
2543 482
486 125
2791 149
3272 69
3057 85
491 377
965 220
2909 186
1908 502
1144 149
1086 187
1400 407
1981 218
766 318
4087 294
3213 106
2751 127
3066 498
724 524
3996 254
3035 541
4462 285
3868 474
4229 151
1425 288
163 280
3855 472
158 333
900 294
1632 163
3209 176
1319 367
4348 342
3628 77
3931 157
1350 441
325 474
1932 439
3170 269
3245 435
811 38
1018 28
1518 70
3014 554
1610 237
1234 338
2307 80
1912 514
2037 448
424 166
1281 399
1293 173
844 138
3050 114
3255 403
2643 560
4357 260
1843 245
2764 323
2227 510
3093 216
753 238
1174 344
4370 106
524 229
1285 358
646 100
541 121
3183 163
870 16
236 365
2916 201
1479 485
2482 163
169 266
3693 106
4116 39
1665 216
3239 231
101 330
88 524
1302 519
948 451
2583 557
2615 428
2389 396
3389 444
752 336
30 178
3220 560
2046 315
962 34
1621 409
1300 513
2474 458
773 78
3537 92
257 312
3198 102
2575 9
4304 558
4395 136
380 10
633 21
4454 1
4241 27
2842 397
4283 374
3141 196
2607 287
4362 467
3023 106
687 186
911 212
2026 67
56 159
343 443
2881 149
4004 327
3645 530
286 221
1041 334
4104 325
367 487
316 55
2467 212
735 45
4235 382
2854 36
2800 54
2909 165
1968 24
3629 178
1361 34
1023 408
3289 175
4320 55
2979 400
1253 237
2854 511
2130 507
3392 144
2476 374
1711 292
4215 17
3272 38
2503 44
1192 0
4204 39
4369 445
4313 499
3419 473
936 216
4448 224
2536 212
770 386
2732 56
3331 530
3793 405
2097 322
3912 393
2944 131
2788 257
2086 267
2010 367
4004 466
2635 286
1468 1
3391 88
3507 411
3412 276
4143 556
3289 227
1633 319
853 12
4441 338
1469 343
2062 147
2595 375
1208 1
3897 312
2751 433
3459 154
3928 414
4192 256
1288 214
2150 162
109 231
3194 238
4176 550
7 425
2046 395
598 553
4349 231
2649 425
2901 229
207 159
2020 531
1182 357
1764 274
4269 516
3442 504
3821 317
1466 201
3962 209
1099 8
3055 105
337 126
76 527
1065 283
1406 109
4413 562
4482 424
4378 313
1434 267
2802 91
613 27
3215 485
1217 66
220 494
4005 497
1418 486
3314 72
2849 412
3198 406
3855 283
2809 380
1713 265
884 321
3335 122
431 25
2706 264
3086 72
4415 233
3417 453
4228 166
2069 197
1297 169
384 373
3017 26
3328 62
3822 443
532 261
1094 25
495 492
2370 415
610 555
3301 89
1879 511
1865 253
1482 374
4197 364
2883 21
4058 2
4392 267
2829 147
283 230
3839 302
1879 36
2846 380
4477 225
1077 28
3547 337
2479 169
3684 53
4437 344
2139 530
1627 465
4213 324
250 299
1556 504
62 18
3462 527
2272 486
3602 205
4005 301
2297 6
1200 477
3714 1
1959 317
2837 402
3003 286
2879 183
4073 166
1588 514
3088 101
3113 383
719 527
4215 505
2781 392
661 39
424 172
3892 424
1692 139
1771 355
1763 259
421 203
736 496
2130 311
3996 280
1142 25
3734 167
1045 525
572 487
3727 197
4199 543
3374 292
2498 387
2453 228
1022 529
1797 248
3970 217
2860 68
1303 248
3297 459
2233 210
3925 111
2425 125
2823 211
1810 540
1800 299
3977 362
2681 193
1441 411
3103 157
2236 261
2212 49
1942 540
4390 424
4335 366
2314 544
127 135
1952 337
564 392
4199 310
2591 452
513 537
92 321
3223 281
3621 278
2606 118
2184 90
3543 249
1015 31
526 211
3718 58
1105 498
1547 90
32 248
3281 547
4017 399
2099 511
1126 14
154 187
2982 314
4055 550
591 453
1016 540
3004 167
234 115
782 141
1874 189
329 524
164 45
4445 515
4264 385
1140 66
972 501
3582 375
3262 72
3792 367
65 386
2715 515
3802 114
4481 117
483 557
2210 36
1388 553
2058 543
597 524
4296 432
3469 89
4289 432
2660 66
199 93
2083 147
1396 247
3369 481
3801 442
2100 61
3024 104
2463 213
4377 301
2629 394
120 495
616 456
4093 195
3696 330
2561 178
2816 112
205 310
3714 115
1396 507
174 467
2269 28
4405 303
2593 181
2981 454
743 452
4127 95
2246 484
4149 159
2595 147
1916 137
1904 87
4495 421
1379 107
4400 521
1586 143
3965 476
1777 370
2309 238
273 217
1765 172
4359 254
590 145
3845 477
4238 356
3841 536
1183 557
2919 319
4155 467
128 1
3290 16
3987 332
1690 219
3839 352
1944 435
2614 131
1516 468
2592 171
635 478
2001 408
4472 275
3025 449
3105 365
2093 456
3255 530
17 496
4003 435
1312 106
3661 104
3155 396
3339 515
610 442
3613 365
4143 419
1886 529
209 254
2058 487
3441 73
3350 140
1442 361
4027 183
2279 189
4093 346
3869 114
166 557
4047 429
3045 546
3577 528
4144 316
2061 425
865 358
3361 560
2086 405
3115 180
2194 305
2075 295
999 540
1810 79
4187 396
132 468
4466 529
1947 358
2531 506
2277 503
1831 360
1987 416
3567 404
1906 294
475 347
850 449
2349 172
2790 379
2058 387
1294 355
389 73
786 559
2873 557
4232 82
204 465
2309 411
4334 184
2255 132
787 157
1447 289
3227 109
2586 539
3036 225
1808 516
3586 71
247 269
654 213
1193 210
3531 160
1174 469
2081 463
716 417
1295 333
1763 504
2646 139
4197 260
1301 139
1961 53
2597 209
667 387
4039 245
560 506
3133 166
3763 441
3564 552
3805 243
4102 545
734 376
1522 153
1298 219
148 67
4293 478
3153 479
2962 3
579 208
1201 6
2467 473
1071 249
797 331
2364 349
4419 122
2057 333
777 478
1504 71
3910 108
4058 57
1751 161
3193 241
1886 290
2134 239
517 308
666 401
340 86
2416 10
1379 146
1695 221
2958 240
4351 44
990 315
1723 173
3990 320
2233 75
488 63
2642 89
3020 296
2434 480
3051 454
3258 483
342 328
3196 151
1338 92
4253 44
4068 260
1729 191
3209 12
1397 175
1798 472
3471 68
1599 389
3642 232
2667 405
853 105
964 418
3865 204
776 30
2196 162
1798 93
2391 70
3478 147
3298 533
4292 452
692 364
3943 301
4092 140
184 89
3224 529
1280 99
2726 70
754 176
2875 19
4201 57
2406 371
458 55
4017 442
4231 205
796 320
4444 210
4146 513
4083 224
4111 268
2524 216
3991 508
1264 148
2254 297
389 368
2441 482
1363 436
1836 552
3240 387
3134 68
3316 10
1985 286
1296 508
2380 204
3847 302
2928 428
2483 480
3344 125
3746 58
3545 287
1535 362
2838 433
3650 526
3377 420
2038 289
3259 147
2984 288
4286 8
1040 462
3942 129
3882 234
157 42
1319 392
2123 333
1982 144
43 96
3094 360
106 332
3728 297
3367 441
4410 473
1471 362
228 405
1152 490
571 533
4129 58
3093 82
2680 142
1522 262
3137 71
1134 358
1611 266
1895 437
87 126
2574 230
3434 315
1883 269
4374 478
3855 200
3515 124
1868 14
3820 351
1371 357
4220 525
2657 290
809 420
162 360
298 376
4192 154
2483 372
1007 444
1638 337
2709 224
2383 298
1081 459
3413 334
3689 401
4022 202
472 486
3385 476
2345 253
1336 391
1688 5
1610 236
375 24
2389 342
2549 561
3855 120
3627 373
2148 372
232 333
1401 361
4392 174
3553 340
697 378
2208 419
3141 277
2441 255
1738 116
982 334
3431 50
174 381
3564 445
1508 453
3413 238
2524 302
1585 187
3778 76
2777 274
124 39
2523 128
1953 498
3990 428
2522 167
1117 423
2147 498
803 429
3865 322
2503 108
3919 112
3954 509
935 155
516 15
3257 209
3331 411
1258 7
2281 243
298 354
3854 558
2324 187
1827 453
86 130
764 178
2954 249
2802 249
3860 141
4218 536
2016 374
202 534
3873 292
3182 531
2168 492
3178 325
2798 280
1949 542
3872 172
1683 544
2586 74
265 421
3176 129
1252 151
3558 375
610 548
3413 303
2884 413
2592 148
2381 137
913 254
2690 13
3497 310
421 420
1008 98
2190 134
4022 192
337 49
4439 103
3286 104
1801 224
380 143
2410 558
1188 169
3227 519
3691 474
1662 552
4049 287
1886 505
2460 457
63 198
1409 519
702 447
726 551
2563 85
2970 275
65 44
188 403
53 215
1000 206
3645 495
1531 447
1332 474
2671 561
432 283
1618 125
575 494
1300 167
18 475
1937 422
837 29
1247 441
3597 49
295 123
2823 419
1996 17
389 515
3023 297
4025 502
4143 261
215 212
2388 385
2656 402
2596 488
2100 308
40 255
4056 250
3127 138
4217 371
677 483
3341 534
537 266
3398 170
1347 44
2014 89
4498 4
3521 200
1819 372
3618 544
4252 355
330 528
1481 431
2219 165
3455 340
3546 219
3426 522
2113 456
869 16
1586 423
2001 238
970 158
2936 463
692 457
1631 198
3929 321
2884 480
1094 325
3380 472
3004 217
4392 125
703 144
4173 343
927 121
492 81
1 322
1542 528
3411 58
4357 267
810 319
2094 525
3999 329
1262 288
3430 334
4210 204
253 553
1630 246
3778 192
3662 23
3176 293
4347 146
3057 392
698 420
3721 106
3436 330
1763 498
3738 535
1440 5
3181 190
3347 142
346 420
1302 103
288 364
2895 374
490 300
4284 297
267 8
2904 333
3683 317
2823 69
1107 65
2641 30
1655 495
1148 225
2127 400
2830 186
2933 78
3410 48
327 223
3220 80
4411 535
119 306
374 382
823 517
3618 438
943 149
4190 368
1943 404
2781 213
2663 511
1884 273
3264 556
1270 181
4132 124
3444 531
1865 100
743 521
4125 61
3024 143
3967 301
2946 389
4197 222
2334 124
3951 232
861 245
1406 447
2304 112
4181 106
1647 156
2228 561
3686 400
3528 256
392 209
2284 505
3486 139
1970 133
4378 366
1207 203
271 58
4251 214
3857 557
2372 130
3601 359
3283 463
2199 429
2130 465
546 449
2380 200
598 26
2073 267
4409 325
3993 10
1511 388
3650 269
16 380
1185 168
2813 305
382 364
3453 32
683 90
2704 74
4145 357
4371 0
94 417
3643 327
949 551
2266 25
3030 263
2242 188
118 402
1445 123
2603 49
2976 317
2089 22
3304 547
4373 358
2718 508
491 40
3958 467
1374 213
9 68
3283 40
2972 336
3108 392
3859 159
1170 171
3133 513
3383 220
2203 438
2697 207
3255 11
1024 401
1029 346
4209 257
1630 80
839 9
4020 133
3887 280
2696 83
3597 221
2025 120
2642 399
1051 513
3039 347
2582 165
2136 109
1477 186
3739 134
2118 532
2920 512
1161 447
369 317
2893 119
1586 74
1843 257
1774 384
4215 133
472 116
2161 44
3415 50
2168 321
3638 388
1556 323
4014 57
4154 210
1846 246
127 6
3929 233
4210 513
4148 259
3195 427
4284 8
1841 139
1489 452
4042 26
4411 429
3071 465
37 144
3370 2
2628 512
278 399
2137 252
556 79
1271 335
767 273
2431 545
3848 292
2709 348
4178 549
2423 93
2136 320
4152 111
2831 202
3386 501
2398 495
3348 193
4137 319
909 444
1153 355
2042 32
742 205
4432 422
54 166
1018 329
3777 393
3701 166
4492 121
1992 69
3072 374
421 504
1797 159
4072 133
3911 99
434 319
2952 355
830 527
3039 329
4434 245
4280 536
4006 424
3639 468
3621 385
3116 492
2526 66
4125 342
225 379
1037 307
4250 219
3734 401
1906 383
1524 182
1193 443
311 117
471 206
707 31
2636 539
3508 259
3855 32
1499 450
3856 409
3042 245
4433 145
3011 451
3635 38
3232 70
3120 332
2557 518
3896 382
3362 81
1030 342
3749 556
3686 72
624 76
484 137
3639 462
2352 18
3429 106
2354 278
4082 401
3183 540
1342 313
2609 362
2651 547
355 212
3875 147
2453 97
2956 81
4428 80
275 149
1545 543
1349 393
1975 514
2764 241
4365 438
2397 504
1475 397
3687 77
2852 324
447 359
2993 283
3709 114
3246 498
2916 549
2063 498
895 312
635 320
3387 470
4352 411
3950 507
2360 551
3023 248
2559 2
3397 3
1389 364
3415 394
3805 67
289 309
4101 116
3010 435
1622 19
2293 105
1438 291
4296 95
2656 505
3631 156
2284 554
3989 485
857 46
3079 382
1578 77
2180 409
2151 105
2662 397
1992 41
160 460
2605 512
1010 218
3902 10
3276 274
4174 41
522 445
1876 436
2346 181
3447 215
2067 442
2042 374
1892 311
4161 315
1999 214
4403 358
1342 196
1140 505
1968 89
2564 550
4290 143
1249 540
2010 212
2304 314
60 544
2749 331
150 218
3803 124
2426 198
4152 23
2266 1
2070 35
2168 42
3381 395
3322 520
2529 331
142 134
1757 155
3284 54
3864 350
968 559
3902 13
3121 248
942 26
1097 316
1038 229
2129 343
