6500 5500
2293 651
862 427
5123 148
1847 385
4046 410
3278 256
3667 303
1005 375
5369 596
2547 553
4940 152
1469 257
2100 307
129 91
193 171
3825 468
1540 645
1293 322
2258 348
2791 459
4020 128
4313 84
1668 337
243 604
1546 389
3657 390
2065 675
1550 625
3090 57
5250 337
4181 74
43 524
5210 105
2585 402
3174 101
401 253
1690 456
2595 161
1789 476
5172 582
5011 27
484 63
3617 386
386 77
3087 112
2423 351
2178 555
4208 384
4665 354
3236 54
4985 103
1284 28
4496 617
4557 662
4574 206
775 614
4893 362
2052 677
573 264
2771 307
1082 100
3590 526
1446 123
904 666
1766 74
4036 475
3448 324
2446 165
1522 246
762 466
294 657
3646 409
2219 78
2754 673
204 58
2856 611
4382 656
5420 608
2058 159
5408 197
532 8
4595 358
4827 9
1535 99
5122 321
3781 470
2092 83
3315 546
1133 421
2155 134
2876 101
3124 263
3825 221
3423 524
4576 490
3782 412
5476 142
3743 86
457 476
1162 156
3144 271
1139 326
4639 592
4826 318
4021 633
1433 151
720 286
3746 324
3161 684
3534 225
2455 226
5470 248
1149 254
1061 205
4169 287
5152 647
2213 29
3268 587
238 662
402 433
2547 406
1934 400
452 630
3437 672
5357 254
882 252
3160 282
3633 476
1535 112
3073 517
2304 15
3054 639
4525 136
2329 22
1594 166
1867 570
5235 212
3812 170
2747 35
2220 487
280 621
4253 152
936 36
4188 342
553 298
4140 175
108 564
1258 107
2905 589
563 414
4436 176
3454 92
612 532
1914 521
2193 45
302 61
750 341
449 501
5018 366
5014 230
4430 524
4737 667
3962 24
4381 490
1715 198
2258 599
5163 322
5478 661
545 250
4866 671
920 286
4905 330
2616 74
3616 515
4820 522
4733 543
819 157
5482 504
908 7
3776 90
1207 504
1833 247
5413 498
2452 227
1470 389
773 126
3559 578
325 483
84 382
115 16
5068 389
4008 641
4028 93
1490 397
3018 559
4236 147
807 512
1095 356
1973 192
2158 221
3014 466
498 581
759 82
568 250
4207 586
510 371
1680 3
4593 611
2514 233
2343 660
5361 381
4158 339
2049 129
4794 21
2448 686
4155 567
2772 125
2973 468
5232 267
2639 685
1652 539
3097 112
3868 33
3458 106
2008 224
4481 243
1250 108
3041 247
861 627
52 344
3503 285
1585 312
2025 388
5344 58
922 33
1091 21
2250 674
2398 183
3340 166
5121 442
392 500
3014 567
3049 161
144 590
4772 489
829 666
2918 138
2652 427
2143 346
3592 140
3321 550
1072 506
4899 300
5486 337
4699 353
702 313
2179 137
4378 293
995 11
1810 629
4267 474
4588 455
5094 604
1233 81
1285 253
931 520
252 661
3562 596
4618 368
801 112
2186 144
2023 610
2062 84
3638 666
1406 433
916 230
4914 211
4386 569
3928 166
217 187
4706 647
1536 346
4144 406
4674 665
2714 592
2192 291
2581 29
550 73
5471 482
1446 495
2018 258
2695 351
1284 431
4257 237
823 349
419 606
4377 239
1192 30
1960 448
3267 420
4487 133
1101 222
1491 21
3465 483
1470 472
3077 525
503 662
324 571
4787 328
4310 676
4077 34
4839 426
3614 295
1923 189
582 380
5086 12
585 591
489 107
4796 1
4645 44
1545 196
2387 282
2500 261
3864 23
4482 653
3816 254
450 507
4025 522
426 44
4865 58
1914 300
2201 460
1281 362
308 160
1879 9
2485 225
2419 532
5378 515
3024 471
3199 69
4286 313
36 562
1526 427
2007 52
4287 27
1941 198
131 403
4832 495
4266 440
5353 435
5162 223
5391 182
1715 136
3787 510
5217 136
5048 130
1238 373
3113 368
1133 120
3202 558
1385 622
6 442
1731 470
4974 552
4629 686
3400 495
3177 595
2000 92
2879 465
5320 533
801 354
3378 135
2379 308
686 488
464 144
2059 549
376 60
931 332
467 643
340 578
2701 100
2025 318
3843 431
3103 559
1781 278
5186 409
5313 621
4878 398
4856 375
2844 137
2735 230
1478 334
3259 45
4231 526
1376 403
507 443
1497 53
2031 625
5276 566
1283 98
1655 655
359 645
3841 604
4068 481
4486 86
924 384
4646 630
5305 257
5499 366
1022 514
1822 0
3047 607
1752 426
1940 651
5037 538
2754 345
1586 507
5056 443
4205 586
1989 140
3084 325
794 201
2288 48
4199 567
3632 159
1448 661
3804 102
4855 402
2248 660
2071 417
4437 257
2059 286
717 297
2965 66
4777 453
4261 283
917 20
1916 447
405 474
3448 133
1062 308
3924 424
1367 182
1814 609
506 190
1461 533
408 208
835 415
515 588
1409 355
1768 377
3300 129
4745 150
4153 270
5169 467
4677 441
3518 88
3313 76
771 622
2646 133
708 36
2203 205
4130 344
2706 109
3688 253
4274 247
1108 496
5183 328
4335 269
552 66
5010 175
2427 496
875 357
53 483
2675 217
1310 74
4019 86
498 383
3106 341
2385 499
5405 666
2813 610
4401 496
1358 250
4210 254
1863 673
5193 326
4717 87
516 514
2681 459
3331 453
1416 417
2737 123
4865 518
2620 558
3961 539
1677 466
2536 317
4732 158
2400 666
833 243
304 634
1362 559
5061 12
252 482
151 532
4315 142
2852 489
1096 212
5237 393
4928 461
176 188
711 48
2833 524
4253 192
4003 403
2947 220
3866 229
1654 595
3214 642
4681 149
5079 266
1137 624
2422 230
3113 438
1871 154
4731 620
425 573
3005 519
1487 503
1884 545
4935 482
2192 165
2655 345
3387 92
3253 176
5188 159
315 598
3421 197
1448 368
399 84
5396 119
916 679
5409 144
549 676
2231 280
5477 595
1841 107
1984 286
1075 430
3676 303
3644 300
3818 576
5448 639
4376 40
1925 564
3597 518
5078 549
669 3
1030 403
4489 208
411 194
3680 20
1294 548
4433 641
5490 122
4760 392
1003 645
3594 645
4271 394
4078 510
1506 25
596 382
5218 282
1140 348
3443 596
1000 181
2358 631
1098 370
668 542
4150 271
2055 385
4362 47
3679 197
4291 314
433 239
2025 8
3554 593
4184 646
4951 24
3614 505
3352 484
168 147
3742 444
571 264
3030 350
4942 12
4165 325
1074 70
3650 39
2159 144
733 598
4954 498
4213 562
4801 28
4961 86
3206 127
4876 390
5271 407
5163 317
2339 334
2211 343
4711 466
5145 404
4241 180
4486 110
4415 9
1660 193
125 340
2479 640
2441 478
2405 460
3505 301
4520 555
2460 193
2048 73
2894 450
382 8
1349 420
4867 449
2268 380
2641 222
609 218
4121 510
2798 49
3533 497
1674 292
1774 679
2736 109
2838 636
4111 659
4365 266
1400 130
4654 541
5251 288
450 359
1168 13
454 215
1269 33
2338 10
4838 121
996 76
5019 377
1532 593
2189 80
1599 137
4086 343
4793 319
1323 395
2635 86
4382 495
4686 499
803 415
245 71
2055 573
2451 43
3897 85
4660 508
824 639
4387 607
2179 23
1416 67
80 432
3594 118
4370 302
3211 301
4508 87
3552 498
3029 320
3177 584
1430 613
3834 667
2565 538
1875 528
962 226
5046 200
2750 298
1268 276
4937 591
3410 435
2875 569
1950 355
3604 357
1733 154
2760 156
528 300
1380 488
3967 305
2090 311
1308 361
5048 157
25 118
3976 295
5280 165
2718 671
4560 374
4574 572
2302 239
19 205
1595 327
3309 505
3420 158
807 550
3996 59
5437 136
3562 460
2972 116
2287 483
5423 507
1066 524
5351 509
1309 462
558 268
4859 308
4406 570
3860 6
5333 298
1995 612
2773 181
4812 164
2558 604
5026 633
5441 347
1025 19
2747 367
4817 678
5377 600
3616 336
921 627
902 113
2807 531
3563 172
4246 311
1196 356
3062 91
1529 122
3663 658
45 466
3220 463
2320 358
4843 136
5418 494
3108 171
4207 206
5147 632
5253 359
1418 122
5208 546
5425 26
2154 291
452 448
3196 585
1740 333
5456 298
4218 278
3747 236
4918 225
2713 623
2413 91
3141 6
187 295
226 105
3154 383
2695 344
2030 580
1594 170
5044 647
3657 405
980 165
4614 266
4606 519
4271 548
2794 685
3795 5
602 320
3751 32
4113 467
1492 392
3717 335
396 18
4638 562
5099 37
1930 418
1780 87
2525 250
4628 321
1832 516
258 468
577 62
1906 163
3901 260
2790 385
2158 136
4692 433
4101 353
5105 183
3744 486
4984 333
4718 153
5096 464
1213 514
1692 516
3508 231
3948 681
5007 167
5294 670
2975 577
3481 102
2775 444
2964 171
3731 616
2565 31
4711 466
4354 440
2432 654
1734 131
4221 240
208 158
2538 493
2532 633
2362 208
4521 555
2967 54
1749 108
2490 339
3272 93
255 311
2884 11
5480 398
4210 206
2295 363
148 455
3643 55
1801 161
1026 641
1418 464
5361 522
2154 364
613 240
314 508
4464 633
1550 227
1892 458
4400 17
4771 438
49 667
3238 302
3052 537
4440 616
1945 209
3175 292
3049 660
214 549
1274 29
3744 585
5463 605
1690 297
2649 122
2100 504
47 96
486 497
5463 23
3550 403
5045 132
115 159
2587 549
3450 590
1731 641
4783 207
2042 31
3303 119
2164 380
1074 156
4253 124
3174 343
3435 161
1744 380
4698 669
2148 407
1824 327
5453 66
3595 201
5109 68
1049 530
4234 679
195 339
3640 471
1556 534
3860 354
2594 334
1243 260
2668 409
4922 188
3482 492
4413 672
650 418
3630 261
2329 320
1514 285
4492 555
2426 154
4761 386
5230 431
4714 411
3743 368
371 307
1142 95
5408 100
5339 479
1213 134
2559 398
4833 474
1775 467
3134 455
4584 235
5485 99
2032 126
5486 223
4508 553
4002 576
3324 317
3149 240
3968 413
2548 62
344 495
3045 572
3621 124
103 425
5148 471
3765 292
2798 421
3778 322
4907 414
5264 448
3584 122
2396 245
3504 87
5043 393
2180 545
4383 344
2192 286
3395 268
4339 335
1060 156
3334 64
4377 461
1504 568
4104 332
5116 667
4889 613
4881 474
2858 256
2310 671
2694 537
2409 296
2337 235
3458 265
681 406
3073 504
2551 681
2961 193
3030 450
5365 617
2369 543
3350 500
3678 532
4866 3
3723 531
3752 429
216 517
1726 143
4319 153
1435 51
5250 97
4691 588
5226 633
4439 230
2566 397
22 412
2995 44
3366 501
4634 481
1949 277
1071 474
4918 349
952 220
248 297
3377 353
39 173
152 455
3773 67
864 239
1859 107
3874 659
3134 175
1725 406
2598 366
3745 412
3548 445
1330 166
3173 520
2604 103
4206 577
4319 665
3010 405
3953 161
190 283
497 3
2855 666
468 422
5382 484
3385 625
3028 565
1258 197
4126 666
5247 333
2251 287
977 542
1503 24
3634 514
3118 7
1846 630
4588 287
543 604
1449 648
1729 264
600 441
4333 601
4090 394
2229 123
2041 166
2082 30
85 514
4241 287
3136 315
3515 617
4128 17
2777 345
5077 459
515 304
2975 683
2352 435
2623 473
4589 143
27 110
2404 313
271 611
1786 116
4791 603
4813 57
1001 145
4769 259
4963 263
1962 470
2997 56
5149 594
4117 617
2164 337
1624 323
2801 322
817 410
1248 401
662 481
656 107
2684 69
343 4
5265 71
2597 89
1044 330
4652 541
2596 515
2726 581
3556 314
952 17
4424 233
2319 66
2741 172
4663 342
1920 212
3557 637
5199 225
3211 151
2938 455
5301 607
3997 95
4448 121
155 162
2101 258
186 76
5401 196
4515 291
5127 397
5291 431
5291 61
3512 535
1574 589
5344 35
2688 645
233 268
3198 219
4506 403
5326 589
1350 228
2107 93
2529 147
30 165
2661 217
2799 396
4937 556
904 639
4946 143
3997 276
1955 619
4650 149
4810 428
2408 495
3569 611
2587 83
4352 115
1213 122
3606 120
707 432
616 188
2694 332
2676 220
2600 605
1636 540
114 619
4697 211
4480 657
3025 389
944 411
1806 625
1464 654
2677 101
4025 624
2175 386
3879 170
4822 279
1421 635
4187 581
3496 235
824 12
4864 372
2875 368
4596 194
2624 233
470 599
3831 301
3027 64
4590 281
5277 515
4699 162
1666 641
1990 517
4628 486
5499 599
772 420
2375 152
3227 45
2207 175
1068 614
920 68
319 408
1 644
2647 393
3217 184
3386 3
3297 639
875 27
1934 515
1302 148
4483 99
2087 412
1965 187
1875 490
2867 91
288 556
4162 574
2992 98
668 447
4228 369
3664 320
4955 594
2042 656
3810 370
2998 125
2082 377
2127 142
264 429
3258 212
1229 127
2966 367
3649 566
672 58
4189 47
2694 205
1162 471
1476 74
4891 314
4873 247
2867 101
825 455
3763 19
2634 31
3646 103
2955 309
3396 571
2258 278
1563 272
3815 256
5149 629
2578 74
1551 59
3594 146
3764 199
852 519
2132 568
1657 420
5134 87
414 196
2960 403
5071 190
3211 218
820 282
728 255
631 75
2638 268
553 383
1037 435
5321 528
2190 88
4460 664
1440 401
2567 387
1601 223
3635 600
5474 76
2105 385
2065 221
2849 309
5094 114
4328 621
4746 33
4650 386
85 664
4785 81
195 147
5449 478
4426 359
76 470
646 164
4323 28
5158 368
3081 559
3495 481
1339 559
3761 391
2436 56
4608 298
1859 222
1839 195
4448 72
4172 396
1670 597
3831 465
2377 644
4743 489
1697 662
1127 664
5087 610
5390 525
4203 233
3136 307
4667 437
5205 452
4536 162
1640 215
4390 195
1966 476
4725 357
915 684
2203 595
2294 395
3445 85
1459 334
3837 245
370 256
4142 531
2420 406
2170 162
4894 513
968 77
356 192
118 226
3180 571
82 498
3947 214
211 535
187 210
1409 384
3841 605
1507 472
1280 158
1737 119
5202 451
144 606
298 278
2946 52
3327 318
640 39
2086 149
3824 69
4566 578
1948 448
4468 320
5142 340
4690 62
5462 548
3367 226
3530 349
4283 555
423 231
2033 270
3573 510
3422 10
678 246
4452 449
1016 33
2214 470
887 287
1933 85
4864 638
2081 480
1050 308
332 54
3990 390
2250 581
4049 334
3148 183
1764 569
1604 31
2555 308
2053 213
4273 654
4681 105
75 245
2996 172
3817 376
1887 359
4801 526
2269 621
5123 377
1181 326
553 515
160 199
2166 571
5227 221
979 218
127 89
3331 20
4889 250
3457 241
2197 102
4778 235
732 46
366 266
4233 100
187 327
3485 69
3546 273
339 45
4082 426
3884 140
2935 109
3468 428
998 1
3800 514
1883 649
4133 601
75 554
329 676
2538 677
1930 272
1788 578
2153 662
600 605
68 484
4870 374
3978 419
1484 18
4003 308
5136 505
950 104
4310 568
3038 560
4338 653
501 365
1663 453
5299 536
2524 407
5194 309
195 496
625 72
286 14
1336 349
4618 229
1600 174
5111 58
5039 120
3052 440
3649 226
2099 5
2105 544
1550 100
3823 420
4412 217
2551 489
588 657
3240 72
2223 157
4077 173
1163 658
3151 375
5393 675
667 248
1195 198
4057 458
4834 569
3632 335
1033 154
4521 216
4507 12
5105 295
5193 402
71 478
1790 660
5286 379
3822 265
4721 549
4679 330
1323 434
1330 540
1877 106
4196 607
1143 227
4837 572
3949 158
2672 104
372 272
1063 297
3401 266
4320 422
329 186
985 603
133 265
3101 9
2705 640
1758 192
2102 367
17 106
3858 313
4399 4
5261 460
3838 391
1408 144
4259 3
3652 216
925 20
3166 464
4622 220
958 210
5408 319
5141 628
1961 668
2982 658
4750 559
4059 376
1744 18
5072 174
5269 450
4518 50
3392 159
3473 247
4283 282
5371 365
1159 22
2172 194
4407 108
804 214
3218 502
1273 119
1558 58
4786 127
1531 251
204 148
152 219
3406 86
756 472
4571 547
2201 536
4708 295
999 101
4218 617
4066 36
4878 617
2013 243
1702 312
3748 588
4986 53
2159 112
3674 89
1204 675
785 328
3469 629
1386 407
345 109
3263 401
4561 576
3747 662
1580 126
3767 361
475 481
549 662
466 448
1736 348
2850 641
3129 350
3114 266
5225 313
4239 530
5372 521
383 320
2373 431
284 479
2166 445
3677 174
3817 160
168 82
4606 220
941 348
607 182
1337 144
3561 65
4240 626
75 646
448 321
5168 440
643 221
3811 642
4215 106
3702 394
3395 519
5448 118
2030 257
2477 453
328 504
1284 88
3311 686
2639 526
558 9
2025 587
2168 654
5162 276
238 461
2127 202
1742 567
4955 244
1442 591
3602 332
806 426
569 226
5061 25
4583 439
4712 545
2644 630
2722 635
4129 29
5493 80
266 195
5316 572
299 492
1008 595
4275 35
4250 162
1240 188
4244 110
4409 513
1786 34
1374 429
1756 225
1608 630
1451 137
2725 8
314 277
6 402
5238 526
5289 551
2662 11
5455 572
1307 332
1464 338
4572 630
1339 169
3913 40
5 112
2117 639
5390 532
5182 56
4991 658
4454 438
2052 275
3771 296
2992 209
1332 258
4029 649
3100 42
2545 634
4125 28
5201 541
1619 16
4 412
3807 14
3528 464
3545 36
1319 193
782 293
604 573
3838 437
3295 512
3312 352
1011 450
1570 168
1366 62
3157 505
3163 381
2634 170
1592 423
49 551
5208 125
870 523
694 282
1349 35
4405 169
1274 675
4275 49
404 528
3377 127
4063 139
4168 255
4848 608
2802 362
1052 148
3829 342
2803 530
2284 83
4870 497
4370 661
1258 157
5397 182
1500 515
4621 407
1065 474
4961 231
141 686
4716 666
3687 240
5349 568
5276 224
993 576
1802 543
1541 261
4753 375
5020 577
2098 649
3342 239
604 101
1465 167
3103 421
3735 299
4154 503
2441 652
1326 559
2984 281
31 441
87 243
3427 2
1604 556
1569 284
4734 398
2634 391
5381 203
1019 648
1415 203
5412 336
4481 222
5081 273
14 132
4351 289
398 580
3237 476
3960 680
533 665
2891 16
5061 43
5125 52
4663 418
3088 65
999 156
2491 19
2060 311
3566 434
5364 601
624 368
1927 623
1250 98
5380 312
597 48
2360 359
2490 163
2654 199
5459 118
545 329
815 573
4769 582
4133 135
5171 281
4658 98
3192 675
914 149
1549 216
4049 359
3425 343
2912 219
3752 431
2860 60
1602 121
2373 307
3431 396
3459 181
789 493
3930 375
420 17
1526 671
870 611
2460 273
5234 398
2174 594
1470 170
5091 27
158 635
2759 666
3541 672
3562 226
4181 593
4930 40
4197 396
2926 228
1531 195
1133 323
199 282
139 466
3477 462
359 560
3880 373
1967 100
4775 558
2848 145
1956 676
3562 79
4763 446
4656 268
4091 647
2878 14
5110 86
3295 54
2940 152
2009 587
4032 296
3396 238
1433 514
1811 247
2262 202
43 393
404 594
1245 471
1035 14
2542 552
2468 162
4961 247
5074 214
4457 291
4189 498
3882 457
1108 368
3203 21
1491 351
1829 132
3944 216
1012 114
2560 374
3904 110
2087 667
2750 684
4074 312
2894 679
1808 76
3067 456
47 171
929 373
3884 646
596 231
5231 577
4425 405
5143 516
1344 94
2264 548
2735 338
2140 44
947 491
3744 190
3234 510
3406 651
801 200
1049 628
5123 488
2889 135
4074 127
4916 623
2009 427
4014 528
4199 483
2030 18
3262 209
1735 171
1144 329
1245 272
2038 426
4982 319
533 389
5352 179
4676 206
3667 272
3034 466
3127 217
4623 539
1566 16
1848 100
1960 116
492 497
1395 111
2160 238
742 389
5158 541
490 399
2790 469
3782 213
4701 634
4523 388
1636 299
3941 200
153 510
2463 556
4436 405
3032 142
1094 493
3393 476
1193 206
223 19
3462 171
1338 575
2038 617
1422 642
514 534
4208 490
1252 568
722 350
1427 244
5338 677
3860 95
4836 640
2346 468
1155 127
3315 677
910 599
1192 63
1345 370
1319 11
3330 292
3307 259
2783 633
3416 429
1239 125
1886 210
1097 185
2502 402
4657 657
841 226
2711 383
4049 468
2039 629
4466 380
2866 401
1247 245
3399 554
1981 67
5237 324
116 73
1942 679
1005 166
2301 186
3512 179
1347 551
3153 404
1934 643
701 169
3148 159
1097 596
128 488
2173 97
5392 169
5366 685
2637 267
5195 510
4670 433
4114 254
5246 112
4766 62
5263 182
942 174
5060 520
3979 519
2307 596
3757 482
3974 617
4046 131
1127 410
5238 602
911 143
615 154
4694 207
1857 533
290 89
2766 107
241 453
2342 534
156 171
718 647
3800 574
199 261
4854 66
2930 592
3416 567
1539 152
2270 175
5120 11
417 628
4451 477
1648 1
1894 217
1152 580
2533 104
1467 481
142 517
4413 364
2979 650
1741 290
4583 27
2361 482
2832 308
4454 392
494 584
3745 426
4168 383
4369 586
621 30
685 185
3350 123
3084 69
3304 356
2688 410
1149 358
3333 347
3898 37
1084 457
3723 580
5390 213
18 652
1304 178
608 257
3634 112
3445 586
2897 391
1101 583
2437 372
3672 360
4748 237
1895 193
2883 505
4549 87
1651 80
1232 380
5363 533
4475 427
1508 507
2621 508
2050 42
4773 371
5188 675
301 297
5445 229
1038 478
671 367
5315 26
1262 2
4991 676
1801 512
5354 258
1935 384
900 430
3959 127
4470 628
4834 674
4132 496
3125 232
3332 610
344 65
1158 379
588 230
3543 50
4801 529
2674 185
1040 577
4831 20
896 679
43 146
423 502
432 156
2323 281
1148 628
3774 620
1345 601
1187 327
2623 546
2309 80
1148 337
5019 289
2837 268
2353 309
4818 614
1572 200
2333 275
188 146
574 547
2662 408
2712 397
3137 633
5022 382
1530 568
1149 230
4740 180
3904 529
3833 347
2354 60
620 525
4637 560
2050 396
977 33
1064 372
4634 492
2272 685
3507 85
1898 427
2929 490
5253 546
1254 169
2011 148
3386 683
5223 628
1919 460
4320 21
1026 133
3751 274
2846 587
1506 343
3613 181
3270 420
5408 551
4997 66
4557 51
2779 379
2474 455
2022 612
4699 356
4851 500
2552 283
5141 505
1820 275
3968 646
1666 246
4379 247
1472 634
5202 683
3617 130
4325 439
334 363
5409 425
2636 5
1439 398
5345 381
2272 391
4175 245
2038 430
2431 44
958 574
1046 97
321 208
5273 465
2963 97
217 251
195 38
5461 12
5076 555
456 475
1611 284
2956 321
4036 119
3244 67
5370 436
4160 412
778 612
886 31
5321 94
4039 532
3441 579
659 494
4543 51
4249 547
5298 288
3260 384
688 147
589 195
1202 275
4200 346
2100 372
4721 499
990 524
4056 253
648 487
1419 618
5479 531
2536 521
1824 497
3685 370
3923 411
3468 29
2356 134
2067 84
95 107
993 40
3185 155
4409 416
118 327
4972 343
4694 543
2793 245
4929 216
1327 394
296 298
3025 520
3471 557
377 145
1315 239
1602 177
5362 490
2564 237
4169 161
3947 118
3215 219
2723 539
12 541
982 156
2107 10
3391 4
5005 298
4452 668
4506 6
1247 638
5444 144
1067 453
3842 222
824 399
814 143
1145 79
1073 91
741 591
2177 451
3743 243
1177 408
1779 629
2262 232
1308 411
982 423
2904 566
4630 406
4070 319
3239 95
5355 66
4516 579
3109 244
4335 444
2413 254
4622 681
3752 281
3306 26
690 32
340 256
1446 489
187 147
4430 133
4978 105
1104 481
1314 76
2192 493
2290 592
3788 332
4328 244
4833 537
888 255
1155 118
875 39
1158 61
3115 193
838 156
1225 336
652 159
3308 578
2745 654
1818 133
3046 421
4043 542
5136 58
3908 330
978 475
4438 553
1587 370
4934 229
5067 206
4765 568
2842 85
4296 75
2544 62
1835 5
3710 483
3481 641
3661 164
3155 284
13 295
1248 117
2302 338
5159 32
3667 647
1278 87
3789 22
1896 289
5464 646
3384 416
4188 288
1455 477
3772 649
649 493
416 433
3299 76
2638 269
2325 60
4306 4
2475 193
2943 259
2558 32
565 262
3765 591
1542 1
1557 299
62 348
1633 117
3955 639
922 328
3122 64
4484 660
1739 654
1987 397
3592 656
739 454
2457 667
855 246
1201 405
1752 478
4498 339
2109 172
5244 271
2812 87
263 370
3202 170
4852 41
3003 127
3224 292
3470 0
3856 264
351 463
3283 431
3856 637
4427 306
3747 158
209 537
3893 624
1858 188
1496 515
5213 394
473 650
3515 280
2617 228
4060 241
711 603
3032 335
3180 583
1309 445
2030 309
2445 152
4380 653
3411 612
1656 29
1660 91
2538 472
956 343
490 388
451 678
3450 23
1782 415
3275 545
8 418
1205 275
994 350
1088 374
3642 530
1031 450
2580 446
3168 432
4366 403
982 478
4089 228
857 356
3819 369
4561 426
3684 549
1471 538
187 647
3927 104
582 657
2677 396
1511 90
140 66
3154 659
2453 157
3540 475
3956 122
5324 621
5152 171
1 398
5274 380
1184 503
499 379
5219 212
3247 313
1421 662
1967 324
1512 288
5415 254
4426 523
2383 612
2054 672
3276 505
3680 422
3577 416
2470 38
3504 30
4342 659
110 645
3175 624
712 120
2533 24
5329 139
4557 590
1071 58
195 57
3608 426
1749 124
2923 528
3548 551
3040 183
452 281
1358 47
2007 351
4971 276
3108 571
1015 648
2231 509
1390 175
5130 631
3476 530
3995 119
3284 434
210 131
156 241
1579 541
550 45
3335 504
4299 568
5221 297
1085 684
4262 356
3975 589
4230 2
2553 340
4490 188
905 557
2375 163
2789 658
3070 371
5247 203
4902 583
4493 618
2972 437
5090 410
1065 648
3582 649
3808 272
205 416
3245 280
3079 475
1915 249
1427 415
974 448
4115 542
2862 324
3331 164
3731 382
2872 301
2405 45
2312 104
1016 591
5361 686
732 521
3171 338
694 465
328 295
1061 303
2037 475
4112 619
1259 342
365 421
2477 472
785 8
4992 372
3079 420
969 213
999 576
3449 594
3144 407
3542 624
4952 650
3631 344
4387 339
2066 138
3486 108
4074 571
1474 10
3534 378
731 651
787 200
5157 28
5032 370
3670 475
4635 498
1858 580
3897 214
4396 354
3760 77
192 413
1102 141
935 5
3365 10
3722 237
3565 336
3968 339
357 70
3882 120
4233 66
714 570
219 130
779 189
5132 18
3799 645
2718 600
1218 56
1204 618
4063 388
3897 213
1662 543
553 544
2526 661
1457 4
58 570
1392 40
1437 573
1132 370
2362 369
5490 245
1541 354
5411 347
4211 196
3189 517
2981 306
4905 393
1623 387
1874 449
910 27
4539 84
803 345
2511 98
1809 456
5268 433
2685 197
5301 441
2558 343
4808 651
478 118
2378 680
2167 64
3537 375
257 420
1034 486
4996 48
5294 184
2577 162
3791 357
555 20
4946 612
2772 519
2558 85
1622 647
1603 155
4332 241
3977 143
3164 111
3060 608
510 327
3175 671
1750 217
4009 299
277 622
2071 277
582 676
4246 500
1194 490
3541 497
4823 400
1315 30
5301 570
1846 472
2913 633
3716 422
4641 550
3577 355
5397 65
3542 604
4766 37
4289 302
5022 428
848 610
3364 254
1394 624
4825 317
3222 333
4578 36
3027 373
2427 424
3595 327
687 91
2220 33
3157 255
2919 378
5483 571
2581 514
4225 654
372 180
4426 256
5437 154
4161 79
4968 674
1537 126
2015 189
3323 223
856 648
4025 659
5469 457
2018 336
2039 106
812 373
1740 126
2188 388
4072 305
3732 534
4281 137
4181 628
2560 444
4691 169
2998 76
2339 496
4056 107
4626 94
5042 184
5337 300
995 77
3913 46
496 560
773 377
2746 285
3296 637
2466 392
4606 23
97 495
1589 521
1766 338
2095 462
1892 501
3060 497
3566 430
1310 237
4885 673
5367 514
2444 259
2906 409
2914 172
2819 381
866 35
3032 107
5346 23
117 636
5179 456
3766 351
3956 142
969 261
1643 199
1349 94
3423 241
688 646
1016 292
3991 617
401 290
1710 461
1555 247
4094 247
5206 573
3156 362
2363 520
829 317
4571 97
3620 86
4347 333
5424 165
4114 43
2901 469
1822 386
1690 381
1266 30
4183 504
4670 582
1696 15
1763 645
4111 616
289 311
2492 347
2358 386
2906 687
5323 105
4091 426
2961 235
3705 561
2383 241
4500 325
4050 113
1885 249
4005 379
2548 469
3724 602
4725 27
414 8
121 263
5281 38
2310 66
4526 374
919 133
1726 581
969 393
1432 372
3531 453
3876 199
2241 338
4042 354
4010 679
5201 360
1814 496
1271 545
5125 421
5135 608
4226 210
4985 439
4049 518
2026 464
3158 635
3350 291
4274 427
1270 187
1463 511
1013 374
405 539
2334 386
4815 449
1667 497
3510 341
1963 457
1187 126
1655 496
4659 293
1586 390
1400 169
4510 511
1317 290
4608 189
1337 218
1276 276
2166 83
2431 56
2645 46
5081 352
4641 187
1166 440
3393 649
2513 479
4589 167
3945 388
4940 547
1658 141
2094 627
543 91
5067 6
2257 506
4576 87
58 411
3793 410
1902 261
49 386
2557 380
341 163
4565 562
2845 256
4929 308
2165 467
3365 98
648 168
3085 625
1581 468
3660 685
3094 39
3928 0
1385 355
2982 100
1027 540
2503 76
4163 582
3350 97
1872 36
420 70
2597 355
2606 230
1866 109
557 472
2386 673
1989 633
111 405
262 668
2134 25
4894 656
3128 533
3534 513
4946 180
4933 517
1441 525
318 52
3280 537
1267 506
4051 613
3719 49
1799 34
1434 480
3269 650
3976 605
5100 603
407 410
3676 90
2979 401
500 292
4144 225
2530 658
1092 639
1006 611
2405 433
2031 86
5203 274
1347 71
2595 412
281 364
3586 59
2377 389
3764 10
561 558
601 617
4425 118
2563 454
3910 142
1107 193
4709 577
997 198
1524 395
1015 602
4103 172
1032 504
2453 119
3413 298
566 21
2496 147
5029 62
4080 498
2476 356
2462 321
4450 624
3085 279
3327 173
2226 229
365 135
4122 178
4756 491
1399 61
199 122
3560 25
3217 132
5332 431
436 413
3105 435
2734 420
4768 54
4046 513
3560 350
1171 31
1601 169
2367 288
1257 508
1207 84
1690 25
5025 350
4072 286
3481 306
3445 469
4977 39
2189 287
4904 154
2937 162
2092 355
2317 374
1841 13
3427 680
3546 586
3408 595
3967 642
4227 356
5073 626
3664 213
2873 349
5287 69
3985 542
1951 632
1694 648
3031 365
1369 286
1708 86
2970 308
890 413
4647 212
3389 678
5445 374
3530 55
4652 72
3339 318
3574 301
4625 448
5067 228
4909 342
2269 514
2708 412
1157 291
3919 90
644 487
2003 67
1494 269
770 89
2564 510
3514 96
3004 200
3181 353
1555 399
3676 381
2681 317
4828 208
2855 161
3636 248
5054 539
211 430
3569 1
302 590
280 257
3677 311
4149 649
3524 282
3030 563
4829 172
3787 346
5422 175
849 447
482 282
3395 547
1752 335
5490 89
4982 146
958 73
1798 519
5185 470
2972 309
3255 491
5437 291
4956 267
1982 410
3721 177
1326 497
880 42
399 648
3129 94
434 564
322 248
938 321
1045 440
413 5
739 514
2640 139
956 476
5058 246
972 551
1041 278
2444 238
5139 432
1171 205
4690 460
3028 445
5413 280
3595 184
4355 44
4402 566
3182 168
373 228
4224 35
4604 85
4851 58
5013 374
573 291
4853 54
38 408
3577 214
3690 568
1157 555
1876 254
4751 525
4291 464
1527 295
3025 667
5261 189
3423 439
3216 156
3472 564
384 7
5281 514
337 625
2488 171
511 230
3213 165
1940 393
1593 136
5181 479
1185 141
942 623
1086 473
2302 471
3641 10
3921 339
5132 668
333 227
1916 255
5399 273
4450 412
4805 416
5441 70
541 33
60 580
4203 638
526 248
2683 615
5009 92
4460 93
4119 76
2812 213
5050 634
388 514
5222 85
103 200
2006 680
3558 207
4786 53
1086 638
2980 217
2034 535
4430 585
2084 263
4943 81
5296 502
4635 242
831 29
4735 223
3201 482
5298 172
2946 413
2099 686
4817 601
1015 6
3587 251
4472 141
2593 303
1305 541
340 355
3400 528
2865 610
1546 324
820 506
2838 609
2922 460
1840 215
416 84
2311 174
3718 585
3976 572
2608 628
2583 280
1072 519
3850 152
5460 648
1861 368
3175 343
2766 15
2719 348
5254 454
2179 153
5201 214
719 650
2722 449
459 423
2593 535
1000 528
5096 667
320 334
4805 293
3599 431
2075 151
2205 180
49 110
3174 656
4718 432
523 617
882 341
3349 48
3250 651
941 544
349 491
3543 426
4655 213
3139 577
4946 131
2800 26
2041 74
4893 597
3232 359
2681 163
3139 664
2642 621
3614 326
63 450
5210 357
2409 401
167 564
3123 667
2655 533
1730 375
4793 425
4016 521
3064 93
4476 573
425 682
5021 10
3389 664
1457 614
4507 123
720 239
4822 650
544 249
1410 324
190 102
1798 395
415 526
4012 22
2076 326
3030 480
1744 609
2888 490
4319 30
4273 227
2458 636
3877 167
4276 309
4866 491
3407 509
623 566
2749 468
2199 526
4058 244
4117 234
2187 155
3676 607
5039 70
1462 204
4678 538
1944 71
2672 266
2018 487
581 190
1653 316
3410 560
5280 108
14 274
1527 409
1258 407
2048 2
962 63
4973 511
4476 93
5128 559
89 77
2440 98
4009 462
366 378
266 178
3414 500
2201 611
2197 125
3595 153
1617 273
3813 212
3308 426
40 140
2396 350
3667 686
2491 636
4326 112
5471 473
3526 52
3559 188
4242 222
1140 447
1358 339
4320 101
1384 186
2294 69
4815 438
2869 60
4111 19
425 629
31 648
1597 649
18 140
656 265
3810 270
3565 498
1337 415
1804 414
4409 376
2925 500
3682 57
2565 554
2986 593
4972 363
2706 601
3254 201
3365 308
4369 686
5014 545
566 260
5306 39
4327 267
3692 337
4653 104
2412 28
2214 71
3257 136
4390 598
1481 439
2616 620
1522 674
3681 492
725 569
2563 208
1815 654
2840 286
3820 182
5106 305
2174 405
3285 27
1878 601
25 492
3249 203
1981 598
4200 663
1281 686
3233 647
889 164
5129 10
1819 333
1429 444
4185 611
5163 58
1339 120
5458 587
132 537
4058 506
1800 322
3049 86
1215 37
4592 432
3945 182
5322 454
4329 212
2889 12
1810 319
100 443
5117 633
4296 126
4945 483
4703 283
780 164
4162 326
3754 289
905 437
470 518
4404 4
4089 529
3936 311
1726 684
2042 413
1910 430
691 9
4472 271
5354 196
614 29
568 506
2097 431
350 311
4702 506
3830 577
2927 249
1422 520
4004 12
1465 529
4760 184
1699 173
3952 352
206 431
1654 90
3480 354
1963 36
2088 523
4515 495
4845 296
3045 672
1319 653
4578 581
4358 350
1657 378
3246 93
2566 133
3751 221
2869 231
1275 399
1318 417
362 187
4354 139
993 546
5448 458
141 394
4495 428
4314 229
4911 640
2175 591
3403 638
1217 427
1190 152
5402 552
369 155
3182 589
5164 144
236 247
4160 212
3467 13
2477 348
2829 299
3991 545
3482 88
3615 233
4097 136
5237 179
366 214
1266 298
2261 383
1975 374
3963 380
5116 66
23 128
569 232
3216 106
2831 339
1993 341
3312 136
1774 25
3185 548
4295 575
1080 588
1685 194
613 424
5299 162
3568 100
1446 73
3364 139
909 429
4513 373
3192 384
2836 450
538 23
3397 645
5377 229
4560 204
1039 7
4564 655
1453 369
5304 200
1414 536
5380 357
1973 409
5130 621
2245 254
3137 552
4225 526
152 13
3631 290
517 567
3241 444
351 288
4172 422
4308 597
4111 12
4086 106
72 7
860 579
671 2
4134 167
1679 294
4298 63
975 353
2710 28
370 324
648 94
3327 626
4967 378
3010 537
5002 153
3161 616
1901 345
3935 120
2044 104
5404 553
4997 90
3848 262
3343 177
2895 540
2071 372
5471 47
510 269
4127 159
2343 99
1082 524
4895 579
214 239
3355 634
4922 179
2717 358
1795 538
2377 655
820 663
4179 291
1067 599
673 431
3975 104
4285 230
5129 628
2443 493
852 226
1513 198
3565 235
5395 259
349 312
4321 190
46 494
858 527
2557 108
5010 111
2875 599
650 673
2848 295
5371 665
5214 40
2050 450
1435 14
2979 199
4808 45
851 303
1715 438
2282 518
4624 398
4291 318
2825 683
1485 526
4656 433
193 216
2368 488
3394 674
4323 138
2868 485
4461 94
3404 367
398 22
4821 544
2701 486
4774 139
188 602
800 460
5037 487
3594 373
894 246
5079 507
3171 183
1856 162
1597 519
2625 191
203 512
3820 125
1372 446
1814 117
1057 432
5362 446
720 331
5484 553
2594 229
143 434
908 235
1991 289
1935 43
5056 216
2072 615
1310 433
67 156
3058 294
1664 449
3862 470
4294 622
387 367
1747 59
5044 476
2765 103
4670 107
2853 541
2946 12
4118 602
510 549
2594 64
2423 292
5409 241
2281 404
662 282
4667 129
1113 582
1470 658
1983 105
4219 115
5190 497
84 636
3877 263
1846 564
29 526
3777 669
3853 546
261 687
3320 428
268 211
133 491
1021 513
1520 569
928 14
933 647
2725 572
2436 506
5202 77
683 41
1894 280
396 450
917 55
1950 23
3394 415
4561 32
4660 50
93 485
4003 513
4189 15
2629 526
1649 8
5458 328
4402 71
4418 199
1729 304
4949 131
4736 554
80 138
2318 364
3700 87
2544 353
4452 5
4865 153
2129 488
3665 288
2000 361
5238 289
1792 78
4496 190
4668 135
2982 307
219 56
1076 643
3287 513
3094 254
2038 511
3707 675
1991 21
2173 368
3170 110
3450 428
4465 120
4995 361
1859 685
5418 236
268 272
230 567
4032 71
1821 512
5174 239
2752 479
2383 396
862 11
1087 647
522 426
2993 345
3632 147
2732 530
1833 297
4271 18
1258 127
3235 258
2800 126
739 264
314 278
332 601
2963 372
1644 259
3233 687
1408 176
759 236
257 175
4516 230
1910 628
2675 252
1506 626
3261 276
273 198
5437 492
5303 257
3721 54
4404 232
5313 58
5218 178
4523 352
4672 382
1832 60
735 30
2629 492
685 663
948 440
1464 452
1095 164
2210 412
5435 397
1692 125
2494 159
5056 51
1363 206
842 350
996 297
3574 358
3447 675
1669 621
510 279
2120 314
1277 283
1646 625
1771 91
1378 22
3447 470
3417 95
4267 216
3945 596
5210 374
1181 124
2270 394
3104 90
1853 94
1787 123
340 615
4106 351
671 129
2934 26
267 61
3161 681
2618 477
2532 590
2642 110
601 604
1411 118
420 141
3659 440
580 396
4508 2
2051 40
3453 518
3660 89
5188 358
2520 258
2487 172
1214 631
499 106
742 536
4018 106
3271 72
2727 333
890 193
2515 113
252 181
4356 35
1303 209
3030 672
1374 453
1502 549
3581 459
2123 184
416 251
1026 508
782 618
2415 568
2670 245
4696 436
4259 200
3694 668
5452 437
926 461
3578 622
4170 261
1214 327
3444 306
529 97
2792 235
4917 273
1971 673
4723 284
3357 36
2455 470
1125 507
3859 408
46 678
2038 387
957 622
1476 372
3603 322
4529 106
4928 567
685 397
2153 219
2589 29
5023 167
1751 175
4436 677
4146 167
3391 608
3577 615
3267 671
3107 48
4115 665
4692 25
267 530
107 419
5111 153
188 254
4893 262
1538 300
2889 235
2427 473
2965 660
142 681
4723 503
4377 452
1305 290
1345 174
4012 448
2613 467
5466 112
12 598
2208 91
1879 559
375 54
2250 421
3166 63
468 59
300 141
2019 591
2935 193
3751 57
2859 191
1318 20
2813 589
5154 576
540 126
2878 650
2503 47
3754 460
1939 319
2292 67
2609 344
4359 269
3625 317
3245 335
2583 334
2227 301
1515 596
3897 148
3899 205
2113 488
3276 534
1915 186
352 228
1950 401
2741 307
4660 315
2828 604
2003 433
40 156
58 607
2961 189
5485 595
365 388
2548 261
4252 67
5230 96
3941 448
5457 133
1749 37
3886 567
589 499
383 9
2433 522
3587 437
1669 616
2656 88
984 142
4668 17
4543 307
5307 386
381 636
41 634
4378 556
2037 403
1623 48
2026 414
3315 360
4138 33
1294 495
5159 224
2979 149
2420 303
4657 248
263 276
77 258
2904 608
858 657
1776 43
3354 404
5480 129
2186 542
2304 110
3333 7
2826 422
3481 153
4466 139
5391 196
976 97
111 451
410 3
2682 102
3264 449
212 499
2782 21
2033 436
5315 254
3283 583
3756 112
5034 571
2102 268
630 157
4458 231
4230 373
3737 270
1224 346
2338 393
583 119
2750 340
169 166
2270 231
144 315
3040 579
1040 671
626 338
4206 675
1002 101
5303 115
2027 43
528 17
3709 40
5323 254
2076 658
4761 286
2418 513
2429 386
636 308
941 587
3304 601
1037 565
1626 477
4559 469
2251 289
2473 467
528 448
4805 435
4930 581
5423 184
2026 290
743 265
3932 315
864 353
1661 613
3184 398
192 252
271 15
3116 84
4704 152
2586 202
1393 327
2039 76
4792 294
3701 221
470 624
4226 565
806 603
3913 164
849 60
2757 423
2258 520
1409 280
2442 115
4535 594
3359 329
1069 650
5207 186
5243 543
4459 454
2189 210
4382 521
4900 527
2987 89
3673 498
3368 422
2621 183
4132 555
1022 252
4462 385
1067 279
573 108
592 253
1494 467
3238 462
3310 557
99 556
1917 478
5077 676
3273 269
2212 664
3237 72
3355 157
3170 500
1109 662
2024 494
4781 154
1633 349
5441 602
2160 304
2597 492
2687 230
5154 463
5161 52
2441 572
2122 416
5197 81
3823 214
1376 166
2608 74
4433 69
3929 164
857 208
2041 158
700 452
2622 425
742 308
5464 482
2345 491
2424 242
4892 104
249 333
423 578
3172 499
145 389
247 399
5333 257
1901 265
2644 95
142 574
2114 372
5070 302
4586 654
4645 66
5048 440
1653 594
3839 163
2214 490
853 236
2366 575
351 275
4260 240
4722 595
3415 224
3123 135
921 64
2348 116
69 401
640 530
3796 582
5134 67
4735 487
1870 234
989 386
3695 192
601 384
1949 532
2618 534
2553 546
2444 512
2632 421
3379 306
4180 66
5210 113
3412 62
361 469
3540 90
1664 205
308 684
4580 675
4127 393
2993 681
2798 362
5120 299
4075 582
4718 544
3974 535
105 575
4501 366
447 351
3821 515
5130 186
1076 679
3713 191
4667 620
5330 108
1453 456
3928 651
307 463
3254 222
962 204
4891 276
3601 168
1226 482
4442 110
4592 126
3473 621
3777 540
3390 612
3046 89
2340 683
4595 309
164 658
1070 370
4697 219
3012 105
2575 240
5113 158
818 453
304 355
4073 527
3094 112
2125 180
2163 652
2052 497
540 581
3390 423
3535 588
2965 484
312 39
589 551
542 35
4052 400
3845 224
4916 363
1037 328
2407 111
3459 277
1991 159
3138 250
4441 643
250 505
2850 184
2658 132
3349 432
114 527
1746 10
3147 174
2626 11
4014 660
3775 58
4554 2
694 571
1837 344
3602 524
4816 530
4593 42
5011 220
5453 389
2164 592
1905 266
520 653
1978 280
1732 671
3745 59
2144 512
1290 227
3966 189
2261 229
273 505
3091 52
4358 322
3927 334
3714 133
509 599
1993 621
388 549
906 397
1812 562
1840 95
2774 288
589 589
2411 654
3467 102
4139 682
1323 51
1281 73
1319 443
3840 211
87 168
1683 9
4779 79
3320 319
2275 539
1654 246
4414 174
4048 645
647 316
2019 424
2561 195
376 493
799 118
5039 508
702 147
2059 288
2890 173
4659 229
5359 651
4533 394
3686 195
3434 436
165 313
523 241
4444 338
2544 123
1130 34
425 25
3336 482
3757 357
31 11
2709 262
4210 45
3148 652
4810 284
4240 444
794 176
273 460
233 255
1395 127
4741 201
2182 462
107 97
4771 306
1727 606
52 665
5241 318
950 108
3461 398
2512 487
2385 421
4979 443
1614 57
900 143
3984 64
148 681
1963 649
3549 440
2235 212
3532 606
5493 60
838 345
2602 397
2626 552
491 605
4106 530
3512 376
4605 517
1351 525
4637 60
1162 236
4439 195
4268 552
4295 114
3823 433
2716 61
4532 272
2819 45
3293 648
4129 371
4441 81
1194 124
2589 300
2397 195
90 93
332 510
3780 200
128 139
2905 115
2727 595
1709 467
1099 503
1907 30
2542 180
4558 77
2442 150
2629 375
808 571
4725 682
349 534
181 521
557 211
3673 148
2891 488
5091 522
1151 90
591 612
5328 566
2332 383
2162 117
5281 459
2821 432
303 13
2060 637
2250 620
3393 523
2315 494
2700 667
2525 655
5122 666
2387 35
4464 293
1328 420
4159 327
2476 238
3834 102
4810 665
848 610
3469 128
4899 602
5127 186
4138 418
338 441
877 498
4313 118
3014 278
3397 452
3447 610
3676 479
839 219
5360 521
1754 21
1699 598
2383 179
3574 24
4860 103
843 299
1899 125
2994 617
259 314
4810 217
2186 200
4689 541
1840 568
1614 155
3521 569
2100 405
1984 324
4620 251
4582 36
2497 267
3263 560
3767 598
1706 11
4756 11
255 334
203 575
2728 441
3696 210
4665 577
3529 102
3904 597
432 111
2550 539
4533 367
1679 233
4731 107
4541 247
3816 299
3257 417
3360 685
3691 422
4128 286
2033 453
4505 297
4873 356
3970 617
2421 461
3790 298
729 154
4950 410
622 162
1994 595
2625 55
4325 508
361 443
3989 436
2895 116
5175 199
659 468
2056 189
4885 559
5355 396
4780 50
1262 599
4487 637
2914 359
4557 605
1488 132
5017 11
343 246
3489 131
2201 367
3009 214
540 153
881 392
12 215
3197 86
2614 168
2849 181
2004 18
230 393
5299 312
2244 663
4287 231
2597 339
2787 283
1088 564
1275 316
3596 105
733 227
2365 576
4830 79
5163 215
2316 579
4615 628
2995 517
1313 241
4818 408
4269 290
696 183
3424 159
2545 647
3711 80
3430 80
2072 598
4182 513
4424 367
3022 287
5113 473
1777 501
3995 196
1014 132
5324 442
107 189
1326 121
2443 536
1939 241
1955 513
781 642
2243 596
557 111
5268 125
1944 451
3112 116
403 146
4102 560
5290 7
3311 94
5187 475
1259 428
2421 299
5197 613
183 487
3553 294
3939 605
1504 505
4833 271
2400 208
1212 668
837 354
1306 89
4982 568
177 125
4609 416
1395 447
3363 82
1205 668
5171 341
484 576
4040 613
1959 279
340 452
2884 353
5382 176
2952 15
19 295
5484 202
1327 653
3771 664
3117 368
791 211
725 40
5189 417
4287 659
2401 399
3386 648
1248 371
1649 182
1545 294
3335 208
4439 430
462 55
4019 502
826 412
1548 178
2166 81
5257 260
959 570
1486 319
4871 611
3713 169
2870 147
1698 55
648 53
3316 670
621 567
4970 163
1763 80
2493 158
3179 657
1406 670
4881 446
2434 455
4777 305
2538 15
3772 136
2222 395
5444 476
4769 340
3817 286
5370 51
4193 541
3736 527
4520 670
940 302
1093 547
5394 272
3946 121
2571 33
4679 361
2158 186
906 477
820 126
1515 290
3571 522
2220 310
1227 153
4215 221
1377 189
1959 614
3298 404
3543 117
3828 402
1731 524
3943 315
1375 540
2653 306
4378 345
536 550
3588 97
2111 210
3067 367
921 339
3013 627
2196 398
1600 183
331 560
1338 82
392 455
3777 566
5427 548
1227 165
5430 12
2636 61
3065 159
2054 38
1892 425
5021 300
2369 256
666 596
802 653
3579 83
2700 15
1955 256
4464 572
4362 422
787 659
1862 417
2567 36
171 15
4630 610
571 235
2158 255
4708 12
1439 649
2816 165
424 281
1797 676
2716 491
3220 44
5472 565
4815 360
468 548
5104 198
634 34
4022 67
3484 611
514 120
5414 146
125 494
56 653
644 41
1774 604
168 150
5351 324
2944 9
3833 568
2135 205
247 354
2674 484
2055 606
4416 203
1560 486
1764 17
3315 41
4122 429
5270 657
26 680
3221 30
4105 339
1137 277
2482 244
1707 539
1099 677
4190 610
1543 284
1014 39
589 123
1439 169
1148 236
4585 557
3977 337
2656 390
227 445
1636 520
4453 88
3012 510
3104 255
313 441
5318 146
933 304
2216 134
1893 575
5304 588
765 514
4258 362
846 573
1157 402
117 240
3342 610
905 669
1474 592
2820 177
5011 680
4931 400
5482 570
4324 211
1646 318
4533 7
714 493
3552 477
4667 300
267 129
4277 189
1130 416
1590 518
4166 528
2036 296
736 179
1744 119
2188 226
2423 166
5433 149
4333 400
4825 330
5019 683
5297 148
3940 343
3386 173
5369 67
1516 79
1783 116
2250 416
3127 440
262 644
677 551
3478 660
3785 560
4019 385
1219 185
4134 260
1689 582
4035 666
5008 256
3408 160
3376 54
3171 581
5356 496
2338 487
1979 496
5339 108
4854 447
4953 378
2024 219
2465 3
2538 183
4584 667
5350 253
4348 1
1507 617
5364 684
4170 67
2971 582
317 408
2764 364
3253 96
1446 530
136 116
1826 574
2770 590
2761 188
989 404
640 602
5405 590
9 484
2742 235
3792 92
5098 70
1124 627
1168 481
5286 322
5027 390
1289 178
2860 666
519 434
588 207
2478 456
100 461
2940 652
2858 416
4857 476
536 40
1355 3
852 87
593 91
5104 680
3088 45
5369 361
5434 396
4680 169
5060 294
4313 191
3965 324
1799 483
5436 182
2311 494
805 301
3955 339
1032 238
2556 501
4479 599
3001 554
2604 5
1011 591
2968 143
4718 340
3460 288
433 99
3073 340
4440 621
1374 494
4531 118
3224 334
2033 380
1955 363
3273 363
32 579
4269 556
115 19
1884 357
406 329
3477 252
3158 180
1201 58
1987 640
2326 141
5395 536
4903 115
322 560
3558 626
4240 323
173 426
5258 397
3047 387
1277 476
2703 307
3382 623
3617 359
5234 482
1079 319
3715 311
3772 17
1223 379
4333 466
4200 31
1908 290
4246 432
2795 297
1588 638
1171 574
2416 74
2472 581
1616 187
4666 227
4634 129
4743 131
753 503
2568 21
966 487
4894 330
738 105
1489 0
3773 355
2406 463
2185 468
2872 424
2672 625
2033 404
3495 71
228 181
1877 564
5484 240
1079 189
4721 513
2381 240
3013 255
1504 100
4087 378
2095 482
4232 463
3613 20
3876 444
4189 144
1460 13
2707 107
589 617
593 643
523 512
4213 278
5233 591
4394 369
3197 501
5270 246
2683 226
475 591
1704 479
1975 258
791 71
5431 181
465 222
2505 547
2387 114
27 464
1685 258
2026 163
897 362
343 143
1858 254
1597 544
5450 309
5489 525
2330 370
4116 653
1823 419
738 92
2203 551
683 321
3973 205
5405 444
1548 631
5077 296
5139 317
2097 33
2417 557
5052 442
464 514
1216 553
1316 477
5228 508
2367 460
5393 58
4084 273
5206 318
1962 519
5409 446
34 305
684 644
3743 112
1771 167
4950 596
944 194
5341 438
3418 393
5176 215
2408 154
4611 545
2709 618
1577 645
1061 595
86 16
867 567
3392 666
2048 22
1436 559
3184 175
4163 186
5239 430
1049 236
4702 406
4626 392
253 479
1080 440
1317 521
1649 190
2529 346
1632 666
1310 352
1288 668
5209 158
2358 406
369 637
4391 119
700 454
3123 253
5114 390
3607 57
2135 524
3865 247
4675 82
60 63
2105 420
4770 137
975 530
3642 504
4115 564
949 425
3582 193
923 324
3907 430
2691 320
995 281
3096 414
2147 365
3168 559
1499 351
2102 171
726 666
5455 420
2860 163
1972 499
1973 495
4985 74
1297 586
3390 644
2744 278
659 568
409 520
839 154
2512 663
2022 659
583 172
2720 376
3080 200
498 61
4252 486
5433 297
3023 64
985 337
5409 440
3610 260
4143 248
2069 442
1945 641
5453 192
2396 420
2735 533
804 220
4142 500
3565 85
1511 664
5436 382
3907 223
1095 617
1283 526
2018 332
4914 376
477 133
3892 496
1668 98
2646 531
281 6
4833 549
5185 543
927 310
5213 637
5220 565
5045 547
3058 203
2966 225
5018 405
4946 200
2079 567
585 638
625 253
4043 89
3336 641
3874 590
84 669
4353 76
2408 79
4607 282
2980 8
5098 233
2140 518
790 618
4036 556
3883 672
1785 227
3919 656
46 603
1879 428
1576 641
3347 326
1099 329
2448 636
2982 420
3085 59
516 479
623 207
2190 386
3506 327
740 441
167 210
3546 513
873 385
4807 659
3878 625
4864 65
3731 271
1980 400
3337 280
1845 285
4722 674
4614 636
2407 108
1965 114
1923 99
316 635
3077 476
4584 416
3032 432
3490 422
877 656
3438 80
4644 607
362 517
2895 478
38 46
3925 572
5145 523
4691 319
2617 164
2551 338
2155 207
1683 599
1059 441
1787 152
4222 456
4637 240
3144 366
1477 625
2890 261
504 639
5191 438
3596 173
1443 630
4436 48
3138 505
2434 61
3268 539
3681 110
3843 403
4598 505
2219 242
4469 172
2334 505
4255 683
1454 651
4352 422
3837 283
945 13
2164 307
4535 139
30 563
4315 577
3460 422
4276 179
2640 341
1643 609
2583 362
1219 283
3942 423
4481 493
1102 70
5068 340
2809 319
3292 208
5114 611
1623 278
3110 256
2553 493
4719 680
3285 240
1050 471
1318 610
1097 284
946 224
4005 672
3983 550
3038 593
1156 83
4398 430
4922 637
2273 642
4103 523
1812 507
1220 355
1104 73
5005 133
5497 163
3398 548
3427 577
3914 572
1733 613
2490 543
4531 647
425 261
2476 114
5276 43
2891 105
1021 341
2510 141
2183 307
1333 184
2465 266
1911 7
5143 317
5490 517
5491 107
2056 673
3970 552
1430 313
3407 460
868 541
2744 74
1818 653
4037 363
71 148
204 0
1353 533
3658 380
3503 506
2701 533
2326 357
361 21
2263 440
3828 512
705 554
2501 186
2344 139
2003 229
4793 457
1115 668
897 600
841 654
1798 227
5312 420
3100 87
935 130
4553 379
4112 29
2457 126
3091 508
1596 471
2650 454
607 3
1884 323
1990 357
4508 431
4298 312
3065 396
3726 386
521 558
446 433
418 555
4606 62
4452 608
3131 539
2116 225
5381 556
2596 214
587 490
4612 192
2143 125
1509 102
3171 566
3614 63
3123 387
4450 243
2731 2
2021 165
1521 17
1936 640
3189 190
3044 324
2261 517
2264 80
327 387
5431 321
2465 328
861 200
4330 533
5100 386
3777 279
3632 31
3404 670
4176 639
4150 532
3576 536
4772 491
5493 140
3862 137
424 91
558 397
813 613
5450 298
4428 291
439 524
4376 541
3783 133
560 503
3889 610
3369 543
4482 573
5237 159
1579 346
2189 365
2305 142
4213 63
3021 31
4015 256
3139 683
1464 432
536 349
3635 482
361 445
195 459
3236 97
1915 682
648 89
2906 587
2297 348
3480 396
2864 423
1826 530
1165 145
812 340
2792 490
3853 73
3552 121
3177 653
1437 180
1539 51
872 133
470 91
4834 593
871 229
2508 255
581 499
2446 662
3107 541
2499 642
4742 416
3101 654
3449 326
3139 71
2857 470
1973 494
4255 403
3660 466
2287 289
4546 654
4706 370
1352 407
1346 662
4755 431
3331 544
1613 392
3361 41
5018 489
3457 109
1188 381
4520 532
3916 28
2110 111
2120 9
1231 18
4436 490
430 446
5128 497
2350 536
3617 132
2280 231
1443 641
3348 160
1282 416
1878 35
3247 292
1087 658
3899 498
4794 629
4697 610
3030 204
4788 568
2315 236
3118 81
4326 437
449 473
542 98
967 69
4149 452
2523 68
774 203
4856 447
249 13
5193 103
791 326
4631 198
3215 630
530 169
2922 607
1446 225
3665 558
3021 559
3101 60
4133 7
2444 529
1364 182
1182 224
2451 118
5112 650
4297 166
2553 275
171 549
5473 58
5060 411
2639 72
575 198
2818 40
5028 130
3933 50
3280 533
3930 44
2999 48
4948 164
3644 119
4527 603
2198 147
4966 258
2656 209
5199 18
2611 129
4833 197
434 72
4387 279
3495 30
259 128
4672 448
2496 61
5331 347
5348 522
2393 606
1678 427
1859 402
2826 179
375 160
5269 100
4540 401
4892 380
3854 385
2408 24
3298 369
257 625
5473 402
1740 466
4848 495
2905 58
3926 81
5097 533
1747 144
3918 172
1948 218
2991 401
3686 210
598 170
4230 484
725 583
4704 241
1675 246
2380 285
4195 24
3386 438
5173 463
4645 653
3683 32
3210 346
1938 491
5305 43
2311 314
3265 621
3705 111
177 519
815 654
3661 459
971 629
3609 604
2676 410
4333 449
4108 666
2670 287
4455 67
4098 573
4425 508
2751 308
2943 356
2743 649
4982 311
516 218
3653 29
1888 21
4413 69
3877 389
4822 496
4188 639
2750 115
2274 39
3391 502
1401 54
2170 365
4154 41
221 4
112 370
1291 35
5119 350
835 451
3723 513
1136 440
3828 536
489 244
1017 67
4947 659
4148 447
2804 97
1994 357
2309 320
4356 654
5046 392
768 219
3546 351
3497 171
3646 278
93 79
499 17
881 546
1331 667
3232 119
2288 155
3381 298
4033 498
99 293
307 274
3819 595
1456 615
1547 74
1447 14
2822 680
5322 400
4597 520
2620 395
2709 483
4003 295
2458 257
5395 675
1337 497
3914 246
5126 292
2890 666
20 43
4785 259
2921 504
4941 229
4279 48
155 545
2100 405
1902 310
2780 266
2551 498
1552 208
4723 321
1843 539
1160 267
4705 385
3779 343
1424 423
5239 458
1532 177
3252 404
3060 601
4173 64
375 621
2721 148
3858 397
3998 592
1393 637
1123 50
414 486
3283 369
1917 567
5130 581
399 56
3032 671
1293 376
1923 78
5346 348
2954 188
3084 142
2749 191
3202 216
2691 302
854 247
4373 183
2510 178
4304 288
1758 63
4240 20
1176 656
2131 432
337 76
1030 186
2671 128
3065 162
4429 515
757 232
3075 185
533 426
1899 81
2948 272
2925 163
1735 489
4754 243
578 674
4546 65
462 279
3478 43
3769 124
4234 624
3181 549
3259 168
393 392
5081 242
3039 104
4139 521
1674 35
1187 399
487 40
2121 194
1904 621
3146 142
2134 471
1100 681
5247 52
3117 582
4478 399
2333 413
2679 202
792 196
3511 413
4791 494
5130 362
5067 141
5462 58
421 612
4857 444
3089 144
2357 463
3316 596
2823 299
3485 235
334 386
1984 454
1955 305
3151 258
2445 379
259 385
804 223
5234 49
2059 87
371 413
1886 38
5232 207
789 68
1716 56
969 582
1919 322
1042 434
4076 192
1498 577
4430 303
1877 317
3251 402
5071 251
490 442
3007 3
2913 492
837 338
4359 159
2211 474
4740 356
662 121
2805 488
1544 546
4094 354
4015 355
3025 686
644 336
2423 660
3860 309
4905 208
5137 531
2794 344
869 611
2959 551
3702 130
3377 99
1649 126
1039 24
182 392
737 370
4703 93
954 227
983 562
2391 372
4011 571
3796 675
122 653
51 627
2709 488
4103 654
4407 606
2285 439
2601 681
3377 428
1927 629
787 359
1862 520
3668 558
1797 177
1740 144
812 412
1495 478
3242 453
1895 258
4997 97
2659 578
582 376
3417 190
811 202
485 584
4570 601
1821 247
4251 286
3869 291
395 3
379 386
4544 308
5347 141
4819 125
4349 62
855 229
4617 44
4680 144
52 94
4077 327
3697 425
3516 387
1066 100
311 548
5322 235
792 665
797 401
5012 49
546 175
804 444
2068 326
1903 10
4160 43
3834 108
4139 62
2507 100
1878 644
77 508
3813 323
2404 113
2146 574
2061 260
4279 13
3452 200
30 100
2852 335
2348 545
3870 262
4363 522
3868 249
4106 567
5394 521
2125 299
4658 363
4306 359
2177 567
391 156
4686 449
2717 631
4776 517
1364 35
1255 101
3679 35
1896 382
4609 449
811 215
2961 270
3403 62
3960 193
3690 396
1873 612
2198 544
1300 623
3253 379
1403 337
1276 14
204 116
3452 245
3941 233
1470 597
62 259
5298 489
1940 154
1422 582
224 115
2064 188
4186 609
1436 332
1759 522
2537 362
2603 23
2885 451
5245 256
1281 268
4968 591
1282 645
4324 498
4352 648
331 369
4258 536
1914 536
801 612
4046 490
4960 455
2654 580
378 225
3376 302
2995 30
1328 600
2735 395
1684 527
2671 599
202 192
232 66
862 537
2898 228
4117 124
1451 541
4939 663
2733 111
3590 56
4927 466
5411 404
1128 584
5217 613
1018 592
5035 114
805 26
1625 167
2171 618
3590 473
4942 600
3432 325
2634 470
3482 444
2182 454
4023 177
2585 211
1916 204
1874 462
3382 364
5386 326
5420 605
3591 362
3076 287
5091 133
1183 686
4087 115
640 560
5038 363
2524 651
4263 370
1750 509
772 281
953 158
4702 217
931 30
1683 152
452 664
4998 23
3057 560
2564 82
4209 314
62 370
1863 541
5437 56
3333 637
5405 336
4762 644
168 684
3305 575
555 17
2783 592
2449 560
3108 640
2849 195
2246 182
1465 435
1988 463
2837 45
1995 641
1848 300
473 398
4577 441
5331 539
5017 258
4884 199
451 564
930 404
3052 28
2916 380
2244 386
4136 2
4648 525
4667 525
3251 63
1827 456
1723 662
5108 581
1702 448
4537 608
1084 238
4455 683
553 49
5023 69
2785 394
1861 599
5481 264
2424 569
627 495
1207 447
2388 118
433 139
937 71
603 117
5311 546
2304 3
586 337
3881 279
874 610
1141 620
1347 360
4167 123
2544 439
2970 675
2523 653
3417 337
3440 290
3134 368
2136 219
3777 372
1717 234
3804 372
5402 196
4144 159
4007 207
5112 225
5387 298
2948 273
495 264
778 31
725 18
1976 345
742 579
618 274
5297 440
1186 99
3748 384
3781 287
4835 487
1831 449
1083 679
3983 580
4052 682
2263 315
1683 676
4331 627
2287 143
1925 4
3547 489
1445 70
1773 58
849 618
3593 479
2009 627
2931 309
4399 512
793 532
2060 92
2771 63
4088 176
4971 401
2482 165
3425 492
5017 155
1045 193
5322 380
1566 507
5280 686
4169 456
5275 553
1974 263
3873 474
413 159
1232 636
4366 639
823 453
3344 525
1070 18
1188 247
3026 400
1749 565
375 296
310 364
540 102
793 284
1520 561
4698 660
4456 527
1263 181
5385 457
828 417
4517 444
1755 150
238 666
3497 341
784 181
5421 86
4046 453
4405 102
4256 135
3036 410
1098 248
623 329
641 85
4719 83
3674 616
4968 347
246 485
2316 262
3611 496
1026 39
5445 131
4373 501
321 678
2782 681
2705 526
4273 92
3309 311
2419 318
2084 395
5442 533
4770 43
4129 402
2066 195
2692 481
3259 462
4305 430
5473 403
1893 342
5339 232
3349 445
1819 205
4240 629
902 647
3768 646
5189 103
2849 17
2769 135
4751 566
4050 174
3441 6
2717 146
2343 309
2994 86
1652 213
2721 457
3929 48
4468 641
1751 334
666 207
1021 85
4593 156
2707 626
4943 646
3172 44
235 319
3697 251
5408 80
5233 488
4484 622
2922 336
1207 186
4755 165
4542 664
1375 650
3775 666
4383 46
2907 269
3324 566
534 564
92 583
2230 474
755 410
4609 321
3082 649
2814 366
4888 322
4762 433
3239 335
105 153
617 81
5451 638
1700 512
936 95
278 315
45 385
4339 644
4910 186
36 590
4149 304
2140 446
1660 137
2202 468
4181 174
2446 130
1053 87
3181 393
5077 113
4096 569
157 596
1471 463
3114 440
1607 299
867 477
4349 389
493 143
609 140
4851 94
2526 430
3472 499
4743 503
1202 606
5197 241
2690 560
959 566
354 443
4340 315
2882 55
5078 408
3759 30
676 90
1093 356
3285 473
2375 256
1689 335
5298 354
3695 62
1032 280
75 12
2495 161
63 114
5208 352
249 106
964 338
983 546
1155 348
208 666
4582 63
1693 479
3303 670
626 633
4670 459
2889 628
2236 286
1413 126
2225 643
3167 558
3534 547
2795 104
476 529
3391 256
1064 79
1448 41
4479 230
3202 30
3177 323
1645 140
390 433
27 506
1126 543
5021 397
5197 325
3416 411
970 579
1975 610
3265 528
1962 42
2316 428
535 240
392 18
485 243
3335 344
5148 591
3961 552
3976 418
3771 23
3896 102
5117 62
1741 201
2338 682
4440 287
1105 562
2312 146
1659 97
1283 653
4936 448
3812 406
1658 118
4026 205
2288 676
5176 222
4224 577
3608 447
1955 3
875 214
277 263
2980 581
3037 168
4639 294
1694 284
5449 332
5483 18
4679 25
1036 519
318 301
55 361
4987 215
4104 385
2593 652
1312 363
3650 525
2296 339
4421 70
4464 532
4713 141
843 112
4573 297
1482 224
4050 356
1592 521
2501 282
5338 12
4316 165
1422 389
5168 30
392 594
5359 328
2949 290
4189 19
241 567
3638 230
4787 649
2174 402
700 335
1754 146
2819 424
5369 263
5441 654
5131 631
3424 425
4347 52
4852 125
367 223
2088 193
3555 587
1604 582
3201 18
4205 100
1339 482
1986 318
3444 356
975 259
5377 518
1130 56
3872 459
2564 485
4940 449
4151 158
1380 614
2072 165
5411 659
921 457
4160 1
945 191
2812 271
3564 228
1333 638
5454 380
3674 107
1378 274
1159 32
2638 209
4715 650
4755 239
3999 244
4335 365
5067 501
5310 251
2224 186
219 157
4145 458
1825 335
1602 228
4374 497
4506 22
231 526
1978 379
2646 384
1657 117
1623 192
295 217
2345 397
4874 27
2827 524
1712 543
956 66
1366 662
2002 56
2221 585
1018 515
1336 44
3732 160
4808 633
3470 588
462 13
2149 662
4907 193
3439 367
3531 624
573 510
5181 158
3424 184
4691 80
5023 343
5006 140
2069 413
4509 302
4658 203
2472 538
4596 35
4337 281
2717 336
4776 525
4321 166
710 459
4414 453
4934 42
715 260
477 597
2180 32
1373 540
3850 69
1613 445
3719 161
1200 297
3448 559
3408 67
4816 616
4462 64
1868 382
4262 477
27 88
476 631
2083 457
2351 129
2676 450
623 440
3123 519
656 165
4537 50
1551 58
1053 362
1195 180
4268 252
5051 294
1616 433
270 574
1212 356
2214 234
1257 154
2905 495
2806 159
4586 600
4269 544
2307 70
3251 49
5255 168
1964 288
951 548
4441 659
126 90
4214 301
3280 85
3954 659
4293 509
4586 267
5073 280
314 574
5360 630
3245 448
2103 522
1233 53
2370 330
1884 99
82 308
2900 230
4454 546
2190 611
2268 109
3275 450
227 332
1667 661
496 615
930 237
2294 534
3368 600
1313 604
5039 84
1908 534
2237 259
382 215
2624 221
4940 126
2452 485
3953 608
5394 619
5223 540
5219 401
2717 440
4086 258
3340 684
329 44
1675 655
5005 565
1239 18
3137 33
1248 282
4197 373
1929 622
516 189
1219 681
2060 368
96 181
621 383
4122 195
440 510
3008 515
897 592
3541 333
2980 94
2480 467
872 121
584 254
1019 617
3480 179
5300 36
91 545
5386 576
876 240
342 227
3777 103
4428 216
4599 283
2303 559
2906 384
4084 109
1784 591
2740 510
2081 56
4879 236
823 414
4873 269
2303 219
130 373
479 281
869 296
938 62
3682 104
2286 435
527 28
405 348
970 110
848 178
4348 339
4577 526
79 135
2820 671
624 225
3929 148
1270 506
2126 438
3222 78
1904 272
4610 320
1885 136
1791 292
2173 368
4507 585
2210 364
5008 517
448 75
435 524
3790 673
5060 494
2067 32
1043 544
1675 395
4405 483
4560 274
4477 590
4285 337
4923 201
1738 12
2691 101
182 588
5125 608
404 222
4512 130
3855 495
2861 581
3016 222
1004 206
2137 359
555 385
5037 534
4563 63
3721 403
4870 575
3975 276
3551 439
50 261
1867 167
1401 241
178 592
3390 527
3327 352
5011 244
839 406
2781 574
1780 607
702 259
2582 37
755 610
1601 256
276 356
580 135
1239 166
3980 681
5133 256
4848 445
5319 583
1855 315
5171 477
5395 336
2508 74
308 548
