7000 5500
1388 372
2247 536
2665 109
2470 656
1560 326
613 228
4855 611
1561 176
4391 467
2361 58
944 247
3083 379
5162 569
5305 404
3040 284
5155 586
3375 516
1812 630
539 206
3789 578
3597 245
3341 579
4834 631
913 239
3309 308
18 488
2538 622
4829 520
574 521
3395 663
3528 635
5442 529
292 280
3568 162
4993 574
2357 244
2498 276
228 390
3079 469
1346 341
3572 126
4940 22
4016 170
4545 11
243 311
3901 86
2468 491
4165 532
3130 186
4736 687
867 530
347 332
1195 126
384 571
5340 481
299 506
926 436
5302 37
331 67
4800 604
4033 45
4840 136
875 15
3372 18
14 540
883 441
156 30
5035 659
2552 350
1683 200
4509 417
3077 157
2046 431
236 455
2078 468
1188 165
3733 270
3801 137
1006 99
618 255
1284 608
3752 444
2819 587
1030 486
2284 330
1970 283
3564 431
2255 224
2284 496
599 334
5110 23
1979 106
2501 56
4488 382
932 509
474 431
490 26
1618 636
3498 566
963 278
983 532
5332 414
5006 630
5131 510
2441 322
3262 39
2249 182
1190 480
5246 144
2249 240
5057 413
3420 676
1920 419
4173 551
1042 317
5241 362
5494 582
5269 122
4375 269
1820 116
2662 639
5398 648
666 91
1650 650
2022 176
3197 211
3909 426
2871 485
1369 225
1225 165
255 293
1842 662
3733 129
1141 645
4304 12
2759 574
2788 200
2728 236
1192 297
226 301
4931 211
2588 473
1605 162
3051 432
3641 392
184 2
593 340
3714 145
2621 57
4499 562
4676 122
4387 484
1769 19
3638 569
4189 499
5317 296
4868 58
2111 164
5318 105
4674 101
2620 55
5147 487
2682 664
5393 295
1525 642
2537 558
1799 347
1815 457
314 9
3323 67
2060 38
7 597
4287 423
984 56
3780 579
3635 574
2900 569
3369 251
2039 40
1789 264
4708 579
2193 403
2697 265
3783 598
1557 107
3894 120
2642 284
2928 1
4570 186
2762 128
3541 5
5025 321
5430 300
2542 412
3399 112
3490 605
2577 53
537 42
4006 555
4152 232
3622 293
795 279
4013 492
5134 433
4530 539
1056 648
771 644
4968 485
5046 33
2017 201
4629 149
2416 109
3122 461
5342 15
5465 640
3971 488
4844 254
3836 596
4324 228
5132 402
1845 504
751 486
3254 444
3241 507
4711 683
3551 381
2884 438
588 35
2764 343
3294 68
5163 102
5367 622
2411 470
864 453
14 401
3418 652
3112 91
4780 623
4181 466
1819 447
2221 165
77 357
3469 431
4685 397
4802 73
283 328
1157 567
2053 150
49 179
2407 378
3573 230
3179 641
636 21
948 370
4043 308
2063 516
2951 658
2140 542
1926 620
606 274
1075 664
1024 237
4581 683
1502 21
5107 21
2049 297
5435 190
608 375
773 617
5430 119
4563 308
159 397
3305 530
2227 194
1604 369
2289 467
3059 609
3466 527
3938 151
2841 201
1613 399
1707 635
3574 548
1397 673
2136 392
2972 130
3117 89
2177 539
5095 258
1946 476
4264 538
5437 314
4014 192
1816 655
3447 316
2781 432
5383 679
3047 88
4585 222
1141 533
1301 203
5359 82
153 519
1910 188
2412 21
3609 190
3282 335
1644 301
937 526
4413 196
2620 641
4403 35
4074 279
330 89
4356 303
1703 503
1459 183
1700 598
1177 294
3059 302
5005 652
270 487
4633 607
1356 468
1316 319
2629 224
3584 387
1810 681
516 196
4397 659
4328 445
2131 207
1148 396
1817 503
1710 171
3017 234
2712 313
238 182
4634 636
575 216
261 440
4418 8
1937 480
1239 352
3968 448
4133 430
850 495
188 34
2810 180
2037 562
3263 515
3149 93
1582 159
934 524
3375 112
2960 172
1900 17
1560 678
3212 342
3523 525
3969 455
2524 522
4469 227
5498 625
3107 316
256 316
3183 192
5400 66
5276 565
1731 480
2032 505
2876 327
5133 480
1681 602
1282 574
5313 231
2667 609
697 230
630 121
4057 315
4989 619
3361 561
2158 62
4280 604
4034 59
4297 542
3935 201
4265 650
4405 250
1606 208
2989 611
3301 191
1158 430
3482 176
414 318
4484 303
3811 73
665 40
3469 349
4720 447
4992 327
454 662
2610 164
375 111
5439 605
4643 401
3298 506
4278 537
1525 417
4183 465
2403 282
3490 536
1152 72
3194 502
1569 358
5429 314
4942 654
9 147
3626 533
3347 20
1034 552
886 621
871 158
2902 75
3413 376
2937 626
2809 318
4516 514
2238 203
652 461
2945 281
674 390
2163 631
5209 214
4472 452
1612 46
4067 207
3068 342
3107 203
2804 405
629 287
53 172
400 399
2228 53
3146 163
5480 7
568 201
5009 536
5435 547
2178 132
2970 657
2312 215
3707 453
4214 302
4762 648
4597 470
3690 254
2022 135
4369 683
4248 265
2684 91
1614 670
4418 562
674 82
1350 561
772 259
3650 423
3999 487
3781 20
1879 427
2311 124
2068 160
4760 503
361 65
5077 636
5437 1
285 134
1282 558
532 128
254 116
4997 470
3313 317
5208 75
5267 27
1346 83
4170 284
3395 199
4356 33
5245 358
3534 420
252 642
2428 618
4366 91
4777 413
63 64
4878 332
2856 12
3289 382
2552 243
4783 152
2138 448
1793 421
1024 297
4955 409
3712 208
1588 601
3725 103
3880 221
1944 680
5493 387
312 602
3181 455
3637 207
2641 393
3391 126
3490 568
2551 213
4170 6
2169 483
5215 10
4040 645
2658 281
1970 491
3066 508
3871 306
619 117
2634 658
797 171
4666 574
985 138
4071 626
5121 502
3928 6
4538 190
4851 397
5100 140
4536 126
2444 362
1017 317
3645 139
3996 119
2958 252
4035 436
2375 112
708 256
1255 537
2096 205
4869 652
2855 226
690 49
1421 259
2515 299
4294 190
5250 48
54 293
91 306
136 215
4349 118
5069 633
3687 437
121 163
3302 566
4013 502
5429 239
2229 591
3459 584
4350 278
4324 502
4871 172
4663 396
653 515
4339 346
919 321
2736 519
4682 462
2638 12
2559 625
2149 198
3834 595
2941 628
2054 54
4431 340
5487 377
4029 395
4703 520
219 74
4261 219
490 105
2482 316
362 618
1785 141
3326 80
5341 306
2564 242
5348 686
23 226
1898 342
3578 500
4937 51
3160 187
2427 664
2136 43
1476 411
4511 383
3331 549
2570 153
2168 36
4455 385
4190 178
3568 497
3446 391
1796 227
2304 460
3629 369
3402 584
997 224
844 182
1696 461
4579 84
1825 513
1197 209
2742 259
4309 574
2425 141
4323 432
3143 280
3308 656
2408 4
5168 567
3057 312
2278 265
1561 353
1670 290
1647 656
3610 540
888 665
2130 501
1897 174
116 125
952 126
2418 79
4256 575
3681 293
64 672
4132 442
2630 97
4671 380
3289 526
873 42
1347 281
1106 205
4275 563
2598 462
4975 240
5042 400
454 38
4322 422
1977 687
3867 155
1120 340
4914 17
5069 410
2731 619
1674 226
5387 438
2699 518
2952 625
3701 92
2750 510
2486 683
3895 38
3245 442
3740 679
4239 156
5390 75
583 667
3090 363
3258 510
4970 565
952 22
3885 605
2978 487
3808 466
2279 412
1953 485
694 85
2235 87
5280 676
483 384
336 620
3258 207
2150 402
3312 297
5163 628
5283 530
1629 17
4761 619
1963 466
3168 525
1400 380
5150 204
1779 13
717 597
1088 440
1879 482
2669 200
2922 406
4083 538
2661 143
4157 114
3685 189
4695 515
1336 339
2455 70
2482 334
4410 221
1805 57
4366 587
4488 162
1360 576
2351 163
4727 358
11 575
4991 475
5020 21
5479 387
2244 272
1199 92
267 584
4797 673
4447 422
4128 554
3402 425
5031 434
228 544
688 52
1152 645
4124 113
2145 25
5081 174
4960 46
2468 333
2616 7
961 41
813 662
453 460
2765 636
638 202
2893 639
4370 617
1573 576
725 97
2201 238
1609 496
3176 382
3820 9
2899 654
3350 346
5243 353
5303 472
5280 185
18 55
4194 212
3888 419
4310 645
1957 136
2261 441
338 637
4848 248
4154 208
4186 246
305 471
4275 232
1560 366
4628 23
5359 426
3309 416
1400 676
3090 281
14 586
3589 152
1662 266
4197 119
2460 169
5290 100
328 603
1585 6
286 23
3005 487
3902 549
1407 231
5462 516
1471 183
3013 279
3642 103
4420 278
3371 628
1339 446
3361 334
5051 456
4020 681
127 293
1571 36
4430 630
1062 644
992 468
3892 293
4505 247
715 579
2514 305
5031 436
5122 13
2905 521
2783 579
2976 72
4830 373
1237 532
5329 330
4594 522
1679 119
5177 346
3218 189
2472 48
382 219
4731 328
3938 635
3304 16
2905 540
1824 148
4906 409
534 11
2577 494
1216 671
1535 343
5080 684
1344 686
5359 329
2564 649
3027 40
2791 660
3871 438
640 416
928 446
2150 382
2720 472
352 506
4464 68
204 214
1526 526
3892 132
621 608
1996 479
1674 244
1109 558
1924 502
2179 369
3026 297
2748 531
4695 437
1938 139
297 454
5215 317
3055 103
4280 23
3230 19
3954 671
4552 147
5175 17
2775 185
5389 52
544 379
4367 312
2638 401
2654 580
5280 245
3722 441
4537 234
1118 124
2971 52
3188 165
2711 89
701 9
3110 323
4733 392
3420 181
4907 262
1889 345
5283 140
4390 262
2811 90
1976 119
2415 676
3214 120
811 324
4096 662
3220 665
2057 538
3847 360
2254 127
2749 563
4360 291
1066 452
551 47
2570 289
1638 469
443 434
4443 225
1640 458
1107 407
4784 341
1412 35
4570 435
3352 631
803 555
3692 135
3256 74
4967 339
5318 134
4064 235
1845 43
5132 145
2416 501
1203 97
1299 119
2241 682
4245 20
3494 171
3804 151
1155 565
4163 401
349 499
3632 408
1796 330
3590 552
4114 538
4649 552
1794 438
3080 513
4400 528
4691 396
1862 611
278 346
4050 487
4250 181
4585 459
1439 311
1217 604
1471 49
4729 478
5446 337
741 246
4528 100
4729 251
5136 112
2919 274
140 520
4658 654
2228 323
3601 379
4058 44
2983 128
3666 604
2130 386
4005 22
1450 333
2519 41
4856 625
3623 521
672 119
2409 256
988 175
525 143
4913 325
2435 312
5066 257
2914 596
3981 547
214 600
3857 664
4226 503
15 521
2407 111
2950 632
337 460
5198 313
3237 574
5000 103
5181 220
1500 482
4516 231
2016 467
475 76
3143 645
1284 198
555 626
858 502
1275 470
1646 118
2760 372
2605 446
714 205
5013 399
4841 564
2703 85
1288 553
4589 559
3269 404
2985 127
1808 663
857 282
2039 339
5296 214
962 632
4253 586
3929 548
3127 681
3633 627
3096 624
2704 103
2031 667
5133 449
3404 78
2630 513
5236 632
3719 545
4817 574
4558 600
2706 605
3818 650
4639 472
3532 520
3529 363
417 582
2835 515
3515 591
3184 139
3878 636
3606 149
4608 481
2385 75
435 418
2872 369
3435 241
2193 220
5473 601
4395 238
3054 420
1706 214
64 354
1257 648
5134 339
1838 74
2550 310
4091 188
5243 90
3836 84
3312 443
2061 57
456 237
545 422
4976 401
4717 314
2294 395
3772 510
4524 218
5065 186
4919 23
4619 126
2610 123
2868 106
1179 406
5032 175
3907 90
1667 265
417 398
1763 416
4292 329
3979 681
3961 296
178 164
1274 510
1727 107
2763 245
2973 608
731 365
4618 349
678 348
532 221
3119 607
2542 680
1399 215
4933 367
1625 431
5192 436
5224 79
1668 321
1093 143
4345 415
5056 476
2764 373
3773 36
2836 649
1684 385
4334 233
1692 631
3069 302
4280 266
3198 360
4920 535
2884 660
4360 242
4729 548
2650 55
3280 497
4031 255
628 65
703 208
4809 361
3245 338
281 221
2218 332
5159 653
4462 312
3088 592
4210 616
729 486
263 343
1054 601
2980 486
2649 157
3383 376
4217 206
1667 383
1514 160
4393 130
1314 19
4655 493
902 642
5379 527
2218 185
4160 376
1112 588
2242 659
3218 117
4976 469
5206 253
1837 277
1302 95
3216 628
4236 269
3262 244
1218 410
1669 530
241 537
1147 85
2786 573
4600 71
3972 92
4400 489
1200 556
2358 554
4753 66
1965 6
1409 581
2041 95
2927 537
415 404
491 551
3271 128
1386 547
2392 556
1303 19
4221 562
1776 178
3862 410
2973 515
2276 318
3681 446
4874 295
4985 287
1402 590
2283 307
1894 209
3998 250
120 670
4542 95
1721 15
3251 203
347 450
676 453
5442 16
4272 604
3916 151
714 329
53 351
1349 413
4104 501
1013 214
199 523
1336 23
784 680
2675 498
3854 160
4024 647
4137 456
5153 292
198 508
3576 484
2233 371
4035 124
3454 531
3769 649
1276 417
4638 528
5083 340
4279 266
2211 77
1560 444
4315 385
5388 512
4182 605
3820 171
2498 612
4676 202
5044 472
4340 283
4777 643
4155 390
2550 606
1815 563
4585 100
2487 578
5388 533
1034 101
1314 673
3223 409
699 589
771 648
5111 531
1539 433
326 162
1935 185
4905 305
4368 379
1823 67
678 158
103 208
3160 393
3454 351
1116 649
744 474
1465 353
3290 117
4209 635
3182 362
1055 31
2757 542
1503 248
970 536
3463 153
4204 641
3102 329
4506 610
4161 64
5062 369
281 595
4186 353
2392 578
2660 486
386 452
1178 645
2903 431
2445 369
1293 291
2918 356
4153 78
3295 424
1694 306
253 27
263 98
1821 289
1538 392
1748 528
1001 616
285 196
2056 590
2610 453
3825 606
1545 436
492 501
2902 254
1742 629
538 622
2834 379
903 143
4404 385
1994 104
2770 300
5372 154
3301 17
405 353
5442 140
3507 1
2477 204
3884 523
1786 629
2096 2
3927 281
3262 274
5234 132
5109 517
2038 629
3543 389
387 155
5239 600
1319 568
2024 634
85 312
2138 281
26 219
5019 676
2069 420
2850 216
1346 182
1676 97
4290 590
3193 431
2883 38
3119 122
2883 246
1338 671
1734 492
901 1
4243 497
1569 191
4978 204
948 387
295 162
1566 434
1845 506
1314 103
2786 214
4167 68
1505 476
641 282
1420 369
2927 490
1438 482
2357 134
1694 537
822 1
396 202
3842 508
575 444
4884 199
3739 603
5046 78
4898 357
3909 636
4025 346
1071 242
2566 133
2581 442
3640 453
3613 408
1257 359
853 530
3749 131
4436 511
1056 90
2826 239
4598 615
3815 331
4601 174
661 141
1605 387
3827 595
3874 356
347 359
4712 284
3949 419
440 621
2378 145
1303 30
175 274
2227 471
1460 681
3994 393
5235 41
3360 38
4348 551
4669 613
5257 609
1713 431
1711 331
2760 143
2551 437
654 581
713 216
496 47
4878 250
681 560
2925 516
1043 595
762 335
5013 178
5448 374
2356 660
3065 632
3714 547
170 636
3447 461
2104 276
4777 154
3846 63
514 532
338 225
2529 35
5049 308
563 55
2198 304
3460 524
1082 277
1047 431
1339 441
4188 612
2598 545
2850 84
1334 396
4114 174
1539 206
2923 279
227 74
2605 33
4918 159
4445 613
832 45
4154 113
1084 311
5380 238
204 53
2300 432
4537 145
2586 661
4697 129
2291 447
4931 377
327 365
4220 486
3701 416
4423 13
1441 333
761 361
83 159
3980 480
3629 568
2313 611
865 96
2968 279
4209 11
302 212
755 166
1169 499
2337 363
3281 224
1544 588
837 496
1318 591
3169 349
554 612
5140 125
2909 509
3024 369
3723 92
4249 212
2525 56
611 460
3875 240
2842 422
4161 201
1156 412
1802 228
4762 118
4607 463
2741 252
3579 185
458 599
5216 262
3609 297
4595 258
2425 451
4380 280
4494 278
3794 59
1610 427
5122 255
1634 166
2844 29
1089 86
1990 205
3652 484
2193 528
2466 37
5495 142
118 539
249 655
4396 102
2110 408
2824 420
3335 483
2583 142
5042 83
4703 439
5287 370
3271 201
4480 228
4551 296
2322 636
1217 208
4917 277
2853 137
4979 198
4593 109
3792 513
1074 240
1245 506
337 80
3178 443
5449 594
4539 507
4072 489
282 349
3846 39
4431 102
969 36
591 194
2629 297
4093 52
4754 338
235 72
1525 74
5441 225
632 3
3661 607
2031 593
1457 289
2399 369
2760 431
23 540
192 411
5107 519
3068 103
290 477
2457 566
4336 419
1298 84
2002 526
2787 659
13 104
3239 123
4864 465
1723 283
4383 652
2886 137
2994 518
1459 588
4398 648
1629 283
2576 131
99 132
218 534
2045 337
5204 624
2926 25
2473 378
2099 537
480 360
1602 564
3829 192
1871 221
398 681
3891 577
4015 595
2578 325
1464 508
2420 78
1842 541
44 74
1626 319
2775 648
3387 675
5408 93
649 443
1638 266
623 232
4426 515
3232 9
127 479
1599 448
1637 349
200 89
739 73
1628 400
563 22
1730 58
3392 29
3965 429
1954 104
1899 144
2329 470
1275 244
3332 425
4837 337
2818 22
865 576
3648 130
3226 242
3779 115
5035 8
1176 306
3891 64
532 673
5351 324
4578 425
5025 230
468 630
1323 140
1418 100
3740 195
2781 658
2149 645
2623 101
2161 235
1916 618
3751 418
4428 82
3669 575
3430 111
5385 461
4101 363
5106 564
3714 230
5042 610
3187 613
748 497
3602 564
1844 165
627 273
3507 455
5307 502
4665 186
4240 486
873 20
837 221
3516 354
5455 562
3706 15
1148 462
4104 125
4507 319
1336 376
3886 409
3204 543
3063 415
5159 34
5321 675
5403 620
1613 292
4398 637
627 100
269 100
4291 619
4907 337
4263 493
3002 361
770 31
1413 494
435 420
2354 6
3090 387
4205 289
5006 66
62 262
3189 574
1161 150
1172 570
4991 326
1755 355
2516 33
2467 211
5170 428
1923 429
3982 302
2761 16
3495 78
5379 304
2609 409
2235 535
3262 477
3115 301
4518 170
1168 453
4159 337
1148 442
1578 472
2238 313
4675 1
27 19
219 606
3666 223
4034 191
2695 489
3713 314
4104 412
2138 58
2933 584
1967 545
2499 542
3016 558
5499 544
499 392
658 212
4794 468
577 632
1867 496
5356 415
2918 206
1755 318
4337 240
3432 531
266 218
3744 106
4343 365
144 130
4638 108
4097 652
5426 587
4922 647
4697 82
4148 20
3768 20
2219 247
1931 258
3686 346
112 327
5342 683
3372 298
1529 386
82 381
4986 246
3128 68
2311 137
2772 573
2490 237
4486 667
2427 20
2106 431
25 102
1448 9
2328 332
4178 101
2167 407
4220 144
2574 570
4675 198
1258 443
3797 316
3803 406
1347 393
2125 121
3531 463
2668 569
3628 664
4373 169
3614 559
3788 73
2655 106
4727 176
712 115
2384 114
76 307
2284 290
1371 11
1768 464
4971 296
5250 34
792 177
3935 133
1367 561
3629 346
5259 477
4345 579
1261 421
2803 302
2152 645
2962 187
4667 187
4131 565
2934 290
2824 387
4532 130
1528 541
5329 317
4255 278
2849 437
3647 465
2767 668
3391 263
765 177
1273 505
2877 547
4384 505
4393 444
3090 578
5185 40
3474 124
5006 376
3920 303
4676 445
2800 219
2575 448
718 435
4999 184
2441 136
3153 423
4897 438
1231 335
2056 656
994 594
5357 467
260 255
4597 591
4733 169
2707 207
1556 486
3889 210
4476 615
3950 335
3332 565
667 263
4934 480
4810 195
5401 443
3489 489
1450 196
4715 499
2964 234
1197 229
4954 353
1331 379
3205 235
2368 354
505 171
2733 177
4873 110
1673 305
2433 36
4454 355
1616 9
808 588
3333 617
487 263
1163 561
5030 93
3743 253
4333 522
2424 440
2447 388
3453 536
4925 79
2536 412
3204 449
177 586
3440 680
5050 244
4208 54
1104 610
3238 199
4642 282
1535 32
1391 38
3805 154
3549 625
1914 614
5255 286
4676 159
3444 158
4929 314
3002 332
3047 221
3138 593
1736 492
1084 289
665 660
847 161
3641 541
2096 508
1100 553
2418 43
673 142
2918 664
4687 333
746 424
2087 11
3378 370
641 376
1303 449
4559 5
431 562
840 274
1794 292
891 553
3808 672
2679 325
4102 594
2099 484
3831 493
628 311
1945 353
2011 24
2628 365
3686 488
25 212
3389 579
4692 433
5149 524
2514 395
1672 536
2040 108
5176 506
3635 358
1144 277
586 233
598 234
103 308
1668 192
2011 154
2327 519
3064 322
378 91
4649 234
5314 571
2086 572
933 489
3857 54
5036 464
3410 416
287 659
3208 301
1822 181
626 638
4135 423
1694 626
5469 16
802 576
966 629
383 160
2071 258
3088 468
2380 424
3559 585
5293 257
541 190
5455 326
742 440
4239 524
1833 576
1979 567
3899 126
2081 183
1559 148
5445 574
2857 214
4927 443
761 101
5197 252
3459 384
2053 490
3586 367
3150 10
4268 188
4224 138
3570 447
5395 203
4138 185
3154 400
4161 661
4377 17
2441 504
564 576
3731 444
4826 582
3762 220
4097 676
2544 685
644 414
3469 36
4078 72
3488 516
4161 22
2561 282
1585 125
5336 37
2446 588
1367 241
2577 82
2470 330
3565 659
993 526
2085 146
4888 21
1876 62
1293 142
5088 163
5106 44
4412 421
659 65
1084 245
3749 460
1302 573
431 26
1450 495
1274 678
1665 603
5062 611
593 449
3258 525
3801 454
1899 210
1018 577
3106 653
5185 62
220 569
173 202
5339 72
745 463
1877 160
4421 17
3814 685
2110 110
5022 50
5469 84
4687 34
3398 184
1240 318
1651 355
3580 56
4167 369
1625 363
3560 560
680 352
25 323
1131 140
3928 11
5440 352
1173 588
402 425
1381 487
2971 613
2049 295
4615 78
2831 445
223 401
5239 62
4845 234
2275 337
4744 384
3164 329
1295 229
4388 199
706 381
5283 392
109 466
3214 565
5050 487
2662 375
867 14
2670 409
3382 426
5103 19
1087 6
5490 309
1836 54
3646 575
3818 382
1660 581
2307 74
410 371
4852 161
4675 412
1454 376
2507 395
3620 240
1776 319
1691 203
2033 241
3755 572
3949 199
4561 45
2786 649
3427 583
4328 320
243 351
2491 206
1966 80
5015 645
2965 592
4249 192
4614 243
4550 228
3185 511
1845 351
3608 223
1588 616
4129 329
5464 537
762 473
3123 497
5485 433
3011 410
2969 623
4897 198
2902 246
4357 224
3574 497
290 89
1168 299
4045 536
2547 619
4690 525
2398 444
1431 552
936 301
1145 470
1888 15
1775 519
2474 250
4572 349
165 545
5056 262
4052 550
2874 547
3281 584
2161 52
1906 29
2412 82
4838 48
3823 497
740 610
3603 54
3790 274
379 80
505 559
1909 218
2537 153
53 609
450 70
778 482
2125 30
1616 474
2866 263
3454 678
4951 76
5019 184
1007 93
5409 463
2240 576
1325 610
2603 42
1055 470
16 385
161 476
943 60
4363 183
4591 361
1817 13
5075 47
2278 250
4639 441
3373 342
3292 440
4943 135
2559 465
3172 83
4473 450
3491 106
162 96
4743 461
54 551
4392 154
656 321
516 602
2853 403
440 309
740 90
821 140
136 131
2708 290
2781 671
4028 386
199 356
443 72
3388 332
2746 671
2118 182
5205 186
3048 547
3602 451
1851 251
4834 146
1615 560
3164 264
258 311
1866 517
4615 248
3137 13
4295 614
1112 162
4664 408
2118 460
4624 219
1443 492
2240 203
2262 546
3530 88
1009 288
1358 62
5423 264
3723 253
378 470
691 224
967 63
5075 24
4511 528
4191 581
235 121
3002 499
5497 569
4894 561
3261 124
964 247
157 380
3996 184
3729 543
2434 359
3448 661
634 569
925 317
3688 409
3052 136
1251 200
4379 305
1810 365
1897 438
2502 147
4826 501
290 56
4875 190
2763 421
450 341
4094 431
1567 278
725 319
2151 250
1195 131
2168 386
1215 374
2305 159
3477 366
1267 320
3781 336
1203 381
3934 288
1411 328
3050 674
1363 435
2842 482
3197 443
4286 283
5193 271
2097 549
5076 223
3629 88
17 531
883 486
3952 35
1146 681
3846 678
1736 97
657 447
1636 288
5069 326
1303 465
2513 102
4131 681
3141 343
3835 241
3281 282
4649 336
1251 132
1347 174
4978 270
657 500
1581 436
1250 468
2185 464
5366 16
2444 292
1885 649
3596 655
3196 205
2162 400
1212 431
4869 403
3994 341
5427 360
1510 50
4634 252
1767 673
2627 69
5035 99
520 424
1600 358
1100 413
1011 563
1018 349
1064 480
5452 643
331 619
1718 1
5146 265
3501 182
5481 512
3367 334
3738 142
4456 235
1824 664
3357 120
143 353
2256 593
2872 173
1086 274
5316 410
3395 572
2768 163
170 376
123 612
2519 549
1576 230
1673 340
4260 596
1669 36
1895 513
2805 167
129 287
1567 306
1544 222
418 629
4103 270
2962 487
2592 121
643 121
882 425
3500 673
4076 465
3779 452
1398 444
3120 589
2589 205
1088 217
5135 392
4827 433
4619 399
4111 368
1354 462
2563 193
262 618
4241 682
1073 487
1616 452
5303 486
4858 87
2990 290
549 139
30 465
2593 153
2841 34
713 620
2128 676
1226 411
2351 547
3058 80
899 131
3767 305
3121 115
4733 185
2697 277
3013 452
3411 191
2541 43
4704 108
3097 95
4971 319
1800 545
3929 606
1431 279
2786 212
4226 460
2741 230
2454 555
743 70
2039 677
4418 441
5427 316
962 433
2994 307
1193 206
2777 573
847 371
3634 20
3195 171
4091 533
1957 131
4499 28
1152 209
1951 291
3839 314
3509 500
892 628
3017 355
224 510
411 319
5084 365
2308 18
2323 263
1027 74
4864 19
2685 601
4478 664
534 461
2864 65
1186 238
5056 494
4163 337
2927 520
4938 464
5045 172
299 115
1918 642
3935 45
5490 422
3737 565
3395 597
2356 529
575 392
2760 334
5052 264
2905 643
2563 95
51 295
3082 74
1103 102
3523 550
2192 222
2272 544
5385 72
1273 521
2222 432
4578 116
1705 357
1191 325
4953 249
4841 596
651 253
5459 653
2152 100
2810 640
4609 514
1060 633
890 279
4825 29
4537 329
4275 435
2472 288
4947 532
1339 397
4309 271
2757 133
779 92
3845 46
1657 198
1005 446
2660 430
4740 85
4867 452
2759 132
1487 568
1916 552
4466 603
5145 25
4869 537
4744 140
712 651
1210 295
3919 636
2080 621
3757 330
312 452
3652 477
3688 205
2398 632
3382 654
433 126
1524 18
41 228
3210 466
3843 420
4565 53
3895 513
1317 687
1348 390
5233 405
2107 136
2322 627
2857 243
3704 554
957 345
1591 496
3586 375
4408 468
531 609
404 664
1025 134
1276 94
651 157
5244 505
3693 402
700 412
1511 140
5428 219
4171 425
3986 73
3640 37
286 8
5326 400
3102 394
131 493
4223 227
1292 216
3597 278
978 281
2492 439
3096 381
2941 681
4263 579
3996 153
1867 211
4591 337
832 108
5265 482
2948 586
1857 498
2104 665
4720 655
1227 607
3198 398
4614 178
558 289
3886 248
1241 82
2561 459
1563 52
2609 416
4109 110
4611 567
3627 675
2200 413
3293 10
4429 463
5229 387
1267 294
3532 553
3439 83
2769 481
4381 635
1532 45
3908 593
2527 141
1870 352
4318 664
5103 295
1421 672
5280 271
4034 6
3324 316
1164 64
4079 82
657 290
708 256
1799 58
4186 169
426 441
4050 316
672 111
3683 185
2733 162
2525 485
1923 150
452 60
683 381
5482 580
754 238
2612 542
4563 43
1557 509
2533 530
602 431
3284 2
1768 101
72 331
524 440
1346 176
747 631
4239 387
3568 393
896 148
2288 196
4191 666
3482 59
5177 668
4421 478
1430 535
4794 46
914 667
817 517
4532 644
3348 234
4798 178
574 583
842 601
435 398
3848 640
3145 462
5036 259
3686 372
48 530
3306 621
3121 683
2051 658
1722 289
4659 294
247 152
3942 566
3395 250
365 359
1801 59
1336 597
3944 571
2995 25
3410 544
2256 299
1927 2
151 532
5036 61
2838 249
3601 444
2761 504
4762 57
4705 657
3357 338
5053 594
1579 453
435 82
3127 426
4880 354
4403 536
1148 222
3110 558
2046 546
4418 20
633 510
3663 482
4713 323
2704 556
5067 93
747 656
934 91
3042 199
4974 668
3929 198
239 638
4168 87
2497 620
1209 579
2362 466
1740 214
4500 147
0 397
524 41
4248 350
349 442
4167 340
304 616
4032 160
2978 485
1111 448
3761 542
1445 511
3351 120
273 178
5344 534
5145 434
2143 644
1432 501
1196 121
1438 218
1265 332
1202 136
310 20
2768 651
148 667
5125 108
3573 67
2788 408
4383 239
1959 189
4112 18
2447 650
5368 8
3942 130
1003 566
4944 478
5360 27
333 648
266 177
3012 74
619 541
498 675
4550 282
3185 638
55 4
2816 134
1560 172
294 473
4255 320
5284 482
2065 464
131 51
4456 316
2717 253
589 278
3114 360
3915 562
4318 176
1381 133
1067 279
4847 475
3497 4
5066 379
1059 162
4240 665
2811 375
3323 27
2705 225
2640 3
1462 630
5066 446
4150 632
1187 60
2883 56
3203 483
1530 371
3762 602
4270 675
1563 566
1275 597
4261 603
1517 501
4427 538
1237 674
1339 640
4348 540
810 21
520 420
4460 155
3937 407
365 329
2562 367
4762 276
2252 210
1247 405
4756 213
3718 470
966 25
3417 390
3114 560
3525 164
3017 207
1341 247
3842 402
2314 182
3454 86
2391 234
4809 665
2711 631
867 435
1182 619
5299 353
3251 315
3615 356
1848 587
3375 297
2824 415
4318 454
2436 311
2895 568
3168 620
10 20
4634 296
849 683
1653 643
5178 52
2379 456
1588 58
2956 452
3501 285
4369 255
3610 270
1892 384
1571 128
1065 187
1469 206
131 185
1357 185
3578 513
3697 605
1962 347
1052 566
2770 428
3942 79
5289 500
3172 558
14 223
5228 333
1960 265
1326 367
5069 6
4057 674
3632 616
581 627
4472 118
1706 444
4230 239
3468 560
4826 601
4322 672
2179 480
2083 529
1202 322
261 317
3119 322
1224 517
1714 456
5050 335
2903 641
4028 609
5059 407
3658 622
1677 519
3404 546
1682 644
2296 105
169 296
3044 309
246 430
1425 351
3606 25
5331 158
1370 278
1922 533
4431 267
1410 189
5471 683
4551 257
4290 218
3286 513
2825 176
2005 132
1201 177
1164 498
2338 211
1946 325
3681 8
3842 50
156 82
4376 50
464 366
3231 681
5117 588
4947 153
1542 135
2130 483
437 106
2633 601
5295 317
2232 538
3679 394
3213 342
4303 333
1717 628
1402 118
4162 501
4079 81
1393 344
3418 265
4641 471
4137 657
3573 393
2945 266
538 482
3577 247
1109 43
4035 400
2411 162
4288 353
201 425
11 253
4244 353
422 37
2544 333
231 509
3383 379
1257 74
275 361
992 206
2753 50
2363 604
624 31
3914 297
2451 636
3540 149
817 67
1077 533
1144 266
4703 624
1851 682
84 4
2363 480
1276 117
3730 554
858 659
2025 654
5271 117
1447 438
3863 176
2898 677
2032 183
4863 411
1218 134
767 70
393 265
1868 436
2441 610
651 479
2695 394
31 185
3468 22
3130 678
2245 437
1783 1
867 85
1420 381
529 478
463 411
1447 366
1417 663
4701 240
4260 185
4765 85
5469 176
3387 463
4975 94
4474 606
3053 205
2990 214
5161 526
1440 454
1987 560
2593 85
3097 522
178 367
1591 109
1387 314
2198 519
1303 619
833 11
94 501
1410 409
2688 257
983 611
4863 416
4726 205
3739 667
3871 368
5305 561
662 79
2801 115
1618 661
4923 620
3975 480
3698 681
4308 32
2747 439
1828 341
914 172
4063 466
2883 151
5219 287
5279 149
624 222
1299 412
5256 6
5448 576
440 110
1923 662
4891 448
2924 130
2033 540
1717 439
5343 308
3929 568
3146 99
907 440
4535 142
3989 52
1634 354
3196 672
4822 258
2929 301
570 543
2528 403
1658 291
2259 393
3230 153
3915 309
3392 341
1150 204
3179 497
2749 33
5179 65
1295 605
1170 447
4181 219
22 528
4160 482
1345 299
1600 195
1101 298
1090 316
1938 515
648 95
4106 456
572 462
4024 489
2990 4
3437 269
5034 583
1097 156
4478 607
5090 631
4293 89
1217 416
2097 634
1175 640
1214 190
3900 276
5337 316
3025 163
2356 536
1460 507
4552 234
336 5
3115 161
3601 87
2777 396
594 293
2554 322
3237 155
5492 664
1344 279
3649 359
1483 65
4841 509
2949 496
1866 43
4848 370
3478 82
1149 563
2071 478
2543 23
3918 134
125 85
5397 212
453 556
1747 416
59 630
2712 597
2918 526
5426 252
1133 291
3014 516
3543 563
1659 604
693 430
4343 354
1559 216
532 365
1465 355
5226 90
3445 615
5259 54
3499 213
1125 169
378 335
4674 618
134 348
3392 632
3890 64
1760 130
1309 159
2955 297
2968 185
2743 32
755 90
4518 490
2740 348
4190 132
1188 584
3612 352
1959 482
1326 44
2408 510
1651 49
3396 129
2810 32
812 642
2345 150
5256 588
3736 672
71 327
3881 682
3889 564
4172 583
4604 35
4876 434
903 648
5302 108
2656 172
3441 146
4893 332
5252 478
2734 539
2521 137
3617 601
1062 276
705 244
5454 170
1916 655
3087 632
187 268
4845 290
327 137
3925 458
3199 497
720 658
2343 89
435 159
735 119
143 626
3413 669
1962 325
3470 187
2085 628
1709 93
3928 598
165 341
4172 376
636 498
612 244
1670 453
2619 545
5179 90
4627 597
2696 85
1051 193
5296 9
5236 409
4383 234
4475 364
1961 466
4322 545
3724 397
3851 207
4804 548
2978 422
1556 311
2923 238
3016 42
1396 503
31 658
4217 367
2247 182
195 92
4250 266
3705 333
2516 488
426 57
3582 213
5100 533
1581 7
1349 133
1485 594
1362 651
4110 359
3821 475
664 295
194 403
74 104
4159 314
3740 96
5097 63
813 178
1042 27
5028 353
5458 206
4459 526
1167 123
677 12
4208 224
2783 79
3899 580
4585 295
3896 42
3304 238
5115 119
673 490
4611 225
5428 149
1060 294
5206 521
2896 562
2519 422
2776 122
1514 183
1768 589
4974 414
3988 550
1847 448
5329 474
4232 517
4334 190
581 430
3134 634
4820 73
3369 388
3712 357
461 13
3033 288
4956 177
5430 644
128 29
2246 376
2470 418
2689 370
1126 178
1180 591
5103 296
41 563
2574 123
3624 503
1303 612
4960 504
1522 235
1622 236
2519 172
1016 389
4146 100
2371 11
1365 637
4539 212
2124 339
533 42
1659 485
1010 628
4565 487
2653 275
174 472
257 262
3163 102
659 588
1305 389
4964 140
4635 670
673 47
532 257
3383 252
5496 676
4471 347
1575 31
2523 183
4671 267
3657 73
3019 236
3739 297
221 129
303 220
2404 261
338 286
473 498
1809 253
370 606
1580 338
3838 452
4912 421
3817 434
1069 175
3248 532
2565 316
2373 222
301 621
810 342
613 532
2972 459
4085 310
3912 169
4089 141
2992 385
2692 29
990 43
147 629
2035 171
4836 54
1629 606
1241 94
3268 561
3941 428
1195 40
2004 545
4205 71
3206 107
3690 299
2395 384
3281 214
1313 546
2160 415
3496 391
3998 590
2287 364
2164 564
4026 37
3097 36
3994 79
4389 521
541 422
1363 489
2101 375
729 229
3114 189
4000 454
3141 460
4782 313
3781 431
5394 412
1593 179
2753 166
1591 414
879 333
2625 232
1937 350
4560 674
4722 121
241 307
2078 635
647 307
4346 80
1418 205
5320 377
25 368
3080 153
1172 245
5465 556
5373 487
5154 533
4936 539
1252 359
2382 37
2588 262
448 613
2904 243
128 510
3848 501
4211 544
5242 537
1993 384
1348 261
1918 80
1019 636
1074 318
4871 294
2459 580
4687 473
1067 562
1610 329
4027 403
2375 669
4318 190
3007 674
1368 33
2431 30
1964 335
3770 336
4571 324
4287 686
3042 227
1573 543
4821 343
2991 396
319 570
4489 622
1013 379
822 103
5423 475
4726 425
122 301
3095 326
2979 672
5030 524
1532 454
3412 680
4888 238
1214 335
670 363
3296 152
2566 234
1609 533
2975 394
2366 304
3390 389
4662 283
3175 554
1079 251
4996 598
735 465
979 218
4418 251
3045 660
740 280
2005 601
5085 501
5221 92
5122 618
3655 182
849 21
3766 65
3439 426
2543 40
3735 107
765 237
3414 7
3876 36
5367 651
3985 123
4457 671
1194 94
4034 150
4723 577
2814 612
3369 123
981 392
3758 569
3137 101
6 469
1816 177
3306 52
5472 398
3084 381
5051 67
2899 88
2057 2
3989 585
197 11
1808 17
835 411
3343 539
2208 64
4428 524
2195 559
4008 108
1681 600
1200 217
669 204
5338 430
607 270
2196 401
2447 183
126 489
5159 350
5355 516
438 89
575 73
1406 248
1890 565
2711 330
91 197
2677 669
4220 598
4050 17
2559 680
2148 533
3201 195
4681 376
3900 206
1283 308
5323 673
2539 241
2091 108
70 129
16 523
2284 250
1340 516
3017 381
2876 640
2066 665
4062 84
1844 177
1121 85
3487 369
4470 146
4013 265
1854 253
4557 624
4187 313
4363 95
73 405
613 423
1925 476
2530 610
165 217
712 425
5394 200
982 349
4991 386
5185 403
4998 147
4382 391
3128 376
5103 575
2298 212
3018 378
3351 274
4244 531
341 437
441 17
5090 571
4975 557
5070 471
3162 32
1263 58
829 378
2114 69
5213 467
3682 578
2641 256
186 488
737 324
2070 160
2047 299
259 76
1353 335
885 10
732 240
1438 198
4055 364
2132 683
1994 406
5084 159
2041 159
2659 328
2584 584
4530 601
1025 598
1409 672
1238 626
1288 406
1500 42
2257 562
4437 11
2966 164
2392 408
2906 87
3573 633
27 87
5248 28
5316 185
3101 594
4535 638
5413 441
636 626
1706 550
3367 56
1148 229
1696 391
3559 297
589 258
1264 574
383 412
4157 643
4041 474
4796 460
3634 273
5277 93
4853 552
3399 63
5303 335
3175 270
340 135
801 204
5298 464
1001 624
974 502
4745 506
3257 686
1725 664
5321 487
814 455
4001 492
2614 223
4912 63
695 127
3673 229
827 391
1646 369
435 647
5209 373
4087 221
154 466
5342 64
2401 15
3315 658
3397 624
3995 423
4828 598
1866 654
5206 473
3901 417
4872 242
1289 445
2982 183
5024 503
1884 409
274 670
2140 38
3384 340
3329 81
746 273
5322 310
579 465
688 208
4128 138
3309 593
114 99
603 339
197 151
768 168
3121 213
1489 536
476 128
743 453
1809 141
1726 566
3861 592
3302 140
1441 577
3298 57
570 228
1823 211
4096 372
5088 202
85 10
1035 660
1852 677
2827 610
3877 44
2143 594
1280 545
1093 341
3091 189
290 57
4353 157
3435 131
1505 233
593 259
4004 224
3529 17
3355 678
1328 635
4599 458
2263 255
3478 665
1579 150
2976 198
4913 52
2018 15
550 477
3339 313
4696 512
4957 308
3362 212
807 494
131 324
2617 245
5097 109
2790 161
1834 299
3977 29
459 214
182 357
2243 150
3385 433
3995 322
3265 24
4185 205
3037 501
4942 455
5036 399
964 514
2802 258
194 672
4694 322
1683 406
3475 83
4259 343
1190 345
600 658
139 455
66 551
2103 324
4122 540
2471 486
2758 142
2802 565
3125 597
1149 659
1020 94
2395 278
4857 82
0 592
1451 323
3358 550
5338 279
2222 619
1133 584
2361 517
4693 344
476 426
1219 109
1874 268
1728 461
3484 327
3178 342
2873 251
5111 219
5119 342
705 452
1738 417
3020 177
4108 376
5215 263
60 340
5298 621
3240 115
2413 641
2844 317
1027 190
1682 381
2601 217
371 51
2146 212
2895 317
1047 515
302 10
3500 474
4061 670
2386 526
1614 236
3300 487
3140 307
5262 386
2119 20
5009 275
5329 270
26 463
2563 8
438 156
2829 228
3894 534
523 601
684 341
4346 16
483 507
2855 336
744 513
4838 238
1331 308
4533 120
5063 203
1178 94
2901 325
2329 562
675 101
1248 195
713 182
4227 303
5486 515
4082 651
5211 677
630 352
4087 74
4116 164
1359 407
1667 194
3157 66
1849 674
2593 96
1270 155
5274 631
262 189
3123 215
834 193
202 85
979 92
3449 472
602 591
3018 80
213 72
800 621
2756 153
2496 177
2668 627
2111 230
1095 311
1811 443
239 669
3211 547
4524 212
2883 590
724 640
1605 260
5421 592
1021 406
1908 57
220 48
166 377
4520 549
861 69
2496 86
1505 114
625 144
2631 115
491 431
2615 365
367 458
3485 653
4064 5
3761 7
2621 508
4607 184
3214 125
1208 432
1065 582
1890 338
1333 628
484 482
1406 313
5244 664
5405 48
4944 571
569 404
2263 515
320 609
5420 198
1145 302
132 274
4712 18
244 224
304 244
5461 11
4999 558
780 679
2649 312
1951 227
285 310
2885 197
1804 39
288 227
4948 361
2245 610
1279 187
4608 465
3333 327
2314 343
958 378
563 680
1600 371
3478 542
2767 363
2680 481
1855 85
1396 302
4751 124
2657 222
1331 281
709 649
4457 67
379 79
1339 608
1295 176
5016 292
1266 501
1377 435
1588 519
3924 633
1630 339
2377 183
3035 168
2966 21
3261 507
4891 6
5076 45
2275 301
2605 361
2677 252
2850 125
2960 259
5101 464
1261 63
590 449
2775 9
643 436
4317 299
1650 358
665 647
2140 7
394 20
1563 225
1439 649
2783 457
2680 463
3510 570
3820 283
581 138
3192 674
3561 645
1418 573
3841 126
3554 143
550 377
4999 394
2069 282
4892 67
3632 284
572 426
3576 228
2020 583
2 538
4552 90
1868 303
3897 138
581 665
1598 495
4865 109
1576 489
5432 618
3633 226
3985 392
4898 206
1142 487
4309 145
1952 592
294 320
581 417
3346 99
2020 634
1750 317
4952 427
398 611
935 215
836 3
4055 617
606 76
35 540
1349 552
2059 87
72 365
679 198
744 121
1019 212
633 577
1775 613
2044 394
3832 295
1867 67
1194 482
2724 373
3546 450
1569 370
4285 392
1124 621
3727 294
2406 428
142 216
3927 273
4695 157
4554 51
2916 564
5481 578
1210 228
4751 473
4513 490
2092 292
3775 494
2804 4
3243 493
4823 347
666 391
287 29
3784 499
1089 19
3313 622
4178 413
2027 652
5473 150
1734 98
4918 168
2266 609
2874 222
4800 119
5008 406
2913 563
5042 135
4256 575
767 240
2610 425
2922 651
2996 468
546 298
887 304
4004 121
972 61
4509 328
5475 107
4494 623
979 400
223 44
3519 473
4126 264
5388 673
443 660
820 398
4517 217
1709 432
1689 192
734 89
2305 148
1859 51
1933 231
4079 274
3618 444
2111 543
3335 235
2403 339
898 185
2546 220
3193 160
3906 139
4938 41
3601 299
908 172
2811 38
1549 585
4199 520
5491 258
4022 267
3097 39
3815 370
3768 471
3485 470
1449 303
3654 172
2090 427
1095 573
3912 108
782 9
3054 346
3066 506
348 419
1114 211
1837 422
3351 468
3453 78
2643 658
4530 128
3829 531
2960 226
4725 244
5498 127
1233 51
879 215
3026 313
2363 244
2742 350
3235 263
998 510
898 521
1809 562
1425 663
3408 626
887 529
325 354
1881 235
3212 596
5416 626
4538 265
4191 658
5105 455
5152 538
2275 443
28 577
324 459
1655 97
4745 471
2794 395
537 566
81 331
544 152
4917 451
1485 678
4370 234
5460 72
3814 32
2457 586
4494 402
3573 272
2337 171
970 577
666 577
3605 430
2830 159
799 52
1815 279
4533 70
2966 347
4611 598
3957 509
5214 468
3460 112
4702 385
1271 575
4134 205
5124 640
1588 72
3268 665
996 608
1910 111
5359 7
3547 471
4967 298
3562 403
2562 420
575 586
4982 259
4754 438
4449 411
4922 286
3803 364
2576 546
3703 598
2367 613
1210 608
3710 77
1446 302
3112 649
2460 300
3010 342
1205 22
3935 297
2959 326
4984 235
2906 106
2952 513
4810 621
2339 317
5352 156
5245 654
4150 67
4464 673
923 323
2689 32
1259 288
736 599
1449 580
917 240
3048 110
2331 322
1859 659
5471 296
2672 72
2165 321
1901 328
2558 464
4476 595
2123 173
71 73
1254 41
5127 68
5453 219
3608 354
4875 559
1621 31
903 14
4722 82
234 617
2301 247
4564 467
5123 37
100 486
3427 141
2851 65
3587 570
66 75
3668 623
1606 280
2159 242
4328 10
651 382
8 671
4419 663
2801 652
1367 458
1581 101
81 405
4991 36
4920 174
3740 117
202 494
317 406
4356 598
2738 548
2954 225
3497 364
4427 3
2634 500
1514 96
2507 312
191 45
630 674
3188 254
3370 188
551 448
4460 649
747 646
2913 679
3843 150
5465 424
2726 464
4691 571
4483 471
1618 27
4680 532
4874 344
4071 565
649 85
489 135
415 476
3968 123
3116 658
5 411
5225 549
2123 386
2263 167
2761 266
5010 299
237 172
3229 632
1930 617
4066 115
3861 231
4482 573
1651 685
1870 557
4011 357
3034 249
4170 545
2497 66
1658 1
4439 399
1497 470
5388 586
2048 401
3568 466
1165 349
4567 603
1824 657
2626 132
2816 290
4059 516
2947 125
971 57
2078 234
3862 449
4762 580
1830 224
4721 327
3831 442
1143 430
3551 425
2051 318
2529 61
5290 672
1369 11
438 180
618 153
1362 303
3690 462
4199 659
5167 66
2383 181
5398 341
823 141
560 111
1829 148
1263 341
3254 330
4905 671
1829 509
3703 369
3573 190
755 50
325 544
1088 123
5337 675
1084 465
4284 9
740 358
1314 288
551 606
5000 134
2066 402
1481 550
2572 175
4543 172
4254 618
3875 295
3740 279
5411 550
2897 430
2797 339
1449 194
2407 132
227 241
873 530
5276 654
3973 210
5245 339
1674 546
1604 390
4836 468
1284 35
4736 42
1159 557
2886 588
2984 611
968 518
4986 284
5220 307
5434 509
3740 128
3818 598
4891 633
1834 28
43 149
389 148
3237 307
4432 510
2806 620
377 455
3025 555
115 74
2260 533
457 245
4723 373
1994 64
465 114
380 14
1791 298
1283 548
2468 554
4498 381
4325 681
2916 597
3278 203
3919 16
977 194
4994 90
550 554
4486 435
722 27
3242 523
685 413
1754 101
4660 586
4915 365
1105 363
3966 670
3168 283
3606 294
13 412
1588 45
2764 298
4156 264
3166 91
670 0
93 546
3678 186
2725 118
4767 109
4788 457
5247 52
442 505
55 57
3319 56
264 450
1114 397
801 535
929 671
4146 324
2195 467
4739 148
3502 677
5229 553
3726 253
5348 365
4061 309
487 492
2178 75
3326 544
1014 324
4109 519
5152 348
2815 123
2112 659
2784 432
1672 18
3922 366
3459 415
4700 538
612 547
4362 244
2530 510
3929 567
1081 183
2083 389
205 519
1061 417
506 514
199 181
1460 330
854 104
704 600
2662 278
4490 644
1329 602
229 69
859 223
1997 38
2648 502
4617 283
2484 135
2055 356
2644 507
2385 142
822 170
4067 283
3597 672
4376 430
614 218
1322 618
4047 536
1061 222
2609 361
3385 584
4193 631
1936 153
573 29
3214 423
5434 148
4256 429
3700 221
3388 445
605 605
63 137
3961 97
737 670
1023 587
1704 626
1209 215
5420 539
4869 427
3412 589
1930 606
5036 46
4978 181
1978 609
1926 238
5426 526
4563 383
2663 638
3811 147
2623 372
4084 28
5092 274
3595 467
4972 437
1714 280
1820 282
3870 686
4559 219
4982 27
3475 15
2418 141
256 670
1769 477
75 17
4708 61
1409 434
3734 494
2812 566
178 144
3380 215
4866 532
1983 128
5059 456
1563 194
1715 111
4620 70
719 373
56 521
5472 665
60 137
4012 330
456 408
3085 405
2069 65
5304 211
1331 81
3040 555
1242 403
985 375
3636 417
3755 289
1469 45
1477 483
2764 615
1214 3
2719 499
3616 111
3258 560
1835 283
5176 380
1198 310
2999 563
3402 550
5318 501
3798 256
3839 660
1936 119
935 656
3174 667
5489 491
2098 217
2981 448
489 483
3987 252
2614 629
3544 60
3737 593
4115 107
2435 635
4903 660
5122 510
1779 83
3888 241
4509 235
2051 463
5154 406
25 482
3272 364
3862 493
1826 535
178 368
5245 458
2158 429
1962 662
5045 288
2467 591
4868 269
1932 21
5454 650
2463 652
2575 73
4301 219
3605 277
2226 333
5466 414
2552 93
2660 201
2831 475
4815 665
601 531
380 225
2424 659
321 68
163 169
4334 243
973 610
1381 471
2475 280
2419 675
3636 82
5222 30
692 480
2359 274
4438 460
2231 228
1548 250
5339 488
3129 405
2760 382
713 243
3197 21
804 456
5006 14
2952 176
928 321
4466 41
3753 193
5304 85
1562 76
742 342
4939 152
2990 478
4454 114
3610 243
1175 232
963 556
514 131
3364 632
800 577
1137 118
4768 470
4484 411
4836 272
2190 202
1976 185
567 507
2779 236
73 11
1417 254
2612 678
3918 612
5262 15
2881 428
3223 305
1243 315
708 411
5163 197
5312 287
2535 45
2129 4
2049 140
684 505
2910 57
5485 22
2171 304
3593 531
2960 132
114 185
3826 307
3133 675
1156 580
3317 496
178 205
3167 62
1512 531
5298 225
3692 27
2829 334
605 438
2177 191
4135 399
2618 461
4000 355
1486 255
1783 426
4915 266
1378 73
1107 337
4580 474
3027 17
1823 363
2326 335
1392 234
1769 360
4996 267
3311 393
2395 318
4225 550
3736 611
1444 206
2818 470
4817 506
1941 216
452 281
590 440
1107 472
1326 285
3257 568
1641 574
4752 121
4714 633
2987 464
4785 409
2685 484
3057 276
5070 473
1558 337
1113 595
5323 308
314 427
3491 684
411 23
3438 333
5180 355
2946 43
3285 106
4993 579
3310 307
3602 563
3264 346
3237 278
4090 341
1987 472
1066 430
3500 638
5169 114
3248 611
3314 286
406 243
3574 149
5012 558
4729 364
2906 201
5342 675
1379 347
1475 664
3322 645
722 74
2131 13
2271 459
4811 358
5165 82
4220 677
3214 490
2309 50
4545 458
589 554
2394 23
700 238
2075 639
4640 245
5182 581
910 663
2780 354
2330 271
3798 337
2696 150
2955 69
656 324
4533 50
4489 411
3694 65
154 195
1397 287
3626 571
5057 565
2368 151
45 59
1773 599
4196 370
2789 88
2363 18
926 549
4447 447
697 352
4949 362
5431 458
3407 103
2642 13
4031 268
770 331
82 106
4318 679
2232 553
4060 37
4624 464
4949 575
3441 379
2442 563
499 164
466 224
4253 394
3486 582
224 151
4826 40
4604 659
2999 503
1488 75
456 381
1237 419
935 29
677 511
4436 436
1166 36
4054 571
2772 144
4325 217
3636 394
1990 560
4107 227
4556 547
2970 441
6 357
4906 57
3196 468
3485 318
695 180
1980 377
4464 137
249 405
2178 94
4541 540
1654 88
4494 575
2252 101
4672 467
2548 63
4961 47
372 221
4714 279
3475 84
2212 615
501 445
1540 663
4614 472
2567 367
796 200
3964 140
2787 22
3517 685
3762 270
2142 116
4841 293
2218 547
722 405
421 667
3819 247
680 195
3584 245
5069 118
1478 81
4615 509
974 617
1509 196
4916 345
1699 522
265 277
5006 458
2547 275
4215 411
5187 655
4198 529
5355 92
465 265
2694 32
2606 127
3945 298
4829 267
2474 271
118 649
2625 124
4528 439
1961 436
639 553
3020 60
2155 379
3298 89
1089 273
4008 148
2724 592
4482 302
533 305
3481 218
2278 519
4910 18
218 19
4385 287
5299 122
5160 374
1950 637
1942 532
3376 66
3739 185
444 614
1859 153
2437 548
3176 565
4227 673
4701 179
2900 101
666 176
1076 112
4837 19
3101 108
3694 186
1402 175
3046 424
3840 497
5424 68
3494 353
4497 604
1084 162
3557 306
3096 603
3334 144
1506 524
4849 617
1750 283
1065 302
3651 426
4986 619
1255 180
1341 441
3245 659
4122 546
2071 106
4842 280
44 382
5274 627
1124 293
1697 439
1718 660
2831 635
3737 456
164 80
1671 303
3424 184
5143 261
804 425
4193 526
431 351
3661 208
5050 550
4885 23
1578 291
3366 168
1177 7
3843 87
3225 488
3943 234
4243 388
5379 587
1774 45
3812 171
3686 266
4045 95
518 307
3083 604
4897 40
4425 225
2392 91
3297 306
4564 522
2876 42
2067 283
3010 400
3254 120
4759 453
4274 77
2549 597
2064 201
2700 163
3460 613
2759 665
2229 206
1747 259
1079 241
4082 676
2586 421
987 440
4872 72
2900 587
4520 473
4371 71
2665 649
5454 115
1392 302
3711 218
1837 50
5437 647
4269 32
4332 372
4337 233
983 430
3202 627
4605 68
2236 682
3446 439
4313 33
4479 163
3297 670
1505 506
3985 265
2162 484
3269 139
4951 17
45 355
157 506
3628 644
62 420
4741 473
5043 659
4038 408
801 167
86 261
2747 286
837 569
2019 166
3629 523
3930 205
1775 209
2941 445
2569 262
5496 343
3638 466
2863 263
1047 599
2373 124
1702 220
3550 15
656 438
4549 37
3674 242
1844 161
2300 269
4291 155
2499 136
303 630
1459 527
103 675
3475 40
2822 197
2927 322
3252 492
976 430
3875 663
3420 630
3100 661
1472 173
1121 390
1510 215
3524 332
2338 278
5369 154
1632 342
3505 638
5412 602
5163 578
8 230
3200 327
82 536
428 654
4612 152
1725 210
1241 558
152 146
3687 254
4463 494
1736 568
3404 294
5076 588
2627 234
5430 54
2217 408
4693 587
4472 273
566 6
3748 398
3234 228
3619 241
257 646
5498 131
3057 242
3600 516
5371 237
278 110
4772 384
1926 338
467 127
522 55
1743 183
4344 650
902 63
4344 156
310 349
3066 419
351 84
4274 249
3101 141
407 27
3514 474
775 394
1868 161
3701 179
3421 466
2278 234
1307 73
3908 115
4566 146
2450 87
5112 493
5406 175
2538 559
1778 331
1008 291
4586 580
3060 664
4484 644
511 57
2697 187
4898 640
5334 26
29 597
4328 309
5142 240
609 637
3002 328
4825 521
504 642
4938 173
2248 76
2230 481
5227 289
2811 494
4433 196
1801 278
973 54
1828 500
5174 620
1930 528
1682 294
2783 344
4386 328
208 203
1671 76
4284 495
4977 206
5153 192
1799 292
3338 174
749 657
3460 368
856 356
5001 536
1703 490
2455 527
4775 592
0 192
3961 342
4207 667
2537 255
3958 655
1131 17
4606 553
3406 224
5121 378
2489 473
3476 636
1529 678
3788 357
4924 546
422 167
3379 344
2495 461
4373 347
4038 446
5408 546
2094 352
170 453
2546 138
2917 677
4361 59
4504 573
4818 472
1772 411
1612 404
1696 362
4440 88
753 39
2121 509
4878 225
739 384
1591 215
336 564
4738 22
4000 307
4866 613
3699 513
1370 201
2547 205
4177 36
2366 527
2394 41
5291 476
2158 520
3454 612
1379 19
1960 530
4502 120
267 122
1943 663
1067 318
2962 287
4317 35
4089 53
3148 676
3664 568
3890 265
5210 552
3485 62
1426 83
579 78
3111 54
1593 522
1857 313
145 32
5346 539
3934 43
4575 428
4902 421
4746 667
5307 98
3334 426
4768 458
4671 644
2372 553
5456 633
591 505
1611 197
3381 462
5174 428
4289 358
1447 535
1169 307
2048 57
5085 106
4510 554
1798 451
1334 508
1398 107
4541 378
810 636
2001 2
4535 493
3854 301
4437 522
2296 529
2605 11
2505 348
3392 545
799 415
1357 90
4808 370
2211 34
915 273
2308 64
2232 50
2424 236
2573 14
1858 327
494 35
490 171
2981 281
2538 290
2607 166
3060 222
1168 146
365 46
2483 335
4075 96
4323 151
970 640
3778 189
4626 107
5054 639
2975 182
5081 558
2310 384
1381 299
1984 154
3539 547
2280 76
4891 545
4437 392
3790 391
5464 571
4110 563
1203 201
2953 185
4854 399
5304 256
40 608
4455 396
3400 10
493 269
1021 406
4957 120
356 120
3004 495
2216 31
464 119
1067 658
1176 120
4513 70
4638 524
3351 522
330 65
4679 406
5473 485
2292 617
2173 590
1242 472
2932 9
2522 442
4588 683
2763 330
5310 501
4397 175
4318 557
4848 254
3324 86
4242 658
4271 5
372 548
1307 607
4526 503
3433 516
2556 183
2921 453
1443 371
4655 54
3557 277
1512 103
481 371
679 305
265 46
1389 391
1497 537
5001 686
4294 605
2698 539
78 401
4524 264
3220 310
3435 110
5423 213
3031 648
4626 275
4931 510
5440 584
2172 40
3752 242
4154 48
1020 305
4408 270
5369 95
1986 567
527 361
1036 267
1657 269
1865 295
488 375
5304 304
3807 10
4468 486
2513 461
5185 200
4263 581
1097 600
4898 687
7 141
3498 172
2397 113
5169 418
282 647
2413 300
77 316
1974 65
393 142
2813 137
961 333
2912 244
3528 652
4783 266
3125 226
3222 438
4788 597
3926 187
1768 395
817 159
1339 90
3435 628
369 79
3583 621
5414 480
3830 440
251 443
1294 23
4444 192
3249 276
2225 226
5037 288
5380 171
3418 622
2090 268
4666 104
5478 279
1230 520
1626 57
925 131
3397 408
158 623
748 392
4772 357
3135 347
3823 392
4723 429
2811 312
3101 319
3418 464
5336 409
4418 641
5151 175
697 315
4098 106
2864 93
5118 71
4912 238
2915 307
3422 414
1736 188
4554 223
4114 203
642 637
2188 201
1482 411
1059 141
3338 144
2788 515
2095 41
696 460
809 449
2415 356
3208 120
5302 557
2727 191
4432 215
3699 451
4602 535
1446 211
1010 30
4642 458
199 571
1080 464
3110 34
1484 353
4986 308
3513 660
1411 98
4953 357
1055 663
3499 1
4609 44
4470 398
3891 85
3609 461
2851 597
996 349
386 168
3985 671
5078 56
388 566
4161 575
5446 181
4596 185
2845 628
5352 81
4595 670
930 338
4225 555
111 56
2675 38
5461 324
5105 456
1529 582
1600 184
3724 426
306 630
3784 44
300 155
5463 298
3521 585
1405 528
2268 388
1218 514
4248 99
85 181
2080 379
1663 455
2486 178
1213 523
1767 672
2876 256
5252 649
1393 252
3056 338
1040 384
5065 287
30 444
276 324
741 80
3507 436
758 240
3234 295
57 107
4295 429
697 20
2832 336
1737 626
3193 68
1699 323
1350 30
3797 565
3300 665
4942 686
1208 49
5458 393
477 24
2831 158
3551 324
1889 326
138 660
1966 11
661 546
308 506
4782 568
4347 414
3882 8
4797 395
3331 401
1672 663
595 403
3939 558
4353 606
2067 216
3948 74
1777 13
2698 637
2515 619
5184 628
3388 387
4660 61
2861 159
3874 101
3612 191
4666 62
4483 679
4318 248
3924 624
3246 124
3693 290
2950 63
4185 495
118 420
5141 34
5155 517
616 450
4039 636
3222 593
1815 169
2227 618
4346 158
3544 304
4943 477
791 124
335 181
1363 367
1584 628
4429 410
5112 346
340 540
4787 164
4720 595
4499 208
129 2
1813 133
4487 513
3128 667
4803 164
3679 489
5480 111
3601 111
2882 55
5342 651
2043 81
3277 159
2132 168
2741 292
4798 509
310 558
89 15
3463 308
3206 361
2854 205
3354 596
724 473
245 426
5042 216
3511 380
866 409
1142 34
4475 382
4585 669
5382 25
1853 206
4430 111
1582 193
4728 28
4259 101
1663 500
990 235
1991 595
1428 388
2507 377
44 128
2874 526
5491 591
3738 511
4142 155
3389 603
3621 613
2683 686
4234 227
1834 302
1757 584
927 1
584 28
2606 19
4893 545
5000 97
281 169
1082 631
3492 539
2545 31
2090 116
2048 608
2617 16
5066 637
3825 224
5329 335
4710 550
518 194
3436 384
122 391
3500 275
1324 251
2030 597
4160 393
5284 188
864 659
4071 99
3836 490
3625 488
1563 566
995 477
1606 443
1896 679
2397 327
565 544
2626 627
643 36
2439 142
623 259
2920 676
3789 504
65 428
4573 85
4338 209
5315 125
4804 117
1357 430
456 67
4897 342
753 86
4851 233
2293 147
2121 494
1735 150
4686 162
2523 680
3924 337
1881 229
4465 354
5322 373
893 254
301 337
4750 198
247 57
3903 100
1654 327
4308 236
871 146
1088 647
879 490
649 510
4320 505
2224 239
3526 638
1474 346
2242 258
1348 184
5358 155
4729 27
3907 51
1288 257
3226 76
2993 274
692 272
4194 639
1030 491
333 403
4639 413
191 230
710 541
1995 544
1858 640
3158 193
4132 328
2254 194
204 244
234 500
4597 99
3856 323
1689 685
3694 298
755 316
2156 138
5105 363
4398 470
1179 488
2091 138
5391 332
5323 393
2520 657
4769 274
26 559
522 101
3364 222
1702 356
1497 16
995 320
1409 564
3733 57
4896 61
3262 491
2570 435
416 80
2970 385
2825 323
4696 575
928 66
5395 325
5458 395
418 184
4163 168
5277 354
3294 164
4853 72
2199 171
1178 160
2287 282
3071 207
874 278
2754 204
3403 261
670 45
350 674
4539 655
89 15
2738 572
5144 667
3844 55
5101 218
1082 647
984 186
3603 118
3231 280
826 462
4161 555
3535 184
5391 16
2423 223
83 405
1094 512
264 381
2270 359
1017 532
688 603
4485 623
1142 15
4759 153
569 430
63 470
1219 116
1579 279
3522 374
1744 233
2530 4
5235 273
719 139
5167 558
5087 86
3823 345
4143 415
1498 121
5428 409
2119 49
3249 309
1888 133
5178 28
3692 49
290 611
994 163
2395 190
5337 81
4032 563
173 95
1915 417
1782 558
5102 453
5458 299
2410 243
3835 549
5477 202
217 41
3914 379
4435 353
1888 652
4932 681
1704 246
3656 291
667 214
703 205
2116 561
4140 464
3390 67
3256 510
2994 341
925 282
2158 430
4437 337
3976 263
3978 441
3141 578
2740 331
3375 353
3311 603
2438 0
1317 641
1335 37
1316 225
5261 527
4705 455
3958 489
4508 115
2604 386
5075 605
4786 578
4683 95
3138 312
208 657
3008 323
528 116
3589 417
1103 438
3221 299
4694 343
4460 224
4457 232
1496 537
5483 205
4478 102
2155 155
6 225
1903 109
1761 575
2505 476
5200 52
233 439
4632 329
4729 320
721 652
1423 509
2669 546
2888 196
3377 305
2107 368
3909 285
4515 2
604 600
2809 561
2753 544
3711 327
3569 43
1241 530
2427 395
4314 355
1396 254
1033 622
3716 487
5216 117
351 253
4712 66
3116 421
4328 238
2591 677
5199 495
5056 470
766 507
2603 356
3919 667
2503 672
838 681
2863 352
1808 669
1352 591
4386 662
3890 663
5109 66
2760 357
970 537
591 637
1720 47
3733 457
3172 300
2959 110
1875 611
2971 205
69 621
317 376
4905 498
4869 661
1435 276
2447 194
5425 121
2979 347
678 118
2900 264
3943 371
1931 403
1543 577
5269 250
3275 650
305 203
3470 404
3292 581
4962 82
4190 289
3983 655
3678 152
1343 365
4737 407
4899 545
1468 347
5499 153
3934 246
4696 276
4570 189
668 539
4638 134
2882 357
4 84
4769 36
3053 496
5001 312
1607 266
2032 160
2195 141
3987 160
4748 455
4401 334
497 188
4901 681
2994 159
1086 117
2081 143
2572 381
2622 277
1440 68
4 273
5336 12
3114 620
2118 160
1360 126
2403 177
1832 425
381 82
2197 513
1393 165
4398 594
5385 432
656 303
72 556
2953 310
3222 275
2705 352
4858 253
1310 515
2140 669
356 190
4171 532
690 469
408 260
5212 23
3914 651
4486 659
5144 588
4143 271
666 282
5028 77
3116 660
2185 88
2886 211
2548 192
2507 461
2020 434
5146 506
2760 490
1618 274
5499 457
2693 342
2337 591
97 465
1800 303
544 49
4062 296
4903 226
2836 621
2236 297
2516 376
2550 258
948 303
1379 521
2445 509
1446 107
2483 540
2198 22
1714 51
754 271
254 514
548 64
2675 610
2538 182
503 145
751 534
5172 592
699 305
4473 83
1989 259
3226 259
4225 21
1978 109
2743 125
727 131
4914 13
3519 252
1743 383
1376 674
2657 638
5259 231
5 605
2453 347
636 652
4008 476
3938 164
585 333
2441 535
4470 507
419 672
2249 534
1280 604
2622 188
2674 601
5260 149
128 62
4546 580
2238 66
4755 481
301 151
2775 575
831 632
2274 550
3541 205
3002 369
2824 399
2517 290
4097 623
236 330
836 222
1969 588
2096 281
655 262
5377 610
3576 451
4532 216
4514 260
5130 598
2034 390
515 584
3047 229
5226 529
498 61
323 240
4118 559
125 386
2811 183
1923 582
1534 488
2631 542
224 666
840 126
13 346
2598 445
249 306
4291 605
352 653
5146 474
3379 496
1411 488
5312 391
1969 236
4193 615
3874 64
1758 546
1860 105
1283 184
4750 499
2863 655
2361 503
881 296
3458 615
2359 531
3346 101
3557 590
5235 673
3062 118
1884 569
156 259
1108 94
378 283
2673 509
1780 115
1384 30
2696 157
1369 114
3245 583
1225 487
3314 640
1752 405
2302 520
3870 476
2535 303
1307 367
927 103
623 586
3694 197
3723 335
3407 565
2558 672
4377 342
674 24
2301 157
1701 594
347 673
4648 45
202 208
3859 134
4955 71
3591 631
2562 314
2980 495
3125 585
2389 334
2573 492
804 670
5294 443
5451 559
1079 615
2633 198
324 411
835 121
2524 613
4227 456
801 343
2894 221
3437 420
983 7
3953 100
3408 191
5087 501
2180 430
3980 420
2020 442
244 608
5091 73
1760 601
2404 599
3242 607
3407 93
1979 386
4117 99
873 39
3525 287
5362 496
5047 455
1981 340
2227 416
3936 629
4303 366
3827 537
1803 268
3314 546
4219 159
835 338
1217 678
5148 638
731 196
810 29
4116 630
2642 332
756 40
4857 172
5034 223
2553 586
3863 285
2883 675
3380 213
4922 44
4779 479
2932 491
37 8
4654 208
4362 150
4762 343
1154 444
1934 120
1792 423
3004 471
3455 26
3221 321
2262 263
5435 488
4410 246
2485 95
1105 562
3753 283
3201 54
486 366
843 54
4314 447
2182 173
633 133
3926 398
2453 606
3969 583
4169 534
2601 654
4625 407
2512 61
2096 402
4030 135
2252 513
683 98
2670 202
3728 345
1674 308
4800 163
272 626
3667 301
5040 132
3004 504
4777 667
4702 411
4244 8
4544 110
3141 72
1860 213
518 69
4872 434
4141 421
3580 505
4810 203
836 211
600 114
1239 372
4402 170
2574 661
575 165
2280 41
5416 304
5386 103
941 232
221 37
3498 658
737 384
1644 372
2584 474
5374 518
1477 597
1145 561
4226 456
4196 247
1825 144
2056 393
5056 608
482 116
1938 20
4358 356
2371 577
1540 13
834 514
4690 381
763 426
497 29
111 535
1232 135
3913 292
1247 661
735 509
5321 291
2181 423
1002 431
2169 550
5069 271
2367 562
2442 623
2355 306
3691 545
780 256
221 549
2307 203
5030 574
1353 75
889 297
2444 332
890 188
1106 306
156 142
694 388
1285 408
216 412
259 320
2449 448
4356 62
5278 132
383 209
2601 421
680 205
1867 450
2988 593
5408 392
350 283
2981 7
380 22
1592 114
203 465
5115 325
2246 462
4341 171
2345 100
3555 445
4449 208
2667 286
632 528
895 149
1517 373
3023 146
4267 106
4236 269
2464 444
2515 86
5105 86
1396 266
2438 257
4579 316
4232 651
4808 634
795 69
4367 665
3298 16
3077 142
5440 466
2553 309
1434 453
2293 550
1067 135
1796 104
3211 256
4725 512
2975 548
1083 592
1063 135
2629 552
991 41
3704 158
1122 657
5414 542
338 502
2528 234
1911 190
2439 530
4830 268
1715 37
948 314
4204 209
3313 333
1721 517
1767 276
4042 287
767 652
3177 153
5073 655
4903 516
2715 235
2723 92
3614 521
486 630
2677 565
3649 169
2310 313
3025 162
2827 127
2485 425
4766 302
543 402
242 515
3497 459
4540 97
712 251
1429 195
2146 289
4032 254
2880 3
5361 562
4924 349
2530 367
5331 611
1529 148
4373 6
4030 311
2214 274
5243 548
1802 199
3419 683
1213 335
751 181
5164 676
716 315
2386 213
1751 592
248 647
707 235
2410 526
845 438
4087 192
5092 207
1191 326
5412 489
2190 313
1921 361
4562 683
754 335
1627 659
189 245
2366 61
1371 439
1789 231
4876 359
1028 306
4256 577
1084 479
435 564
2027 140
3027 676
1206 213
1464 607
458 525
5366 280
2701 119
60 191
737 132
4298 138
3140 171
1226 33
4693 376
4657 322
4745 1
390 561
3739 617
5364 21
1977 125
2651 518
456 596
2044 674
4275 343
1505 463
4885 192
1123 480
1550 64
3697 499
791 129
465 364
2206 68
2798 44
4658 354
2750 164
573 558
1870 139
661 330
4813 639
5305 490
3664 118
3482 381
3447 194
4132 3
5437 282
143 174
3779 313
251 107
4508 637
4023 322
2065 392
4737 277
2816 604
5393 523
1256 661
5195 246
916 230
1694 257
2125 608
1993 579
4572 577
2644 498
911 515
591 186
4917 320
3983 78
4012 570
2294 16
4154 518
878 627
2912 593
1935 176
5284 249
3704 358
3071 449
2875 239
2226 258
4266 58
643 445
3374 601
4138 356
461 81
1145 95
4773 73
1099 96
5380 431
4338 247
596 525
5144 85
4484 522
4413 402
88 344
4444 179
4634 51
492 640
2535 270
984 333
3963 527
4342 398
3122 28
651 139
4648 2
2166 19
849 215
5152 299
4898 202
4327 544
866 327
361 649
2960 287
740 103
1201 637
3800 658
2424 420
2990 27
111 674
222 74
274 502
3032 463
2190 300
234 150
3210 254
2647 424
3135 638
5142 326
3939 80
4798 362
2284 37
484 377
2978 157
3097 335
1 528
3957 670
3665 665
2509 676
189 622
5444 497
621 317
122 577
3759 499
5386 412
4667 238
3316 350
3405 653
260 28
1672 108
803 191
4558 587
5004 644
3724 641
5365 46
3660 472
3473 282
2244 361
329 543
2118 182
3324 398
2654 16
2128 515
1784 131
2968 139
1334 436
149 298
939 348
1332 679
3292 647
2936 285
2715 47
4604 263
4748 599
3392 162
4869 329
5201 568
3443 664
429 161
3101 247
4849 129
2024 522
2912 466
3085 388
2919 498
4847 257
4242 315
5141 359
4821 136
2718 504
5245 77
4462 133
1280 453
2261 533
3318 500
1927 385
312 467
1180 474
4106 91
5192 641
3319 511
3337 228
5302 420
1070 82
995 336
3523 390
3254 471
4854 493
3029 372
5366 557
1402 521
3735 533
2217 65
3194 488
3230 304
2853 137
716 366
2599 487
3922 155
2649 296
2412 622
3175 459
4470 95
987 666
5190 208
1183 316
5339 23
3147 649
3110 149
3724 528
1005 632
4315 366
725 420
2009 630
1486 545
5093 329
4254 686
888 97
1161 543
2284 122
1002 562
1506 516
3350 215
284 86
2057 662
92 421
614 18
4272 591
572 437
3798 382
1750 35
3284 304
1096 50
1054 241
592 148
529 320
5489 47
2671 132
4747 617
989 594
458 521
3740 394
1138 71
1071 238
1452 602
3131 357
1831 461
3350 218
166 386
1586 542
3991 48
1090 619
1000 596
1279 565
4770 79
5225 621
4202 388
2408 241
5300 169
564 56
4960 151
339 556
757 626
3061 612
2852 679
5225 616
3827 17
5147 531
3291 447
2164 664
462 682
1588 10
1906 542
5038 360
2005 83
644 382
611 633
2393 341
458 123
2225 107
273 549
3286 191
433 231
2342 326
1584 521
661 225
1600 187
661 306
950 392
5214 200
4075 643
4376 230
1420 319
2914 436
3698 0
4102 458
424 479
2198 265
3882 481
4038 613
3136 666
820 233
1533 304
1123 60
2798 458
4184 0
5322 429
4423 518
3283 384
11 541
3218 326
4744 136
5319 396
4635 183
2482 634
1785 666
1525 68
726 340
2749 283
1537 178
3358 504
3381 65
5133 425
342 643
1481 158
3360 435
4826 480
2374 481
2158 603
3016 96
4008 653
106 501
2959 387
2750 22
4121 664
468 85
2490 662
848 440
5070 643
3536 393
3979 664
3201 108
4367 345
3037 15
3845 376
942 323
3172 361
3439 286
1442 225
1285 267
2084 334
4604 4
5492 498
3040 162
2506 219
2680 155
166 494
2932 130
2406 281
2442 207
3741 252
2399 273
215 469
2863 5
1900 217
2062 494
1995 195
206 159
2333 529
685 409
3158 40
1713 205
1949 473
306 622
29 648
24 240
189 592
159 549
3472 206
1745 43
3256 462
3017 573
4027 73
2924 341
4740 633
3326 520
3060 118
83 658
1023 159
5040 265
201 663
3467 295
1135 502
2957 343
4604 130
1726 47
2698 320
3581 394
2573 46
1395 10
5205 65
5223 489
195 96
4962 452
888 409
3795 244
879 126
4009 12
1109 304
3923 192
2382 596
1145 120
2069 263
2539 198
2277 299
5089 125
3437 383
5381 519
2223 151
2537 404
2458 654
4624 120
1766 9
804 461
4075 495
1807 394
4458 589
4456 384
5341 129
4379 203
4679 240
437 1
4160 686
2021 561
1347 249
4934 459
413 601
168 490
3233 500
646 42
3239 416
4959 675
3556 281
2588 344
5401 671
4789 329
4001 407
4559 182
2829 609
2460 459
2782 264
2002 55
164 262
4480 272
