7500 6000
3618 618
2987 503
5693 430
5855 8
2947 611
4415 33
58 579
4995 265
1133 168
5902 541
1635 174
2150 302
5631 179
2709 89
867 88
5218 317
414 584
53 623
4078 206
1207 4
2769 409
3927 640
4201 91
4524 546
1559 715
4727 184
5068 35
3626 484
4306 322
2278 285
4428 229
3763 254
5522 621
4255 652
5891 434
2836 128
3630 56
5168 78
3850 362
1568 171
5317 67
3969 388
643 320
2718 399
1702 729
711 26
3225 327
1913 105
3091 668
1049 723
1419 545
4887 40
575 282
5692 404
323 513
2293 161
67 281
3382 45
4904 108
3442 704
394 236
5868 710
3063 146
3692 105
5411 44
2523 188
835 118
2368 572
2348 378
2981 450
2315 118
2992 361
4947 139
5675 495
153 323
3096 71
2347 321
682 524
1650 87
4992 146
2006 272
3689 186
3842 205
3896 696
502 142
339 645
4518 159
5170 433
3250 348
3839 95
1740 691
120 668
4780 450
5659 335
2617 210
1666 252
2204 687
5981 303
3556 225
1365 58
944 28
2910 579
297 594
2835 395
3268 638
1592 650
1675 449
4431 24
4102 366
1091 88
1575 260
1535 306
4276 342
3888 244
316 234
569 575
450 36
1416 550
3122 695
540 307
1218 347
679 605
2042 632
1222 404
4546 118
5831 487
5804 77
4223 577
918 163
3857 168
1586 15
4513 347
4749 461
5708 521
5814 363
1936 295
810 538
3077 78
5628 726
5318 519
1438 412
4645 20
924 562
2733 26
5095 542
4182 332
4205 345
831 254
5104 352
5065 392
4747 718
1564 333
2865 668
5080 180
765 268
2461 434
844 516
3978 486
3737 666
3405 143
2876 33
5208 616
2030 677
1430 117
1205 591
4273 547
5639 99
5805 665
3823 481
5616 390
1683 637
2460 246
5612 481
5747 140
241 125
2582 588
4643 390
5459 220
4034 509
3767 420
4886 415
470 74
1413 483
2416 570
522 528
2034 159
2681 705
2115 265
401 678
127 621
1463 581
99 734
206 538
5643 451
3392 722
5541 683
862 602
5889 576
3797 422
27 57
2630 592
57 615
5683 179
5938 567
131 557
3999 655
1992 97
397 87
2726 483
5342 216
4184 496
3614 544
1020 112
4246 172
5924 63
1992 234
4765 40
5614 324
5455 634
227 654
5743 387
1460 306
1123 634
3262 201
1141 610
3634 408
1888 483
1742 539
2964 452
1015 453
877 503
5657 605
5888 533
3521 311
1961 249
3787 486
5705 217
1526 95
2566 108
5154 79
3115 133
3802 207
1802 244
5552 135
4342 322
195 104
4408 273
1573 61
1266 384
2983 598
5972 222
3180 52
4186 501
5665 55
1487 645
2798 703
4115 225
4194 466
5746 337
5059 713
366 6
3143 261
2529 222
4117 419
3566 401
1768 56
501 377
1446 30
4575 654
3037 743
994 398
424 208
213 158
1259 35
3979 441
2228 560
2415 59
331 422
454 21
2837 56
3765 303
3871 202
1303 649
5149 412
83 524
4348 460
4877 240
2848 255
4559 194
3430 615
4529 526
2838 549
1323 688
591 23
763 58
2508 294
2757 531
1981 1
3944 346
2001 377
4629 303
3099 578
2406 602
5045 119
1773 340
2194 49
1863 412
2671 542
878 674
2302 733
5391 708
374 557
646 325
489 25
1378 452
5659 424
261 666
2505 146
4147 80
2918 121
5777 619
4478 389
2858 73
5954 351
2455 676
5233 12
3538 73
2078 427
189 625
5958 6
5383 712
1526 397
890 652
2496 430
1470 35
2354 641
2835 368
5057 445
5381 14
1553 436
1923 448
1556 590
2161 125
4116 591
5237 292
4704 314
3660 23
2953 563
5819 211
4227 578
4936 174
1631 24
2119 459
5071 308
4361 656
5542 731
3590 317
1492 683
318 335
4116 396
805 646
2757 160
4837 356
5468 473
5693 152
909 450
4779 355
5488 356
2628 50
5114 162
2623 550
1749 457
5104 262
4630 677
3537 261
5263 168
649 684
1291 35
5680 38
3110 541
4787 583
3141 134
4484 159
2288 223
4669 641
2982 369
1220 590
1628 684
5101 459
2332 164
3488 120
5069 661
3371 441
3830 320
2839 476
1449 498
4108 261
5548 341
3205 278
700 431
1619 379
4530 295
5456 64
2976 47
3125 242
2735 547
5134 190
3774 370
490 544
4469 385
1383 746
544 740
1428 103
2124 30
4130 325
2512 492
3641 594
3314 160
5267 296
2005 129
3243 324
1121 249
2598 741
4731 678
2194 345
4958 371
4773 201
5803 316
2564 506
2861 170
2923 5
245 27
2934 218
3451 323
2601 708
5741 617
1852 570
2287 434
1734 406
361 100
1753 716
1902 411
1711 233
1460 571
1623 151
2112 305
1203 719
3558 373
480 594
5277 317
5846 673
1041 296
4880 412
2957 563
709 725
49 451
2639 440
3956 508
1430 468
4166 261
1556 213
1948 329
3171 295
4821 490
1658 574
1864 608
1531 472
5014 220
1378 630
4945 495
2738 96
2152 258
3639 82
3793 489
2346 314
1262 535
1320 211
5185 328
4364 424
961 11
4328 83
2250 78
1489 285
5609 615
434 112
5821 207
4393 648
1968 611
562 278
3582 170
4408 273
5145 51
121 376
2453 368
1181 495
4159 39
1249 223
3195 342
3078 470
1900 532
390 582
956 191
2798 583
826 312
5033 342
3536 404
2551 336
3242 615
2525 536
4205 693
3014 419
309 111
2372 731
4197 163
798 163
5670 292
2965 341
3881 475
99 660
4930 576
1296 304
3306 614
5138 328
5170 282
3771 656
258 509
4207 391
3372 725
499 389
4747 718
472 728
1100 113
749 670
1667 168
4488 347
805 38
4440 130
5078 259
2108 511
5712 190
4461 694
5780 702
2757 244
3340 373
5766 481
5604 412
2748 169
4030 41
1532 620
510 205
3336 439
4283 499
2759 404
2591 539
3042 422
2394 592
5000 165
4639 727
4818 239
4253 554
2317 701
4363 415
136 430
2186 16
1684 571
5896 307
5768 64
2470 286
4320 540
1772 681
2708 450
1875 738
2990 309
1295 62
5194 287
2299 252
3898 183
3077 67
1794 642
4376 535
428 584
5181 567
30 651
4610 712
4534 373
4537 175
1857 12
2903 110
3578 126
696 248
417 433
3887 359
412 444
1047 334
5600 464
3353 440
5270 100
1603 294
5791 517
4158 612
3989 288
2319 376
69 193
3051 354
3116 82
3086 697
1798 287
2373 483
4809 493
3179 118
910 373
4794 262
4540 181
4168 47
2767 142
5779 410
2145 207
3189 522
4739 174
2776 23
237 536
4881 613
1481 396
1694 557
776 514
4547 311
4393 463
5840 504
1347 70
5348 248
434 745
4536 453
1887 575
4896 492
944 644
1227 446
2879 270
5902 699
1756 456
2381 688
1962 700
5104 742
3131 542
5167 634
1067 546
2597 169
1471 726
4077 348
2618 489
2621 515
4450 220
2054 709
3464 560
4245 743
2736 675
5300 526
5558 24
4729 677
4099 248
548 633
5382 80
2622 597
2482 739
5526 578
746 662
5980 288
342 27
1677 178
2410 533
2969 383
5178 162
3522 725
304 48
576 137
5778 28
4462 548
4936 566
1888 487
2725 5
945 334
2043 627
792 688
249 571
5622 258
1417 81
633 644
2826 408
5000 234
2997 568
386 180
5752 44
5406 644
4712 502
1626 51
1632 558
2158 506
2682 279
5212 375
3876 534
5661 232
5441 464
457 610
1950 630
2609 322
3706 132
1153 324
1532 57
3029 430
29 588
3799 552
2418 185
3171 640
2884 44
5880 504
1705 638
4581 316
5017 311
726 159
4138 444
3643 6
3478 343
1143 588
1777 693
4384 575
3804 646
5176 536
4347 21
1215 199
5469 545
2846 566
1982 283
2521 190
4454 247
5053 343
588 295
5531 494
3812 275
2614 389
1210 628
2478 596
1322 734
4171 570
2325 142
1617 466
99 243
877 377
5033 215
2395 391
2761 177
3768 465
4851 115
4892 132
1242 43
575 632
1686 22
4240 80
5954 748
1212 330
5536 339
1359 116
320 451
4822 499
5300 398
5656 483
1122 103
3191 79
3442 170
5734 647
1703 387
1153 192
339 680
5844 641
4053 608
5253 675
3899 713
146 314
1157 190
4076 541
2599 285
886 628
2027 438
4686 106
5698 460
3292 466
4773 400
3248 398
4733 84
5204 6
5627 682
4039 348
2944 229
1670 125
5765 189
163 112
3556 261
5236 631
5658 483
1453 578
5869 426
2843 162
4861 516
2643 342
2612 242
3246 487
1211 734
4199 327
2386 326
2897 534
1939 463
21 647
3588 747
721 337
566 579
2390 152
3353 289
2194 425
4227 548
330 151
2686 397
1521 97
4610 279
1999 3
2258 316
1870 157
4187 521
2696 357
5738 489
599 478
5719 688
1244 391
5500 643
2904 127
5821 620
5244 338
2941 274
1655 79
2610 221
155 684
4427 371
796 523
12 350
1242 355
3311 598
2615 537
3448 660
2387 16
1808 353
596 137
5790 170
4169 180
5467 9
1907 287
4861 10
3246 695
531 18
1031 147
3918 297
2187 409
3464 244
2907 470
4121 372
1666 300
2314 183
4566 480
3964 240
3538 637
4226 91
759 633
2327 542
2439 598
2852 566
4413 398
3308 59
2701 368
4216 749
4725 590
1076 72
678 450
5287 151
3056 169
121 14
127 540
4149 473
2535 97
3177 12
5463 192
3480 272
1413 498
3033 149
4577 101
4524 381
4803 218
1197 397
178 293
5765 663
5437 142
2911 463
5296 460
5843 320
4724 267
3393 427
2537 691
5037 211
986 101
4700 734
3558 109
1772 196
3292 106
3888 686
1642 497
3498 553
4434 729
4662 507
5683 207
248 54
1632 27
3720 260
1736 436
662 293
2444 660
2384 488
5124 507
4136 675
2596 490
559 142
1117 130
5048 302
5962 367
4834 677
4433 288
5827 32
483 185
2934 668
3211 515
4699 155
369 497
3872 265
4357 369
2062 126
4307 441
2861 495
605 732
1299 256
2783 400
170 385
2199 21
5366 703
1290 479
3608 581
4641 484
4835 626
1159 359
771 193
5080 392
5768 385
4872 471
5025 307
3053 667
2848 299
4995 504
1744 408
4044 1
1022 684
4741 464
4076 25
581 400
1057 734
4329 593
5671 415
988 298
5450 633
5182 668
3371 633
4254 111
3672 216
1156 15
1037 73
2807 203
2285 522
5882 262
4218 370
2522 539
1048 592
4051 428
3658 405
1053 726
1972 684
4560 99
4831 647
1088 68
4896 470
1983 156
2314 423
5304 294
3783 539
486 435
727 126
192 44
2151 731
3573 125
4334 668
3965 698
3948 267
3210 683
4851 176
4641 11
763 711
4858 242
2220 48
5619 7
111 309
157 399
1663 576
2712 122
3228 656
4407 286
1680 643
352 198
1829 552
4343 111
142 195
3204 77
3193 84
5990 417
4104 286
2336 74
1203 366
3232 17
3474 363
2946 561
3805 154
1163 335
3299 101
1561 123
30 659
1197 194
533 511
3393 421
4574 139
1997 584
5814 230
537 639
3229 632
1968 141
5348 414
2413 716
3827 164
1869 372
3941 220
1692 705
5352 529
5977 47
2514 242
3826 224
4763 535
5694 73
1764 610
1345 693
1051 269
5253 344
2527 150
1184 230
3732 299
2252 170
1472 745
4099 717
4853 109
5887 518
2123 61
4955 265
543 308
243 211
5713 543
991 372
752 293
4768 276
3544 356
2927 635
5160 348
4719 689
4747 706
1842 653
719 741
937 633
3692 254
5889 265
3546 37
5347 213
5811 228
5958 288
2974 54
2492 527
2412 58
4517 154
5835 487
1931 215
1383 350
1708 244
3309 704
5958 116
3254 691
2806 46
277 162
1089 168
4584 395
5093 432
2507 203
949 524
4420 351
367 402
499 243
4145 629
3986 658
3954 603
5961 217
354 249
1219 741
1289 76
2783 665
5634 434
2963 153
601 316
2089 231
3774 163
576 229
4212 453
5467 583
5757 554
2251 574
3503 493
2170 528
594 460
5826 210
5307 450
3998 331
4439 734
2480 748
1831 41
2847 267
3684 345
3186 377
5306 187
4140 529
3252 643
4030 443
1898 616
5269 176
2061 727
5236 694
4852 266
4058 287
2502 320
1360 590
4083 38
1759 75
1350 30
860 342
762 25
1330 319
1784 493
3369 43
4881 540
2497 66
3280 464
629 257
673 269
1298 711
5974 386
4436 9
2866 288
1040 398
2471 497
1039 679
4238 68
4152 649
5656 391
3421 725
3626 560
3381 353
3868 77
2192 722
1137 691
4902 581
5155 402
3394 122
2985 712
4038 720
912 689
4966 462
3599 689
4522 717
4803 171
5282 689
5638 62
3414 698
1347 11
2840 666
4832 668
1070 597
5141 642
2890 609
2392 639
1707 167
3185 640
4954 292
1969 320
5838 354
744 118
1719 304
4354 672
5412 545
4876 469
1246 338
5079 473
3117 674
2534 381
4523 6
5688 683
929 231
4106 652
3647 245
4462 363
5307 444
2462 215
2014 373
2636 375
2009 556
4217 465
456 349
3230 482
5133 70
4723 160
266 95
2600 515
1752 305
737 471
5607 694
5950 6
1411 178
1612 229
3584 655
2316 59
3469 394
4214 167
4078 226
2021 671
612 311
1794 213
4562 449
2123 167
5513 617
3233 36
1982 329
1483 461
4120 140
5871 163
3717 645
4409 543
1722 749
2010 596
2884 571
5905 686
4969 24
2429 53
3876 415
5007 679
4651 120
3314 164
3710 207
1463 582
5161 33
3126 63
5876 295
2647 390
1929 175
2186 88
2811 2
5563 359
2882 656
957 108
213 550
1577 289
4657 475
827 103
2577 323
2411 576
166 380
2504 657
5671 223
5020 582
3107 46
186 54
4653 78
4236 27
3579 10
4847 457
3461 558
5992 568
5798 190
5379 47
559 535
4801 210
2590 563
5642 520
877 37
4329 7
4430 656
3665 29
5547 408
2390 587
2892 328
2848 31
20 66
4428 493
2366 282
5859 573
656 385
4729 619
2553 48
2385 719
3991 271
2198 517
2868 350
1009 681
5433 525
2864 506
961 565
2680 482
986 721
5295 295
1725 553
5711 110
1401 640
5440 445
5266 587
2558 622
2426 484
4138 294
1650 467
4310 75
2105 679
2703 359
1911 299
1768 445
5305 563
5040 699
1720 747
5483 423
965 195
4841 702
2921 684
4333 178
74 232
3282 660
2759 296
594 118
4660 623
3466 670
2735 264
1185 225
2502 494
2748 96
1855 387
854 398
5243 87
908 747
3856 574
2611 663
1264 613
2949 79
1452 267
429 517
1152 577
4023 462
4906 172
2795 580
3045 282
1912 700
4458 663
2524 748
5263 435
3755 466
3530 275
403 147
4024 719
874 346
3754 634
1590 98
1550 204
3020 186
1776 673
2329 610
5887 535
3794 172
5358 377
256 54
2571 574
1839 401
1803 399
2206 43
928 309
3485 423
1695 644
4206 483
2259 410
3335 626
5428 547
4726 275
5350 36
3879 579
2244 341
4006 341
1039 380
2791 190
1602 628
3854 60
2456 743
4318 83
3039 356
5288 100
1818 281
397 624
4435 658
4309 460
4559 296
3762 710
3680 151
2021 542
3835 105
3444 109
3928 224
4403 257
2432 697
3312 486
2089 11
3997 102
3452 625
781 630
2291 694
566 316
269 710
1607 428
2154 538
5412 578
2160 313
2030 635
1541 14
906 667
4533 746
2807 210
5442 196
2815 160
5283 717
1431 329
3870 182
4644 184
2981 660
5802 406
5765 102
2627 708
795 594
3048 711
4043 723
4435 329
2187 77
2728 600
3268 279
3445 89
5955 430
5237 328
3701 430
4452 491
3595 92
4708 732
2200 608
350 473
1957 9
5436 365
5747 441
5504 90
3625 66
4330 347
5988 584
5142 461
3990 544
1672 559
2341 607
812 452
4325 297
2026 631
2695 6
3451 416
1483 279
2667 365
4939 672
2097 126
3558 712
3418 328
4025 394
3883 98
4921 169
2353 194
5581 431
5616 354
2307 187
5352 627
319 724
4549 178
5949 268
3640 134
706 118
3868 488
2758 642
2759 689
2551 270
5460 420
4930 615
2529 607
1226 322
1095 657
2866 350
1226 3
2867 573
1554 42
2304 255
336 113
3586 691
2677 42
1612 444
3186 576
1127 79
595 4
1625 518
2496 23
2285 625
2625 168
749 392
1634 327
540 448
5319 105
5259 460
3987 273
289 287
5694 542
2252 439
3344 623
5953 3
2800 122
4948 641
389 588
5171 59
3985 337
3804 581
4733 28
2512 459
956 710
41 390
2229 262
5354 568
1728 483
5966 438
3893 450
767 725
5927 610
5909 26
527 198
2089 126
909 28
4241 90
3303 571
1271 694
2983 248
459 330
1081 471
5360 538
4146 115
5448 317
2468 749
1485 348
4175 245
692 608
1824 723
965 504
1578 364
5676 580
3870 524
1205 93
1172 610
3500 148
1333 475
2725 497
3311 146
403 731
4752 197
5569 84
3598 674
634 576
4887 727
4452 580
447 438
2335 598
3210 166
3174 218
5042 691
1033 119
3150 39
4694 426
55 99
4317 697
3785 537
3577 325
472 33
287 310
4118 614
1925 167
1366 36
1488 120
2202 739
1466 72
2401 265
5001 712
348 225
4545 731
2242 440
363 734
1584 347
2212 48
5783 606
2322 162
5511 366
2151 181
4999 177
3094 617
4301 71
2015 485
553 526
93 589
3667 50
955 418
4836 484
4297 571
5508 219
369 198
608 125
4041 541
2720 432
762 732
1156 176
622 711
3600 701
4307 541
1958 235
2029 204
1086 162
3726 500
1535 614
1244 165
83 403
1274 32
1659 325
4920 551
1035 541
5959 274
1067 358
3367 426
233 630
5738 746
3404 126
4665 6
5801 556
1498 147
3874 622
1230 630
2464 410
1772 516
2903 279
3904 677
2999 306
3924 100
3003 633
168 588
2478 470
3055 293
4542 422
415 2
601 555
5343 143
4923 38
701 582
1715 421
5 60
2763 719
2094 510
1382 275
3966 670
813 121
3166 492
2481 110
1036 470
3054 335
1844 487
2163 96
319 117
801 133
601 323
3984 330
1026 414
1973 150
4999 717
2256 573
631 351
1587 705
288 179
4642 86
5113 369
604 500
5694 692
4004 26
2830 455
1411 3
646 18
1576 346
2694 136
2520 352
5486 735
3978 373
4432 343
468 250
5144 735
962 683
103 236
3770 554
2241 78
5547 452
2307 135
837 189
4463 728
3135 741
1163 3
574 240
5730 552
5505 599
4877 162
5681 552
4945 109
2054 400
4894 572
3686 682
5134 226
2888 154
5009 299
1669 117
3038 238
4345 346
2920 312
5437 130
3728 704
362 194
218 370
520 284
48 174
5311 34
5881 483
2500 247
1018 507
1369 339
1825 691
543 355
5097 704
4779 622
3314 443
3789 365
39 430
1193 285
717 276
3188 300
2125 384
4619 670
3206 572
1692 572
4814 9
134 9
5912 716
2169 89
1405 139
2283 703
894 559
4577 257
3990 458
4711 270
5214 438
876 523
1235 310
2607 180
1026 738
3697 505
2177 432
705 523
5777 540
2029 248
1194 584
439 604
3317 216
1850 290
2026 239
406 333
3870 444
1265 2
1888 489
799 631
2463 103
5214 121
2042 602
1942 128
419 35
590 229
4919 185
3761 222
3427 156
4187 238
3503 388
370 623
2261 536
4243 251
1113 386
4614 320
1468 318
2440 686
556 303
3082 227
2579 173
3776 89
652 688
3505 384
1180 283
3427 167
3207 518
3385 580
3145 679
2569 82
5641 196
5866 682
518 291
1426 100
2732 686
4618 395
4716 282
2481 328
1203 304
1172 605
1916 272
3990 37
3689 197
4318 269
4672 183
1319 81
2976 65
1803 299
3068 301
2948 91
3285 139
434 325
2442 524
202 135
5252 239
5227 577
240 6
5208 191
2901 41
998 700
5042 680
2689 290
5606 213
1775 466
1044 485
3941 115
1956 117
3532 132
5975 137
5605 432
3157 680
278 50
449 541
294 622
3281 623
4501 477
2366 273
589 45
5587 195
2607 484
467 731
2733 641
534 418
5708 33
5587 351
1253 377
5436 460
2673 173
1211 702
1329 677
4281 28
4559 157
5760 244
4672 274
638 621
2517 200
537 330
4508 665
513 406
3718 706
5643 556
1196 470
2029 336
1134 274
5557 106
424 314
1417 175
912 540
2588 511
842 20
3281 297
2674 436
859 205
3584 484
4692 423
5959 559
4032 100
2930 329
4500 218
4843 689
2211 287
3204 456
3837 369
926 332
1254 567
4750 432
2744 574
562 670
128 455
160 416
1489 321
4890 727
1509 596
3097 421
1684 292
2116 337
4797 559
724 233
4082 598
4408 568
3012 425
5877 664
2989 694
1667 418
2748 467
3732 270
4794 220
3468 248
4073 37
693 599
1269 698
4902 130
5468 504
3283 454
1226 104
1006 365
4191 683
2351 549
805 212
578 448
1049 290
2053 2
4149 554
780 451
5489 387
3882 375
1551 356
2852 426
3352 435
3213 503
2230 446
3453 721
4100 347
5526 71
3403 37
629 306
1303 578
5682 475
4275 443
4898 178
1781 527
2777 576
3598 614
2158 682
4714 379
1760 292
1745 335
2889 198
1272 656
4935 283
1712 427
599 433
1562 564
5069 465
1573 738
3510 513
82 1
2765 618
2562 428
2264 29
4533 289
874 395
5368 34
5810 31
1149 108
2765 347
1963 200
3217 687
768 618
832 501
117 639
4050 182
4469 509
764 185
4914 56
1249 169
1713 195
5280 633
2762 435
794 724
5274 221
256 432
2993 223
3338 348
4164 82
3914 581
710 65
4169 542
3301 179
2212 298
2917 520
1056 393
5358 369
5318 378
631 334
3226 45
1031 187
1627 113
2611 295
1947 62
2498 317
2621 363
1791 447
5961 360
4226 209
3616 685
4286 648
2176 60
2883 87
4367 434
5041 576
2550 116
4634 375
5474 463
5881 0
3574 265
625 432
5264 114
4197 342
3480 441
5342 74
84 729
989 78
2650 635
1037 84
3629 511
5386 431
1107 143
134 34
4943 581
2654 713
482 385
3900 616
5099 283
3156 249
8 4
3728 182
5856 405
1450 566
4940 214
5065 477
5259 309
3299 222
3621 159
4678 485
4132 714
4977 463
4786 631
761 74
2333 368
5265 479
3655 271
5738 177
4829 405
1650 285
2713 743
5947 117
5417 122
853 67
4227 274
1935 307
3970 525
3943 277
4146 94
5514 564
2704 539
5170 70
3863 99
2611 237
3095 312
3653 4
4712 260
1248 138
5011 50
5450 426
1761 65
4023 266
1061 344
3907 454
4836 559
5782 663
2475 93
2620 568
5238 644
1590 181
2661 468
2601 66
1107 687
4977 385
742 149
4546 608
2628 646
460 634
2340 639
4857 107
5593 332
1530 267
2084 402
2743 447
783 5
56 340
5155 38
5809 322
5198 249
5796 200
1085 547
2409 646
3127 37
3151 433
2591 285
1186 306
1420 143
1779 571
5704 454
5597 439
3919 82
960 100
399 287
4957 416
2290 47
2601 189
4423 395
3354 504
1839 427
1426 647
3807 326
4673 694
2947 449
5850 567
5729 164
5385 745
4741 159
1398 230
576 699
4158 28
365 269
3748 177
2671 741
1872 153
431 464
2918 272
5099 728
2798 71
4881 1
4033 483
2686 559
5716 477
3748 223
3862 429
4253 625
1860 4
3320 673
3633 210
3645 543
4196 178
3672 88
5373 453
5707 593
4323 472
5622 85
1109 674
1555 615
4891 605
3297 8
3272 63
760 389
3851 59
3047 49
5575 109
854 650
5424 427
938 192
2472 300
854 4
3754 106
96 660
1206 118
5496 640
5598 728
710 437
2912 247
1951 633
226 19
1684 115
2169 90
3537 251
4589 23
1335 557
2779 161
985 266
5831 441
2461 479
5818 387
2907 642
4116 730
79 690
3262 340
832 198
3293 736
2155 162
2434 656
1424 134
1327 407
4352 545
2754 297
3101 402
202 256
3763 435
2696 702
1810 172
5910 272
4958 31
5934 534
3618 145
2220 647
304 154
2898 724
784 540
1241 192
1503 190
2969 636
2211 33
4483 38
4882 668
1790 540
1985 337
4103 168
3064 419
5536 440
2369 322
3824 186
4644 420
532 450
2240 136
2355 143
3765 368
3172 440
5977 320
335 185
5426 480
3468 20
1423 505
4559 312
1265 248
782 60
4272 127
1511 163
5425 25
3693 281
2543 644
5297 255
2297 559
2792 340
3125 732
5987 477
2732 194
4293 114
3496 48
2915 585
2602 94
5302 322
481 127
1816 641
36 441
1911 217
2749 44
4849 703
4656 651
3467 184
1932 552
4059 85
2350 721
5711 490
1077 31
2355 371
4702 522
2797 487
421 455
389 357
1844 102
4516 62
2396 133
698 446
3810 314
1350 2
5521 552
1686 296
866 192
3943 385
1490 29
4214 481
4969 129
5593 705
5742 232
5233 681
3551 560
638 690
1573 41
83 576
3825 585
3317 277
5094 427
5429 335
4328 121
2749 367
3034 262
3307 465
103 628
3079 37
20 325
3927 319
4144 110
5700 573
4974 458
3350 5
4020 722
436 213
5659 487
661 696
1661 97
2564 412
3667 70
4833 411
4647 747
5742 481
5404 77
775 131
3802 574
4421 324
592 345
4970 738
5761 369
362 46
2675 667
4969 194
2326 134
4879 717
4006 621
5343 226
4752 735
1812 162
4100 80
2137 448
5876 339
3202 460
896 683
5105 187
1873 467
3729 637
3939 128
5130 385
5053 516
2368 666
457 42
4669 37
2270 593
5535 534
2319 317
3945 569
1734 537
1142 633
672 481
5478 660
2357 108
5981 362
1919 397
2656 86
658 298
2701 507
1573 590
745 492
3229 462
4270 611
1165 283
1249 384
599 408
5063 24
4484 395
4090 433
525 388
147 547
4552 16
3943 361
5945 608
646 399
3540 173
3742 311
5103 730
5139 254
674 554
2453 654
5845 581
3520 66
4342 144
1417 655
3047 400
3103 220
4258 538
266 385
5322 288
2181 676
3810 645
582 402
542 478
2745 261
2795 543
4980 112
963 257
2266 441
5035 657
5713 710
1975 74
5697 216
2684 354
4389 453
1395 39
2777 70
4980 161
1195 100
2639 631
3158 87
4358 192
5738 230
3576 552
267 157
40 206
2453 435
411 540
5943 116
2345 232
2306 139
4530 331
3876 450
5470 216
5085 84
3426 461
4925 676
5361 368
2613 388
965 348
5053 470
5312 307
23 363
2939 378
4213 514
2739 160
1106 602
4621 86
2323 331
3254 628
3951 679
1995 12
4213 621
4195 89
3707 410
3112 116
2770 247
2801 432
3584 745
2268 546
4576 550
1478 721
4645 442
2921 355
3440 158
3374 409
2447 677
997 664
3838 232
5881 147
3786 578
1640 264
3773 148
1429 49
5517 120
3715 650
5186 629
5806 70
1401 749
2976 390
5561 666
4974 274
46 96
4892 193
1273 563
4094 122
222 28
2969 196
5921 14
4859 223
2887 583
848 567
1695 712
3337 645
5063 58
73 505
3692 206
4019 585
4218 87
1916 230
5012 655
5728 5
136 506
3769 439
1599 705
5562 322
4494 225
2868 478
318 719
4892 258
4660 148
4160 58
4877 391
3182 601
1336 537
1731 423
4307 624
3961 576
5571 66
823 730
1190 617
3734 241
1330 677
146 365
1241 386
5612 702
2351 682
5843 709
2670 305
483 272
5206 26
3511 133
2381 167
5146 712
3239 319
2334 614
3452 288
1676 270
2944 294
1603 231
5300 497
4770 522
3429 515
4189 463
639 419
3386 705
4628 564
5911 685
5496 399
1310 663
1870 21
5559 628
1331 225
2588 664
3157 287
5825 639
4990 126
3169 357
1502 619
2724 322
2337 113
5252 399
3310 437
5797 48
3841 121
2086 248
4264 130
5081 170
5975 599
2340 685
3506 199
3792 190
2350 0
507 486
1491 617
3123 314
4388 87
421 390
2515 508
3737 647
2407 434
5772 532
1204 294
98 9
3108 181
45 563
760 315
2945 92
5377 657
1432 587
2821 612
420 32
3558 196
1232 398
172 693
2130 729
1584 567
1998 72
1326 192
1906 561
4115 311
1942 80
4950 52
3227 523
1917 205
5618 251
2504 502
3804 523
1209 362
461 657
5678 476
1999 21
3472 495
1341 243
3941 361
1905 617
4163 245
321 373
5676 328
691 190
2818 201
2653 552
4204 180
2215 102
1913 159
4771 720
856 378
4287 202
5563 394
68 389
1878 111
1637 423
3435 537
2829 275
214 266
1375 574
1803 162
4924 159
3802 498
4683 386
754 494
3298 209
5635 231
2812 385
5773 675
664 198
3224 237
2460 512
1098 634
173 646
5889 352
5962 150
2248 250
4893 205
1977 160
2770 542
2855 323
2672 307
5170 210
2105 504
5240 213
3346 75
892 38
1056 489
4317 589
2951 444
1487 564
4445 223
5487 361
2113 265
4283 394
404 428
4147 599
4442 603
3602 294
519 225
1962 0
3335 75
5044 172
5133 382
3831 412
4451 739
4090 59
1658 46
5579 227
2325 236
348 35
4816 590
4321 281
1915 710
216 277
5613 568
3870 409
4244 647
4353 245
2086 598
5700 589
5421 328
133 68
216 419
3503 305
1629 629
5406 87
2335 213
3238 170
50 263
1431 261
5163 680
3352 498
4990 87
2838 122
633 479
2706 413
433 150
5962 360
454 639
761 75
5278 515
4169 581
3756 398
1584 110
1682 47
3083 311
682 183
1048 127
3190 269
2855 169
2013 618
5404 630
2099 655
5396 349
4493 183
4017 53
5638 457
3482 55
3404 122
1152 440
3347 129
5252 749
366 30
5577 56
2 452
5604 338
1877 729
1268 596
3132 643
4305 512
4546 703
4537 525
5279 453
5537 511
2175 79
4288 253
4493 638
44 102
169 290
3466 444
1346 153
976 247
4840 81
2292 417
1157 72
3970 720
4215 739
1098 436
1306 229
3437 104
2207 271
2757 389
2961 64
2147 530
963 196
4413 147
4604 660
4490 514
2502 749
4053 299
5147 350
734 75
111 267
2295 87
5074 734
1680 491
5264 452
5339 692
3084 127
3441 596
5892 711
3865 618
3682 320
3680 325
600 209
3478 165
1041 716
2953 232
2546 133
3275 745
4335 153
5161 650
2089 325
4576 573
5771 493
3416 208
2235 236
3886 668
3362 150
5852 703
3070 642
5919 383
3419 654
4624 527
1090 719
597 503
3185 724
4742 94
4723 330
4770 225
749 279
261 145
3556 684
2285 620
4339 12
479 738
1352 343
4064 195
3108 166
3440 699
5191 556
3231 200
938 66
607 247
845 378
1833 28
5980 522
482 95
1588 322
2957 309
1656 605
1798 5
145 689
4631 508
3132 273
3117 715
4949 37
2539 450
2899 613
437 103
4767 653
1444 62
4093 213
1284 421
4666 316
1168 102
2948 97
1176 657
2119 138
139 430
3621 143
5158 404
4770 115
3412 42
2514 181
5276 703
2371 582
3753 289
4185 721
3619 660
5913 207
1846 678
1273 25
795 200
5443 42
1180 162
3807 583
1294 56
180 686
2311 87
2259 682
173 311
658 227
4157 352
4658 264
3729 24
3328 514
3731 271
386 100
873 40
3851 455
4783 299
2145 151
413 576
5987 747
3748 332
4111 108
178 500
1668 165
852 70
4321 429
4929 375
2090 291
420 562
832 728
2042 482
2783 533
4688 681
1217 416
1615 230
5693 129
5090 411
1250 249
1000 610
652 570
723 373
4602 171
5212 209
4685 316
4934 208
870 148
4640 199
1358 71
427 551
5464 699
5961 123
3418 158
1473 525
4635 344
86 318
897 522
1881 59
506 681
483 695
3544 710
4006 542
5965 211
3867 296
4804 558
1870 159
5143 82
618 384
2774 145
1005 254
3489 640
5389 661
1827 42
3077 260
661 454
501 60
2155 240
5289 405
3505 209
3215 542
5421 722
5922 310
1024 29
3172 427
1270 531
1578 219
1206 581
3736 687
3252 89
4593 388
4440 382
1356 643
5845 489
5822 733
5381 130
4133 157
4325 148
1050 457
3434 4
2456 456
5875 265
928 507
2762 519
1557 334
162 602
5168 253
227 98
2272 150
3171 83
5694 644
456 473
2319 482
1668 341
5311 230
2397 276
3847 465
5173 645
3395 305
5447 357
4136 715
5124 484
39 709
4388 614
872 520
1230 413
1386 478
2042 663
672 264
3722 497
1838 71
4708 400
5437 170
5054 317
3073 580
3733 350
407 154
4655 605
3841 536
730 208
4719 414
3631 444
2133 456
1048 82
3065 89
3732 243
5521 429
1349 344
2116 553
3770 534
5197 505
3907 669
1183 371
1367 382
1555 712
632 421
769 11
2501 240
1636 447
5078 491
4891 329
27 1
5155 588
3949 626
1026 245
1864 341
2685 346
3354 456
3095 218
1764 614
1857 215
3648 300
3751 537
5224 672
5569 34
1922 164
4734 53
5323 231
3496 573
5666 388
3765 226
4151 182
5952 339
2740 655
2859 183
5491 386
5982 72
863 585
4590 133
248 573
4112 235
2211 705
3622 295
2992 99
758 711
3652 599
2079 385
5568 382
5233 539
4782 176
3379 646
1988 647
4369 447
5892 210
4265 180
1898 637
4495 733
4194 738
1145 38
5902 461
3833 447
563 332
2935 4
3613 290
3362 594
4629 596
3763 80
5662 215
1249 526
4206 239
3612 615
305 314
5481 426
4637 174
956 139
59 236
3094 120
4264 79
142 30
4313 652
5202 276
2060 98
3606 668
1465 536
5702 609
3321 226
5719 585
597 264
4924 444
2030 683
4320 269
2898 329
5143 351
4126 534
3046 137
3304 523
2086 496
2920 680
1100 722
1040 254
5660 655
2968 500
1307 140
682 304
418 698
2366 59
3388 656
5727 574
3503 356
1312 419
2699 687
517 491
4082 192
2070 306
1088 160
4515 74
4879 369
5281 243
5583 716
1052 142
4159 41
1202 196
5688 675
4699 399
3664 373
691 277
144 275
594 407
424 249
4032 236
4751 524
3297 461
3661 691
1858 578
109 490
5727 533
4666 350
431 316
117 108
5426 266
4342 260
3370 27
3611 214
5267 391
2073 492
1515 529
4536 499
2496 83
1507 675
5493 164
4994 181
4161 324
3110 104
4886 473
5104 748
2937 596
3320 236
2409 150
1280 314
3602 75
5385 351
3546 677
3809 60
185 121
4795 678
1577 634
1352 299
5223 222
2324 35
2339 200
1345 211
1520 425
5424 660
932 496
5576 350
5970 296
5076 127
4107 22
5205 569
1275 469
451 748
480 98
5448 398
5792 70
1818 709
1024 741
5128 594
3087 23
2800 195
4417 285
1821 317
2502 419
2784 126
818 540
3670 709
2740 168
2035 410
2116 229
1076 242
2767 174
5356 337
5288 622
3146 521
83 228
4750 15
2054 376
3490 53
2705 376
4884 180
245 500
2059 626
2951 11
4510 332
4597 265
4786 212
2760 384
1179 276
3365 405
5295 14
542 705
4868 240
1740 213
3637 146
2705 421
261 697
722 209
4550 195
3937 621
5699 164
5286 349
3686 604
5920 734
3921 451
2569 88
900 353
1235 491
5915 153
1350 28
4200 190
4080 11
1758 195
2196 97
4735 529
2262 543
4985 136
1869 614
3271 218
2639 190
1327 123
1373 663
1286 379
1375 380
4286 437
4771 41
4454 432
2251 731
3201 718
2941 451
2290 168
3675 658
132 346
2537 118
5731 334
2237 588
3944 738
850 399
5741 322
2462 261
5779 153
2873 492
272 147
88 312
3413 199
508 134
2332 681
3330 222
1762 718
1968 262
4828 594
407 86
4117 18
2860 344
509 42
5948 626
608 612
3848 564
2867 496
2304 588
1379 713
4177 390
4299 393
5593 118
303 605
3637 294
0 162
5126 736
4629 547
3704 94
22 142
3900 201
286 91
2435 344
4178 496
2693 43
1892 620
2362 307
2373 9
4329 358
502 268
184 279
4011 334
117 567
5262 484
2712 177
4612 115
5397 77
3158 436
3406 457
3305 255
2352 32
3634 318
3713 55
3694 317
760 146
2786 592
5312 510
1526 585
5184 374
5142 450
1035 489
2676 78
687 532
1913 239
1097 142
1485 341
2054 455
5181 242
3628 358
1920 44
5469 566
3992 19
1390 49
1963 709
2283 158
4971 111
1705 712
5380 607
4756 572
4756 218
42 605
2592 138
4175 735
4220 415
4561 74
4836 156
3991 156
164 210
1370 454
5711 11
5138 75
5536 682
1840 370
206 394
4541 722
5626 687
3363 547
241 402
1231 261
2887 29
5362 370
751 626
3346 71
5611 501
4394 529
3673 370
4326 639
3810 587
2257 525
5853 459
2975 714
611 340
1674 463
5228 610
3658 311
4500 664
5246 547
609 391
2109 619
4388 89
965 559
4813 424
3543 728
3157 727
5348 714
4658 491
4716 294
899 285
3350 333
1494 636
285 615
3238 118
4691 538
4403 557
5388 596
2351 336
434 197
4736 206
4864 40
614 178
4781 614
5757 99
5101 438
324 660
3309 597
549 748
1949 274
2939 374
1259 206
5740 283
4430 210
314 598
3746 462
2807 198
3798 654
2856 180
698 130
4964 455
202 450
2557 720
3155 193
5500 270
5489 374
1915 62
5840 48
2656 496
637 351
169 281
2845 391
5404 636
3655 322
4533 140
65 482
3085 33
4856 283
4853 569
2194 675
2981 557
2069 539
4050 624
2774 99
1129 489
3056 275
3961 710
3139 747
1560 741
545 703
5057 154
2798 331
5199 139
3420 373
3171 665
5952 707
4176 299
5006 107
710 325
6 119
4901 401
1364 115
116 533
4122 659
931 478
1595 692
442 219
2936 320
1512 205
1126 346
1020 263
2005 715
1463 243
4891 666
1309 84
459 512
1468 665
89 225
1679 517
3002 132
4253 425
2822 601
3220 662
1430 180
754 421
379 440
1050 344
4450 592
306 459
3813 278
4935 14
3743 204
5946 312
2247 747
1356 516
3475 270
3917 469
3675 497
1768 695
5564 592
3674 257
1096 239
4966 641
626 61
628 180
124 520
5945 463
2378 99
4790 570
5283 644
3422 543
1583 441
5470 558
1794 113
4860 707
4600 721
5738 498
3611 443
3687 433
3871 111
4753 286
3366 485
3963 302
5569 4
2183 173
3744 565
3568 603
170 607
3047 728
4528 646
4750 125
5734 474
411 643
5153 377
290 353
279 632
4929 8
5441 671
4784 31
5027 619
5284 660
5559 592
5631 604
4427 664
125 156
5038 320
809 166
2351 5
1042 579
1364 633
5358 686
3341 413
3804 687
5601 56
2035 419
1822 100
5545 619
4146 155
2386 199
4355 416
2292 127
3383 314
1012 461
4311 434
4055 740
1189 112
3732 357
809 518
875 749
846 650
142 622
4636 59
1245 89
2983 304
4995 686
4480 539
2788 510
2150 429
345 244
400 539
5591 442
1324 594
1109 83
2033 741
2309 697
4785 392
1441 633
1503 617
5288 565
463 225
3453 603
436 30
1813 276
4850 516
4679 170
97 623
1443 36
2915 669
4178 134
1804 69
171 544
2103 362
3188 116
2198 458
4733 173
2854 746
1464 16
5422 661
2673 443
329 115
1643 726
5517 55
4063 36
3905 121
2307 275
1847 273
5363 329
1975 737
4336 394
3882 694
5162 108
3808 453
2877 394
5786 560
1296 469
5567 353
2790 555
1945 62
4632 500
3212 646
2586 56
5424 613
40 311
5351 419
5526 596
4969 173
3671 483
1662 454
5279 598
1370 655
5989 615
1198 520
3983 360
4335 82
4377 455
676 502
697 674
5383 357
4329 228
916 737
2205 570
1285 190
2133 365
2228 528
4563 85
1200 275
928 200
3167 555
502 254
4584 406
4252 672
2963 386
4670 75
504 411
3307 481
1868 472
1041 728
5349 58
1817 331
4258 483
2805 439
162 339
2010 605
3731 525
2922 465
830 734
438 559
1854 535
3317 711
1344 698
3169 458
491 350
2373 365
1091 720
5625 205
3655 389
5151 209
2365 128
4199 629
2775 696
1334 239
1943 6
1706 108
1778 487
2858 602
2521 643
4979 564
4025 142
4099 154
1594 100
381 461
3962 439
3388 288
925 239
3481 369
5030 391
5236 650
4065 107
3953 418
852 258
4966 6
1643 459
461 195
4304 457
1812 206
249 411
5347 437
239 487
3116 668
5153 210
3781 162
365 168
3946 527
2445 454
2558 163
401 306
297 577
528 217
701 603
5244 125
3112 87
3604 728
4353 412
4070 140
4106 509
281 546
3643 44
3187 749
786 353
2937 3
2265 148
4119 256
4143 654
3999 305
965 347
3253 581
4942 651
3446 635
2331 251
1039 300
2270 675
3969 589
3917 79
5169 323
4816 198
1930 154
962 429
4691 337
2819 571
2945 677
5998 343
2160 166
3491 369
4126 538
5563 98
5541 343
3316 168
358 598
3403 596
5059 608
4639 275
1135 502
2981 707
5199 42
4248 305
2921 690
5745 598
1303 123
3988 214
4269 670
13 423
1078 665
4218 237
5659 302
1298 50
451 39
4590 64
5225 160
2174 42
5601 214
5506 405
3417 260
3950 664
5106 652
4084 526
2336 230
4074 727
2520 467
952 702
641 402
1059 272
2886 115
950 251
656 405
754 633
4116 318
2984 280
4178 675
4077 17
200 494
1085 441
1751 595
3983 50
2070 169
4733 72
2942 454
1505 236
3094 29
5400 364
2469 451
3282 295
1925 281
1328 230
4152 89
1709 546
330 359
3484 300
2663 148
4781 595
2886 52
5453 408
2914 132
4878 411
1674 470
4552 83
1523 552
1669 708
4208 28
4194 517
5419 439
4782 714
4098 85
2609 223
2880 642
2404 385
5036 2
4480 147
1191 470
4506 717
5762 657
990 451
1326 741
4891 348
1675 630
5714 564
4084 166
3116 132
4385 346
4900 254
4571 236
2772 241
2264 267
4455 405
1640 587
5538 413
4743 52
5601 574
1878 62
130 688
892 512
200 690
1353 161
5525 359
4385 552
411 503
5022 174
1508 170
2519 212
672 375
1943 554
4434 95
1358 644
3549 219
514 185
4545 311
3911 124
5498 311
3334 40
4528 386
4363 106
667 613
1131 578
463 91
2121 226
4346 99
3967 661
2174 711
2636 150
2238 508
5699 140
156 506
567 582
1519 120
3029 96
300 190
3680 84
4760 287
389 386
5548 158
4821 594
1164 261
1535 483
5580 551
2791 478
1250 552
3623 671
5626 42
2065 415
464 288
5217 461
4819 589
2416 127
5653 594
4038 670
2091 176
738 555
183 537
3836 416
5881 317
2556 113
5744 55
5918 293
4968 12
151 708
4181 8
5476 473
1518 632
2712 353
4265 542
3450 451
4706 325
229 98
2626 532
2562 180
2893 584
863 154
2858 63
5176 169
5229 115
3139 689
5723 359
1310 709
5084 654
5592 342
4210 259
1386 338
2972 115
1696 664
1449 622
5906 426
694 178
4151 629
1678 139
5570 227
5470 111
4431 132
498 643
2144 13
4960 247
3302 653
1888 411
48 640
4904 282
397 283
101 20
5323 245
5144 535
483 293
2761 392
251 205
1109 354
3887 646
2625 720
362 247
3292 474
4489 57
3276 365
3068 207
1218 587
2249 403
1701 664
2022 740
711 449
2094 429
5554 450
3487 180
4177 539
530 139
520 58
1498 273
1347 550
4455 423
2736 26
251 70
535 310
3216 448
3316 93
3937 34
5133 670
4022 110
900 375
4309 160
4884 376
1743 128
2850 391
144 590
1946 471
3416 352
490 169
1199 618
2196 625
5740 380
5859 304
1633 337
3113 8
1941 55
2186 42
5729 435
2236 621
1821 229
4000 279
5283 726
4462 718
92 495
2175 727
1247 440
5249 358
537 338
260 138
2499 23
5218 33
261 466
5584 372
5729 21
3185 177
4969 710
2719 677
4156 396
4130 209
1804 174
1430 559
1028 575
4278 450
1868 88
1968 396
4062 420
1770 409
1987 746
4304 276
658 490
5038 510
2540 481
5463 434
635 0
4339 177
1428 123
5582 595
62 635
3843 460
2700 319
2906 36
5781 270
117 504
279 361
573 538
5775 143
5451 389
1126 703
2357 499
933 425
2083 373
2103 88
1846 183
2800 454
851 720
2021 419
2835 565
590 237
5707 677
3327 649
5191 510
5732 606
5565 319
1524 78
297 26
5708 457
2540 670
5756 204
1320 261
27 320
2771 158
2114 436
232 552
2380 59
2008 749
2678 249
5302 350
4117 31
3820 255
112 127
120 642
5428 170
4684 336
5562 309
5491 713
3046 554
3960 521
1023 501
1371 235
5301 106
169 196
5756 64
345 688
1259 187
4917 297
3019 113
231 510
3810 11
338 318
5486 66
432 674
5681 62
5376 692
5565 393
1683 534
547 476
1265 602
897 57
2598 482
4154 534
4450 460
666 612
5127 466
279 391
66 736
4004 655
5413 729
967 442
5345 199
4525 138
688 1
756 693
2761 223
4344 135
1074 447
5330 561
4816 489
5322 703
4840 19
1462 340
5664 713
2917 53
4845 466
3358 516
340 528
516 460
3483 365
40 319
473 340
3217 659
376 600
4666 740
5451 383
1441 176
5632 494
3022 459
5680 307
774 612
2766 583
5859 521
1177 72
1281 549
812 584
3738 623
1043 239
4306 126
4816 554
764 563
3057 413
2022 702
3423 348
3399 305
34 187
1862 628
4492 37
936 509
233 224
2686 634
4857 16
634 462
4252 579
3023 224
2341 557
2889 36
1042 399
5890 574
3420 92
2874 203
1961 174
1436 144
5146 165
158 674
2747 308
1834 457
1963 503
5563 238
2728 25
3071 307
4765 635
3761 5
5819 563
5872 428
1722 408
755 343
3386 123
3616 106
3353 198
2798 663
5747 191
954 570
5441 511
4143 312
3319 113
5015 725
4125 352
1789 9
846 509
878 134
699 380
1639 745
585 238
1959 594
4067 55
3873 303
5284 715
3798 233
5015 579
3369 425
2816 50
1966 696
5365 267
4058 570
3678 192
5131 656
4209 40
1640 290
720 222
1073 314
220 182
4883 637
5653 716
2843 437
640 546
1226 508
4966 702
604 206
1160 431
318 487
5412 10
2107 97
2796 33
4055 218
4668 521
4823 742
342 689
444 612
1735 120
2753 379
3176 130
1861 636
1490 473
3067 177
1795 120
3649 76
1483 53
5957 304
3443 6
4586 413
1838 494
1525 406
2248 38
4908 579
3054 627
3680 312
5938 44
2726 607
5183 269
2755 741
2678 446
5046 416
2514 23
1600 688
5363 474
1202 63
1253 463
4733 157
5958 121
5150 219
2584 480
710 558
5423 288
178 143
4066 214
2645 467
5915 438
3518 650
5600 97
1340 335
2202 24
2521 49
5184 448
3388 541
505 353
279 111
5318 522
4841 39
2956 62
4558 85
3035 499
5419 468
2537 722
486 602
3424 224
3913 122
795 645
1059 94
762 171
608 393
1601 480
3779 585
1990 9
3155 109
5996 13
5770 238
5854 743
2974 687
4626 614
1962 694
2539 599
4045 528
322 680
5369 77
4480 460
2231 44
783 54
2260 186
4904 63
691 40
159 625
3501 307
1196 58
1876 261
1393 341
2726 609
2308 374
2075 730
189 410
2628 662
1397 603
5304 483
2514 44
3507 383
314 557
5646 32
3330 335
2284 581
5755 357
5727 517
5015 723
1792 647
1407 434
1752 205
2813 247
3316 360
1230 391
2738 516
4088 589
778 515
3639 373
119 419
5830 527
2770 583
1623 565
416 540
2592 231
5702 9
840 575
1692 454
4730 331
364 652
504 721
1917 320
2070 470
5012 679
233 83
5207 176
3307 308
4449 233
5484 563
824 38
4202 588
1061 205
5481 241
3408 219
2700 2
1210 333
5704 106
4317 641
1308 583
1347 61
326 348
4781 151
5316 10
1087 421
777 240
1089 17
5661 310
3573 218
3584 91
1799 92
513 637
2031 60
277 645
4445 542
2368 120
161 173
2994 476
2799 422
4013 61
5180 423
5069 324
763 190
3756 167
2580 73
4792 305
32 442
4018 338
3300 402
1344 89
5114 206
3625 479
5746 403
2420 84
952 567
2871 631
4029 515
483 77
1389 481
1287 373
4511 4
5445 179
3157 361
386 340
1569 121
1202 464
4932 493
2090 435
1058 570
528 671
1426 87
1959 214
3468 150
2716 369
1495 420
210 45
1214 326
5649 598
982 33
593 155
1779 509
1974 206
2220 601
1844 28
4429 557
3607 604
309 453
1546 539
2887 96
4562 61
5691 370
4985 22
1626 744
4307 664
303 601
1933 308
3525 586
4275 587
493 388
5342 450
465 393
2276 543
182 583
3546 571
3379 456
928 699
1721 568
2691 401
1754 367
756 555
4683 457
2716 144
488 629
203 385
3413 477
2504 16
4706 319
3331 384
292 447
5743 434
1929 596
1676 384
2220 256
4800 680
5980 19
3298 74
336 699
4157 622
4728 54
1515 335
5446 643
1727 707
1507 8
4754 539
744 540
717 294
1922 140
5234 441
2092 44
2154 318
5788 307
2345 65
5308 441
2544 572
2429 434
871 719
4018 213
4345 137
5670 576
3532 459
2237 548
3478 98
4769 396
5204 294
2125 527
4552 344
1646 10
1711 307
5309 619
2496 453
4510 721
873 485
1670 322
5155 16
3628 559
835 538
3864 271
5142 51
4534 326
5680 482
5264 437
5857 277
4583 499
3871 646
5892 632
3793 662
5831 189
2118 43
4862 148
3224 60
3088 733
1286 220
5882 361
4131 240
5479 383
1684 748
3873 111
3435 40
5472 281
4450 211
3376 362
1526 685
730 37
2103 489
5364 647
4535 349
4084 227
4119 525
3709 104
215 19
4302 355
3920 253
5541 571
5973 525
5531 306
4929 128
4253 232
3923 208
1827 211
865 619
3503 240
3592 157
4403 411
4894 444
5364 719
4909 639
3328 570
5443 188
5829 582
455 703
116 657
313 459
4644 348
860 127
4310 234
5224 51
5656 652
4419 540
2078 693
4110 340
4597 591
2360 190
2010 688
3369 122
5613 482
2673 705
849 80
434 555
5931 174
662 725
4611 665
2370 689
3111 502
2153 526
3070 191
1738 117
1213 295
199 458
1330 727
362 645
1006 335
1665 665
4329 192
4016 338
3230 83
1990 322
3571 35
4110 374
4076 594
891 240
3654 34
1285 412
5866 473
1413 162
4378 656
1962 456
1221 513
4428 478
2997 747
2373 548
2674 418
779 233
3450 317
5581 196
3352 202
100 440
539 562
2896 691
3655 435
3410 292
1853 226
5365 481
2879 3
3172 741
1429 704
3965 351
2086 546
5889 458
3834 418
5411 169
5953 708
2827 256
931 364
5541 293
5142 468
4934 212
4769 19
1908 268
4098 189
2443 582
5502 142
5691 90
2127 620
4895 312
2383 20
2921 692
3865 291
5213 410
2045 727
5878 4
2190 269
3682 700
1036 257
4899 130
5428 361
3228 419
1649 48
3409 728
5550 628
5944 480
1522 584
4259 500
1063 548
4753 2
4616 518
3280 207
3247 635
2705 186
2848 72
3851 341
4643 453
4019 163
796 586
722 166
3456 224
610 394
926 611
3080 503
1593 552
4477 467
1529 38
984 689
4468 437
147 687
13 200
5068 513
1907 92
5657 692
3570 492
4896 386
1239 19
2406 427
1647 629
3741 742
2669 181
2397 246
3901 310
4251 566
5613 159
5893 320
5995 607
4679 486
5555 541
5970 22
1767 735
5165 91
2226 403
4258 599
993 374
1204 303
5590 746
3066 264
3700 406
3555 550
5936 172
4032 122
1118 0
5133 168
3598 723
4369 627
2941 75
1485 443
3781 164
916 94
1585 279
4076 730
3187 621
523 657
4183 225
3282 555
5155 130
1801 395
4853 729
1246 355
895 74
3886 33
3287 379
5860 635
1986 449
1212 268
3653 129
64 292
2931 458
1943 605
236 6
2168 22
1525 578
117 349
517 699
3152 219
2734 56
2417 515
947 457
4736 97
5781 178
5334 517
2343 375
1631 142
2580 463
599 627
3264 541
1788 121
5303 523
5047 100
3870 388
3563 700
5704 185
1594 326
4445 5
1026 80
3543 205
2552 647
1840 530
170 585
3358 150
2556 397
3502 652
486 468
4284 360
1238 362
1048 166
2353 325
2729 206
2648 414
1499 359
4232 621
183 740
2439 144
5678 527
3227 365
99 536
1539 638
2894 474
9 205
3799 413
3131 145
4008 245
5421 440
3518 495
1280 63
5452 574
2120 225
1952 57
521 19
5628 470
734 532
1913 528
1997 216
1308 448
4745 207
4087 506
2660 595
620 511
3832 690
3426 315
4940 1
1744 171
785 534
5758 431
2967 59
3149 52
3105 334
5815 0
1451 601
1828 399
2519 409
3795 5
2485 537
2319 368
4111 369
1733 204
3634 184
4914 489
4174 380
3887 468
3259 38
5058 545
5991 577
4078 290
5886 395
5156 100
4432 333
2364 352
5405 590
4386 490
3867 232
4349 599
5475 215
1678 611
5148 332
4436 88
5521 343
3136 81
5930 57
3943 186
1711 402
1730 373
4355 460
3911 344
3041 734
5631 670
176 265
1955 41
3310 130
700 125
4652 296
471 8
1832 688
3090 210
2758 376
5404 281
1757 182
4718 35
2820 626
4610 505
1350 147
2207 305
5302 438
479 747
1388 262
3490 242
3091 79
5352 432
1213 98
639 618
5040 694
2438 549
2361 253
2704 662
1242 511
405 723
69 148
4923 356
4600 74
3142 450
3163 667
2953 656
4271 24
4545 734
469 571
2519 468
3488 426
5000 167
1982 564
4765 448
4321 309
5825 491
5444 24
1797 101
5164 339
2849 228
4247 711
3759 133
3373 702
699 292
3621 16
3877 517
5545 640
1368 90
878 255
2706 74
2685 432
4632 520
5854 512
4410 531
2815 603
4233 474
498 190
2206 78
244 363
1749 344
2670 31
880 370
3566 232
1470 660
4148 39
2305 95
3158 276
4696 635
1158 488
2640 589
843 53
5993 24
1280 281
5643 293
3615 29
2171 331
1935 275
4166 203
2646 327
5725 470
5816 311
3728 270
3784 539
5356 33
3389 587
3614 310
1214 673
3188 643
2116 662
3590 647
1380 382
971 288
37 194
1670 132
1588 299
1432 37
4224 417
1177 745
3832 16
1950 42
5080 720
2521 25
5542 415
4016 258
3236 688
47 565
1475 747
3813 410
5137 373
1279 520
4842 179
3483 193
536 563
3623 204
1259 411
2608 99
2850 435
4553 363
1273 746
4692 362
3032 272
4935 418
2992 570
5064 457
3220 22
1824 645
408 471
4370 46
3169 551
3171 575
3360 650
3267 313
3317 504
975 468
2094 53
2208 403
5860 248
5196 448
3491 400
1223 646
4237 81
847 242
2228 15
474 306
1173 343
2191 650
17 24
5223 680
2482 602
1026 415
2880 70
3260 603
2490 665
2651 630
537 538
4027 81
5957 344
1133 226
3310 226
1444 336
4604 413
1463 595
4104 308
1336 473
5447 169
4601 592
3545 555
826 257
4130 642
5901 65
3189 30
3804 185
3669 186
2427 608
3871 599
1176 342
1740 130
2251 532
5768 449
1852 451
3134 373
2053 189
766 474
2110 504
2044 256
3106 611
3398 728
2673 616
2589 449
662 479
688 690
5974 472
2023 694
2205 127
2313 648
733 195
5546 389
1761 252
853 571
4939 222
1516 334
2357 179
4881 528
5147 632
3047 632
4643 225
1365 443
3465 213
3477 18
3455 703
2871 584
3540 218
2945 208
4925 306
2669 155
5698 155
2848 291
1438 708
662 603
5687 560
1900 191
5000 734
1364 385
2624 146
3423 348
4598 47
5115 466
2640 547
4874 597
2034 541
2727 426
1065 335
1207 157
3324 595
1053 47
5427 80
2692 86
5676 467
4362 531
2688 121
3770 472
2526 228
5910 247
571 670
3132 542
5609 239
25 714
5980 615
4432 541
4503 667
150 706
5282 203
2881 385
1701 484
3081 137
248 607
1090 124
5210 484
2361 684
4828 557
1627 80
4252 627
752 430
5515 378
3662 377
2964 707
988 555
1320 270
2802 668
1476 256
4370 568
3634 263
113 623
4560 668
5179 614
2789 293
2999 259
3024 444
5862 8
2354 31
5406 714
1374 24
1848 229
280 301
3994 205
5364 664
3826 50
743 274
1723 622
4748 169
5952 692
1639 641
958 11
937 98
3918 46
3732 284
2977 508
1242 78
2962 249
4465 124
3897 25
4649 199
1090 534
394 496
4996 471
5282 327
892 0
4630 537
2153 42
3325 514
3157 165
2061 315
1318 391
5037 482
4787 244
4848 431
1207 609
5403 568
2432 610
2987 355
4893 516
2189 132
4483 344
1725 643
2588 82
1562 692
3263 183
4428 3
3157 368
333 606
2248 220
4652 146
3995 640
2438 199
1686 130
1175 490
3535 575
5285 492
993 400
348 352
5351 273
5472 202
179 742
663 601
5026 637
534 173
2764 52
242 184
5301 626
1247 169
2488 294
205 595
2728 733
2156 565
2354 68
5237 505
3065 370
1156 510
1378 505
5908 341
5955 376
1191 193
1977 3
30 571
1768 556
720 668
4924 277
3998 195
2913 437
4446 331
4408 273
494 496
4584 512
2041 406
3284 651
1791 412
4643 5
5621 178
5695 590
5268 362
265 317
5188 704
3165 329
4300 686
2524 202
5426 180
4607 252
2642 616
800 512
3706 193
1183 148
297 521
2341 268
5627 460
4048 476
2398 412
2251 103
1425 542
3848 320
4845 156
3892 622
5891 604
1902 3
2467 215
2387 51
1737 361
176 391
2204 248
5009 227
5212 18
347 129
33 366
4656 567
5714 112
4724 442
2578 27
1408 551
2511 171
205 247
5981 700
834 143
3623 580
3618 295
4411 462
1047 720
5822 112
4386 381
2724 424
103 708
5219 726
4119 189
433 456
5112 651
4978 535
3573 208
2418 163
5421 101
966 376
1904 235
1758 175
2196 145
847 478
990 25
1868 716
3810 6
2157 107
2776 532
1518 224
2592 416
5419 603
1767 562
3409 364
1594 209
3014 359
3261 709
5444 223
3106 89
290 547
4103 317
4016 33
5700 313
5886 1
2429 743
748 46
3529 121
85 74
1178 447
4371 719
829 641
5370 159
3037 146
2591 740
1313 319
4195 714
1164 441
3910 733
4627 713
1227 682
2442 99
4059 436
3919 198
4236 171
4134 722
284 476
4335 545
3220 128
2909 46
3285 579
3545 441
579 136
114 321
3016 632
3925 389
3796 469
936 494
5856 459
1206 489
5740 160
5581 205
4060 596
5115 591
3221 464
5159 550
5897 253
4962 0
1031 306
3771 112
715 429
938 103
552 266
3108 310
5749 737
5633 217
2256 447
4560 423
766 267
1773 77
2724 146
4210 499
3046 386
1007 387
5638 89
3025 439
5273 315
2202 236
1619 565
4672 471
1497 281
4460 709
1567 22
2483 617
1059 661
4017 93
4536 94
1262 389
4431 290
4148 549
3815 287
4069 194
5156 116
537 221
3947 506
5973 199
4823 252
5524 119
4091 114
1927 521
847 614
2554 112
2435 393
5811 49
2676 8
2665 497
2949 322
2123 695
288 444
337 518
5356 179
4777 313
856 382
86 637
3459 328
5458 713
2801 734
5879 132
896 439
4724 355
3532 256
1501 344
4099 615
3435 45
463 622
3079 480
4865 427
2508 430
1835 712
3854 479
1553 322
1732 14
284 458
1068 166
4783 704
3182 143
694 425
3039 548
25 330
3429 597
2146 190
1917 194
3437 516
5115 65
2422 535
1835 613
2603 103
2424 340
3603 214
1738 322
1107 580
777 475
782 352
3465 552
1888 340
3573 386
1003 239
5560 249
5357 237
2325 668
5853 55
3836 253
3067 136
4866 155
3795 192
826 174
3432 266
1108 438
4455 174
4752 641
2624 571
5396 631
2579 326
5009 580
1772 153
4771 255
759 507
4297 106
2501 654
5146 512
3487 544
1491 265
2043 327
2101 695
2399 540
600 247
3868 719
4449 136
2518 210
1031 254
3446 270
3607 718
2357 414
716 332
2778 101
4107 598
1030 216
727 379
552 673
4013 280
1574 418
3964 303
4623 570
3962 570
3227 461
2741 537
385 511
1494 735
2438 558
576 385
2763 165
1065 10
4050 289
2037 677
1045 535
4084 560
4558 595
105 269
943 525
4468 650
221 93
4078 144
1728 686
1075 565
3334 140
838 88
3902 387
3811 561
961 425
2950 569
2879 629
1352 252
5843 475
594 428
3744 720
1549 473
4508 524
1323 721
451 348
2403 564
3195 409
3575 740
5486 267
1716 148
4833 526
4651 190
4708 98
1196 142
4049 496
4261 196
334 447
3127 571
1202 147
4392 418
5688 608
1765 192
2369 630
394 398
5567 608
1780 476
157 297
2413 509
2174 356
2261 660
4115 714
34 204
4917 61
1434 391
4181 547
4272 695
5884 442
3498 299
3914 117
917 316
4317 64
2412 710
3880 231
1691 37
4277 93
5046 369
75 153
1175 330
354 99
684 95
156 448
5530 606
4879 0
4578 12
2817 303
3272 431
2079 26
4573 603
181 159
1146 719
2533 62
2008 171
33 617
4600 22
1218 650
3836 139
2580 41
2718 290
1285 489
2886 186
1432 578
5676 447
3991 98
1985 517
1993 660
3452 366
4268 401
3387 67
495 63
18 395
5651 741
5963 193
2961 494
659 723
5933 123
4699 588
534 550
5055 537
3655 296
597 714
2227 44
4387 133
2335 715
4756 599
4288 498
4462 225
4159 41
1361 78
5987 42
4971 599
1390 692
4533 496
928 480
2629 327
2163 12
3531 604
5437 3
2753 106
2236 220
2866 657
5555 309
128 233
353 582
2562 119
2739 289
800 502
5740 61
1532 595
621 329
5066 314
702 8
1411 521
1117 464
4881 191
2600 714
1392 422
5141 2
5211 46
5182 227
727 243
719 375
3148 242
3335 658
2738 212
1811 346
5899 216
3174 295
4873 159
1096 327
3629 169
899 461
200 234
1218 358
666 696
3324 183
2562 465
915 275
4005 161
5372 478
24 628
1222 683
405 527
666 303
3428 629
4608 464
91 272
1136 710
4014 172
5831 707
2208 442
4090 247
772 188
2520 438
2503 577
3372 284
5726 514
496 233
3633 710
3401 664
2002 345
3228 463
2185 666
3077 669
993 411
5561 682
3272 110
2506 78
2277 738
4355 87
3805 11
1942 603
1549 120
4605 261
5276 256
2004 114
3892 118
5179 39
5861 281
4391 78
5644 703
1304 585
3521 269
92 631
1065 18
885 17
1904 318
1794 180
2626 747
152 228
5497 371
5417 84
3510 690
2237 238
5587 312
3360 426
5837 179
643 237
4453 303
227 556
2103 187
3414 483
4191 555
5432 691
5687 112
4262 313
2480 489
5131 57
2289 36
433 534
5483 250
1313 365
2766 384
2043 590
2209 370
4868 66
1112 140
3039 371
4842 88
5507 561
99 746
3835 213
4795 317
2965 217
3911 305
3391 711
534 220
3526 388
3539 456
920 731
4727 159
1120 53
2675 545
1082 418
63 296
3053 313
1621 595
2093 487
362 145
581 517
4330 285
5898 145
5796 244
2135 483
4291 1
2276 638
4542 471
3046 589
4446 459
1606 593
5314 735
3086 526
3389 456
4946 5
4343 340
4819 404
3906 627
3752 274
4021 292
665 532
3164 415
1291 162
761 643
4059 360
272 721
541 262
5534 605
4506 219
3838 226
2609 220
4063 213
1115 587
4443 621
4598 717
3077 132
5858 665
2725 738
2840 532
4896 172
5542 519
674 633
3067 393
1800 554
3455 309
4716 580
1292 360
2890 243
3660 123
1925 56
2901 131
861 476
2243 541
4994 20
4781 248
4164 514
5320 6
126 138
2949 469
3539 386
322 28
3052 301
3756 161
5633 440
3542 378
3106 68
773 320
5731 10
2796 388
5351 333
2345 56
1002 463
1711 148
1685 472
5924 681
2950 557
2766 435
4357 306
623 546
3325 142
1879 402
15 284
1871 573
874 502
1862 534
3298 536
1036 86
917 305
3942 470
341 682
492 467
3418 425
2299 139
2173 434
5508 737
1004 148
3592 122
5645 287
4230 575
3557 622
4550 710
4366 687
5267 430
2826 727
801 251
4414 589
2273 686
133 260
5540 476
1093 93
1341 440
5167 38
2281 181
4466 19
1991 128
572 701
2611 67
2456 683
4005 522
936 467
5058 623
155 607
5141 503
3981 632
2257 598
4657 272
4418 592
2992 165
4579 128
1840 164
4984 455
2863 573
757 494
622 576
496 348
113 48
3195 100
4467 24
5920 476
4154 698
5998 499
5938 570
2072 496
1069 440
3377 151
3313 116
4728 677
3947 379
2077 106
528 730
5787 420
1502 318
4983 627
2394 228
4588 250
1239 146
1451 465
5754 0
3183 631
972 637
1681 227
4645 229
699 288
846 387
1185 536
4230 366
5336 402
5716 245
4192 507
358 569
5991 274
2547 312
520 80
3145 291
808 400
5254 350
2041 490
5329 56
5012 251
3247 397
4560 603
2905 640
5907 714
566 231
2384 76
1969 646
1016 141
2363 545
5220 464
5595 571
398 174
467 22
520 667
2405 272
2649 175
4657 725
2492 373
5423 498
1202 732
5397 75
2233 365
1561 77
2214 355
4358 547
5960 725
4244 459
4105 428
3732 2
4347 107
3834 715
4440 695
3350 255
4351 248
828 542
2996 496
489 86
804 497
2049 4
644 87
5273 238
5397 34
5161 170
3622 299
3414 531
2199 320
1736 411
136 376
3424 496
5152 317
3809 670
4263 483
654 280
3886 109
5589 413
4551 81
3338 56
1531 590
4617 718
3586 92
640 733
5971 217
4677 158
5340 153
3353 532
1681 584
2131 276
2994 76
4916 702
3431 358
2650 405
4211 523
4861 256
5055 542
1271 138
2750 711
838 4
5947 135
4200 347
890 482
4790 284
1594 387
475 587
3415 159
202 481
1940 681
2113 332
5378 220
1902 587
1647 164
1903 405
1979 195
1284 183
1214 589
5010 264
4372 673
3974 523
4819 571
3936 568
5332 85
4181 60
5433 81
2639 219
3505 466
121 683
5246 292
2871 391
1309 625
3018 243
2088 700
4293 188
2846 578
1278 119
1479 3
2060 262
2194 241
2847 622
2800 400
4794 241
5364 332
3739 135
5880 421
3443 388
3353 375
5207 692
3511 353
2770 683
5515 534
304 464
5563 570
4601 186
1631 565
1108 400
4884 15
5270 10
4385 82
5010 304
4003 423
2857 717
3540 584
4718 304
5391 249
2833 227
4583 517
4096 654
3379 610
2950 527
4615 117
2857 589
2820 381
5369 426
3263 39
190 410
4951 115
1872 26
4250 541
2777 676
4347 25
4723 148
5754 52
2622 494
1176 150
5819 250
3267 516
2488 470
220 116
2319 392
3407 478
1225 168
1808 396
4324 115
3867 135
801 202
5609 537
1128 195
28 33
5791 486
4047 68
610 189
2561 435
3175 281
4366 542
1280 298
4529 112
4496 154
4407 133
3691 717
4001 607
5000 66
2919 205
3678 235
5336 321
1877 406
2377 436
106 102
4349 58
442 590
2172 584
4962 620
4656 494
1158 371
5697 468
3357 367
3666 704
4010 300
271 407
849 512
586 500
159 700
5607 199
3104 201
4839 722
908 658
3193 653
135 199
3436 385
636 743
4114 483
920 296
4162 595
4382 535
1984 105
2455 536
2007 694
4267 636
3134 724
5289 343
1573 593
178 502
3385 603
1461 363
2442 34
417 365
2591 664
4255 454
4234 288
2336 94
1235 427
1825 2
924 572
2970 701
4469 693
5609 416
50 505
697 293
855 192
2756 553
2320 242
3488 136
4982 278
382 213
879 175
3490 455
5834 301
154 274
2760 678
616 401
1929 28
306 345
5696 730
3513 25
5541 20
3196 540
1308 507
2452 431
5178 276
1386 693
4594 558
1985 568
5451 283
3428 365
2894 718
3084 730
5435 469
2860 545
2954 675
1883 108
5930 68
134 109
2254 244
2939 454
2190 296
5336 106
2193 711
2758 551
3288 10
4267 709
2703 71
2109 654
849 627
3981 90
1752 439
3841 327
5534 131
4234 635
1402 446
1668 142
2153 392
4418 631
1851 663
3017 373
4484 739
5129 259
1136 22
2326 585
3030 452
3370 453
4158 403
2670 106
5393 309
4591 213
2938 122
3761 649
998 375
4495 143
4881 626
2911 738
3776 464
351 318
687 0
4096 271
4918 437
2211 293
2279 86
5451 176
4709 352
3123 286
3298 102
5785 36
707 646
2842 502
2247 522
3268 390
5107 174
4075 189
1591 32
1810 657
1874 586
4660 15
1900 605
4360 438
3810 333
5109 162
4513 710
5637 73
3536 193
566 271
1804 420
3400 693
3702 558
4611 314
2937 354
2306 545
699 454
3461 426
1307 77
61 719
3240 699
1207 104
4484 14
773 67
227 553
2713 492
4874 439
2807 170
1938 139
566 487
458 411
844 467
740 58
3385 653
3090 476
3032 146
5628 60
1548 220
2443 157
3498 405
352 669
5764 91
3974 523
26 570
1553 519
4630 555
2365 223
1142 79
2112 633
1206 95
1173 658
3017 290
3047 467
2106 586
925 278
4646 42
5060 543
4473 515
1005 743
2979 41
1563 157
638 583
2724 649
1218 401
3369 4
2147 415
2858 472
207 360
3284 14
848 665
1369 482
2748 468
2738 177
4551 22
3546 620
2088 565
3862 338
4494 747
1451 277
90 459
2605 668
2590 424
3094 194
2676 179
5750 139
5795 447
1552 626
1770 615
1644 413
1630 34
3475 269
4560 406
1683 663
2515 410
1509 41
1861 96
3329 252
4310 58
1343 698
2352 486
5291 455
3194 405
1404 129
930 208
204 59
4330 633
3793 720
4270 73
1302 47
4640 199
2015 417
418 228
835 661
3471 245
2336 191
16 326
5465 328
4001 574
2925 396
3747 12
3342 202
3802 38
3208 41
3786 448
2367 613
3523 424
3436 76
2645 486
527 115
5120 319
2771 306
3040 261
2727 47
3525 682
3836 91
492 579
4956 88
4722 232
4338 260
4577 461
5364 243
3983 40
5320 684
2885 564
3751 720
5235 536
4579 345
2981 62
4214 657
2826 317
1059 611
2810 58
1898 200
3676 702
3237 178
4112 228
4445 87
2357 684
4976 401
4661 453
3785 729
4186 10
4382 147
4031 566
1711 59
2978 371
5715 21
1825 336
2086 586
4923 162
1955 390
1086 679
2611 564
2709 327
4310 177
4345 237
1210 398
2583 692
4949 498
729 515
3389 53
5022 573
4989 363
3147 442
3054 264
3213 153
5747 558
5135 719
2404 528
2179 484
4323 424
3896 269
3330 339
3579 213
3682 355
3317 100
5578 401
1581 31
3448 6
5146 296
1355 505
5035 76
4118 741
2871 490
747 633
5209 343
5541 92
3421 522
1885 201
3328 721
3115 730
1460 566
3830 3
2868 165
785 122
1780 646
4592 97
1968 230
5541 417
5776 592
2256 343
2951 703
3716 359
1609 688
5934 214
5112 233
1021 48
708 584
3187 723
4867 607
3838 231
3047 668
774 619
2411 501
5592 218
5760 232
739 372
3454 545
4326 532
1090 282
1713 248
3911 648
4504 393
3112 28
1910 502
397 555
1551 145
2264 249
4377 11
2870 391
624 402
5760 391
3616 643
2330 2
3169 424
3262 306
483 542
5348 735
5689 292
1286 6
2591 323
4785 174
4282 639
1099 390
3644 587
5734 664
2702 656
852 278
340 664
5896 255
2989 651
1994 187
1124 135
2535 26
2445 637
979 3
3651 290
2297 116
1277 654
5155 125
5271 518
931 302
3746 517
1495 119
4598 125
1170 415
4414 323
3240 728
5632 327
4289 262
2530 183
1827 672
1282 586
5872 545
1022 324
2007 372
5655 119
2164 662
3344 50
1406 303
1896 642
2881 67
729 486
5857 702
5623 167
910 532
285 571
987 95
4581 451
3694 63
1829 76
5861 719
5976 473
274 356
5733 216
5799 364
693 364
4866 279
5541 14
4874 340
304 582
4212 603
5928 522
722 509
1054 312
3611 42
2716 107
3624 542
5727 398
3653 248
30 684
699 437
1817 708
3169 245
2144 561
3186 110
5494 728
1357 125
4290 188
2343 110
3559 406
3022 181
4729 75
36 595
79 494
3963 199
3479 90
2168 266
2751 53
2539 477
1777 364
2480 403
2145 90
2431 179
2450 220
4380 558
5616 556
5044 699
3332 544
58 420
2668 485
2362 505
757 309
3074 26
4965 439
4784 148
1281 54
1118 241
1789 284
3049 9
3576 114
1076 325
878 483
2180 127
4003 132
1727 187
4571 252
5185 654
1485 652
2835 489
2346 47
2563 707
3677 461
4020 220
313 90
1578 24
2322 65
610 521
2154 128
3012 610
3839 638
105 683
1135 270
776 153
2588 87
5802 701
4569 413
4965 559
3137 300
569 708
2702 741
498 64
3091 385
639 623
1638 372
786 280
3881 548
3565 701
5571 80
2718 108
2515 278
581 153
2081 599
746 25
3347 171
5937 291
2383 644
5606 164
4311 639
1501 392
4760 201
2833 737
2446 234
5922 570
3351 292
4501 494
2757 706
166 415
3362 325
2556 167
1075 173
547 4
2399 405
5355 629
5670 277
2557 205
1542 740
2402 482
5557 690
3108 637
2794 377
5321 644
4104 343
29 284
2343 529
463 360
2861 435
4386 175
5125 192
5202 97
450 442
838 524
4083 321
3274 197
1136 683
3113 525
4810 431
1276 392
1907 8
4121 280
1325 263
5564 20
819 281
277 424
3129 360
2109 438
2749 291
5209 364
4738 553
2341 153
3385 395
3751 189
5970 71
5634 368
2027 368
4679 149
3 189
1911 647
5175 704
5805 659
1317 401
3044 448
3203 124
1511 396
5083 33
5550 65
363 575
223 276
5009 579
814 214
698 656
5652 520
837 498
380 230
2455 189
4491 717
3570 295
3493 453
3115 693
2681 80
3227 737
4123 30
2201 323
3507 233
5889 690
4907 246
1917 487
2075 482
4208 353
3278 593
2227 418
1308 491
5519 274
5347 375
2519 233
5844 98
5083 410
3590 45
3690 391
5246 379
4213 517
1721 150
5587 667
1011 529
4204 336
2726 400
3286 273
1430 38
80 442
523 77
4034 634
3129 299
3385 388
2091 78
5508 182
1791 489
631 333
3865 125
5456 251
1611 541
3513 730
95 629
5470 150
2037 215
5712 447
2538 312
4937 235
2883 282
3724 286
4593 728
2935 437
5676 628
4380 725
806 134
2260 23
2798 319
5069 516
1331 281
3960 189
2196 332
5138 361
2477 138
5738 213
1095 67
5198 64
4588 682
832 497
2617 143
2232 38
5505 440
1099 660
4644 117
2712 478
4812 352
2012 549
336 702
1372 294
3020 653
5599 270
5288 23
722 440
3905 106
5065 730
2891 674
270 194
5599 441
935 7
2772 85
2563 125
5938 190
4288 167
3862 564
3343 254
2610 623
4918 47
264 17
2559 605
3187 683
3934 105
55 89
5312 94
4632 571
3349 46
4188 742
1131 449
5061 544
4196 346
2261 154
4761 634
5873 642
3759 399
27 195
1474 517
2110 285
3646 610
5151 466
834 509
5330 575
5487 440
2608 597
5258 327
3532 224
5540 518
2148 61
586 746
305 388
4013 16
1859 246
794 742
5728 224
4444 83
371 360
637 561
241 535
2874 72
3245 728
238 137
5254 450
4760 221
5305 359
3432 512
1460 689
832 263
4858 348
2147 469
2261 137
1872 327
3113 385
1850 698
4049 688
709 275
951 302
413 639
4173 689
52 438
1561 309
3777 483
1075 468
3562 491
225 252
490 339
5253 238
1594 527
4449 287
2461 462
2714 409
1026 145
2622 33
1489 271
4272 691
697 142
4802 159
2520 88
1959 567
2491 748
1493 356
998 499
5481 536
720 370
1163 18
5803 265
3631 552
3623 679
5323 717
5608 16
2929 401
2694 605
4996 307
4427 35
2925 640
4763 601
1349 668
762 570
1987 606
4599 108
582 305
675 706
3483 610
5808 391
4842 546
1462 711
5501 93
2533 743
4277 373
5723 35
449 334
5210 46
4906 124
5927 28
5714 712
1307 711
1044 359
2751 507
598 66
1997 448
2257 454
1692 167
4966 416
2046 144
624 505
1535 323
192 195
4628 438
2842 70
969 249
2679 516
1970 82
5673 249
3562 180
1816 33
5000 745
5878 549
3892 342
5092 226
5033 275
1334 364
1097 314
1137 328
5331 383
866 318
3837 565
2347 538
1435 217
2251 650
4562 549
650 664
3191 245
1854 473
5772 734
5936 103
4275 341
4092 85
4150 216
1450 349
3914 169
4556 19
529 320
2832 605
4712 597
1965 322
5922 24
2389 34
4084 433
4970 315
4668 740
2895 288
2461 528
3157 444
1399 450
4102 48
3848 295
1739 132
5040 226
1489 410
3603 453
1863 77
5136 302
121 211
5218 506
4676 61
1787 138
174 68
3010 175
4361 412
3503 516
3499 605
2939 151
3455 568
3931 741
593 31
1806 644
599 163
3777 4
4815 575
2668 161
1664 60
4919 630
3085 644
2866 38
554 722
2464 134
4235 741
4864 119
1898 266
3926 62
1259 269
3065 77
1310 33
419 737
717 0
4050 107
5147 660
2055 100
4900 739
5200 355
4949 643
3969 466
3712 632
2599 168
4280 306
113 445
4477 245
3090 421
2680 710
1244 350
205 289
3351 73
483 195
4343 694
4248 366
5997 390
5208 234
3146 521
4572 546
4991 1
2859 624
2074 229
1609 669
91 375
4828 747
3588 634
1151 456
2795 653
4124 676
1682 303
1095 178
3747 392
4623 99
4188 521
68 61
81 212
3701 250
3072 520
1227 669
2556 209
1488 130
2455 718
4406 59
2113 712
233 18
1907 553
3695 421
240 137
2525 736
2787 310
1981 468
5947 154
3285 425
2311 299
5721 210
4386 220
2559 185
3500 499
2065 20
2445 691
4089 207
5018 410
4826 86
2758 444
1134 514
2942 662
3529 354
3405 223
4200 433
5851 268
5752 218
3192 209
4812 213
1703 16
2502 693
98 624
558 203
4810 511
653 369
744 631
3626 299
2078 385
774 329
1874 492
4561 475
5711 371
5751 296
4730 552
1421 447
5988 716
3070 270
33 106
5714 464
1127 173
525 630
3537 344
584 31
2481 502
5515 611
2232 701
3083 717
2839 673
5059 565
5748 487
5125 109
5408 631
5491 467
2354 33
30 126
1626 11
307 106
2147 647
301 530
1795 216
5332 49
2893 245
5581 14
882 710
3268 212
4397 599
4571 626
1735 495
2052 579
4314 653
1071 571
2960 193
871 486
3845 391
5725 370
1026 134
2452 526
1072 409
3523 351
1248 392
5439 198
3025 245
5279 572
3789 60
1226 532
3375 18
3583 397
661 196
4334 302
2661 364
5365 110
1736 645
5918 396
2830 684
1452 108
4970 216
3448 289
2357 706
1069 553
1404 667
3096 261
3615 118
4116 112
3235 297
2313 729
3175 497
5708 59
3659 349
211 738
1470 213
398 100
4005 623
4906 468
4715 728
5728 579
2772 625
3379 305
4428 605
121 56
5651 20
4987 698
1280 541
1649 124
3329 334
2227 87
138 228
5008 506
433 383
3389 78
3814 566
5652 141
1521 280
2688 14
2439 698
1394 668
5786 443
1321 162
3941 3
1264 404
2427 701
2090 154
5027 564
331 534
4011 255
5039 525
1653 489
1603 151
4791 223
4953 271
3961 28
4457 219
5205 573
2572 383
976 448
87 402
5544 237
2647 339
1476 500
4601 722
867 166
560 443
872 565
3343 79
3892 183
512 657
1039 578
1975 206
2187 337
2153 509
5009 210
1795 652
5731 28
4106 381
1896 366
5742 310
3812 579
1234 130
4428 308
1770 330
1665 601
