7500 4500
4194 293
4237 489
3894 328
3904 150
4103 163
3665 297
3448 35
2990 477
4196 68
2098 392
2419 142
2552 360
3603 269
2714 481
3126 71
152 377
407 27
3000 375
623 359
856 426
2349 241
2105 196
2455 95
1875 506
4103 469
2037 549
784 245
1722 84
1667 540
1686 280
1609 535
3411 437
4471 427
1713 354
1160 91
1122 407
171 319
3942 291
3496 221
3620 116
45 155
3154 153
3549 520
1609 530
3404 127
1667 163
342 248
3918 438
1040 1
4328 39
1469 528
2375 405
2567 379
3451 364
855 126
2727 441
209 300
2839 123
3735 201
3935 391
737 219
3890 116
1011 340
1509 344
1027 20
230 522
3691 41
3690 95
425 39
1474 35
523 414
3517 6
2033 503
2106 41
3835 496
238 211
1857 197
1885 410
3455 517
2901 169
574 281
3956 384
1187 29
15 56
129 253
1625 5
1166 315
2112 142
452 222
987 125
513 385
3296 470
3649 434
4103 238
1060 540
2837 424
1792 542
178 331
2326 410
2223 334
942 244
2972 38
2904 310
1562 275
3200 468
1288 125
3119 268
1308 304
2384 308
3124 373
1954 401
473 493
2853 378
3603 74
1755 498
1912 441
3728 226
4107 284
99 329
2635 270
3719 283
1767 259
2289 84
2294 518
3601 418
808 543
615 22
2561 210
4286 336
1306 197
531 6
2030 237
489 180
3675 195
4219 150
3129 248
1728 412
2913 261
2384 514
47 393
4116 4
1561 86
886 11
2075 396
1981 440
1834 347
3858 326
2456 40
1247 526
258 192
2211 136
2615 307
1688 405
3354 214
2873 203
2790 20
3305 103
2653 293
2642 268
1935 181
223 11
54 233
574 297
3447 44
3734 73
1947 367
509 520
1863 291
3905 193
1277 209
985 187
4474 206
1715 119
666 469
4040 463
1215 12
2394 43
4378 137
4364 488
3680 148
3176 543
2302 15
1325 256
1510 390
1329 92
1940 134
3899 295
605 214
3993 58
1328 139
4428 355
749 304
3566 26
4260 241
2044 456
3892 390
3772 32
2659 430
3810 490
733 349
1180 20
4293 425
3329 535
82 9
3804 247
762 276
4354 299
204 84
4173 22
2688 279
1033 338
1564 554
2290 142
2033 174
845 292
467 97
2105 107
1428 345
18 306
1775 325
497 484
3871 512
4150 394
825 3
2388 248
3993 318
2897 537
2107 80
4304 343
3416 418
3699 402
807 515
318 102
216 431
678 249
874 271
1145 365
2799 340
3046 531
1137 543
1875 545
926 362
2091 347
2469 453
4277 239
4351 511
1473 411
3987 540
2877 360
319 470
3044 164
3338 192
4450 304
3555 27
3871 349
3129 438
2333 23
2544 246
2636 510
853 481
4455 283
2659 286
755 265
3716 380
4009 296
3013 135
1791 524
4157 157
2038 199
4313 40
4148 217
1204 23
214 84
620 559
3318 190
1250 472
462 495
3838 140
3945 142
1611 370
2037 234
1668 215
1565 377
3398 450
2051 92
2028 316
1050 200
4026 45
2093 109
1234 37
761 153
543 198
3481 325
3622 397
4061 401
4258 507
4337 208
580 518
381 525
4417 210
3879 392
56 457
4278 130
1831 406
4367 373
2535 187
822 219
1131 193
2931 89
1066 118
3536 500
326 377
1220 126
2414 397
3194 175
664 111
3494 560
2094 402
4051 374
449 186
1439 110
306 126
2027 449
2986 403
3315 304
3774 313
1951 315
194 27
4354 183
2114 168
2659 399
3496 365
4231 375
2545 268
2348 109
2538 374
138 60
3636 361
1046 216
3819 283
4297 429
1826 544
2607 524
1260 430
1963 130
3317 49
3243 493
268 435
4174 129
1938 382
749 44
2415 160
3797 248
3036 242
2822 424
4145 319
3460 355
3432 410
387 26
3486 185
4320 129
2657 405
92 75
1249 260
3851 89
3167 272
3610 105
4469 443
2769 39
3345 109
959 371
4365 43
3346 433
1290 271
1318 168
2794 26
3676 304
1689 471
2535 347
1736 562
368 359
2958 557
3765 39
264 120
3076 281
2011 164
1237 39
278 345
476 261
32 485
487 544
3245 59
2784 151
2167 499
2831 38
1855 335
2453 475
2348 458
2591 71
2769 100
2650 552
3360 475
1911 74
1933 130
148 260
3690 53
4074 94
730 295
2994 151
3426 201
3632 95
2714 200
2654 530
1171 466
3166 138
3861 278
1516 13
4305 265
940 218
3979 180
422 368
3487 227
4314 118
4066 249
638 249
2999 327
3685 253
3693 75
856 391
2625 148
1876 191
429 485
3030 401
3078 496
534 158
165 196
710 86
1157 319
4229 322
1097 527
2407 4
3169 479
3911 246
901 264
3920 80
4071 74
1877 421
309 452
3699 375
1463 69
2646 168
1843 460
4260 139
3641 359
1565 70
3087 311
234 386
3538 440
2031 154
1177 119
2597 310
4072 190
2147 7
2173 56
277 477
864 322
1777 394
50 336
4438 286
57 162
1924 135
1733 540
2605 363
1059 163
268 61
4001 180
1785 457
4039 236
1697 552
1339 357
1735 450
2902 385
2399 24
3831 365
3254 34
1749 553
3164 193
4104 465
1974 463
2252 367
508 391
3201 125
187 218
143 225
4264 158
2220 440
1318 557
73 504
1647 411
2407 364
1186 305
1405 122
2041 340
3865 113
3565 114
4373 257
140 397
3209 507
1135 245
2348 6
2455 86
2776 158
3200 363
12 351
2276 60
928 21
3551 91
1675 101
465 66
4336 503
4276 259
4049 80
593 275
899 549
2237 230
2558 130
4088 359
1773 418
1887 80
2259 555
4210 469
3354 275
1241 60
1713 37
816 214
791 379
3358 258
448 219
1039 511
4321 12
3757 24
2183 33
3746 93
2216 404
2968 48
3193 284
1921 255
1652 166
895 466
4085 118
3142 504
1684 375
3788 508
1120 332
3622 265
3098 170
1761 493
3359 314
1415 542
231 348
1086 257
2635 259
3771 372
3692 257
3808 234
3432 503
315 537
2839 307
1020 109
3318 267
2545 221
2387 249
190 251
946 360
2797 258
2500 185
1723 121
968 491
3985 224
3324 158
953 288
2297 55
1854 444
2801 398
4389 44
1989 99
789 498
1603 374
1608 99
959 311
4195 433
2576 173
2163 484
1525 239
4376 482
583 493
3053 309
857 121
594 152
2679 51
4037 382
1107 105
1858 220
1673 339
2024 525
4310 147
620 356
1748 328
4131 66
3811 197
2142 466
3663 194
556 275
569 344
793 266
3578 113
1470 237
767 233
94 360
3789 347
3955 284
40 60
1222 548
4016 311
2935 326
1198 479
2592 79
977 298
2998 360
2170 32
2365 224
4386 210
3292 176
2589 112
3519 199
624 60
3120 210
4156 239
1238 459
2758 525
3540 48
2361 363
8 60
3155 138
1516 254
2170 374
2318 463
254 302
4393 402
95 385
1346 293
1482 134
2668 486
798 140
2555 515
121 44
597 97
18 199
2328 418
4210 543
4484 534
1024 196
2017 123
4240 334
458 54
117 450
1365 111
945 287
288 209
2796 143
443 121
3571 161
3953 204
2636 89
2829 181
3024 321
2789 221
2306 408
740 41
1219 501
1836 363
1639 538
3776 101
4452 373
2496 281
2059 397
1161 23
3220 317
3770 453
3712 513
3570 281
4024 299
3254 361
1303 243
3286 435
496 55
2368 362
3434 473
2084 546
3875 68
286 408
3176 266
1048 78
145 456
4381 50
2481 348
4185 67
3074 296
910 357
2011 487
363 339
1641 509
1718 544
3322 526
311 233
519 143
2320 233
2816 129
2032 403
1630 487
140 12
4144 168
4194 485
1622 113
4203 219
1513 485
3667 380
710 260
3876 242
3527 112
4281 216
513 436
4499 508
2565 276
2447 76
1481 256
2477 299
3729 543
4254 137
1462 369
2774 398
3385 336
4292 264
3554 521
2779 340
4484 423
369 166
2755 551
2491 258
3087 560
3849 208
3615 444
3915 45
3530 15
1947 300
3941 68
4204 62
3814 427
1057 325
2913 223
1773 132
2484 2
2641 427
4321 85
3482 251
2031 155
337 371
1007 308
4362 29
1362 503
749 214
4404 387
1103 326
802 50
847 266
1143 471
3349 454
3213 94
4045 453
3825 146
4169 241
2842 422
3725 124
2822 441
1653 316
1343 503
401 270
1071 223
1301 92
4214 199
2671 121
3202 1
1907 513
3074 528
49 549
3150 47
3528 309
766 328
4489 279
3537 494
3853 0
2144 540
168 416
626 550
3909 313
1561 154
1096 79
569 98
468 411
778 148
1495 373
800 533
4099 226
2119 425
4478 206
3179 48
3149 6
2906 66
1744 340
3213 138
1399 122
1374 516
485 339
2982 131
3356 415
1706 506
133 539
3772 416
555 90
4301 71
371 171
4175 223
811 215
1487 105
2448 552
3202 318
2138 551
4194 294
4096 35
294 122
3580 109
3199 157
3334 443
3814 453
621 183
2797 549
3758 322
15 12
3122 374
1473 74
2923 115
2557 398
2639 281
2977 213
4148 393
1299 425
4335 426
1960 239
792 328
2305 274
712 377
897 468
1156 542
1830 164
2032 405
460 385
1740 239
1104 399
1277 8
2572 22
3252 454
658 72
3760 499
2776 282
2356 484
1472 208
3845 501
3798 48
673 111
2313 456
2380 53
3529 257
2411 556
1546 184
232 49
4464 427
1059 512
2694 295
2730 526
1927 264
3689 27
1112 146
530 38
3817 255
4499 34
51 202
1081 202
1382 17
2610 190
1300 454
1698 52
3955 218
1838 51
3816 445
202 321
451 365
13 98
2306 185
3441 46
3563 360
718 301
3698 502
1782 216
187 251
575 204
3637 161
860 520
4024 503
2752 270
1142 477
2801 275
728 338
139 376
3044 116
86 186
3729 494
643 178
3540 30
3316 160
2745 272
2627 10
2000 75
4302 58
334 345
195 38
2708 459
1914 186
3065 207
846 243
1275 304
2658 64
2031 119
1123 149
1148 172
894 170
4479 320
1737 516
1780 109
634 140
222 82
2975 342
614 409
2013 137
633 506
307 141
3992 22
867 160
3261 37
272 123
295 130
3674 285
3029 385
3904 422
2382 544
1493 204
2013 550
1649 303
3679 523
3193 337
3393 437
2817 196
1515 109
3989 301
297 469
1282 104
1081 228
1692 98
3162 429
1587 5
2154 99
930 179
2818 145
4261 3
2791 307
2892 351
1066 542
4407 136
1771 202
2545 423
649 378
722 296
2740 59
1745 317
3424 263
2885 87
1952 365
1234 243
4328 458
472 225
2412 139
497 323
1482 326
577 394
1257 253
1728 17
38 447
1934 156
328 83
3310 243
2682 144
3373 42
2283 366
1861 7
386 24
1427 552
3241 59
3602 52
3701 300
409 157
848 262
2144 76
653 186
3344 421
4342 550
2264 89
768 520
3477 151
4196 394
755 380
1726 29
384 236
1426 317
977 355
4460 89
3993 316
1534 494
1192 196
1359 121
2325 58
99 474
2403 197
3276 36
977 374
2243 321
4110 122
2654 11
2364 8
279 306
1345 269
961 409
1021 435
1570 494
2748 202
2279 546
4478 208
3459 160
2512 271
299 395
4242 510
3195 91
2429 265
3466 464
318 475
4284 151
3725 468
1930 484
3367 264
456 27
1003 68
1163 516
301 75
4425 439
4472 236
520 389
994 337
1881 192
1046 519
762 548
2551 167
59 357
32 234
4334 411
1367 150
2947 262
2697 506
510 363
1345 273
19 155
4380 56
669 67
2871 399
1671 414
3642 442
1970 331
4288 112
1574 353
2445 152
3150 279
781 127
2131 31
2395 127
3223 387
2746 139
1138 119
429 442
4476 49
3145 439
3957 165
976 536
1373 308
653 344
4233 16
3714 148
1916 471
3875 481
1405 288
638 1
1347 221
1176 526
2482 142
1032 143
2817 38
3069 268
25 12
2704 358
2257 400
2144 267
4234 35
589 239
3900 18
437 123
1929 430
4082 306
2139 487
2455 40
3034 369
4294 538
4167 471
4310 140
4442 213
1663 301
3880 448
2641 101
2 523
3551 374
1495 405
3792 268
2533 64
2178 291
3966 372
385 131
2047 221
1705 324
2839 166
2078 378
2598 412
1305 378
2547 212
3999 79
3220 14
1862 148
2094 485
3525 65
3113 142
3296 383
1961 62
3129 446
3384 84
2694 111
2298 208
3647 560
3155 67
426 81
1113 59
2876 457
1365 25
4272 110
3116 234
3261 342
3632 353
430 204
3765 434
936 33
430 67
4136 260
1937 200
872 202
3709 303
3031 555
4311 430
2516 80
4468 65
1395 283
3341 472
975 192
820 130
4479 97
3295 553
2755 384
1014 181
2946 472
2038 502
1182 192
4363 319
2051 265
1025 54
1941 54
3102 102
1686 533
1582 37
4064 101
2396 508
4076 94
862 249
3458 159
3914 308
1711 512
3721 455
2059 492
4084 399
3399 35
2709 187
4256 448
2673 523
1183 152
419 382
403 557
28 311
3607 385
3816 78
3290 353
1961 220
88 452
132 217
384 292
3544 4
1346 447
1298 56
3222 354
3542 203
4376 359
4264 12
933 396
322 204
2329 224
4420 245
3379 240
2401 363
3067 424
3882 102
4423 543
3315 161
2725 506
63 89
89 298
2732 6
1706 49
607 35
4272 166
3599 371
877 139
994 298
1208 404
2389 166
4159 554
2164 86
3351 320
3741 427
3503 464
1891 279
3871 395
3320 201
3919 537
1746 250
1173 516
820 379
3927 294
186 384
1514 506
3862 529
2540 381
1905 145
206 212
3404 516
984 422
4409 67
2020 144
3324 561
1208 182
2690 215
166 350
3148 102
2117 380
1901 81
4470 145
2590 385
3757 318
1912 434
3146 222
2287 142
228 423
1804 410
2674 554
155 67
270 116
1169 443
1266 306
714 58
3833 345
27 271
1572 35
1091 532
246 229
1511 538
919 402
2972 305
1868 81
2004 53
744 555
1776 531
2952 541
2761 153
2411 317
2576 444
2202 403
4434 410
493 312
2889 552
1089 380
2823 10
3537 509
1576 177
1037 239
266 241
2650 414
4458 449
3396 171
569 410
3780 35
3456 5
6 214
3602 387
2931 149
1639 18
587 7
551 140
843 128
3889 142
2466 53
2807 505
951 486
316 331
926 31
1000 461
179 212
2216 128
1504 549
4231 135
1254 246
2286 232
3702 232
432 214
4259 19
2699 284
3365 89
1375 324
1074 137
24 493
372 545
1447 398
1508 14
2383 394
3762 273
4340 558
2434 238
1143 225
2947 74
4162 14
1485 164
568 103
4038 59
4310 505
1847 285
3101 124
3365 25
3850 512
555 266
2845 33
621 396
3000 117
241 21
482 195
2697 252
530 264
829 73
2708 2
1974 167
3359 258
2907 189
4079 390
1393 250
490 200
2808 264
3212 158
2082 55
1119 277
2834 510
3692 233
1050 17
711 497
2592 435
3271 369
1233 380
2700 406
3159 108
2023 483
575 93
1212 220
3691 163
1713 289
1188 15
1280 530
3121 523
993 150
1672 205
1512 155
4416 386
2750 480
3522 444
4010 5
4385 299
34 91
887 493
3815 60
1717 293
1095 402
2472 185
2663 116
1338 127
1046 187
2505 193
3958 552
4255 487
2980 114
1630 135
2546 46
3006 44
2800 349
3297 338
3802 559
1209 322
242 88
2989 291
4476 237
1532 174
1430 166
4367 35
3706 178
2054 49
521 282
4423 107
4249 424
4385 438
3003 386
2930 356
293 359
3506 385
337 280
4122 264
3355 116
3391 533
2073 266
4041 156
1282 259
3402 84
3943 477
2918 411
4380 209
1067 360
977 212
3029 144
3838 486
2594 335
3755 35
999 407
913 66
1860 458
244 222
3410 334
2898 87
1782 371
3960 560
4064 265
2678 474
783 66
3353 443
3840 252
3461 253
1148 409
3357 446
1764 250
666 37
3272 138
3018 301
3895 455
3969 405
515 424
4298 405
2626 216
1524 15
102 500
131 212
459 295
1504 531
2114 307
1586 313
692 59
1135 280
1330 485
4483 471
1135 90
2482 418
2816 355
3618 228
454 48
3193 282
41 283
772 329
391 527
1011 447
1712 66
2035 507
3609 387
1343 369
2195 114
4129 403
2535 125
1969 128
3138 180
4165 457
2889 104
1614 27
2869 543
3987 79
4031 57
4028 494
101 510
4452 43
4455 340
2306 149
3118 316
1046 263
2762 249
2598 10
2527 368
4341 218
1707 46
1103 199
2598 170
2918 131
4201 394
3158 412
1496 404
1575 268
1775 432
1213 107
2002 188
3259 36
1108 405
4146 133
125 356
1395 369
3913 500
2226 533
3663 442
3259 313
1469 300
3188 79
4424 523
1088 210
1178 149
2438 192
3192 441
78 343
3855 289
3229 135
2606 561
1921 181
484 326
3323 398
2835 557
2570 221
3537 100
2747 102
2783 464
365 219
1823 408
1835 294
2137 27
1799 156
4498 401
2801 523
386 17
3805 463
611 527
1164 361
3099 533
4348 424
3836 352
3193 312
2969 322
3649 362
3726 403
150 533
1145 53
1969 382
577 322
3599 475
1635 415
3164 557
3494 189
2849 291
1334 451
1728 547
4305 494
2984 79
1395 271
4350 35
833 478
2298 238
3830 512
2434 119
58 448
293 52
4412 316
1834 263
4191 130
2906 298
3046 351
1066 259
888 551
1693 188
2340 509
555 548
2821 252
3700 441
670 435
2879 190
2603 224
2084 505
3574 110
3406 60
3709 336
287 198
982 32
288 163
740 551
2491 439
1395 192
3520 241
1948 198
2815 399
3580 10
1892 329
924 356
46 521
3014 206
3807 312
660 502
4364 161
2687 472
3843 320
2886 162
1937 181
1712 526
1572 275
2274 351
1604 312
4489 390
454 385
357 179
3348 169
1374 118
1990 343
2392 306
2282 446
1782 96
780 305
1532 449
2563 171
2290 44
949 85
4035 284
4345 65
531 545
4350 545
4497 199
1632 409
1003 526
3555 384
4347 373
3489 193
1562 98
2549 225
3729 167
3722 515
4458 21
668 456
1577 69
601 510
3100 420
1727 87
1519 331
2720 350
2413 135
2503 388
4082 251
3198 528
3251 433
1253 362
1733 415
1318 147
2144 78
2721 550
1225 561
344 160
1915 7
1330 134
1052 18
2896 5
1491 428
306 339
1666 78
705 528
1885 240
2253 404
4215 459
3436 400
1927 183
4154 488
3885 280
468 270
3430 483
4415 549
3159 207
4095 183
2077 70
4273 224
909 549
818 132
3259 168
1679 310
2718 461
1584 494
3163 462
1630 469
372 133
971 96
1706 300
845 161
428 294
843 142
1117 389
220 359
1920 228
3919 332
2506 209
2581 366
1649 136
3686 548
4078 218
2883 169
4325 432
1909 388
599 320
3079 304
2530 5
581 196
2770 175
889 18
2723 493
369 198
387 49
3574 476
4104 189
868 441
1026 203
667 357
3663 190
2610 548
131 447
4454 260
1038 163
3392 10
3707 132
1424 75
877 447
3695 48
1816 284
2756 6
1188 141
696 320
4476 304
4061 382
502 249
761 294
4367 221
2651 331
753 94
625 145
3906 448
427 486
1263 268
70 45
2864 125
2354 317
3251 454
1722 162
3441 511
2980 173
4211 59
2521 24
101 30
1470 302
900 353
3413 489
3644 192
2491 78
2245 147
608 380
818 545
3337 76
2393 524
1795 119
4122 237
2446 396
363 19
4035 157
2285 37
3578 388
1774 499
3719 58
69 515
4364 462
1985 134
4071 329
71 468
3693 453
4269 526
3127 95
4235 457
1020 183
3941 62
3763 93
3309 411
2662 386
2305 9
2911 436
4413 112
3049 220
4092 60
2704 19
2863 236
2270 171
2435 173
811 309
1141 306
2511 561
4058 415
3371 439
4059 245
3119 170
3040 270
3885 96
3011 16
4264 242
3049 492
2482 321
1815 111
977 11
3660 490
1044 353
2081 299
4351 228
1193 389
3207 561
137 369
2341 57
3170 527
4287 86
3995 519
4098 357
786 526
3986 501
675 213
1957 383
2797 271
1201 316
1620 157
4391 262
3236 354
4116 247
2015 178
548 490
2403 14
1775 223
3134 273
3505 17
2739 201
3976 83
3329 157
2378 322
4109 392
3153 10
4070 332
1587 363
2581 301
1170 140
4289 388
49 223
103 28
455 289
296 168
252 378
3157 408
3942 391
4417 218
3506 442
47 168
4180 89
1635 538
2247 535
4085 351
3634 30
616 407
1534 273
2678 405
1198 213
2536 558
1454 307
323 469
3659 152
2040 66
2449 143
2611 264
1583 259
507 398
337 494
2400 53
2139 307
991 156
2987 543
464 181
536 404
98 387
4331 97
2974 146
1263 108
166 278
3786 214
3245 539
3787 223
1762 459
2088 530
972 264
99 314
456 561
1415 86
2177 308
3553 192
3219 76
763 500
58 400
4017 365
2860 239
4436 177
3512 84
835 507
3489 56
3852 198
1696 439
3243 115
789 561
4083 216
3864 262
4328 327
1056 504
3760 458
2833 268
2958 273
3560 416
2832 385
1413 518
436 511
1326 549
4176 388
2579 356
4107 80
4474 416
1466 279
3264 184
1010 423
3990 507
1955 297
2684 132
1877 523
57 270
361 461
2243 145
936 203
4351 228
2988 105
1072 477
2380 497
1695 358
3186 41
591 484
423 372
712 454
3727 432
1092 301
601 154
2084 392
3783 472
651 124
315 169
2709 346
4122 271
2870 23
2414 545
2187 242
1962 506
132 1
1390 214
1991 463
2804 256
946 375
3295 434
4442 512
1109 20
15 435
3046 344
4309 394
2764 251
2271 443
1480 337
890 25
1563 94
4236 309
2162 342
396 324
2982 335
1560 321
1409 255
2201 4
889 511
1718 33
3 301
1013 449
2470 27
812 430
4029 378
3256 60
3519 275
715 140
2048 281
3477 398
1558 420
2814 429
4448 174
1916 438
1385 506
2076 281
2639 340
2100 234
4008 45
3949 479
329 291
2192 97
218 135
3398 31
1291 223
632 300
2955 91
2377 459
3544 396
2353 340
1908 236
4047 372
3748 511
4410 109
3318 70
249 457
1153 22
185 110
3750 487
622 82
387 88
2254 51
2304 17
3133 396
1 146
3873 93
824 152
2183 239
267 552
3789 229
1827 118
188 246
4058 142
3651 74
859 25
1545 286
2233 94
3527 526
364 122
1743 544
1127 197
2756 388
89 339
2451 482
2007 153
55 359
1990 336
406 373
1292 57
454 460
430 191
2066 466
3770 314
2319 40
3177 80
4368 291
3336 27
4097 467
562 126
3765 178
4420 130
1657 522
4189 540
3245 59
3080 81
4152 473
449 408
1571 514
4264 227
501 57
885 278
921 516
1815 127
1690 232
2262 410
1768 169
2497 325
2677 250
823 326
2376 394
2176 258
472 132
2531 130
2431 202
2392 131
841 548
3820 37
3023 64
3816 527
1838 103
4061 371
320 356
2716 492
2554 87
95 147
3225 403
3670 523
363 266
2874 280
2990 279
627 291
100 364
3254 533
113 105
1582 15
3808 21
4360 206
3561 323
2533 200
726 191
10 40
1417 445
3422 558
1334 395
2822 509
3174 372
1800 356
306 398
764 7
1625 500
539 196
3745 107
1534 207
835 320
855 287
3683 82
3222 55
3672 316
4022 195
894 102
3249 118
4362 500
2447 271
1305 107
2394 225
407 11
2595 501
2703 90
2562 206
2280 24
521 106
2089 509
4238 118
1466 477
1452 16
54 435
764 139
47 130
3346 93
1915 433
1320 133
731 414
1442 480
101 366
3879 248
455 331
1083 518
2312 375
3856 123
4357 215
4255 296
1701 505
3554 169
2014 198
3599 94
4060 423
2255 463
4028 80
952 302
4396 63
3031 185
2007 374
916 326
619 346
4289 423
2356 298
612 29
90 420
567 214
2035 457
3033 215
4003 64
979 197
2561 205
2078 335
3629 527
418 36
4347 556
2564 31
2594 473
2955 174
3577 345
1739 505
287 108
926 351
4422 149
651 60
4196 125
3955 25
4460 145
4266 275
2080 398
803 222
3943 62
533 186
4120 297
4163 15
1296 403
729 454
1058 135
3422 246
3723 124
158 324
1917 336
4208 93
2560 470
4203 104
4048 547
1372 304
158 280
1109 207
722 287
2591 315
3570 86
3104 455
4046 398
917 290
4193 300
41 47
4181 322
3639 364
4132 8
1710 27
1625 226
1621 121
4303 231
3291 129
3514 402
504 32
335 308
329 116
2369 513
163 267
2771 39
3276 366
1584 14
3821 279
1756 195
4346 5
3745 154
2876 514
1249 274
2790 483
450 182
3543 76
257 197
3753 320
3698 297
3681 504
404 398
2102 332
3361 540
1473 481
3037 72
2795 46
3053 333
1740 455
22 386
2990 482
3768 2
2068 455
429 510
2359 527
731 264
3889 541
682 109
212 248
2000 49
1795 500
1373 422
1678 285
4355 91
263 199
3008 471
2581 402
2333 466
1094 394
1466 417
3451 268
3488 337
2687 149
459 469
847 166
532 458
4367 211
1563 115
1053 508
1787 337
1459 388
892 243
306 444
1695 137
4120 216
915 94
4180 189
1272 346
4072 112
3952 525
3254 68
943 170
2875 361
3073 381
650 395
4238 44
1797 284
1432 168
2614 118
2698 319
3635 262
4475 164
3476 474
4270 290
1083 358
1198 389
3244 317
313 512
3850 123
3272 173
2260 180
1586 62
1658 371
1023 360
9 23
2486 20
3541 70
4060 339
1204 317
2800 212
595 426
532 62
3536 116
1776 284
4272 301
504 154
304 64
1785 470
670 97
3455 541
1588 501
3869 238
2930 374
4009 173
1176 451
1715 45
3223 520
3532 312
4217 138
151 455
1947 543
579 99
4441 53
1215 315
956 119
3900 59
3742 461
985 191
251 503
1050 414
190 231
361 519
3033 149
4463 443
1024 257
3801 104
1062 455
1577 387
3220 452
454 82
2865 506
3295 263
2893 204
2150 379
4463 386
2515 51
2462 353
384 551
753 477
4348 333
954 316
2053 26
2728 552
1788 95
682 429
3390 231
2063 57
3572 125
1892 288
4007 42
896 504
1393 227
2412 389
3816 435
1225 138
2799 534
2457 122
1061 8
1724 324
562 109
495 423
619 156
507 284
1095 400
2666 502
805 64
2890 96
4343 284
137 309
1169 31
4073 270
1825 426
652 117
2301 287
3080 15
4152 83
102 96
3252 26
479 395
3037 269
3860 142
4326 34
4463 494
3192 113
575 381
1159 224
3385 318
2805 394
3918 448
1937 358
3975 81
2996 476
767 212
4301 307
1815 335
165 12
3999 206
3505 354
2788 289
1042 167
2399 463
3175 490
3469 120
139 434
78 403
2961 33
668 262
3287 379
765 391
56 186
3243 231
3606 358
4361 378
859 244
1373 401
3145 255
1598 482
189 283
1305 121
2306 86
668 310
2457 530
3537 423
3043 338
872 174
128 147
992 227
2746 286
2483 311
95 110
2513 37
2568 335
2769 306
3297 432
1238 107
2222 35
2386 308
216 34
3515 24
2004 358
3316 218
4421 469
208 385
953 50
809 304
3451 30
1184 523
3297 226
3967 356
3721 89
3913 348
98 8
1108 124
290 79
437 402
417 558
603 168
4134 270
2996 476
3040 86
695 518
2934 417
2725 511
2525 386
1112 528
530 388
156 2
118 115
810 477
516 435
2460 258
1987 195
1555 337
1301 494
3120 198
3261 171
1276 393
2949 517
907 500
1341 200
1548 552
387 251
4160 393
3086 149
846 362
2193 469
358 176
666 183
1630 31
1348 507
1158 428
3677 538
889 427
3720 531
1953 292
2083 411
1308 199
2998 509
2142 310
2892 142
204 380
714 405
460 19
3843 205
1352 16
635 25
2396 345
3334 408
910 508
4325 501
3048 506
3242 105
4087 29
440 269
3309 213
2641 561
3544 396
3180 538
423 403
2979 210
224 99
3713 410
1150 351
2982 229
1613 188
1846 30
2139 404
2187 358
2268 126
2807 396
3887 234
3362 434
2309 103
2921 322
1988 171
2768 459
2583 14
3606 160
4053 139
1070 208
2154 491
2482 313
98 495
2697 278
1984 23
4221 376
2440 303
2727 83
2339 28
3865 216
927 139
1068 32
2789 540
3767 237
505 556
2888 325
3227 119
2501 95
4057 275
578 452
4155 26
419 534
505 398
3169 463
2064 410
372 530
3224 320
1466 509
908 130
3079 197
1328 355
976 15
2299 337
3751 525
4489 41
1843 405
1550 303
2289 105
3703 123
3746 314
3943 450
3567 81
3421 386
1083 321
1009 235
4030 7
3752 231
1200 437
3487 388
2242 469
3855 531
3105 140
454 552
860 129
3823 269
3319 59
1627 87
2575 163
234 378
2792 49
2641 15
1570 57
3170 145
1068 200
180 107
2473 206
1729 532
338 258
1371 225
4125 348
2784 547
978 338
1962 199
1770 190
2375 296
1955 335
679 280
3066 265
2553 273
4278 523
3921 175
2395 42
4230 92
268 464
4286 279
565 270
1594 368
3449 393
2452 541
2424 305
2610 519
1461 51
3308 86
989 432
1050 59
2252 83
1452 358
1603 221
1127 248
1426 435
3817 471
654 271
1001 155
1654 544
3326 491
1939 389
1497 3
1739 313
3197 79
1315 535
1455 142
3463 158
631 421
2049 154
2753 71
3053 427
1659 318
3060 62
754 311
2939 125
2459 509
895 536
43 303
1490 105
1464 271
3620 329
2203 136
1953 489
1774 400
2829 463
3432 112
1496 6
327 247
1501 107
987 419
13 122
2448 9
1998 557
2507 348
3442 60
646 416
4234 346
4184 561
674 210
4330 102
121 29
175 418
1633 138
937 85
199 395
228 329
832 384
1172 401
1684 155
4208 36
1485 439
892 127
3017 179
809 296
2725 377
3810 267
3274 350
2243 76
2601 485
1600 370
4146 21
4214 282
2842 223
4448 378
2968 110
1100 337
2815 325
2248 374
752 496
2316 137
1267 3
2968 534
577 225
4040 146
3240 275
834 461
664 437
4110 446
2229 113
3068 187
115 1
3206 515
2413 84
2622 548
4384 479
2988 180
3395 206
1721 351
3807 26
3025 288
599 164
963 531
3531 405
211 222
3493 245
4130 511
1960 10
3750 412
2944 339
4476 182
3524 485
2854 63
4028 323
3976 118
2134 97
4009 456
3359 14
1674 255
1247 499
3956 309
3591 242
3789 445
2940 458
4255 26
1460 160
4169 442
412 58
3006 401
2618 274
1066 493
3003 174
2997 81
2460 425
2410 59
4235 248
349 232
3026 151
2552 392
431 221
1889 229
616 251
2686 319
3351 211
3341 434
2455 366
1205 383
865 47
2542 494
2177 173
3974 311
4149 371
1589 525
588 334
1729 399
894 518
1619 38
4018 171
4185 210
1900 14
2217 287
2245 218
388 529
3185 247
3610 232
205 79
2292 371
2471 441
1815 159
1415 321
3818 241
1288 405
884 532
1235 440
1690 244
1359 260
2908 441
3960 535
1381 182
1562 89
821 553
2153 21
1808 326
936 363
1322 24
902 10
3669 386
668 173
2777 509
3389 402
2845 537
828 116
572 461
2250 286
202 121
2406 523
1944 534
1558 145
1653 531
2386 74
1490 372
2142 26
672 486
1491 252
335 9
1303 355
1738 40
1638 523
3281 473
3132 305
1396 254
1011 388
1125 268
4311 124
2447 387
2729 231
3545 288
3434 326
1281 263
3664 374
1320 350
434 167
2130 448
556 157
2364 170
4304 121
613 244
3093 246
2441 512
2091 94
1736 149
1115 19
2440 481
2899 402
2853 313
2328 242
2333 372
3521 276
910 439
66 481
3437 291
3716 200
4107 70
2855 87
536 377
3480 181
929 38
3798 436
2997 327
1174 367
1535 429
850 175
1295 201
779 362
3399 278
2232 74
2956 399
207 96
3731 413
4047 418
3316 184
3013 379
635 135
4312 142
1346 228
1459 88
2393 409
4212 170
2969 474
4064 39
1823 117
3462 23
3485 78
2665 508
301 114
3347 287
4258 457
2381 541
1390 547
2426 379
1349 469
2509 10
2926 383
3636 547
1424 512
3518 1
2485 281
2150 19
4427 76
2985 425
3931 366
3698 92
2065 156
96 186
4006 536
3368 315
3318 144
990 81
1908 443
3447 123
36 215
915 311
1201 7
383 502
1263 358
2982 460
4020 356
3953 238
4404 31
295 460
2747 72
1220 360
1466 528
4101 14
2320 263
2764 289
59 303
2586 467
2461 378
951 500
2690 360
3456 200
415 526
3349 284
2839 301
3644 350
3984 304
31 275
2023 14
3896 479
2351 481
1079 289
2030 11
27 16
3383 544
51 512
3136 261
945 393
841 375
3281 41
2137 89
3037 188
2987 503
964 4
2085 452
2530 72
1224 448
3160 327
1750 471
3211 202
38 140
3158 138
1605 285
3601 199
1246 422
332 465
4023 193
483 36
2981 501
1634 191
1542 303
2443 548
2800 38
925 459
1049 11
2494 170
617 1
615 91
3550 516
3720 512
3902 361
750 527
1214 156
4133 200
4283 497
1805 448
1786 291
1960 481
2923 183
1713 43
956 347
239 25
4443 129
230 418
740 321
4363 306
1146 358
1960 87
593 304
1733 255
2900 500
941 110
4291 399
1991 192
4142 20
3089 490
1615 186
2822 49
1070 418
2770 176
4214 161
4253 294
1362 56
1408 442
1186 320
2019 76
1535 72
461 519
533 378
2480 488
2265 504
4169 262
1858 124
818 262
262 159
3211 308
2837 169
1740 116
2001 474
2737 267
2188 371
2046 202
4123 282
3592 439
3779 65
1476 87
3195 412
849 90
4025 351
1165 88
3786 302
1835 193
3370 322
968 13
2849 281
2128 497
4101 278
2614 413
1227 124
3478 33
197 386
3980 90
2003 469
3736 352
3555 397
2236 313
4237 344
2159 184
100 145
2260 557
517 15
3410 312
1607 358
904 458
3046 235
2660 220
1338 75
708 361
3235 214
732 59
3797 241
51 236
1013 421
4232 270
3448 313
3185 296
2357 437
4051 82
2163 465
4314 418
1805 367
4436 398
2381 489
213 106
3925 332
682 554
4467 547
1139 402
3118 385
382 537
2148 9
4349 381
28 134
2709 429
2384 236
1248 395
1 60
4427 493
1740 388
76 164
3162 553
4181 224
3667 297
333 68
2935 93
436 180
3397 508
4250 88
478 62
4261 549
658 483
3935 87
2796 486
1740 435
3063 244
3629 482
3326 403
3336 473
1561 312
3252 441
3869 550
212 60
3045 201
1754 249
3735 334
4133 498
317 177
408 389
3770 465
2669 292
1394 503
2427 241
1628 347
3818 560
223 282
3949 517
245 264
153 205
118 206
4318 354
466 266
1641 90
4314 483
2667 402
3890 286
2376 460
2368 66
4366 557
1930 469
1650 32
3539 230
585 128
592 43
1342 168
463 0
1525 307
956 55
3487 459
3661 290
1277 420
1554 2
1019 140
47 388
1881 184
2007 278
2793 449
3245 156
818 236
500 288
613 478
1873 361
4100 413
1849 499
4390 245
3399 330
3859 225
3663 466
3930 534
2523 169
4366 240
1912 202
578 473
447 539
1830 60
1821 352
1617 85
3990 231
3097 130
130 438
781 332
2447 8
4481 205
2608 532
393 275
2839 186
2004 59
1575 550
4260 360
1980 332
4318 32
2717 273
4412 71
210 459
1433 350
427 5
2765 532
1366 105
2714 30
2252 165
3599 358
1851 389
358 270
3342 379
3221 534
3260 128
2705 320
2142 52
3720 3
2032 398
4430 234
1426 141
3363 99
4199 542
2939 27
578 419
680 228
991 222
1864 261
1733 521
910 308
2582 551
1950 473
3275 482
1505 79
3198 128
4197 547
77 53
3089 497
1046 69
1482 222
3908 511
1311 51
1808 196
936 212
4121 349
4383 2
1106 486
2712 280
3007 89
4243 493
1495 275
2533 38
2434 378
1551 352
2988 536
954 118
1220 136
3383 16
1532 92
1665 232
3932 222
2599 22
2028 527
748 504
1500 301
2763 169
891 137
2404 352
2970 452
58 521
4315 69
4338 38
3104 164
1979 99
3602 336
3049 515
4087 354
1570 552
4443 150
3811 151
3856 260
99 340
2496 433
2550 360
4249 470
3362 307
601 368
1715 439
1983 444
1498 299
1230 383
4380 101
3645 556
1775 231
3907 240
1153 123
1613 377
783 505
2707 514
2938 441
2990 225
1561 562
3220 226
3931 147
3397 273
841 490
195 80
1771 50
3218 503
609 19
2806 262
1007 342
173 357
983 340
2441 238
91 373
4113 415
3540 16
679 4
4131 67
3511 251
4238 392
1777 262
527 461
4479 35
570 207
3645 147
3060 455
200 275
3486 493
540 541
2809 422
941 229
157 370
1354 562
1927 160
4213 270
135 461
3353 452
2786 113
3182 67
3730 266
2609 380
4035 224
3985 368
1699 13
3853 350
1516 134
3918 117
1558 335
522 372
1144 449
1788 255
3473 561
4031 399
278 371
362 16
2366 59
827 368
2124 275
3682 168
2758 76
4204 142
3229 237
4305 397
1176 433
2617 540
2378 500
3819 393
3771 101
3434 140
4081 312
109 152
677 467
3040 361
1821 208
2448 197
4188 257
2342 285
2546 251
2339 210
3544 318
3823 173
4010 407
3617 553
3664 522
2247 549
2839 116
3030 437
3891 89
4402 163
1803 519
978 371
3624 263
2754 200
1359 40
1007 377
3031 556
79 255
4280 305
3080 125
303 226
4350 227
354 176
449 94
2847 109
1284 63
2543 289
1900 453
3524 558
3680 405
30 64
314 453
1098 559
555 296
285 107
3894 356
751 275
1727 292
3601 394
4419 332
2839 168
2026 399
1618 35
3308 468
1446 516
2128 353
3616 178
3041 76
1564 298
1294 274
465 376
1257 96
3408 508
2706 549
1179 244
1179 22
3450 223
330 528
2802 1
1348 460
2171 402
1722 286
1405 198
1120 117
3928 184
99 298
4138 426
1915 34
2797 377
3880 159
2345 60
3795 398
1641 393
3302 109
3525 557
2240 69
2876 354
2271 309
3586 136
72 184
1181 448
2947 56
2707 337
2447 561
4482 542
3501 529
702 509
3818 447
963 383
949 495
811 408
489 376
3168 78
3433 278
2047 422
1975 46
4366 329
2755 376
928 413
3205 293
2680 414
4362 347
2973 330
2630 325
165 74
3350 54
2745 215
1934 349
1737 59
3337 357
991 226
3324 533
2125 124
2661 544
2984 526
1362 338
3797 544
2903 462
2147 457
1450 350
3955 458
3341 510
2262 406
3467 243
2888 261
3036 520
324 447
549 203
2434 353
1233 246
4417 157
3675 366
1422 316
1850 168
2223 46
4245 255
3127 37
3962 400
2116 512
837 499
836 43
208 314
3019 365
1904 141
2562 191
3567 530
3882 520
4004 9
3912 103
2300 83
4343 232
2669 459
2324 280
2862 327
4389 225
1454 134
1670 356
4091 269
1126 361
2115 466
2338 326
1938 299
265 235
2773 30
3938 484
4446 429
3228 367
3871 214
91 471
1406 161
1276 72
4420 26
3356 62
2431 223
762 349
1948 546
2620 267
4098 284
902 57
3471 29
1578 42
3959 105
4136 37
2411 56
1785 354
1312 394
4269 487
577 329
3866 489
2331 440
2732 438
1321 33
647 496
1960 266
1923 250
3579 472
2968 330
3041 304
2813 260
1719 21
192 353
1558 51
3300 120
3667 217
1298 534
1791 8
622 553
2840 431
2088 155
1544 79
3676 359
2707 116
3604 9
2891 462
3104 22
3587 335
1999 112
4312 193
3980 433
340 45
3919 343
1125 120
2476 399
207 369
3172 366
3936 393
2551 451
4021 514
4493 81
3435 141
2734 215
3751 115
1148 200
364 270
2174 73
2546 25
2826 78
1237 247
263 199
403 56
126 238
4102 57
974 60
4358 334
3687 211
2892 39
513 281
3684 167
2765 271
3721 199
852 210
3426 479
1397 272
1892 194
664 391
3918 432
2577 418
3505 336
3378 43
1419 313
3877 59
3318 456
1389 97
1370 477
2418 326
1555 398
2509 44
3542 546
4493 284
1825 274
3269 218
3955 208
2856 424
2381 45
3826 335
3852 212
1559 354
2677 562
1177 496
767 59
3549 522
1903 98
1697 520
909 507
1253 493
1548 469
577 281
301 166
4193 541
3534 51
3132 156
2823 530
2812 260
275 207
1349 511
1421 499
2149 228
1081 503
117 240
2854 392
524 402
2961 455
4090 257
1570 43
4443 331
214 516
3004 156
3 22
4161 67
4182 335
1756 438
3554 463
3066 367
902 252
1635 111
2618 196
168 320
1097 230
2942 194
377 333
2090 453
2861 381
2872 80
3944 160
2849 431
1520 272
1807 73
475 316
2318 264
3347 363
276 104
3261 361
830 152
1668 300
3226 153
2286 113
2028 474
1438 184
3176 485
4026 346
3305 368
1272 229
868 124
3937 108
2021 34
2 519
426 321
3071 550
947 528
3455 361
3127 482
3818 70
3394 547
1820 469
1547 320
758 291
690 448
3720 243
1607 261
2085 42
1713 322
2889 29
315 155
1900 302
2505 12
1396 71
1845 355
4253 399
1039 440
1511 242
4138 339
728 36
550 492
949 90
607 145
3402 199
1439 6
2887 46
1602 530
1032 477
2821 138
877 383
883 54
355 36
1145 247
1947 431
2610 227
1514 256
457 39
3594 373
3315 553
3321 90
3155 519
2322 56
2464 509
2736 252
3519 81
3486 225
282 302
1738 545
415 19
4122 528
4010 253
4164 553
298 218
166 466
1326 515
54 373
4411 34
3521 484
855 432
1387 407
310 365
4418 409
2250 317
1005 410
3384 125
1760 70
2949 301
287 187
4051 174
1311 515
1569 371
1319 239
4249 240
2 215
2626 560
2354 549
22 481
655 93
3481 469
3307 403
4448 300
3265 532
125 450
3034 386
2591 157
3531 158
4338 243
1931 520
462 367
1195 85
1282 340
776 323
4059 130
105 273
2065 561
2733 469
258 527
426 268
2316 175
2710 97
3947 45
754 88
1854 493
1608 401
2152 80
3779 50
3108 76
3759 179
1770 25
1661 443
3662 89
235 492
2662 303
3411 485
2019 497
940 372
2384 115
2391 38
1583 479
3758 89
3146 40
1721 390
59 441
879 138
3640 469
539 57
613 395
4164 110
1219 234
260 140
4067 262
1266 166
275 37
3099 199
3234 507
817 350
633 231
2509 301
1103 374
408 279
3 37
3561 162
2995 225
2928 120
1622 115
3840 268
3550 248
1987 247
966 132
2945 76
4290 522
406 429
752 506
1392 133
1414 337
1990 473
2247 165
584 426
3068 16
809 124
4498 131
1435 227
3427 505
744 498
3210 251
1045 503
132 169
3919 146
4152 117
1236 144
1754 38
579 505
2188 196
2 232
2118 147
1194 130
847 30
3794 157
2621 350
889 281
4460 478
4169 111
2720 162
3411 135
688 529
3113 320
1359 205
2674 281
41 190
657 223
2214 305
1375 366
2352 547
142 187
904 368
2244 223
2495 471
521 179
4226 398
563 82
83 157
2040 201
4127 503
3797 354
444 429
2328 232
2980 207
1411 507
3672 55
4314 91
1717 354
1521 155
3399 229
1947 158
1853 204
4072 203
2452 290
3651 230
3204 77
3115 259
1000 76
1157 377
2836 74
253 105
2415 264
747 314
2611 418
272 491
3138 145
4360 373
4256 69
4134 364
2194 249
1421 58
2253 203
589 413
537 518
1882 14
1802 30
1389 427
2107 560
1021 547
132 64
1297 180
3640 118
746 467
96 333
4238 40
1571 339
2086 443
4429 243
1855 297
2423 150
1100 432
820 534
2543 298
2592 558
439 214
4478 465
3297 143
2672 27
1648 197
3114 474
1012 160
1515 243
266 119
711 409
2428 554
649 527
4372 234
2124 366
2072 495
3802 445
3367 419
2544 102
3162 433
960 205
819 483
4448 560
2986 103
67 96
3881 63
3870 178
2039 131
2126 561
1064 326
2927 29
1480 7
2721 142
4085 13
555 125
2373 430
2937 557
2547 149
1020 337
4013 255
3692 508
3178 434
1746 50
2535 511
814 47
1752 46
4223 393
89 486
1405 314
4450 115
2864 508
2198 300
3380 136
3900 100
1339 495
536 278
1361 48
1387 132
1133 75
1915 545
2461 137
2189 350
3069 213
2267 357
2663 382
4111 7
62 392
1165 36
4009 292
1344 193
245 45
2904 372
3430 151
4242 158
3126 518
2088 252
2191 77
52 378
4380 44
4037 96
4425 20
3040 471
772 389
1833 384
138 92
2502 2
3399 139
3290 285
2113 424
1570 317
2776 133
2026 108
248 338
4317 476
2930 210
3253 287
2325 429
3203 521
1260 490
2192 61
3194 342
2821 498
3631 336
3817 326
305 343
3550 379
856 219
161 412
1062 69
1924 19
2947 539
3444 82
4445 390
319 528
1211 210
3095 507
1983 157
584 433
183 533
835 128
780 73
3489 203
617 396
1036 174
2299 312
1267 261
2663 231
26 29
2518 8
3229 91
1334 31
140 411
3172 102
3677 221
2192 322
2993 409
1238 295
2908 366
334 164
1697 156
1331 414
2032 52
3054 434
4024 528
291 439
3822 83
1510 405
63 1
812 143
1399 322
570 542
2583 7
1980 394
3995 107
1424 303
2399 562
1249 26
1153 169
4446 507
1695 159
2965 260
969 465
1404 388
1425 420
3851 149
4097 84
837 316
2584 148
3951 471
4475 545
2002 440
316 215
3357 60
1664 222
2925 65
2441 238
1930 242
3479 104
4181 221
2321 210
2453 18
3930 80
1467 230
4230 294
152 305
3104 356
170 143
2484 10
3429 33
2392 512
2814 252
3457 312
2755 365
1712 133
3740 496
2611 234
1386 160
1178 199
4255 15
208 159
537 344
2533 293
4421 545
1023 559
3267 472
4144 373
3140 417
2810 238
920 112
2572 13
3601 543
4103 144
1847 240
1347 346
3054 318
4326 383
1611 293
2262 178
1797 48
1224 6
3912 140
3101 511
4037 472
1738 503
22 16
1327 184
3054 312
3914 388
1221 388
281 267
3002 504
1296 350
2172 71
1549 234
3837 489
383 417
2364 441
2166 288
2245 14
4406 32
2735 10
1976 547
863 69
2850 38
2990 32
644 25
2938 458
1187 486
2906 406
785 387
1892 120
628 241
1837 513
1810 103
3842 127
2934 47
922 22
1653 106
3768 451
2002 115
648 74
3369 125
759 382
1479 42
284 46
515 190
1023 329
2849 444
3995 161
898 419
1292 158
1098 193
1496 74
2602 156
3743 554
1795 317
645 78
545 369
594 158
4433 197
2136 10
2558 3
681 120
3766 19
1202 421
3456 334
370 225
1592 218
1782 19
1302 513
3349 271
1834 14
386 233
4038 540
2297 254
1137 255
1161 455
1719 115
572 232
1481 473
4394 360
1605 182
4452 325
321 326
1718 46
566 226
1215 522
1331 105
3711 487
2525 456
339 309
2402 373
1353 327
2667 453
4217 104
1237 388
1176 486
656 417
1505 90
35 31
1008 35
4406 19
2774 202
1742 191
2818 51
1708 260
2244 442
3439 94
614 462
341 426
3715 20
1995 214
915 482
2219 504
3721 395
2355 178
4425 11
2527 84
1824 1
4230 23
4202 41
460 52
4113 511
2636 44
3696 499
4449 205
372 292
3103 163
277 550
3711 66
4252 143
1636 212
3016 364
4478 213
3334 425
740 10
1400 138
1321 393
1885 537
3399 470
3984 229
3136 190
3184 117
1318 307
1101 210
2735 24
3050 466
1209 278
4076 306
308 489
1250 487
1736 173
2526 24
1944 300
2848 195
2108 87
671 58
3062 300
1366 263
1819 96
2519 540
3422 452
1142 59
4388 356
1597 161
4064 97
4333 50
2035 466
783 319
3496 44
3686 104
3692 495
822 298
448 427
2185 392
852 262
1909 556
2001 280
4006 145
3044 116
495 72
4464 210
3192 548
958 166
2538 96
1637 313
330 109
318 516
2536 470
2426 70
2961 344
608 437
2398 3
3229 352
3931 21
3876 402
1071 3
4152 303
515 383
4296 437
3067 57
2486 375
2243 357
1803 215
2524 356
385 360
924 191
3021 112
2768 360
1999 152
1281 524
3428 286
1643 156
1887 248
2377 302
3772 41
408 447
2532 377
3411 371
3025 495
3407 179
2064 309
1787 72
342 250
2517 379
171 486
1304 532
4352 540
1660 71
1745 181
4168 66
1869 184
4319 401
1688 269
59 545
3876 126
150 302
232 282
929 13
1209 235
1247 28
2328 26
1575 383
3839 509
1464 468
2258 267
817 209
2791 280
4067 116
726 100
1642 290
3557 203
3465 458
4079 118
2175 245
1012 126
429 171
785 104
2935 104
556 377
3170 214
2466 67
2740 447
4184 452
2354 263
866 359
3780 445
4356 167
1752 220
321 116
2179 21
3760 290
17 321
1288 38
2356 261
1427 77
506 435
429 356
3999 293
1095 35
2798 174
683 350
3906 171
1228 477
1798 369
1559 83
1768 431
4031 191
3286 334
4355 90
2011 190
86 55
283 467
3069 551
734 436
3367 73
4206 144
1370 375
3401 468
3839 118
3556 289
4336 157
657 49
3637 270
1431 529
2073 241
3345 291
2164 258
4448 450
575 351
3451 266
3919 444
2458 78
3476 14
3134 462
3119 422
4354 287
3663 310
575 379
2972 270
639 371
2668 318
2726 543
3585 79
2029 557
1143 87
3998 178
187 15
3784 95
3107 435
1780 495
3226 200
1706 367
2062 556
48 521
3425 306
464 114
1225 498
4389 210
2080 431
901 336
2119 553
2720 526
3347 189
4037 143
3115 115
2430 112
1109 162
1782 8
1664 103
3457 422
1755 401
3963 336
4000 121
3452 71
328 114
2792 320
3626 390
4010 406
365 427
3118 222
357 538
3551 386
4094 445
2488 102
1339 393
1846 195
1201 121
2333 325
2875 460
3501 244
2864 282
1913 100
2688 417
1342 174
3890 44
2133 294
4130 162
3274 553
2413 128
1750 545
907 455
2405 45
2075 489
1133 195
3969 360
2253 465
2978 346
4043 239
527 216
2411 106
2901 124
177 406
3792 417
2519 25
1287 332
2095 488
1832 101
3290 303
1683 181
3668 316
2435 51
2232 182
78 374
1524 384
479 538
2888 352
2044 51
2466 200
670 192
696 294
3449 6
1422 489
1254 236
3286 172
4347 522
1387 377
3099 217
1986 197
1771 169
2250 458
732 418
310 374
1813 1
2189 164
1118 279
3462 70
3737 270
1797 347
4352 484
886 142
4148 240
1110 193
646 96
1068 0
2974 244
2914 115
3380 179
2036 239
2182 235
2271 242
2862 16
2406 393
4142 169
1589 214
1361 255
2192 14
4339 155
1540 17
2557 435
4462 254
356 105
2128 233
3326 78
1192 8
1813 132
2824 259
2452 226
4167 369
26 323
1667 306
1617 487
2268 298
515 97
2005 111
33 436
4417 455
941 359
3607 403
2381 537
1865 425
674 130
2513 235
1946 95
4458 484
3380 84
4231 177
1562 261
3614 557
3189 149
3342 372
4104 529
3418 384
2854 494
3430 65
1698 64
1559 53
2852 434
1931 289
1218 424
2691 378
3505 115
3093 42
1313 488
275 237
2439 229
2519 203
4485 472
1676 290
1780 243
316 121
1113 98
577 20
3637 461
3931 46
2419 201
3449 233
3141 124
2976 522
1899 1
478 31
450 12
3252 514
3274 235
1602 98
124 28
2839 352
218 511
2928 446
3080 548
2244 264
2372 141
4280 473
4363 481
1320 454
783 143
703 436
910 197
2065 374
1430 44
2965 100
373 503
4409 183
4166 236
3219 174
2430 134
4425 56
1776 195
793 359
3490 354
3334 499
3491 80
4106 89
1118 319
4040 241
2286 469
2224 350
2334 395
4398 31
2958 423
1339 310
655 73
1390 329
2896 282
2155 90
3028 84
820 51
4304 479
1867 308
2034 302
3143 507
2320 184
1821 98
157 520
1666 19
1034 259
4084 264
2760 225
3948 498
2484 446
3353 381
4418 552
2542 150
1900 286
1945 173
448 310
4101 510
2999 139
3556 262
1664 411
2222 180
712 341
2171 346
2607 113
2743 463
3978 139
3643 282
3770 411
1884 412
2461 129
2594 23
2048 209
801 399
2335 359
102 393
1437 271
2677 175
3315 128
1266 508
3430 427
3597 406
2587 81
3141 249
1851 14
3891 464
2796 186
2584 257
2524 208
1713 503
1288 67
1412 438
2255 542
523 322
350 464
365 557
431 322
3633 279
3463 208
352 42
2452 144
4058 377
3302 171
697 414
1170 486
1518 561
3114 163
3071 193
3574 10
3437 243
2238 359
839 105
3524 24
206 238
2670 217
332 377
1567 204
2290 70
3218 128
677 341
4458 249
3406 186
4465 406
1514 312
3262 203
1241 222
275 483
993 203
749 438
936 84
3621 40
3621 369
1280 342
3432 374
409 247
1620 330
3154 317
2147 47
4221 508
1464 107
1377 265
557 456
721 387
1249 458
3095 266
3651 318
3896 265
2746 283
4429 109
1909 499
938 334
2776 247
2448 376
508 490
773 9
3748 210
1912 189
673 455
4118 181
1453 436
527 502
2333 205
2157 542
3041 180
4234 505
1184 140
1775 355
1048 260
4258 440
3860 100
3284 91
1361 157
1116 121
2812 83
1689 425
141 201
3892 501
2623 89
2668 398
1905 160
1704 62
1564 21
273 372
1922 340
2400 44
676 201
1272 318
257 232
834 341
615 0
2810 435
768 391
4184 289
2638 26
4221 172
4435 443
3057 134
449 148
2787 140
4316 420
3375 507
4140 282
1136 206
3706 344
1984 250
2648 542
2653 288
2829 492
800 271
1114 274
3215 405
3662 56
2617 178
1968 434
199 172
2281 154
1515 236
643 359
158 170
4453 13
2455 299
1214 114
759 223
1451 387
1482 454
4047 190
664 517
3308 74
416 450
4073 383
3788 75
1783 168
1797 382
2884 133
996 199
3572 531
2199 233
2324 503
3331 80
2791 417
4005 483
2437 75
273 151
518 443
1751 99
691 288
819 74
1306 105
3558 489
3645 97
3922 358
824 100
1418 287
1847 199
3739 460
3449 107
2929 48
3482 259
1509 280
2953 89
4408 541
453 165
2387 487
894 172
663 111
925 75
1319 338
1856 201
4360 124
2946 182
127 229
3265 257
3652 510
2308 343
970 286
280 299
3603 78
2236 312
2245 324
1059 63
2878 49
1170 451
2277 241
559 98
3563 267
3697 199
1863 193
2022 129
900 271
1214 49
1526 514
869 388
955 116
3380 426
659 83
1407 220
1622 85
980 150
1914 514
4402 341
1765 28
747 135
1057 528
2655 236
1289 221
436 85
4040 49
1201 79
2932 412
156 470
2865 231
3974 293
2637 277
3956 199
305 257
2456 438
3872 480
1864 152
4210 497
4413 293
3506 471
1531 276
3367 216
2443 349
4442 456
158 107
386 233
2599 509
907 49
1775 106
1550 103
948 242
1066 181
671 127
1456 431
462 241
1385 255
4377 524
4321 405
4312 344
2178 322
2256 354
3894 251
2391 17
1322 520
2200 325
3068 250
1960 439
1965 292
2356 461
3837 232
690 389
1740 222
1744 102
2215 145
2252 318
136 155
4237 452
3463 513
1542 241
520 40
3364 528
3873 169
1719 58
1148 172
992 430
3051 42
1447 456
2900 117
1718 321
4409 167
230 60
235 290
4257 385
2834 548
1367 219
3624 513
137 14
232 169
508 284
1663 457
2893 337
1734 436
1499 409
1354 297
510 487
3929 11
1828 86
283 213
2719 260
1845 381
205 137
330 143
1253 90
3096 535
3888 393
754 439
738 297
3294 540
1866 183
1110 362
276 26
4015 278
3142 37
4423 557
3498 73
2065 276
2800 262
905 273
834 335
3159 549
3588 42
2226 549
1207 252
4384 205
2231 487
1233 255
2999 543
2454 491
1097 437
4140 373
2070 296
1611 81
3685 203
2850 560
1803 157
2349 428
2129 475
2192 542
664 191
1465 416
3035 415
1505 467
729 76
2571 111
4490 134
258 185
2239 323
3767 79
3819 29
1280 545
814 474
3412 235
2224 86
2613 110
700 124
48 255
220 235
1866 479
3011 57
2154 63
1797 546
1753 494
4462 244
2870 254
475 476
2816 539
172 236
3351 259
4021 76
1511 498
157 330
2498 254
4062 25
4291 112
2533 472
198 153
1637 205
1402 185
129 228
4108 459
1016 373
1166 177
1718 380
1503 258
3938 301
1374 552
3652 421
133 81
3807 431
1818 521
3949 420
3096 200
1982 166
2564 235
1744 76
3905 91
3970 504
1228 516
3175 490
4202 459
2949 306
3540 528
4228 179
4267 388
538 241
2402 43
3440 287
1873 118
1595 501
2269 135
1388 453
2379 137
3554 227
557 228
1226 77
1862 90
3808 318
4262 35
1877 370
3890 543
1407 231
3112 163
155 353
3978 519
1502 543
2778 239
2958 275
3864 494
3870 60
860 536
357 174
1826 76
1637 561
1041 240
2294 461
194 440
3822 415
2167 283
748 438
4270 377
2297 115
817 287
3501 141
2083 36
1259 456
2566 168
1434 118
2619 275
1769 30
2933 94
4045 286
205 482
2222 148
1328 221
1235 396
2135 441
923 20
508 468
1658 198
3699 431
4253 172
1763 69
1197 61
296 243
2185 156
3657 105
2648 501
1694 142
3746 427
1968 454
2406 407
0 530
2788 245
3652 267
3373 2
1545 199
1 416
3128 219
2667 334
3103 16
4397 287
1040 231
658 145
1767 70
1841 491
3448 421
3445 96
2082 118
4049 362
1243 125
1878 118
1939 555
3217 312
379 395
3626 478
1983 184
1002 325
3914 69
43 376
3508 32
1141 73
2315 420
2010 489
3826 510
1287 98
3606 510
2705 38
1163 402
2709 335
3057 501
3590 128
3840 135
3519 8
1753 125
3894 552
2041 300
959 85
625 149
4365 479
2310 168
644 189
2178 135
1696 174
3514 2
707 304
3878 139
2970 240
3907 526
3308 547
226 410
2580 71
448 270
2078 499
4430 441
2890 282
2345 478
3188 316
335 418
3527 513
4350 52
3398 67
2331 226
2725 283
2438 405
506 214
1748 79
95 40
3467 450
110 58
3779 38
2249 521
3104 152
125 92
3683 383
1805 446
1509 361
3761 277
4044 464
447 78
2720 530
1975 92
1824 96
3342 272
358 476
2311 34
646 116
840 488
1689 543
1972 203
2762 247
1898 1
3039 285
202 550
2077 199
3581 28
2592 98
3946 30
1749 179
3114 485
4498 475
3530 67
4422 234
4218 310
3177 23
1624 512
920 281
2705 506
3616 288
349 364
3741 505
3600 250
1746 509
2047 89
2693 15
2534 307
1033 244
2552 35
2999 376
2837 75
343 14
2547 368
1040 43
3294 6
1228 142
2983 417
2134 52
1311 147
3088 562
2878 363
2979 78
2030 542
3046 230
2648 272
3987 550
213 391
1203 108
3955 304
4417 517
593 149
2201 185
387 131
941 77
4228 81
3317 256
3895 315
718 450
2679 256
2132 436
3237 141
4025 292
1762 79
860 332
4310 240
2655 132
226 399
4464 270
3024 192
4067 83
3290 399
3889 39
1590 471
1087 135
4078 455
3503 259
122 256
1774 337
917 286
3032 456
1400 132
3725 346
1861 474
3581 161
3924 396
1887 415
2014 246
2657 250
1201 127
1181 60
1006 68
1532 199
3741 414
4066 518
1450 532
3644 367
1372 396
2257 129
3479 380
4220 172
4162 227
1984 511
2919 242
2974 445
2815 270
510 389
1323 220
105 121
908 228
3807 495
3106 70
1073 430
520 375
3796 21
3693 525
577 261
316 470
155 170
2477 288
2396 238
387 391
2978 204
3236 459
330 435
3035 343
283 346
2716 554
3353 246
773 387
4406 301
3918 66
2779 326
103 328
3022 330
3484 372
985 155
970 151
411 0
2186 444
3220 401
818 4
3118 446
3075 167
2440 256
2951 559
1689 458
4197 5
1302 137
1331 467
3606 539
2100 190
4098 452
3829 239
3135 486
1234 501
3188 174
2353 370
973 483
1702 485
170 348
3199 306
2283 443
2527 525
2439 341
2147 2
4440 139
3202 321
2522 38
2917 244
2960 139
1735 416
1755 32
1455 252
2929 247
1258 391
1972 51
2784 438
523 52
279 208
1531 149
352 76
962 317
736 342
1913 497
4174 111
2306 409
2070 409
139 381
623 332
4206 134
1929 255
957 24
1096 60
704 426
2218 138
127 129
3231 351
3404 386
164 518
876 464
3674 376
2115 3
932 99
3414 489
4163 409
908 520
1855 72
2246 512
3049 193
102 554
524 374
2996 412
1492 75
2769 500
1564 491
4015 242
2348 23
3363 458
1571 149
3795 290
220 73
1083 241
2130 244
2911 423
2784 252
4071 261
1153 248
735 428
483 155
4348 242
340 554
3410 313
2610 144
3062 427
1201 465
1453 269
1160 286
3923 421
1689 475
1680 196
754 446
3732 559
3765 307
4378 379
3642 193
547 50
4118 471
279 123
4022 10
4197 190
1928 273
112 212
3410 159
3372 146
651 373
3953 147
2365 485
600 512
2320 439
740 284
3937 299
44 366
2206 61
1408 303
2870 280
3464 464
1344 355
1489 166
4004 543
878 376
2603 167
429 505
3238 21
4336 258
1082 66
4190 17
2846 417
1141 122
3995 223
4352 189
3943 312
4050 187
1617 410
3512 490
1465 395
1269 177
887 307
2864 175
1822 228
389 513
2041 73
1777 290
893 383
1455 543
92 361
622 283
3119 460
459 7
4222 189
3361 397
3077 430
2921 525
209 386
923 180
4126 204
584 385
1456 107
1902 75
1915 3
3193 168
326 93
645 152
1936 56
3626 263
653 362
4209 298
2632 367
4129 118
1770 187
3048 485
3085 200
2264 481
3672 332
330 286
1390 161
936 0
997 164
3369 42
1110 24
3849 15
3158 506
157 98
3988 311
1451 8
4416 243
782 234
1687 239
387 155
4368 406
1236 305
2788 447
4362 258
3587 324
3525 523
3162 532
751 237
3477 289
3426 193
2191 8
1815 95
3800 460
4192 473
221 321
2465 375
1754 389
1912 164
1600 305
2618 187
2248 113
3995 479
330 90
844 527
4204 71
441 371
4168 91
2523 121
190 253
1312 426
2321 555
2218 412
2056 143
963 497
4191 5
3282 533
1505 34
4239 433
1544 90
1135 31
3062 83
21 133
2094 127
3665 295
2823 326
3455 233
4287 543
2208 259
4089 204
4110 100
2910 208
3897 333
3147 28
2442 438
556 224
636 300
3610 364
4088 283
3996 333
1660 532
3508 537
2934 299
2099 129
3602 374
2840 439
3604 270
3654 191
1435 354
2964 77
3444 331
1019 122
3127 261
2335 251
1442 264
1484 493
457 352
468 243
1622 31
483 548
4040 405
2429 147
3330 338
3966 295
2932 34
729 556
1875 164
3899 517
467 366
3599 225
392 28
2267 414
607 514
2197 323
788 149
3859 415
3733 107
3547 403
2866 514
3794 412
4102 459
4174 316
1689 109
2101 173
305 198
1463 464
867 399
2818 507
116 532
1932 438
1935 99
448 139
1551 335
1756 153
2015 508
2166 0
4127 453
4210 365
3055 338
2901 375
2571 289
3747 267
3728 472
46 380
1105 530
1147 487
2538 11
1523 545
3436 329
2405 237
1729 167
64 168
2352 317
156 192
3751 171
1811 289
3545 533
56 481
3721 423
1027 310
3995 82
2902 185
1970 550
3430 253
3304 35
260 213
176 500
844 450
693 351
3741 328
482 244
532 181
569 18
331 334
3072 461
827 325
112 158
1361 398
3113 384
1607 513
4314 489
3767 345
303 544
1018 298
1716 357
682 164
446 146
2107 143
1545 120
4258 111
2227 437
0 494
3799 211
4325 263
2662 324
417 5
2433 72
3266 266
3406 251
2116 11
3855 35
178 269
2449 118
1347 151
3968 266
2478 190
4361 268
1127 262
4494 416
307 76
542 183
1511 498
1680 416
2637 374
3436 85
3186 249
2054 119
2123 213
2950 361
2241 172
2673 187
866 36
4248 477
3732 268
223 244
111 167
1989 26
3322 432
3350 419
4350 463
3648 490
4407 328
1742 320
2446 244
3026 516
3216 129
1497 451
4372 68
3211 278
975 156
1566 536
3910 184
141 10
2990 258
1576 500
1133 183
2468 205
1274 83
109 406
3841 96
3660 434
1001 377
1036 390
1327 420
2374 11
4324 365
2971 258
4076 444
3765 195
2791 542
4331 194
1267 480
2016 245
2239 298
2184 542
4013 517
4254 172
2984 353
1283 468
4209 497
3194 465
2551 503
800 299
1298 141
4036 541
2605 311
3545 160
386 508
4055 326
3663 517
1789 538
2327 527
3719 41
2016 301
3690 424
2092 123
889 421
2658 440
2849 527
3138 198
2438 111
194 306
197 495
3792 102
1117 220
3709 537
2266 537
3667 207
2380 427
3227 377
4254 16
727 163
571 554
2338 26
2489 114
2555 492
2373 58
992 120
282 290
3792 58
3323 118
1088 86
2164 13
959 376
2817 296
3617 362
3392 176
340 491
3805 414
1533 81
4038 49
2334 0
1995 195
1165 435
4452 307
121 59
3188 529
1841 117
3917 209
4286 387
1712 129
3811 558
4327 432
2685 360
3312 197
459 333
742 68
2120 547
763 54
3768 199
2281 148
2336 226
1130 470
3423 44
1090 511
4213 546
624 239
698 421
4009 543
3144 409
2213 133
3661 337
1085 428
2738 129
447 217
2736 558
4092 114
2304 85
588 63
2221 177
3004 373
1250 353
539 530
4335 497
1081 488
3940 437
120 111
1376 448
4043 385
1744 317
2736 42
2952 321
88 557
1604 384
3819 164
4360 466
3741 536
2987 31
1899 26
2225 34
4313 311
507 513
2872 192
426 365
3917 325
2900 126
465 385
3888 178
2678 434
302 331
2126 103
3669 382
766 475
3568 147
3104 195
1207 293
1636 297
3804 544
2614 493
811 87
251 44
3183 535
2553 437
1250 44
2096 386
2805 355
3967 137
893 502
2348 261
4168 1
130 384
1295 128
1400 75
4264 450
2568 43
1700 433
845 264
2029 255
1384 298
1468 81
1934 451
1269 52
3598 510
2228 559
3161 351
3751 516
3350 404
51 263
949 89
1289 127
1603 250
2577 67
126 126
1213 363
375 388
983 281
3795 518
3973 99
2154 354
2546 407
1257 539
1597 435
1666 83
2666 384
2285 192
1485 471
3651 473
3560 460
962 8
268 178
1377 561
4022 222
3977 430
549 560
486 288
792 10
2877 536
3729 487
3618 204
3216 31
2197 28
1941 24
3009 67
3206 199
3792 79
3225 255
1869 391
942 205
2062 103
591 61
3650 232
4069 30
4443 50
3829 181
840 456
4265 323
2958 192
2316 116
3580 365
2594 488
2591 292
3454 23
2921 165
2461 219
1179 295
2170 345
2880 74
3310 321
1580 409
1621 436
2821 327
2692 457
925 137
2686 253
689 178
454 350
118 91
2628 487
1635 414
1510 297
4096 421
2057 72
2214 207
314 530
1146 396
2314 75
40 101
1030 340
1460 23
383 48
773 199
1740 356
2896 13
2994 222
1434 524
4067 498
210 555
2354 169
943 346
545 523
82 453
3070 509
582 414
2657 291
2905 76
51 211
96 21
460 146
3006 366
916 301
2347 152
1722 285
2240 487
4388 52
3018 193
3283 68
2904 293
4168 27
1558 348
4315 31
379 52
3590 325
1889 349
4474 114
388 449
623 57
1966 237
354 96
4251 192
1325 111
3609 117
4140 359
2964 160
62 121
2422 433
1296 370
3738 33
2909 336
3125 14
3860 10
1138 172
2964 500
1367 551
3756 148
3216 97
3401 227
1485 290
1676 548
1765 536
4408 125
3942 423
1288 502
2559 399
938 119
2989 355
2839 407
2434 265
514 3
1860 76
3471 524
2656 300
1575 297
4446 182
3557 319
1087 172
1869 257
656 535
2680 233
3621 298
1256 535
2993 313
2171 542
2913 425
1149 449
498 225
504 288
1431 275
2883 273
1255 457
3142 230
1566 557
966 407
82 203
304 485
2724 175
1045 182
2572 370
3464 207
1836 448
2474 189
3912 138
1011 494
562 202
2801 452
3234 350
3902 560
4100 480
2426 436
73 229
2574 486
4237 343
249 446
2891 201
1037 22
3281 256
3235 214
3372 15
719 525
2109 197
94 314
2191 319
1897 457
169 422
4030 337
3129 239
3468 193
2001 43
489 247
995 498
4299 137
2622 159
3153 22
1738 90
1818 196
1154 507
706 377
636 516
1091 471
2338 307
3997 149
4178 152
1531 485
3558 265
2337 12
814 243
32 430
4172 153
1934 401
4128 209
1239 102
1672 0
3374 117
2573 407
276 164
3573 210
4148 158
2591 508
4295 32
1822 126
1535 498
1271 469
3837 248
905 344
509 486
3236 285
3206 117
1086 97
2901 250
411 175
4020 60
1513 432
3663 454
4186 122
2103 473
260 124
1545 455
2333 420
3695 73
3703 52
1697 422
3533 57
3159 43
84 30
644 562
3959 216
3465 147
3594 368
1706 67
130 174
10 233
2185 196
1723 503
3309 144
1614 372
2218 522
1203 345
2972 70
1994 20
2271 242
1978 321
3425 252
436 393
3565 241
4235 474
2534 388
3811 354
142 278
2523 159
3510 362
3802 390
3532 188
3379 140
3082 40
2828 185
2257 83
3330 149
4115 264
2402 532
1349 81
2366 328
2497 94
1544 307
160 197
4190 359
3777 379
986 269
3388 63
2858 437
4342 218
283 43
1172 51
3878 496
1822 12
1288 120
1950 390
1161 20
686 126
3438 214
2993 423
426 99
2672 291
3040 187
2107 438
2540 57
225 329
2823 351
1539 287
2410 492
3423 417
2573 539
1815 347
2820 141
495 210
2766 488
3042 272
621 204
88 126
588 160
4302 4
3414 218
1863 268
259 480
2243 530
4393 439
1390 265
59 480
1245 361
3289 171
2221 299
686 54
2508 2
3903 441
2042 435
45 373
2424 405
2400 462
1314 337
618 293
3442 505
4359 20
2580 7
434 168
3849 104
3602 8
1233 137
1908 447
852 162
1260 69
498 50
2000 45
4172 27
1731 154
2883 380
4251 537
3505 269
1509 554
4086 355
1321 13
2388 153
4298 332
1266 510
3088 5
1292 245
1271 21
1397 135
1153 402
1917 525
2975 205
1292 376
1225 429
287 62
463 250
1672 433
3863 193
2545 191
1618 396
2881 202
3084 464
4145 377
3038 527
340 450
2866 407
3733 205
1352 58
1035 401
4119 551
3865 189
27 312
3842 283
2505 474
1121 196
2721 516
81 196
896 489
1791 83
986 185
4438 191
2737 155
3032 18
210 371
1441 274
561 106
3101 480
428 138
4115 33
1047 473
3448 159
2157 351
620 505
3876 416
2397 181
4144 320
4264 44
1324 17
3073 542
708 274
2745 263
2868 328
4344 549
2037 164
1737 482
830 498
2695 415
501 304
74 121
3708 506
2026 315
1851 544
4109 205
1742 415
2717 282
759 274
3035 537
4496 548
4467 370
464 79
4141 97
1492 107
3318 299
444 183
1306 262
3967 470
954 245
83 82
3106 126
4059 561
1759 79
4472 83
1607 282
3644 135
2148 287
4429 121
487 1
3747 484
306 303
1511 312
321 148
1369 134
2160 126
786 105
1234 141
895 252
642 177
1206 80
4460 237
2430 149
15 501
4108 3
2406 180
623 473
694 398
3900 443
607 497
4019 108
452 210
1402 421
2177 444
786 173
2217 273
2748 29
2902 37
2609 473
3497 163
2322 454
2054 299
674 413
3147 13
1011 106
4170 191
1579 465
3688 304
3135 172
3822 10
2685 101
3700 423
2166 426
3062 119
1650 393
4490 251
2271 261
1549 251
1787 160
4201 253
4413 211
1751 462
2458 481
2583 238
2201 297
3824 53
377 546
3570 110
4312 105
86 209
3748 480
399 32
3375 435
576 140
2925 451
1071 428
4023 339
1596 292
1367 178
1767 26
854 124
1064 483
1373 403
3396 317
1434 320
2893 15
973 137
561 216
1518 161
4306 367
766 520
4390 193
1563 60
1977 212
3956 81
3861 271
3888 78
2583 381
1061 491
3320 483
3136 170
913 529
3024 153
3426 158
1192 69
1086 275
904 2
1845 378
3562 102
4175 372
2354 282
2137 396
1101 212
2237 353
1242 429
3557 416
4105 251
1332 33
3893 557
1746 339
997 167
808 530
3384 549
2428 481
669 75
3336 383
188 287
1242 183
4234 409
362 409
1535 42
4119 366
481 215
741 36
2417 25
3855 335
36 457
2617 246
3097 63
585 142
3217 357
2127 182
4015 560
1296 268
2552 352
590 210
917 318
1174 45
1707 10
913 132
2388 90
2485 169
632 346
283 542
2053 321
2579 495
3875 42
782 26
2406 536
3308 344
1311 248
3516 430
5 487
3701 366
705 373
3954 264
3817 222
3167 204
3010 72
4127 342
1108 58
1734 319
1202 471
3508 444
1765 294
2728 173
2617 364
2629 92
2544 104
89 404
3038 421
2939 267
1551 69
2677 397
3589 304
1270 313
2012 448
3448 130
229 136
3276 472
3231 18
2396 265
2479 222
3009 266
1846 402
1250 375
3415 521
3909 308
1354 206
870 276
1955 296
3398 265
4085 369
1062 31
1483 539
2233 89
1894 315
3473 496
3355 363
2893 405
4163 469
2405 153
871 445
1857 233
3580 147
4307 354
879 343
3695 22
244 237
2049 115
985 562
2731 202
1267 264
1874 1
1644 223
1290 453
4337 167
3901 536
4445 527
2950 251
1842 214
230 31
3901 293
1354 84
1415 287
2416 419
548 189
3784 108
3874 260
2152 27
1209 298
107 540
3411 12
3293 82
795 140
1388 168
3922 116
1529 137
3888 332
1059 561
176 349
2759 485
2000 108
1270 381
2941 472
4494 350
1022 197
2602 246
1284 553
247 285
1868 74
492 454
4088 518
4379 361
2201 76
126 85
3279 19
2316 379
2652 171
76 20
842 347
454 304
3440 361
610 448
4077 476
2132 414
1681 526
1002 356
2709 325
1008 184
938 273
1921 197
568 292
629 65
4332 371
611 255
3682 311
2724 415
163 420
2968 27
1796 523
3029 63
4084 266
2716 267
4216 390
3436 48
3308 557
662 445
1809 490
2621 327
4250 377
2444 90
1899 381
2921 410
4441 120
3691 131
3337 235
3941 169
1154 494
3125 56
2636 428
446 464
4373 439
2872 293
315 234
3641 408
2169 431
1997 559
1617 211
2737 204
1459 126
3232 7
4326 222
3866 169
2740 39
741 386
177 94
3514 316
129 479
2313 472
3863 34
2553 32
518 417
3325 50
1142 59
3561 557
1563 68
3917 385
1495 7
1061 521
4291 467
1055 105
3359 134
2221 148
1357 428
4496 376
2358 32
297 197
3250 0
713 465
4110 535
2496 101
1307 418
1369 283
1594 478
1048 470
2011 298
1420 438
2747 176
3223 328
891 516
2836 239
810 443
3321 435
2346 544
3739 35
1175 212
1240 291
2858 65
2946 34
1407 360
3910 517
3862 429
2481 310
3420 368
3721 158
1893 169
2958 383
2572 408
2050 547
1678 458
434 357
363 52
2606 542
112 89
2618 414
1194 497
150 335
1418 318
2979 440
3462 534
792 406
1526 51
2183 260
3724 261
3147 243
2772 424
1242 302
2988 277
862 36
2262 411
2896 503
1386 300
460 147
234 497
1621 245
218 42
2449 229
2075 221
661 429
1430 430
794 395
794 107
451 188
3487 167
3361 104
974 526
403 103
709 316
236 555
626 158
4110 178
3478 438
3303 556
3859 346
439 183
3175 23
2952 99
3368 123
3061 331
2624 15
876 118
1210 226
433 490
448 334
1197 139
3375 284
3279 558
3830 555
3652 252
2866 176
866 429
1310 75
3030 368
1680 528
3976 230
1616 365
1163 235
2017 8
2287 218
4294 87
4021 556
1293 332
1560 248
3672 159
2695 25
4438 459
4041 70
1898 520
1933 399
910 369
442 561
1924 559
734 443
2564 57
1485 88
72 208
1142 250
1159 149
4455 156
1917 299
1432 535
1732 349
3944 168
375 176
4189 69
3502 51
1406 495
2803 55
66 210
4024 228
51 260
4269 426
1112 491
3947 558
4263 492
2891 232
930 33
1810 455
1361 534
3196 525
383 545
4248 315
3388 429
1021 66
2855 156
4111 274
3235 392
1053 398
2191 556
3433 50
1693 292
3373 125
1503 259
4053 105
2908 369
4327 263
4299 324
3046 511
1692 133
1281 160
2893 372
226 365
714 396
4203 149
1852 473
316 414
1201 185
3171 140
1815 160
2436 185
1437 105
944 315
1185 424
212 343
1013 276
3279 171
2308 225
1558 100
2740 386
500 149
2815 65
1608 30
407 46
3548 543
2143 337
2 301
2348 78
3717 165
3094 167
114 517
3134 507
2559 428
1735 149
4496 173
2244 477
3320 300
873 20
2509 187
784 530
3950 513
2742 406
2140 129
2431 451
1795 340
2228 380
1056 439
3747 558
1052 96
698 93
3180 434
518 71
3962 140
1223 355
579 172
3193 260
540 368
275 264
23 41
60 442
416 550
2257 462
1533 509
311 329
1234 56
1671 40
4238 443
3204 151
1009 466
3119 310
4066 24
776 348
876 302
2057 311
3043 39
362 240
4322 313
40 416
3782 164
2212 248
4243 366
1703 260
648 513
57 206
3099 407
900 450
2624 234
3691 433
1713 290
3902 283
739 279
1437 504
2193 204
4124 316
2656 263
911 19
3825 134
1579 474
1114 400
2439 273
803 231
968 488
4150 558
1300 255
3939 85
3301 273
4373 393
708 468
4100 63
1033 121
1435 26
660 416
1950 235
2037 419
2395 116
606 106
3684 490
3401 82
293 246
4489 166
197 290
1717 456
1483 320
3999 453
921 60
4375 25
2048 171
3600 439
809 402
1255 424
680 449
2330 448
140 424
3645 489
1552 533
1765 397
389 329
1892 401
3997 228
878 153
2358 231
3391 348
1869 518
3573 346
3834 59
606 129
1888 202
2921 197
4344 429
8 449
2573 21
2975 342
741 431
1910 554
484 301
1077 354
3273 249
3306 250
3623 112
1724 436
2038 306
2642 201
4147 73
3939 384
2469 9
2707 67
1953 81
856 392
492 507
3238 381
4164 284
749 465
3296 252
2634 140
4113 478
3844 221
411 533
2724 9
992 299
1340 171
1243 288
2343 524
1636 514
2252 538
1931 82
276 78
446 140
2339 124
2992 396
1255 477
3082 333
3525 114
114 466
2413 283
2178 302
3751 25
4300 200
913 204
2955 333
499 107
1728 11
2946 389
2069 25
54 223
1415 445
395 144
4383 264
3685 185
483 6
1910 520
2115 360
3673 156
625 354
2780 372
1084 215
496 49
3595 459
50 333
142 404
2105 281
4482 149
3948 37
3513 140
934 204
1067 179
580 172
3433 22
2801 99
3028 60
2499 164
60 215
2694 303
1398 551
4175 551
1391 25
199 539
3649 424
3219 548
3479 224
503 415
3864 313
4031 483
3154 401
397 212
